%!PS-Adobe-2.0 EPSF-2.0
%%BoundingBox:  0 0 567 546
%%Title: plots/activityClasses.eps: cd1
%%Creator: ROOT Version 5.34/36
%%CreationDate: Thu Feb 23 12:48:36 2017
%%EndComments
%%BeginProlog
80 dict begin
/s {stroke} def /l {lineto} def /m {moveto} def /t {translate} def
/r {rotate} def /rl {roll}  def /R {repeat} def
/d {rlineto} def /rm {rmoveto} def /gr {grestore} def /f {eofill} def
/c {setrgbcolor} def /black {0 setgray} def /sd {setdash} def
/cl {closepath} def /sf {scalefont setfont} def /lw {setlinewidth} def
/box {m dup 0 exch d exch 0 d 0 exch neg d cl} def
/NC{systemdict begin initclip end}def/C{NC box clip newpath}def
/bl {box s} def /bf {gsave box gsave f grestore 1 lw [] 0 sd s grestore} def /Y { 0 exch d} def /X { 0 d} def 
/K {{pop pop 0 moveto} exch kshow} bind def
/ita {/ang 15 def gsave [1 0 ang dup sin exch cos div 1 0 0] concat} def 
/mp {newpath /y exch def /x exch def} def
/side {[w .77 mul w .23 mul] .385 w mul sd w 0 l currentpoint t -144 r} def
/mr {mp x y w2 0 360 arc} def /m24 {mr s} def /m20 {mr f} def
/mb {mp x y w2 add m w2 neg 0 d 0 w neg d w 0 d 0 w d cl} def
/mt {mp x y w2 add m w2 neg w neg d w 0 d cl} def
/m21 {mb f} def /m25 {mb s} def /m22 {mt f} def /m26{mt s} def
/m23 {mp x y w2 sub m w2 w d w neg 0 d cl f} def
/m27 {mp x y w2 add m w3 neg w2 neg d w3 w2 neg d w3 w2 d cl s} def
/m28 {mp x w2 sub y w2 sub w3 add m w3 0 d  0 w3 neg d w3 0 d 0 w3 d w3 0 d  0 w3 d w3 neg 0 d 0 w3 d w3 neg 0 d 0 w3 neg d w3 neg 0 d cl s } def
/m29 {mp gsave x w2 sub y w2 add w3 sub m currentpoint t 4 {side} repeat cl fill gr} def
/m30 {mp gsave x w2 sub y w2 add w3 sub m currentpoint t 4 {side} repeat cl s gr} def
/m31 {mp x y w2 sub m 0 w d x w2 sub y m w 0 d x w2 sub y w2 add m w w neg d x w2 sub y w2 sub m w w d s} def
/m32 {mp x y w2 sub m w2 w d w neg 0 d cl s} def
/m33 {mp x y w2 add m w3 neg w2 neg d w3 w2 neg d w3 w2 d cl f} def
/m34 {mp x w2 sub y w2 sub w3 add m w3 0 d  0 w3 neg d w3 0 d 0 w3 d w3 0 d  0 w3 d w3 neg 0 d 0 w3 d w3 neg 0 d 0 w3 neg d w3 neg 0 d cl f } def
/m2 {mp x y w2 sub m 0 w d x w2 sub y m w 0 d s} def
/m5 {mp x w2 sub y w2 sub m w w d x w2 sub y w2 add m w w neg d s} def
/reEncode {exch findfont dup length dict begin {1 index /FID eq  {pop pop} {def} ifelse } forall /Encoding exch def currentdict end dup /FontName get exch definefont pop } def [/Times-Bold /Times-Italic /Times-BoldItalic /Helvetica /Helvetica-Oblique
 /Helvetica-Bold /Helvetica-BoldOblique /Courier /Courier-Oblique /Courier-Bold /Courier-BoldOblique /Times-Roman /AvantGarde-Book /AvantGarde-BookOblique /AvantGarde-Demi /AvantGarde-DemiOblique /Bookman-Demi /Bookman-DemiItalic /Bookman-Light
 /Bookman-LightItalic /Helvetica-Narrow /Helvetica-Narrow-Bold /Helvetica-Narrow-BoldOblique /Helvetica-Narrow-Oblique /NewCenturySchlbk-Roman /NewCenturySchlbk-Bold /NewCenturySchlbk-BoldItalic /NewCenturySchlbk-Italic /Palatino-Bold
 /Palatino-BoldItalic /Palatino-Italic /Palatino-Roman ] {ISOLatin1Encoding reEncode } forall
%%EndProlog
%%BeginSetup
%%EndSetup
newpath  gsave  .25 .25 scale  gsave  0 0 t 1 0 0 c[  ] 0 sd 3 lw 1 1 1 c 2268 2184 0 0 bf black 1 1 1 c 1814 1748 227 218 bf black 1814 1748 227 218 bl 6 lw 0 0 1 c black 3 lw 0 0 1 c 227 218 m 129 X 1580 Y 26 X -24 Y 26 X -29 Y 26 X -32 Y 26 X -29
 Y 26 X -1466 Y 1555 X f 6 lw black 0 0 1 c black 227 218 m 129 X 1580 Y 26 X -24 Y 26 X -29 Y 26 X -32 Y 26 X -29 Y 26 X -1466 Y 1555 X s 3 lw 227 218 m 1814 X s
 gsave  2268 2184 0 0 C 929.081 68.259 t 0 r /Helvetica findfont 83.4277 sf 0 0 m (VELO track multiplicity per PV) show NC gr  227 271 m -53 Y s 279 245 m -27 Y s 330 245 m -27 Y s 382 245 m -27 Y s 434 245 m -27 Y s 486 271 m -53 Y s 538 245 m -27 Y
 s 590 245 m -27 Y s 641 245 m -27 Y s 693 245 m -27 Y s 745 271 m -53 Y s 797 245 m -27 Y s 849 245 m -27 Y s 901 245 m -27 Y s 952 245 m -27 Y s 1004 271 m -53 Y s 1056 245 m -27 Y s 1108 245 m -27 Y s 1160 245 m -27 Y s 1212 245 m -27 Y s 1263 271
 m -53 Y s 1315 245 m -27 Y s 1367 245 m -27 Y s 1419 245 m -27 Y s 1471 245 m -27 Y s 1523 271 m -53 Y s 1574 245 m -27 Y s 1626 245 m -27 Y s 1678 245 m -27 Y s 1730 245 m -27 Y s 1782 271 m -53 Y s 1834 245 m -27 Y s 1885 245 m -27 Y s 1937 245 m
 -27 Y s 1989 245 m -27 Y s 2041 271 m -53 Y s
 gsave  2268 2184 0 0 C 204.777 155.479 t 0 r /Helvetica findfont 60.6747 sf 0 0 m (0) show NC gr 
 gsave  2268 2184 0 0 C 451.268 155.479 t 0 r /Helvetica findfont 60.6747 sf 0 0 m (10) show NC gr 
 gsave  2268 2184 0 0 C 709.135 155.479 t 0 r /Helvetica findfont 60.6747 sf 0 0 m (20) show NC gr 
 gsave  2268 2184 0 0 C 967.003 155.479 t 0 r /Helvetica findfont 60.6747 sf 0 0 m (30) show NC gr 
 gsave  2268 2184 0 0 C 1228.66 155.479 t 0 r /Helvetica findfont 60.6747 sf 0 0 m (40) show NC gr 
 gsave  2268 2184 0 0 C 1486.53 155.479 t 0 r /Helvetica findfont 60.6747 sf 0 0 m (50) show NC gr 
 gsave  2268 2184 0 0 C 1744.4 155.479 t 0 r /Helvetica findfont 60.6747 sf 0 0 m (60) show NC gr 
 gsave  2268 2184 0 0 C 2006.06 155.479 t 0 r /Helvetica findfont 60.6747 sf 0 0 m (70) show NC gr  227 218 m 1748 Y s
 gsave  2268 2184 0 0 C 79.6355 1403.1 t 90 r /Helvetica findfont 83.4277 sf 0 0 m (Number of PVs) show NC gr  254 276 m -27 X s 254 320 m -27 X s 254 356 m -27 X s 254 387 m -27 X s 254 413 m -27 X s 254 436 m -27 X s 281 457 m -54 X s
 gsave  2268 2184 0 0 C 209.991 431.584 t 0 r  -67 0 t /Helvetica findfont 60.6747 sf 0 0 m (10) show NC gr  254 595 m -27 X s 254 675 m -27 X s 254 732 m -27 X s 254 777 m -27 X s 254 813 m -27 X s 254 844 m -27 X s 254 870 m -27 X s 254 893 m -27 X
 s 281 914 m -54 X s
 gsave  2268 2184 0 0 C 185.816 917.705 t 0 r /Helvetica findfont 41.7138 sf 0 0 m (2) show NC gr 
 gsave  2268 2184 0 0 C 121.349 887.367 t 0 r /Helvetica findfont 60.6747 sf 0 0 m (10) show NC gr  254 1052 m -27 X s 254 1132 m -27 X s 254 1189 m -27 X s 254 1234 m -27 X s 254 1270 m -27 X s 254 1301 m -27 X s 254 1327 m -27 X s 254 1350 m -27 X
 s 281 1371 m -54 X s
 gsave  2268 2184 0 0 C 185.816 1376.56 t 0 r /Helvetica findfont 41.7138 sf 0 0 m (3) show NC gr 
 gsave  2268 2184 0 0 C 121.349 1342.43 t 0 r /Helvetica findfont 60.6747 sf 0 0 m (10) show NC gr  254 1509 m -27 X s 254 1589 m -27 X s 254 1646 m -27 X s 254 1691 m -27 X s 254 1727 m -27 X s 254 1758 m -27 X s 254 1784 m -27 X s 254 1807 m -27 X
 s 281 1828 m -54 X s
 gsave  2268 2184 0 0 C 185.816 1831.62 t 0 r /Helvetica findfont 41.7138 sf 0 0 m (4) show NC gr 
 gsave  2268 2184 0 0 C 121.349 1801.28 t 0 r /Helvetica findfont 60.6747 sf 0 0 m (10) show NC gr  254 1966 m -27 X s 1 0 0 c 6 lw black 3 lw 1 0 0 c 227 218 m 259 X 1443 Y 26 X -35 Y 26 X -17 Y 26 X -27 Y 26 X -27 Y 26 X -25 Y 25 X -9 Y 26 X -33 Y
 26 X -18 Y 26 X -18 Y 26 X -1234 Y 1296 X f 6 lw 227 218 m 259 X 1443 Y 26 X -35 Y 26 X -17 Y 26 X -27 Y 26 X -27 Y 26 X -25 Y 25 X -9 Y 26 X -33 Y 26 X -18 Y 26 X -18 Y 26 X -1234 Y 1296 X s 1 0.8 0 c black 3 lw 1 0.8 0 c 227 218 m 518 X 1201 Y 26
 X -22 Y 26 X -31 Y 26 X -21 Y 26 X -29 Y 26 X -28 Y 26 X -16 Y 26 X -36 Y 25 X -6 Y 26 X -36 Y 26 X -26 Y 26 X -62 Y 26 X 3 Y 26 X -42 Y 26 X -28 Y 26 X -26 Y 26 X -39 Y 26 X 10 Y 26 X -60 Y 26 X -42 Y 25 X -72 Y 26 X 16 Y 26 X -49 Y 26 X 29 Y 26 X
 -94 Y 26 X -30 Y 26 X -43 Y 26 X -54 Y 26 X -22 Y 26 X -25 Y 26 X -81 Y 26 X 37 Y 25 X -276 Y 26 X 169 Y 26 X -67 Y 26 X -102 Y 104 X 138 Y 26 X -138 Y 259 X f 6 lw 227 218 m 518 X 1201 Y 26 X -22 Y 26 X -31 Y 26 X -21 Y 26 X -29 Y 26 X -28 Y 26 X
 -16 Y 26 X -36 Y 25 X -6 Y 26 X -36 Y 26 X -26 Y 26 X -62 Y 26 X 3 Y 26 X -42 Y 26 X -28 Y 26 X -26 Y 26 X -39 Y 26 X 10 Y 26 X -60 Y 26 X -42 Y 25 X -72 Y 26 X 16 Y 26 X -49 Y 26 X 29 Y 26 X -94 Y 26 X -30 Y 26 X -43 Y 26 X -54 Y 26 X -22 Y 26 X
 -25 Y 26 X -81 Y 26 X 37 Y 25 X -276 Y 26 X 169 Y 26 X -67 Y 26 X -102 Y 104 X 138 Y 26 X -138 Y 259 X s black 1 1 1 c black 227 218 m 129 X 1580 Y 26 X -24 Y 26 X -29 Y 26 X -32 Y 26 X -29 Y 26 X -23 Y 26 X -35 Y 26 X -17 Y 26 X -27 Y 26 X -27 Y 26
 X -25 Y 25 X -9 Y 26 X -33 Y 26 X -18 Y 26 X -18 Y 26 X -33 Y 26 X -22 Y 26 X -31 Y 26 X -21 Y 26 X -29 Y 26 X -28 Y 26 X -16 Y 26 X -36 Y 25 X -6 Y 26 X -36 Y 26 X -26 Y 26 X -62 Y 26 X 3 Y 26 X -42 Y 26 X -28 Y 26 X -26 Y 26 X -39 Y 26 X 10 Y 26 X
 -60 Y 26 X -42 Y 25 X -72 Y 26 X 16 Y 26 X -49 Y 26 X 29 Y 26 X -94 Y 26 X -30 Y 26 X -43 Y 26 X -54 Y 26 X -22 Y 26 X -25 Y 26 X -81 Y 26 X 37 Y 25 X -276 Y 26 X 169 Y 26 X -67 Y 26 X -102 Y 104 X 138 Y 26 X -138 Y 259 X s 3 lw 227 218 m 1814 X s
 227 271 m -53 Y s 279 245 m -27 Y s 330 245 m -27 Y s 382 245 m -27 Y s 434 245 m -27 Y s 486 271 m -53 Y s 538 245 m -27 Y s 590 245 m -27 Y s 641 245 m -27 Y s 693 245 m -27 Y s 745 271 m -53 Y s 797 245 m -27 Y s 849 245 m -27 Y s 901 245 m -27 Y
 s 952 245 m -27 Y s 1004 271 m -53 Y s 1056 245 m -27 Y s 1108 245 m -27 Y s 1160 245 m -27 Y s 1212 245 m -27 Y s 1263 271 m -53 Y s 1315 245 m -27 Y s 1367 245 m -27 Y s 1419 245 m -27 Y s 1471 245 m -27 Y s 1523 271 m -53 Y s 1574 245 m -27 Y s
 1626 245 m -27 Y s 1678 245 m -27 Y s 1730 245 m -27 Y s 1782 271 m -53 Y s 1834 245 m -27 Y s 1885 245 m -27 Y s 1937 245 m -27 Y s 1989 245 m -27 Y s 2041 271 m -53 Y s 227 218 m 1748 Y s 254 276 m -27 X s 254 320 m -27 X s 254 356 m -27 X s 254
 387 m -27 X s 254 413 m -27 X s 254 436 m -27 X s 281 457 m -54 X s 254 595 m -27 X s 254 675 m -27 X s 254 732 m -27 X s 254 777 m -27 X s 254 813 m -27 X s 254 844 m -27 X s 254 870 m -27 X s 254 893 m -27 X s 281 914 m -54 X s 254 1052 m -27 X s
 254 1132 m -27 X s 254 1189 m -27 X s 254 1234 m -27 X s 254 1270 m -27 X s 254 1301 m -27 X s 254 1327 m -27 X s 254 1350 m -27 X s 281 1371 m -54 X s 254 1509 m -27 X s 254 1589 m -27 X s 254 1646 m -27 X s 254 1691 m -27 X s 254 1727 m -27 X s
 254 1758 m -27 X s 254 1784 m -27 X s 254 1807 m -27 X s 281 1828 m -54 X s 254 1966 m -27 X s
 gsave  2268 2184 0 0 C 1312.09 1858.16 t 0 r /Helvetica-Bold findfont 72.0512 sf 0 0 m (Activity class) show NC gr  0 0 1 c black 0 0 1 c
 gsave  2268 2184 0 0 C 1448.61 1748.19 t 0 r /Helvetica-Bold findfont 72.0512 sf 0 0 m (52\255100% \(low\)) show NC gr  1 0 0 c black 1 0 0 c
 gsave  2268 2184 0 0 C 1448.61 1638.22 t 0 r /Helvetica-Bold findfont 72.0512 sf 0 0 m (15\25552% \(medium\)) show NC gr  1 0.8 0 c black 1 0.8 0 c
 gsave  2268 2184 0 0 C 1448.61 1532.04 t 0 r /Helvetica-Bold findfont 72.0512 sf 0 0 m (0\25515% \(high\)) show NC gr  black 0 0 1 c 114 66 1315 1747 bf black 1315 1747 m 114 X s 1429 1747 m 66 Y s 1429 1813 m -114 X s 1315 1813 m -66 Y s 1 0 0 c
 114 66 1315 1638 bf black 1315 1638 m 114 X s 1429 1638 m 66 Y s 1429 1704 m -114 X s 1315 1704 m -66 Y s 1 0.8 0 c 114 66 1315 1529 bf black 1315 1529 m 114 X s 1429 1529 m 66 Y s 1429 1595 m -114 X s 1315 1595 m -66 Y s
 gr  gr showpage
end
%%EOF
