%!PS-Adobe-2.0 EPSF-2.0
%%BoundingBox:  0 0 567 558
%%Title: ./h1022_compare.eps: h1022_compare
%%Creator: ROOT Version 6.06/02
%%CreationDate: Thu Feb  2 16:00:37 2017
%%DocumentNeededResources: ProcSet (FontSetInit)
%%EndComments
%%BeginProlog
80 dict begin
/s {stroke} def /l {lineto} def /m {moveto} def /t {translate} def
/r {rotate} def /rl {roll}  def /R {repeat} def
/d {rlineto} def /rm {rmoveto} def /gr {grestore} def /f {eofill} def
/c {setrgbcolor} def /black {0 setgray} def /sd {setdash} def
/cl {closepath} def /sf {scalefont setfont} def /lw {setlinewidth} def
/box {m dup 0 exch d exch 0 d 0 exch neg d cl} def
/NC{systemdict begin initclip end}def/C{NC box clip newpath}def
/bl {box s} def /bf {gsave box gsave f grestore 1 lw [] 0 sd s grestore} def /Y { 0 exch d} def /X { 0 d} def 
/K {{pop pop 0 moveto} exch kshow} bind def
/ita {/ang 15 def gsave [1 0 ang dup sin exch cos div 1 0 0] concat} def 
/mp {newpath /y exch def /x exch def} def
/side {[w .77 mul w .23 mul] .385 w mul sd w 0 l currentpoint t -144 r} def
/mr {mp x y w2 0 360 arc} def /m24 {mr s} def /m20 {mr f} def
/mb {mp x y w2 add m w2 neg 0 d 0 w neg d w 0 d 0 w d cl} def
/mt {mp x y w2 add m w2 neg w neg d w 0 d cl} def
/m21 {mb f} def /m25 {mb s} def /m22 {mt f} def /m26{mt s} def
/m23 {mp x y w2 sub m w2 w d w neg 0 d cl f} def
/m27 {mp x y w2 add m w3 neg w2 neg d w3 w2 neg d w3 w2 d cl s} def
/m28 {mp x w2 sub y w2 sub w3 add m w3 0 d  0 w3 neg d w3 0 d 0 w3 d w3 0 d  0 w3 d w3 neg 0 d 0 w3 d w3 neg 0 d 0 w3 neg d w3 neg 0 d cl s } def
/m29 {mp gsave x w2 sub y w2 add w3 sub m currentpoint t 4 {side} repeat cl fill gr} def
/m30 {mp gsave x w2 sub y w2 add w3 sub m currentpoint t 4 {side} repeat cl s gr} def
/m31 {mp x y w2 sub m 0 w d x w2 sub y m w 0 d x w2 sub y w2 add m w w neg d x w2 sub y w2 sub m w w d s} def
/m32 {mp x y w2 sub m w2 w d w neg 0 d cl s} def
/m33 {mp x y w2 add m w3 neg w2 neg d w3 w2 neg d w3 w2 d cl f} def
/m34 {mp x w2 sub y w2 sub w3 add m w3 0 d  0 w3 neg d w3 0 d 0 w3 d w3 0 d  0 w3 d w3 neg 0 d 0 w3 d w3 neg 0 d 0 w3 neg d w3 neg 0 d cl f } def
/m2 {mp x y w2 sub m 0 w d x w2 sub y m w 0 d s} def
/m5 {mp x w2 sub y w2 sub m w w d x w2 sub y w2 add m w w neg d s} def
%%IncludeResource: ProcSet (FontSetInit)
%%IncludeResource: font Times-Roman
%%IncludeResource: font Times-Italic
%%IncludeResource: font Times-Bold
%%IncludeResource: font Times-BoldItalic
%%IncludeResource: font Helvetica
%%IncludeResource: font Helvetica-Oblique
%%IncludeResource: font Helvetica-Bold
%%IncludeResource: font Helvetica-BoldOblique
%%IncludeResource: font Courier
%%IncludeResource: font Courier-Oblique
%%IncludeResource: font Courier-Bold
%%IncludeResource: font Courier-BoldOblique
%%IncludeResource: font Symbol
%%IncludeResource: font ZapfDingbats
/reEncode {exch findfont dup length dict begin {1 index /FID eq  {pop pop} {def} ifelse } forall /Encoding exch def currentdict end dup /FontName get exch definefont pop } def [/Times-Bold /Times-Italic /Times-BoldItalic /Helvetica /Helvetica-Oblique
 /Helvetica-Bold /Helvetica-BoldOblique /Courier /Courier-Oblique /Courier-Bold /Courier-BoldOblique /Times-Roman /AvantGarde-Book /AvantGarde-BookOblique /AvantGarde-Demi /AvantGarde-DemiOblique /Bookman-Demi /Bookman-DemiItalic /Bookman-Light
 /Bookman-LightItalic /Helvetica-Narrow /Helvetica-Narrow-Bold /Helvetica-Narrow-BoldOblique /Helvetica-Narrow-Oblique /NewCenturySchlbk-Roman /NewCenturySchlbk-Bold /NewCenturySchlbk-BoldItalic /NewCenturySchlbk-Italic /Palatino-Bold
 /Palatino-BoldItalic /Palatino-Italic /Palatino-Roman ] {ISOLatin1Encoding reEncode } forall
%%EndProlog
%%BeginSetup
%%EndSetup
newpath  gsave  .25 .25 scale  gsave  0 0 t black[  ] 0 sd 6 lw 1 1 1 c 2268 2234 0 0 bf black 3 lw 1 1 1 c 1882 1966 340 223 bf black 1882 1966 340 223 bl 1 1 1 c 1882 1966 340 223 bf black 1882 1966 340 223 bl 0 0 1 c 6 lw 1 1 1 c 0 0 1 c 3 lw /w
 19 def /w2 {w 2 div} def /w3 {w 3 div} def 350 223 m21 6 lw 3 lw 368 226 m21 6 lw 3 lw 387 231 m21 6 lw 3 lw 406 242 m21 6 lw 3 lw 425 258 m21 6 lw 3 lw 444 276 m21 6 lw 3 lw 463 300 m21 6 lw 3 lw 481 327 m21 6 lw 3 lw 500 359 m21 6 lw 3 lw 519 392
 m21 6 lw 3 lw 538 432 m21 6 lw 3 lw 557 488 m21 6 lw 3 lw 575 577 m21 6 lw 3 lw 594 686 m21 6 lw 3 lw 613 761 m21 6 lw 3 lw 632 815 m21 6 lw 3 lw 651 866 m21 6 lw 3 lw 670 922 m21 6 lw 3 lw 688 974 m21 6 lw 3 lw 707 1029 m21 6 lw 3 lw 726 1083 m21 6
 lw 3 lw 745 1137 m21 6 lw 3 lw 764 1191 m21 6 lw 3 lw 782 1246 m21 6 lw 3 lw 801 1299 m21 6 lw 3 lw 820 1353 m21 6 lw 3 lw 839 1408 m21 6 lw 3 lw 858 1460 m21 6 lw 3 lw 877 1513 m21 6 lw 3 lw 895 1564 m21 6 lw 3 lw 914 1616 m21 6 lw 3 lw 933 1664
 m21 6 lw 3 lw 952 1708 m21 6 lw 3 lw 971 1750 m21 6 lw 3 lw 990 1789 m21 6 lw 3 lw 1008 1825 m21 6 lw 3 lw 1027 1859 m21 6 lw 3 lw 1046 1889 m21 6 lw 3 lw 1065 1919 m21 6 lw 3 lw 1084 1946 m21 6 lw 3 lw 1102 1971 m21 6 lw 3 lw 1121 1996 m21 6 lw 3
 lw 1140 2020 m21 6 lw 3 lw 1159 2040 m21 6 lw 3 lw 1178 2057 m21 6 lw 3 lw 1197 2069 m21 6 lw 3 lw 1215 2082 m21 6 lw 3 lw 1234 2092 m21 6 lw 3 lw 1253 2092 m21 6 lw 3 lw 1272 2094 m21 6 lw 3 lw 1291 2087 m21 6 lw 3 lw 1309 2081 m21 6 lw 3 lw 1328
 2070 m21 6 lw 3 lw 1347 2058 m21 6 lw 3 lw 1366 2046 m21 6 lw 3 lw 1385 2038 m21 6 lw 3 lw 1404 2026 m21 6 lw 3 lw 1422 2011 m21 6 lw 3 lw 1441 1989 m21 6 lw 3 lw 1460 1964 m21 6 lw 3 lw 1479 1934 m21 6 lw 3 lw 1498 1906 m21 6 lw 3 lw 1517 1888 m21
 6 lw 3 lw 1535 1883 m21 6 lw 3 lw 1554 1869 m21 6 lw 3 lw 1573 1837 m21 6 lw 3 lw 1592 1790 m21 6 lw 3 lw 1611 1731 m21 6 lw 3 lw 1629 1663 m21 6 lw 3 lw 1648 1557 m21 6 lw 3 lw 1667 1380 m21 6 lw 3 lw 1686 1250 m21 6 lw 3 lw 1705 1350 m21 6 lw 3 lw
 1724 1499 m21 6 lw 3 lw 1742 1539 m21 6 lw 3 lw 1761 1517 m21 6 lw 3 lw 1780 1479 m21 6 lw 3 lw 1799 1438 m21 6 lw 3 lw 1818 1395 m21 6 lw 3 lw 1837 1346 m21 6 lw 3 lw 1855 1281 m21 6 lw 3 lw 1874 1198 m21 6 lw 3 lw 1893 1096 m21 6 lw 3 lw 1912 996
 m21 6 lw 3 lw 1931 906 m21 6 lw 3 lw 1949 809 m21 6 lw 3 lw 1968 687 m21 6 lw 3 lw 1987 571 m21 6 lw 3 lw 2006 463 m21 6 lw 3 lw 2025 373 m21 6 lw 3 lw 2044 306 m21 6 lw 3 lw 2062 261 m21 6 lw 3 lw 2081 237 m21 6 lw 3 lw 2100 227 m21 6 lw 3 lw 2119
 224 m21 6 lw 3 lw 2138 223 m21 6 lw 3 lw 2156 223 m21 6 lw 3 lw 2175 223 m21 6 lw 3 lw 2194 223 m21 6 lw black 340 223 m 1882 X s
 gsave  2268 2234 0 0 C 2176.78 68.202 t 0 r /Symbol findfont 83.8316 sf 0 0 m (h) show NC gr  340 279 m -56 Y s 387 251 m -28 Y s 434 251 m -28 Y s 481 251 m -28 Y s 528 251 m -28 Y s 575 279 m -56 Y s 622 251 m -28 Y s 670 251 m -28 Y s 717 251 m
 -28 Y s 764 251 m -28 Y s 811 279 m -56 Y s 858 251 m -28 Y s 905 251 m -28 Y s 952 251 m -28 Y s 999 251 m -28 Y s 1046 279 m -56 Y s 1093 251 m -28 Y s 1140 251 m -28 Y s 1187 251 m -28 Y s 1234 251 m -28 Y s 1281 279 m -56 Y s 1328 251 m -28 Y s
 1375 251 m -28 Y s 1422 251 m -28 Y s 1469 251 m -28 Y s 1517 279 m -56 Y s 1564 251 m -28 Y s 1611 251 m -28 Y s 1658 251 m -28 Y s 1705 251 m -28 Y s 1752 279 m -56 Y s 1799 251 m -28 Y s 1846 251 m -28 Y s 1893 251 m -28 Y s 1940 251 m -28 Y s
 1987 279 m -56 Y s 2034 251 m -28 Y s 2081 251 m -28 Y s 2128 251 m -28 Y s 2175 251 m -28 Y s 2222 279 m -56 Y s
 gsave  2268 2234 0 0 C 296.963 159.138 t 0 r /Helvetica findfont 62.5185 sf 0 0 m (1.5) show NC gr 
 gsave  2268 2234 0 0 C 556.983 159.138 t 0 r /Helvetica findfont 62.5185 sf 0 0 m (2) show NC gr 
 gsave  2268 2234 0 0 C 767.273 159.138 t 0 r /Helvetica findfont 62.5185 sf 0 0 m (2.5) show NC gr 
 gsave  2268 2234 0 0 C 1028.71 159.138 t 0 r /Helvetica findfont 62.5185 sf 0 0 m (3) show NC gr 
 gsave  2268 2234 0 0 C 1237.58 159.138 t 0 r /Helvetica findfont 62.5185 sf 0 0 m (3.5) show NC gr 
 gsave  2268 2234 0 0 C 1499.02 159.138 t 0 r /Helvetica findfont 62.5185 sf 0 0 m (4) show NC gr 
 gsave  2268 2234 0 0 C 1707.89 159.138 t 0 r /Helvetica findfont 62.5185 sf 0 0 m (4.5) show NC gr 
 gsave  2268 2234 0 0 C 1969.33 159.138 t 0 r /Helvetica findfont 62.5185 sf 0 0 m (5) show NC gr 
 gsave  2268 2234 0 0 C 2179.62 159.138 t 0 r /Helvetica findfont 62.5185 sf 0 0 m (5.5) show NC gr  340 223 m 1966 Y s
 gsave  2268 2234 0 0 C 152.034 2144.1 t 90 r /Symbol findfont 83.8316 sf 0 0 m (h) show NC gr 
 gsave  2268 2234 0 0 C 150.613 1970.75 t 90 r /Helvetica findfont 83.8316 sf 0 0 m (dN/d) show NC gr  400 223 m -60 X s 370 275 m -30 X s 370 327 m -30 X s 370 378 m -30 X s 400 430 m -60 X s 370 481 m -30 X s 370 533 m -30 X s 370 584 m -30 X s 400
 636 m -60 X s 370 688 m -30 X s 370 739 m -30 X s 370 791 m -30 X s 400 842 m -60 X s 370 894 m -30 X s 370 945 m -30 X s 370 997 m -30 X s 400 1049 m -60 X s 370 1100 m -30 X s 370 1152 m -30 X s 370 1203 m -30 X s 400 1255 m -60 X s 370 1307 m -30
 X s 370 1358 m -30 X s 370 1410 m -30 X s 400 1461 m -60 X s 370 1513 m -30 X s 370 1564 m -30 X s 370 1616 m -30 X s 400 1668 m -60 X s 370 1719 m -30 X s 370 1771 m -30 X s 370 1822 m -30 X s 400 1874 m -60 X s 370 1925 m -30 X s 370 1977 m -30 X
 s 370 2029 m -30 X s 400 2080 m -60 X s 400 2080 m -60 X s 370 2132 m -30 X s 370 2183 m -30 X s
 gsave  2268 2234 0 0 C 295.542 201.764 t 0 r /Helvetica findfont 62.5185 sf 0 0 m (0) show NC gr 
 gsave  2268 2234 0 0 C 173.347 407.791 t 0 r /Helvetica findfont 62.5185 sf 0 0 m (0.002) show NC gr 
 gsave  2268 2234 0 0 C 173.347 613.818 t 0 r /Helvetica findfont 62.5185 sf 0 0 m (0.004) show NC gr 
 gsave  2268 2234 0 0 C 173.347 819.845 t 0 r /Helvetica findfont 62.5185 sf 0 0 m (0.006) show NC gr 
 gsave  2268 2234 0 0 C 173.347 1027.29 t 0 r /Helvetica findfont 62.5185 sf 0 0 m (0.008) show NC gr 
 gsave  2268 2234 0 0 C 218.815 1233.32 t 0 r /Helvetica findfont 62.5185 sf 0 0 m (0.01) show NC gr 
 gsave  2268 2234 0 0 C 173.347 1439.35 t 0 r /Helvetica findfont 62.5185 sf 0 0 m (0.012) show NC gr 
 gsave  2268 2234 0 0 C 173.347 1645.37 t 0 r /Helvetica findfont 62.5185 sf 0 0 m (0.014) show NC gr 
 gsave  2268 2234 0 0 C 173.347 1851.4 t 0 r /Helvetica findfont 62.5185 sf 0 0 m (0.016) show NC gr 
 gsave  2268 2234 0 0 C 173.347 2058.85 t 0 r /Helvetica findfont 62.5185 sf 0 0 m (0.018) show NC gr  1 0 0 c 1 1 1 c 1 0 0 c 3 lw 350 223 m21 6 lw 3 lw 368 224 m21 6 lw 3 lw 387 226 m21 6 lw 3 lw 406 233 m21 6 lw 3 lw 425 243 m21 6 lw 3 lw 444 256
 m21 6 lw 3 lw 463 274 m21 6 lw 3 lw 481 299 m21 6 lw 3 lw 500 333 m21 6 lw 3 lw 519 373 m21 6 lw 3 lw 538 415 m21 6 lw 3 lw 557 471 m21 6 lw 3 lw 575 547 m21 6 lw 3 lw 594 651 m21 6 lw 3 lw 613 746 m21 6 lw 3 lw 632 814 m21 6 lw 3 lw 651 872 m21 6
 lw 3 lw 670 929 m21 6 lw 3 lw 688 984 m21 6 lw 3 lw 707 1035 m21 6 lw 3 lw 726 1091 m21 6 lw 3 lw 745 1143 m21 6 lw 3 lw 764 1197 m21 6 lw 3 lw 782 1250 m21 6 lw 3 lw 801 1304 m21 6 lw 3 lw 820 1356 m21 6 lw 3 lw 839 1408 m21 6 lw 3 lw 858 1458 m21
 6 lw 3 lw 877 1506 m21 6 lw 3 lw 895 1553 m21 6 lw 3 lw 914 1598 m21 6 lw 3 lw 933 1641 m21 6 lw 3 lw 952 1681 m21 6 lw 3 lw 971 1718 m21 6 lw 3 lw 990 1753 m21 6 lw 3 lw 1008 1785 m21 6 lw 3 lw 1027 1816 m21 6 lw 3 lw 1046 1853 m21 6 lw 3 lw 1065
 1888 m21 6 lw 3 lw 1084 1923 m21 6 lw 3 lw 1102 1955 m21 6 lw 3 lw 1121 1991 m21 6 lw 3 lw 1140 2026 m21 6 lw 3 lw 1159 2050 m21 6 lw 3 lw 1178 2067 m21 6 lw 3 lw 1197 2084 m21 6 lw 3 lw 1215 2100 m21 6 lw 3 lw 1234 2109 m21 6 lw 3 lw 1253 2110 m21
 6 lw 3 lw 1272 2111 m21 6 lw 3 lw 1291 2105 m21 6 lw 3 lw 1309 2093 m21 6 lw 3 lw 1328 2083 m21 6 lw 3 lw 1347 2069 m21 6 lw 3 lw 1366 2050 m21 6 lw 3 lw 1385 2034 m21 6 lw 3 lw 1404 2021 m21 6 lw 3 lw 1422 2006 m21 6 lw 3 lw 1441 1984 m21 6 lw 3 lw
 1460 1952 m21 6 lw 3 lw 1479 1920 m21 6 lw 3 lw 1498 1886 m21 6 lw 3 lw 1517 1869 m21 6 lw 3 lw 1535 1884 m21 6 lw 3 lw 1554 1899 m21 6 lw 3 lw 1573 1883 m21 6 lw 3 lw 1592 1834 m21 6 lw 3 lw 1611 1761 m21 6 lw 3 lw 1629 1678 m21 6 lw 3 lw 1648 1568
 m21 6 lw 3 lw 1667 1375 m21 6 lw 3 lw 1686 1183 m21 6 lw 3 lw 1705 1251 m21 6 lw 3 lw 1724 1448 m21 6 lw 3 lw 1742 1543 m21 6 lw 3 lw 1761 1542 m21 6 lw 3 lw 1780 1513 m21 6 lw 3 lw 1799 1470 m21 6 lw 3 lw 1818 1418 m21 6 lw 3 lw 1837 1362 m21 6 lw
 3 lw 1855 1295 m21 6 lw 3 lw 1874 1212 m21 6 lw 3 lw 1893 1125 m21 6 lw 3 lw 1912 1050 m21 6 lw 3 lw 1931 983 m21 6 lw 3 lw 1949 888 m21 6 lw 3 lw 1968 760 m21 6 lw 3 lw 1987 617 m21 6 lw 3 lw 2006 482 m21 6 lw 3 lw 2025 373 m21 6 lw 3 lw 2044 297
 m21 6 lw 3 lw 2062 254 m21 6 lw 3 lw 2081 233 m21 6 lw 3 lw 2100 226 m21 6 lw 3 lw 2119 224 m21 6 lw 3 lw 2138 224 m21 6 lw 3 lw 2156 224 m21 6 lw 3 lw 2175 224 m21 6 lw 3 lw 2194 224 m21 6 lw 3 lw 2213 224 m21 6 lw black 1 1 1 c 340 224 1814 558 bf
 black 1814 558 m 340 X s 2154 558 m 224 Y s 2154 782 m -340 X s 1814 782 m -224 Y s
 gsave  2268 2234 0 0 C 1898.29 706.175 t 0 r /Helvetica findfont 51.1515 sf 0 0 m (PYTHIA) show NC gr  0 0 1 c 1857 692 m 67 Y s 3 lw 1857 726 m21 6 lw black
 gsave  2268 2234 0 0 C 1898.29 595.347 t 0 r /Helvetica findfont 51.1515 sf 0 0 m (data) show NC gr  1 0 0 c 1857 581 m 67 Y s 3 lw 1857 614 m21 6 lw
 gr  gr showpage
end
%%EOF
