%!PS-Adobe-2.0 EPSF-2.0
%%BoundingBox:  0 0 567 558
%%Title: ./h1018_compare.eps: h1018_compare
%%Creator: ROOT Version 6.06/02
%%CreationDate: Thu Feb  2 16:00:37 2017
%%DocumentNeededResources: ProcSet (FontSetInit)
%%EndComments
%%BeginProlog
80 dict begin
/s {stroke} def /l {lineto} def /m {moveto} def /t {translate} def
/r {rotate} def /rl {roll}  def /R {repeat} def
/d {rlineto} def /rm {rmoveto} def /gr {grestore} def /f {eofill} def
/c {setrgbcolor} def /black {0 setgray} def /sd {setdash} def
/cl {closepath} def /sf {scalefont setfont} def /lw {setlinewidth} def
/box {m dup 0 exch d exch 0 d 0 exch neg d cl} def
/NC{systemdict begin initclip end}def/C{NC box clip newpath}def
/bl {box s} def /bf {gsave box gsave f grestore 1 lw [] 0 sd s grestore} def /Y { 0 exch d} def /X { 0 d} def 
/K {{pop pop 0 moveto} exch kshow} bind def
/ita {/ang 15 def gsave [1 0 ang dup sin exch cos div 1 0 0] concat} def 
/mp {newpath /y exch def /x exch def} def
/side {[w .77 mul w .23 mul] .385 w mul sd w 0 l currentpoint t -144 r} def
/mr {mp x y w2 0 360 arc} def /m24 {mr s} def /m20 {mr f} def
/mb {mp x y w2 add m w2 neg 0 d 0 w neg d w 0 d 0 w d cl} def
/mt {mp x y w2 add m w2 neg w neg d w 0 d cl} def
/m21 {mb f} def /m25 {mb s} def /m22 {mt f} def /m26{mt s} def
/m23 {mp x y w2 sub m w2 w d w neg 0 d cl f} def
/m27 {mp x y w2 add m w3 neg w2 neg d w3 w2 neg d w3 w2 d cl s} def
/m28 {mp x w2 sub y w2 sub w3 add m w3 0 d  0 w3 neg d w3 0 d 0 w3 d w3 0 d  0 w3 d w3 neg 0 d 0 w3 d w3 neg 0 d 0 w3 neg d w3 neg 0 d cl s } def
/m29 {mp gsave x w2 sub y w2 add w3 sub m currentpoint t 4 {side} repeat cl fill gr} def
/m30 {mp gsave x w2 sub y w2 add w3 sub m currentpoint t 4 {side} repeat cl s gr} def
/m31 {mp x y w2 sub m 0 w d x w2 sub y m w 0 d x w2 sub y w2 add m w w neg d x w2 sub y w2 sub m w w d s} def
/m32 {mp x y w2 sub m w2 w d w neg 0 d cl s} def
/m33 {mp x y w2 add m w3 neg w2 neg d w3 w2 neg d w3 w2 d cl f} def
/m34 {mp x w2 sub y w2 sub w3 add m w3 0 d  0 w3 neg d w3 0 d 0 w3 d w3 0 d  0 w3 d w3 neg 0 d 0 w3 d w3 neg 0 d 0 w3 neg d w3 neg 0 d cl f } def
/m2 {mp x y w2 sub m 0 w d x w2 sub y m w 0 d s} def
/m5 {mp x w2 sub y w2 sub m w w d x w2 sub y w2 add m w w neg d s} def
%%IncludeResource: ProcSet (FontSetInit)
%%IncludeResource: font Times-Roman
%%IncludeResource: font Times-Italic
%%IncludeResource: font Times-Bold
%%IncludeResource: font Times-BoldItalic
%%IncludeResource: font Helvetica
%%IncludeResource: font Helvetica-Oblique
%%IncludeResource: font Helvetica-Bold
%%IncludeResource: font Helvetica-BoldOblique
%%IncludeResource: font Courier
%%IncludeResource: font Courier-Oblique
%%IncludeResource: font Courier-Bold
%%IncludeResource: font Courier-BoldOblique
%%IncludeResource: font Symbol
%%IncludeResource: font ZapfDingbats
/reEncode {exch findfont dup length dict begin {1 index /FID eq  {pop pop} {def} ifelse } forall /Encoding exch def currentdict end dup /FontName get exch definefont pop } def [/Times-Bold /Times-Italic /Times-BoldItalic /Helvetica /Helvetica-Oblique
 /Helvetica-Bold /Helvetica-BoldOblique /Courier /Courier-Oblique /Courier-Bold /Courier-BoldOblique /Times-Roman /AvantGarde-Book /AvantGarde-BookOblique /AvantGarde-Demi /AvantGarde-DemiOblique /Bookman-Demi /Bookman-DemiItalic /Bookman-Light
 /Bookman-LightItalic /Helvetica-Narrow /Helvetica-Narrow-Bold /Helvetica-Narrow-BoldOblique /Helvetica-Narrow-Oblique /NewCenturySchlbk-Roman /NewCenturySchlbk-Bold /NewCenturySchlbk-BoldItalic /NewCenturySchlbk-Italic /Palatino-Bold
 /Palatino-BoldItalic /Palatino-Italic /Palatino-Roman ] {ISOLatin1Encoding reEncode } forall
%%EndProlog
%%BeginSetup
%%EndSetup
newpath  gsave  .25 .25 scale  gsave  0 0 t black[  ] 0 sd 6 lw 1 1 1 c 2268 2234 0 0 bf black 3 lw 1 1 1 c 1882 1966 340 223 bf black 1882 1966 340 223 bl 1 1 1 c 1882 1966 340 223 bf black 1882 1966 340 223 bl 0 0 1 c 6 lw 1 1 1 c 0 0 1 c 3 lw /w
 19 def /w2 {w 2 div} def /w3 {w 3 div} def 406 611 m21 6 lw 3 lw 425 1146 m21 6 lw 3 lw 444 1508 m21 6 lw 3 lw 463 1779 m21 6 lw 3 lw 481 1967 m21 6 lw 3 lw 500 2072 m21 6 lw 3 lw 519 2095 m21 6 lw 3 lw 538 2071 m21 6 lw 3 lw 557 2010 m21 6 lw 3 lw
 575 1940 m21 6 lw 3 lw 594 1861 m21 6 lw 3 lw 613 1773 m21 6 lw 3 lw 632 1690 m21 6 lw 3 lw 651 1595 m21 6 lw 3 lw 670 1510 m21 6 lw 3 lw 688 1423 m21 6 lw 3 lw 707 1338 m21 6 lw 3 lw 726 1255 m21 6 lw 3 lw 745 1175 m21 6 lw 3 lw 764 1100 m21 6 lw 3
 lw 782 1030 m21 6 lw 3 lw 801 965 m21 6 lw 3 lw 820 906 m21 6 lw 3 lw 839 852 m21 6 lw 3 lw 858 802 m21 6 lw 3 lw 877 757 m21 6 lw 3 lw 895 716 m21 6 lw 3 lw 914 679 m21 6 lw 3 lw 933 645 m21 6 lw 3 lw 952 613 m21 6 lw 3 lw 971 585 m21 6 lw 3 lw 990
 560 m21 6 lw 3 lw 1008 536 m21 6 lw 3 lw 1027 514 m21 6 lw 3 lw 1046 495 m21 6 lw 3 lw 1065 476 m21 6 lw 3 lw 1084 459 m21 6 lw 3 lw 1102 444 m21 6 lw 3 lw 1121 429 m21 6 lw 3 lw 1140 416 m21 6 lw 3 lw 1159 404 m21 6 lw 3 lw 1178 393 m21 6 lw 3 lw
 1197 382 m21 6 lw 3 lw 1215 372 m21 6 lw 3 lw 1234 363 m21 6 lw 3 lw 1253 355 m21 6 lw 3 lw 1272 347 m21 6 lw 3 lw 1291 340 m21 6 lw 3 lw 1309 333 m21 6 lw 3 lw 1328 327 m21 6 lw 3 lw 1347 321 m21 6 lw 3 lw 1366 315 m21 6 lw 3 lw 1385 311 m21 6 lw 3
 lw 1404 306 m21 6 lw 3 lw 1422 301 m21 6 lw 3 lw 1441 297 m21 6 lw 3 lw 1460 293 m21 6 lw 3 lw 1479 289 m21 6 lw 3 lw 1498 286 m21 6 lw 3 lw 1517 282 m21 6 lw 3 lw 1535 279 m21 6 lw 3 lw 1554 276 m21 6 lw 3 lw 1573 273 m21 6 lw 3 lw 1592 271 m21 6
 lw 3 lw 1611 268 m21 6 lw 3 lw 1629 266 m21 6 lw 3 lw 1648 264 m21 6 lw 3 lw 1667 262 m21 6 lw 3 lw 1686 260 m21 6 lw 3 lw 1705 258 m21 6 lw 3 lw 1724 257 m21 6 lw 3 lw 1742 255 m21 6 lw 3 lw 1761 254 m21 6 lw 3 lw 1780 252 m21 6 lw 3 lw 1799 251
 m21 6 lw 3 lw 1818 249 m21 6 lw 3 lw 1837 248 m21 6 lw 3 lw 1855 247 m21 6 lw 3 lw 1874 246 m21 6 lw 3 lw 1893 245 m21 6 lw 3 lw 1912 244 m21 6 lw 3 lw 1931 243 m21 6 lw 3 lw 1949 242 m21 6 lw 3 lw 1968 241 m21 6 lw 3 lw 1987 241 m21 6 lw 3 lw 2006
 240 m21 6 lw 3 lw 2025 239 m21 6 lw 3 lw 2044 238 m21 6 lw 3 lw 2062 238 m21 6 lw 3 lw 2081 237 m21 6 lw 3 lw 2100 237 m21 6 lw 3 lw 2119 236 m21 6 lw 3 lw 2138 235 m21 6 lw 3 lw 2156 235 m21 6 lw 3 lw 2175 234 m21 6 lw 3 lw 2194 234 m21 6 lw 3 lw
 2213 234 m21 6 lw black 340 223 m 1882 X s
 gsave  2268 2234 0 0 C 1989.22 71.0437 t 0 r /Helvetica findfont 83.8316 sf 0 0 m ( [GeV]) show NC gr 
 gsave  2268 2234 0 0 C 1955.12 26.9966 t 0 r /Helvetica findfont 55.4141 sf 0 0 m (T) show NC gr 
 gsave  2268 2234 0 0 C 1909.66 71.0437 t 0 r /Helvetica findfont 83.8316 sf 0 0 m (p) show NC gr  340 279 m -56 Y s 403 251 m -28 Y s 466 251 m -28 Y s 528 251 m -28 Y s 591 251 m -28 Y s 654 279 m -56 Y s 717 251 m -28 Y s 779 251 m -28 Y s 842 251
 m -28 Y s 905 251 m -28 Y s 968 279 m -56 Y s 1030 251 m -28 Y s 1093 251 m -28 Y s 1156 251 m -28 Y s 1219 251 m -28 Y s 1281 279 m -56 Y s 1344 251 m -28 Y s 1407 251 m -28 Y s 1469 251 m -28 Y s 1532 251 m -28 Y s 1595 279 m -56 Y s 1658 251 m
 -28 Y s 1720 251 m -28 Y s 1783 251 m -28 Y s 1846 251 m -28 Y s 1909 279 m -56 Y s 1971 251 m -28 Y s 2034 251 m -28 Y s 2097 251 m -28 Y s 2160 251 m -28 Y s 2222 279 m -56 Y s 2222 279 m -56 Y s
 gsave  2268 2234 0 0 C 322.539 159.138 t 0 r /Helvetica findfont 62.5185 sf 0 0 m (0) show NC gr 
 gsave  2268 2234 0 0 C 610.976 159.138 t 0 r /Helvetica findfont 62.5185 sf 0 0 m (0.5) show NC gr 
 gsave  2268 2234 0 0 C 954.828 159.138 t 0 r /Helvetica findfont 62.5185 sf 0 0 m (1) show NC gr 
 gsave  2268 2234 0 0 C 1237.58 159.138 t 0 r /Helvetica findfont 62.5185 sf 0 0 m (1.5) show NC gr 
 gsave  2268 2234 0 0 C 1577.17 159.138 t 0 r /Helvetica findfont 62.5185 sf 0 0 m (2) show NC gr 
 gsave  2268 2234 0 0 C 1865.61 159.138 t 0 r /Helvetica findfont 62.5185 sf 0 0 m (2.5) show NC gr 
 gsave  2268 2234 0 0 C 2205.2 159.138 t 0 r /Helvetica findfont 62.5185 sf 0 0 m (3) show NC gr  340 223 m 1966 Y s
 gsave  2268 2234 0 0 C 183.293 2155.47 t 90 r /Helvetica findfont 55.4141 sf 0 0 m (T) show NC gr 
 gsave  2268 2234 0 0 C 139.246 1933.81 t 90 r /Helvetica findfont 83.8316 sf 0 0 m (dN/dp) show NC gr  400 223 m -60 X s 370 302 m -30 X s 370 381 m -30 X s 370 459 m -30 X s 370 538 m -30 X s 400 616 m -60 X s 370 695 m -30 X s 370 773 m -30 X s
 370 852 m -30 X s 370 930 m -30 X s 400 1009 m -60 X s 370 1088 m -30 X s 370 1166 m -30 X s 370 1245 m -30 X s 370 1323 m -30 X s 400 1402 m -60 X s 370 1480 m -30 X s 370 1559 m -30 X s 370 1638 m -30 X s 370 1716 m -30 X s 400 1795 m -60 X s 370
 1873 m -30 X s 370 1952 m -30 X s 370 2030 m -30 X s 370 2109 m -30 X s 400 2188 m -60 X s 400 2188 m -60 X s
 gsave  2268 2234 0 0 C 295.542 201.764 t 0 r /Helvetica findfont 62.5185 sf 0 0 m (0) show NC gr 
 gsave  2268 2234 0 0 C 218.815 593.926 t 0 r /Helvetica findfont 62.5185 sf 0 0 m (0.01) show NC gr 
 gsave  2268 2234 0 0 C 208.869 987.508 t 0 r /Helvetica findfont 62.5185 sf 0 0 m (0.02) show NC gr 
 gsave  2268 2234 0 0 C 208.869 1379.67 t 0 r /Helvetica findfont 62.5185 sf 0 0 m (0.03) show NC gr 
 gsave  2268 2234 0 0 C 207.448 1773.25 t 0 r /Helvetica findfont 62.5185 sf 0 0 m (0.04) show NC gr 
 gsave  2268 2234 0 0 C 208.869 2165.41 t 0 r /Helvetica findfont 62.5185 sf 0 0 m (0.05) show NC gr  1 0 0 c 1 1 1 c 1 0 0 c 3 lw 406 590 m21 6 lw 3 lw 425 1136 m21 6 lw 3 lw 444 1510 m21 6 lw 3 lw 463 1754 m21 6 lw 3 lw 481 1897 m21 6 lw 3 lw 500
 1957 m21 6 lw 3 lw 519 1943 m21 6 lw 3 lw 538 1897 m21 6 lw 3 lw 557 1823 m21 6 lw 3 lw 575 1749 m21 6 lw 3 lw 594 1677 m21 6 lw 3 lw 613 1602 m21 6 lw 3 lw 632 1530 m21 6 lw 3 lw 651 1458 m21 6 lw 3 lw 670 1388 m21 6 lw 3 lw 688 1322 m21 6 lw 3 lw
 707 1257 m21 6 lw 3 lw 726 1195 m21 6 lw 3 lw 745 1136 m21 6 lw 3 lw 764 1078 m21 6 lw 3 lw 782 1023 m21 6 lw 3 lw 801 972 m21 6 lw 3 lw 820 923 m21 6 lw 3 lw 839 878 m21 6 lw 3 lw 858 836 m21 6 lw 3 lw 877 796 m21 6 lw 3 lw 895 760 m21 6 lw 3 lw
 914 725 m21 6 lw 3 lw 933 694 m21 6 lw 3 lw 952 664 m21 6 lw 3 lw 971 636 m21 6 lw 3 lw 990 610 m21 6 lw 3 lw 1008 586 m21 6 lw 3 lw 1027 563 m21 6 lw 3 lw 1046 542 m21 6 lw 3 lw 1065 522 m21 6 lw 3 lw 1084 504 m21 6 lw 3 lw 1102 487 m21 6 lw 3 lw
 1121 471 m21 6 lw 3 lw 1140 456 m21 6 lw 3 lw 1159 443 m21 6 lw 3 lw 1178 430 m21 6 lw 3 lw 1197 418 m21 6 lw 3 lw 1215 407 m21 6 lw 3 lw 1234 397 m21 6 lw 3 lw 1253 387 m21 6 lw 3 lw 1272 378 m21 6 lw 3 lw 1291 369 m21 6 lw 3 lw 1309 361 m21 6 lw 3
 lw 1328 354 m21 6 lw 3 lw 1347 347 m21 6 lw 3 lw 1366 340 m21 6 lw 3 lw 1385 334 m21 6 lw 3 lw 1404 328 m21 6 lw 3 lw 1422 323 m21 6 lw 3 lw 1441 318 m21 6 lw 3 lw 1460 313 m21 6 lw 3 lw 1479 308 m21 6 lw 3 lw 1498 304 m21 6 lw 3 lw 1517 300 m21 6
 lw 3 lw 1535 296 m21 6 lw 3 lw 1554 293 m21 6 lw 3 lw 1573 289 m21 6 lw 3 lw 1592 286 m21 6 lw 3 lw 1611 283 m21 6 lw 3 lw 1629 280 m21 6 lw 3 lw 1648 278 m21 6 lw 3 lw 1667 275 m21 6 lw 3 lw 1686 273 m21 6 lw 3 lw 1705 271 m21 6 lw 3 lw 1724 268
 m21 6 lw 3 lw 1742 266 m21 6 lw 3 lw 1761 264 m21 6 lw 3 lw 1780 263 m21 6 lw 3 lw 1799 261 m21 6 lw 3 lw 1818 259 m21 6 lw 3 lw 1837 258 m21 6 lw 3 lw 1855 257 m21 6 lw 3 lw 1874 255 m21 6 lw 3 lw 1893 254 m21 6 lw 3 lw 1912 253 m21 6 lw 3 lw 1931
 251 m21 6 lw 3 lw 1949 250 m21 6 lw 3 lw 1968 249 m21 6 lw 3 lw 1987 248 m21 6 lw 3 lw 2006 247 m21 6 lw 3 lw 2025 246 m21 6 lw 3 lw 2044 246 m21 6 lw 3 lw 2062 245 m21 6 lw 3 lw 2081 244 m21 6 lw 3 lw 2100 243 m21 6 lw 3 lw 2119 243 m21 6 lw 3 lw
 2138 242 m21 6 lw 3 lw 2156 241 m21 6 lw 3 lw 2175 241 m21 6 lw 3 lw 2194 240 m21 6 lw 3 lw 2213 240 m21 6 lw black 1 1 1 c 340 224 1814 558 bf black 1814 558 m 340 X s 2154 558 m 224 Y s 2154 782 m -340 X s 1814 782 m -224 Y s
 gsave  2268 2234 0 0 C 1898.29 706.175 t 0 r /Helvetica findfont 51.1515 sf 0 0 m (PYTHIA) show NC gr  0 0 1 c 1857 692 m 67 Y s 3 lw 1857 726 m21 6 lw black
 gsave  2268 2234 0 0 C 1898.29 595.347 t 0 r /Helvetica findfont 51.1515 sf 0 0 m (data) show NC gr  1 0 0 c 1857 581 m 67 Y s 3 lw 1857 614 m21 6 lw
 gr  gr showpage
end
%%EOF
