%!PS-Adobe-2.0 EPSF-2.0
%%BoundingBox:  0 0 567 558
%%Title: ./h1023_compare.eps: h1023_compare
%%Creator: ROOT Version 6.06/02
%%CreationDate: Thu Feb  2 16:00:37 2017
%%DocumentNeededResources: ProcSet (FontSetInit)
%%EndComments
%%BeginProlog
80 dict begin
/s {stroke} def /l {lineto} def /m {moveto} def /t {translate} def
/r {rotate} def /rl {roll}  def /R {repeat} def
/d {rlineto} def /rm {rmoveto} def /gr {grestore} def /f {eofill} def
/c {setrgbcolor} def /black {0 setgray} def /sd {setdash} def
/cl {closepath} def /sf {scalefont setfont} def /lw {setlinewidth} def
/box {m dup 0 exch d exch 0 d 0 exch neg d cl} def
/NC{systemdict begin initclip end}def/C{NC box clip newpath}def
/bl {box s} def /bf {gsave box gsave f grestore 1 lw [] 0 sd s grestore} def /Y { 0 exch d} def /X { 0 d} def 
/K {{pop pop 0 moveto} exch kshow} bind def
/ita {/ang 15 def gsave [1 0 ang dup sin exch cos div 1 0 0] concat} def 
/mp {newpath /y exch def /x exch def} def
/side {[w .77 mul w .23 mul] .385 w mul sd w 0 l currentpoint t -144 r} def
/mr {mp x y w2 0 360 arc} def /m24 {mr s} def /m20 {mr f} def
/mb {mp x y w2 add m w2 neg 0 d 0 w neg d w 0 d 0 w d cl} def
/mt {mp x y w2 add m w2 neg w neg d w 0 d cl} def
/m21 {mb f} def /m25 {mb s} def /m22 {mt f} def /m26{mt s} def
/m23 {mp x y w2 sub m w2 w d w neg 0 d cl f} def
/m27 {mp x y w2 add m w3 neg w2 neg d w3 w2 neg d w3 w2 d cl s} def
/m28 {mp x w2 sub y w2 sub w3 add m w3 0 d  0 w3 neg d w3 0 d 0 w3 d w3 0 d  0 w3 d w3 neg 0 d 0 w3 d w3 neg 0 d 0 w3 neg d w3 neg 0 d cl s } def
/m29 {mp gsave x w2 sub y w2 add w3 sub m currentpoint t 4 {side} repeat cl fill gr} def
/m30 {mp gsave x w2 sub y w2 add w3 sub m currentpoint t 4 {side} repeat cl s gr} def
/m31 {mp x y w2 sub m 0 w d x w2 sub y m w 0 d x w2 sub y w2 add m w w neg d x w2 sub y w2 sub m w w d s} def
/m32 {mp x y w2 sub m w2 w d w neg 0 d cl s} def
/m33 {mp x y w2 add m w3 neg w2 neg d w3 w2 neg d w3 w2 d cl f} def
/m34 {mp x w2 sub y w2 sub w3 add m w3 0 d  0 w3 neg d w3 0 d 0 w3 d w3 0 d  0 w3 d w3 neg 0 d 0 w3 d w3 neg 0 d 0 w3 neg d w3 neg 0 d cl f } def
/m2 {mp x y w2 sub m 0 w d x w2 sub y m w 0 d s} def
/m5 {mp x w2 sub y w2 sub m w w d x w2 sub y w2 add m w w neg d s} def
%%IncludeResource: ProcSet (FontSetInit)
%%IncludeResource: font Times-Roman
%%IncludeResource: font Times-Italic
%%IncludeResource: font Times-Bold
%%IncludeResource: font Times-BoldItalic
%%IncludeResource: font Helvetica
%%IncludeResource: font Helvetica-Oblique
%%IncludeResource: font Helvetica-Bold
%%IncludeResource: font Helvetica-BoldOblique
%%IncludeResource: font Courier
%%IncludeResource: font Courier-Oblique
%%IncludeResource: font Courier-Bold
%%IncludeResource: font Courier-BoldOblique
%%IncludeResource: font Symbol
%%IncludeResource: font ZapfDingbats
/reEncode {exch findfont dup length dict begin {1 index /FID eq  {pop pop} {def} ifelse } forall /Encoding exch def currentdict end dup /FontName get exch definefont pop } def [/Times-Bold /Times-Italic /Times-BoldItalic /Helvetica /Helvetica-Oblique
 /Helvetica-Bold /Helvetica-BoldOblique /Courier /Courier-Oblique /Courier-Bold /Courier-BoldOblique /Times-Roman /AvantGarde-Book /AvantGarde-BookOblique /AvantGarde-Demi /AvantGarde-DemiOblique /Bookman-Demi /Bookman-DemiItalic /Bookman-Light
 /Bookman-LightItalic /Helvetica-Narrow /Helvetica-Narrow-Bold /Helvetica-Narrow-BoldOblique /Helvetica-Narrow-Oblique /NewCenturySchlbk-Roman /NewCenturySchlbk-Bold /NewCenturySchlbk-BoldItalic /NewCenturySchlbk-Italic /Palatino-Bold
 /Palatino-BoldItalic /Palatino-Italic /Palatino-Roman ] {ISOLatin1Encoding reEncode } forall
%%EndProlog
%%BeginSetup
%%EndSetup
newpath  gsave  .25 .25 scale  gsave  0 0 t black[  ] 0 sd 6 lw 1 1 1 c 2268 2234 0 0 bf black 3 lw 1 1 1 c 1882 1966 340 223 bf black 1882 1966 340 223 bl 1 1 1 c 1882 1966 340 223 bf black 1882 1966 340 223 bl 0 0 1 c 6 lw 1 1 1 c 0 0 1 c 3 lw /w
 19 def /w2 {w 2 div} def /w3 {w 3 div} def 350 770 m21 6 lw 3 lw 368 1504 m21 6 lw 3 lw 387 1869 m21 6 lw 3 lw 406 2036 m21 6 lw 3 lw 425 2095 m21 6 lw 3 lw 444 2093 m21 6 lw 3 lw 463 2061 m21 6 lw 3 lw 481 2008 m21 6 lw 3 lw 500 1946 m21 6 lw 3 lw
 519 1881 m21 6 lw 3 lw 538 1813 m21 6 lw 3 lw 557 1743 m21 6 lw 3 lw 575 1674 m21 6 lw 3 lw 594 1605 m21 6 lw 3 lw 613 1538 m21 6 lw 3 lw 632 1475 m21 6 lw 3 lw 651 1412 m21 6 lw 3 lw 670 1352 m21 6 lw 3 lw 688 1296 m21 6 lw 3 lw 707 1240 m21 6 lw 3
 lw 726 1188 m21 6 lw 3 lw 745 1139 m21 6 lw 3 lw 764 1092 m21 6 lw 3 lw 782 1048 m21 6 lw 3 lw 801 1006 m21 6 lw 3 lw 820 967 m21 6 lw 3 lw 839 930 m21 6 lw 3 lw 858 895 m21 6 lw 3 lw 877 862 m21 6 lw 3 lw 895 831 m21 6 lw 3 lw 914 801 m21 6 lw 3 lw
 933 773 m21 6 lw 3 lw 952 747 m21 6 lw 3 lw 971 722 m21 6 lw 3 lw 990 699 m21 6 lw 3 lw 1008 677 m21 6 lw 3 lw 1027 656 m21 6 lw 3 lw 1046 637 m21 6 lw 3 lw 1065 618 m21 6 lw 3 lw 1084 601 m21 6 lw 3 lw 1102 584 m21 6 lw 3 lw 1121 568 m21 6 lw 3 lw
 1140 554 m21 6 lw 3 lw 1159 539 m21 6 lw 3 lw 1178 526 m21 6 lw 3 lw 1197 514 m21 6 lw 3 lw 1215 501 m21 6 lw 3 lw 1234 490 m21 6 lw 3 lw 1253 480 m21 6 lw 3 lw 1272 469 m21 6 lw 3 lw 1291 460 m21 6 lw 3 lw 1309 450 m21 6 lw 3 lw 1328 442 m21 6 lw 3
 lw 1347 433 m21 6 lw 3 lw 1366 425 m21 6 lw 3 lw 1385 418 m21 6 lw 3 lw 1404 410 m21 6 lw 3 lw 1422 404 m21 6 lw 3 lw 1441 397 m21 6 lw 3 lw 1460 391 m21 6 lw 3 lw 1479 385 m21 6 lw 3 lw 1498 379 m21 6 lw 3 lw 1517 374 m21 6 lw 3 lw 1535 369 m21 6
 lw 3 lw 1554 364 m21 6 lw 3 lw 1573 359 m21 6 lw 3 lw 1592 354 m21 6 lw 3 lw 1611 350 m21 6 lw 3 lw 1629 346 m21 6 lw 3 lw 1648 342 m21 6 lw 3 lw 1667 338 m21 6 lw 3 lw 1686 334 m21 6 lw 3 lw 1705 331 m21 6 lw 3 lw 1724 327 m21 6 lw 3 lw 1742 324
 m21 6 lw 3 lw 1761 321 m21 6 lw 3 lw 1780 318 m21 6 lw 3 lw 1799 315 m21 6 lw 3 lw 1818 313 m21 6 lw 3 lw 1837 310 m21 6 lw 3 lw 1855 307 m21 6 lw 3 lw 1874 305 m21 6 lw 3 lw 1893 303 m21 6 lw 3 lw 1912 300 m21 6 lw 3 lw 1931 298 m21 6 lw 3 lw 1949
 296 m21 6 lw 3 lw 1968 294 m21 6 lw 3 lw 1987 292 m21 6 lw 3 lw 2006 290 m21 6 lw 3 lw 2025 289 m21 6 lw 3 lw 2044 287 m21 6 lw 3 lw 2062 285 m21 6 lw 3 lw 2081 284 m21 6 lw 3 lw 2100 282 m21 6 lw 3 lw 2119 281 m21 6 lw 3 lw 2138 279 m21 6 lw 3 lw
 2156 278 m21 6 lw 3 lw 2175 276 m21 6 lw 3 lw 2194 275 m21 6 lw 3 lw 2213 274 m21 6 lw black 340 223 m 1882 X s
 gsave  2268 2234 0 0 C 1938.07 58.2559 t 0 r /Helvetica findfont 83.8316 sf 0 0 m (IP [mm]) show NC gr  340 279 m -56 Y s 387 251 m -28 Y s 434 251 m -28 Y s 481 251 m -28 Y s 528 251 m -28 Y s 575 279 m -56 Y s 622 251 m -28 Y s 670 251 m -28 Y s
 717 251 m -28 Y s 764 251 m -28 Y s 811 279 m -56 Y s 858 251 m -28 Y s 905 251 m -28 Y s 952 251 m -28 Y s 999 251 m -28 Y s 1046 279 m -56 Y s 1093 251 m -28 Y s 1140 251 m -28 Y s 1187 251 m -28 Y s 1234 251 m -28 Y s 1281 279 m -56 Y s 1328 251
 m -28 Y s 1375 251 m -28 Y s 1422 251 m -28 Y s 1469 251 m -28 Y s 1517 279 m -56 Y s 1564 251 m -28 Y s 1611 251 m -28 Y s 1658 251 m -28 Y s 1705 251 m -28 Y s 1752 279 m -56 Y s 1799 251 m -28 Y s 1846 251 m -28 Y s 1893 251 m -28 Y s 1940 251 m
 -28 Y s 1987 279 m -56 Y s 2034 251 m -28 Y s 2081 251 m -28 Y s 2128 251 m -28 Y s 2175 251 m -28 Y s 2222 279 m -56 Y s
 gsave  2268 2234 0 0 C 322.539 159.138 t 0 r /Helvetica findfont 62.5185 sf 0 0 m (0) show NC gr 
 gsave  2268 2234 0 0 C 514.357 159.138 t 0 r /Helvetica findfont 62.5185 sf 0 0 m (0.05) show NC gr 
 gsave  2268 2234 0 0 C 772.956 159.138 t 0 r /Helvetica findfont 62.5185 sf 0 0 m (0.1) show NC gr 
 gsave  2268 2234 0 0 C 986.087 159.138 t 0 r /Helvetica findfont 62.5185 sf 0 0 m (0.15) show NC gr 
 gsave  2268 2234 0 0 C 1237.58 159.138 t 0 r /Helvetica findfont 62.5185 sf 0 0 m (0.2) show NC gr 
 gsave  2268 2234 0 0 C 1456.4 159.138 t 0 r /Helvetica findfont 62.5185 sf 0 0 m (0.25) show NC gr 
 gsave  2268 2234 0 0 C 1707.89 159.138 t 0 r /Helvetica findfont 62.5185 sf 0 0 m (0.3) show NC gr 
 gsave  2268 2234 0 0 C 1926.71 159.138 t 0 r /Helvetica findfont 62.5185 sf 0 0 m (0.35) show NC gr 
 gsave  2268 2234 0 0 C 2179.62 159.138 t 0 r /Helvetica findfont 62.5185 sf 0 0 m (0.4) show NC gr  340 223 m 1966 Y s
 gsave  2268 2234 0 0 C 152.034 1882.66 t 90 r /Helvetica findfont 83.8316 sf 0 0 m (dN/d\(IP\)) show NC gr  400 223 m -60 X s 370 273 m -30 X s 370 323 m -30 X s 370 373 m -30 X s 370 424 m -30 X s 400 474 m -60 X s 370 524 m -30 X s 370 574 m -30 X
 s 370 624 m -30 X s 370 674 m -30 X s 400 724 m -60 X s 370 774 m -30 X s 370 824 m -30 X s 370 874 m -30 X s 370 924 m -30 X s 400 974 m -60 X s 370 1024 m -30 X s 370 1074 m -30 X s 370 1124 m -30 X s 370 1174 m -30 X s 400 1224 m -60 X s 370 1274
 m -30 X s 370 1324 m -30 X s 370 1374 m -30 X s 370 1424 m -30 X s 400 1475 m -60 X s 370 1525 m -30 X s 370 1575 m -30 X s 370 1625 m -30 X s 370 1675 m -30 X s 400 1725 m -60 X s 370 1775 m -30 X s 370 1825 m -30 X s 370 1875 m -30 X s 370 1925 m
 -30 X s 400 1975 m -60 X s 400 1975 m -60 X s 370 2025 m -30 X s 370 2075 m -30 X s 370 2125 m -30 X s 370 2175 m -30 X s
 gsave  2268 2234 0 0 C 295.542 201.764 t 0 r /Helvetica findfont 62.5185 sf 0 0 m (0) show NC gr 
 gsave  2268 2234 0 0 C 173.347 451.838 t 0 r /Helvetica findfont 62.5185 sf 0 0 m (0.005) show NC gr 
 gsave  2268 2234 0 0 C 218.815 701.912 t 0 r /Helvetica findfont 62.5185 sf 0 0 m (0.01) show NC gr 
 gsave  2268 2234 0 0 C 173.347 951.986 t 0 r /Helvetica findfont 62.5185 sf 0 0 m (0.015) show NC gr 
 gsave  2268 2234 0 0 C 208.869 1202.06 t 0 r /Helvetica findfont 62.5185 sf 0 0 m (0.02) show NC gr 
 gsave  2268 2234 0 0 C 173.347 1452.13 t 0 r /Helvetica findfont 62.5185 sf 0 0 m (0.025) show NC gr 
 gsave  2268 2234 0 0 C 208.869 1702.21 t 0 r /Helvetica findfont 62.5185 sf 0 0 m (0.03) show NC gr 
 gsave  2268 2234 0 0 C 173.347 1952.28 t 0 r /Helvetica findfont 62.5185 sf 0 0 m (0.035) show NC gr  1 0 0 c 1 1 1 c 1 0 0 c 3 lw 350 763 m21 6 lw 3 lw 368 1485 m21 6 lw 3 lw 387 1831 m21 6 lw 3 lw 406 1981 m21 6 lw 3 lw 425 2028 m21 6 lw 3 lw 444
 2024 m21 6 lw 3 lw 463 1993 m21 6 lw 3 lw 481 1947 m21 6 lw 3 lw 500 1896 m21 6 lw 3 lw 519 1840 m21 6 lw 3 lw 538 1781 m21 6 lw 3 lw 557 1720 m21 6 lw 3 lw 575 1658 m21 6 lw 3 lw 594 1596 m21 6 lw 3 lw 613 1534 m21 6 lw 3 lw 632 1473 m21 6 lw 3 lw
 651 1413 m21 6 lw 3 lw 670 1356 m21 6 lw 3 lw 688 1301 m21 6 lw 3 lw 707 1248 m21 6 lw 3 lw 726 1197 m21 6 lw 3 lw 745 1149 m21 6 lw 3 lw 764 1103 m21 6 lw 3 lw 782 1059 m21 6 lw 3 lw 801 1018 m21 6 lw 3 lw 820 979 m21 6 lw 3 lw 839 942 m21 6 lw 3
 lw 858 907 m21 6 lw 3 lw 877 874 m21 6 lw 3 lw 895 843 m21 6 lw 3 lw 914 813 m21 6 lw 3 lw 933 785 m21 6 lw 3 lw 952 760 m21 6 lw 3 lw 971 734 m21 6 lw 3 lw 990 711 m21 6 lw 3 lw 1008 689 m21 6 lw 3 lw 1027 668 m21 6 lw 3 lw 1046 648 m21 6 lw 3 lw
 1065 629 m21 6 lw 3 lw 1084 612 m21 6 lw 3 lw 1102 595 m21 6 lw 3 lw 1121 579 m21 6 lw 3 lw 1140 564 m21 6 lw 3 lw 1159 550 m21 6 lw 3 lw 1178 536 m21 6 lw 3 lw 1197 523 m21 6 lw 3 lw 1215 511 m21 6 lw 3 lw 1234 500 m21 6 lw 3 lw 1253 488 m21 6 lw 3
 lw 1272 478 m21 6 lw 3 lw 1291 468 m21 6 lw 3 lw 1309 458 m21 6 lw 3 lw 1328 449 m21 6 lw 3 lw 1347 441 m21 6 lw 3 lw 1366 433 m21 6 lw 3 lw 1385 425 m21 6 lw 3 lw 1404 417 m21 6 lw 3 lw 1422 410 m21 6 lw 3 lw 1441 404 m21 6 lw 3 lw 1460 397 m21 6
 lw 3 lw 1479 391 m21 6 lw 3 lw 1498 385 m21 6 lw 3 lw 1517 380 m21 6 lw 3 lw 1535 374 m21 6 lw 3 lw 1554 369 m21 6 lw 3 lw 1573 364 m21 6 lw 3 lw 1592 359 m21 6 lw 3 lw 1611 355 m21 6 lw 3 lw 1629 350 m21 6 lw 3 lw 1648 346 m21 6 lw 3 lw 1667 342
 m21 6 lw 3 lw 1686 339 m21 6 lw 3 lw 1705 335 m21 6 lw 3 lw 1724 331 m21 6 lw 3 lw 1742 328 m21 6 lw 3 lw 1761 325 m21 6 lw 3 lw 1780 322 m21 6 lw 3 lw 1799 319 m21 6 lw 3 lw 1818 316 m21 6 lw 3 lw 1837 313 m21 6 lw 3 lw 1855 311 m21 6 lw 3 lw 1874
 308 m21 6 lw 3 lw 1893 306 m21 6 lw 3 lw 1912 303 m21 6 lw 3 lw 1931 301 m21 6 lw 3 lw 1949 299 m21 6 lw 3 lw 1968 297 m21 6 lw 3 lw 1987 295 m21 6 lw 3 lw 2006 293 m21 6 lw 3 lw 2025 291 m21 6 lw 3 lw 2044 289 m21 6 lw 3 lw 2062 288 m21 6 lw 3 lw
 2081 286 m21 6 lw 3 lw 2100 284 m21 6 lw 3 lw 2119 283 m21 6 lw 3 lw 2138 281 m21 6 lw 3 lw 2156 280 m21 6 lw 3 lw 2175 278 m21 6 lw 3 lw 2194 277 m21 6 lw 3 lw 2213 276 m21 6 lw black 1 1 1 c 340 224 1814 558 bf black 1814 558 m 340 X s 2154 558 m
 224 Y s 2154 782 m -340 X s 1814 782 m -224 Y s
 gsave  2268 2234 0 0 C 1898.29 706.175 t 0 r /Helvetica findfont 51.1515 sf 0 0 m (PYTHIA) show NC gr  0 0 1 c 1857 692 m 67 Y s 3 lw 1857 726 m21 6 lw black
 gsave  2268 2234 0 0 C 1898.29 595.347 t 0 r /Helvetica findfont 51.1515 sf 0 0 m (data) show NC gr  1 0 0 c 1857 581 m 67 Y s 3 lw 1857 614 m21 6 lw
 gr  gr showpage
end
%%EOF
