%!PS-Adobe-2.0 EPSF-2.0
%%BoundingBox:  0 0 567 558
%%Title: ./h1017_compare.eps: h1017_compare
%%Creator: ROOT Version 6.06/02
%%CreationDate: Thu Feb  2 16:00:37 2017
%%DocumentNeededResources: ProcSet (FontSetInit)
%%EndComments
%%BeginProlog
80 dict begin
/s {stroke} def /l {lineto} def /m {moveto} def /t {translate} def
/r {rotate} def /rl {roll}  def /R {repeat} def
/d {rlineto} def /rm {rmoveto} def /gr {grestore} def /f {eofill} def
/c {setrgbcolor} def /black {0 setgray} def /sd {setdash} def
/cl {closepath} def /sf {scalefont setfont} def /lw {setlinewidth} def
/box {m dup 0 exch d exch 0 d 0 exch neg d cl} def
/NC{systemdict begin initclip end}def/C{NC box clip newpath}def
/bl {box s} def /bf {gsave box gsave f grestore 1 lw [] 0 sd s grestore} def /Y { 0 exch d} def /X { 0 d} def 
/K {{pop pop 0 moveto} exch kshow} bind def
/ita {/ang 15 def gsave [1 0 ang dup sin exch cos div 1 0 0] concat} def 
/mp {newpath /y exch def /x exch def} def
/side {[w .77 mul w .23 mul] .385 w mul sd w 0 l currentpoint t -144 r} def
/mr {mp x y w2 0 360 arc} def /m24 {mr s} def /m20 {mr f} def
/mb {mp x y w2 add m w2 neg 0 d 0 w neg d w 0 d 0 w d cl} def
/mt {mp x y w2 add m w2 neg w neg d w 0 d cl} def
/m21 {mb f} def /m25 {mb s} def /m22 {mt f} def /m26{mt s} def
/m23 {mp x y w2 sub m w2 w d w neg 0 d cl f} def
/m27 {mp x y w2 add m w3 neg w2 neg d w3 w2 neg d w3 w2 d cl s} def
/m28 {mp x w2 sub y w2 sub w3 add m w3 0 d  0 w3 neg d w3 0 d 0 w3 d w3 0 d  0 w3 d w3 neg 0 d 0 w3 d w3 neg 0 d 0 w3 neg d w3 neg 0 d cl s } def
/m29 {mp gsave x w2 sub y w2 add w3 sub m currentpoint t 4 {side} repeat cl fill gr} def
/m30 {mp gsave x w2 sub y w2 add w3 sub m currentpoint t 4 {side} repeat cl s gr} def
/m31 {mp x y w2 sub m 0 w d x w2 sub y m w 0 d x w2 sub y w2 add m w w neg d x w2 sub y w2 sub m w w d s} def
/m32 {mp x y w2 sub m w2 w d w neg 0 d cl s} def
/m33 {mp x y w2 add m w3 neg w2 neg d w3 w2 neg d w3 w2 d cl f} def
/m34 {mp x w2 sub y w2 sub w3 add m w3 0 d  0 w3 neg d w3 0 d 0 w3 d w3 0 d  0 w3 d w3 neg 0 d 0 w3 d w3 neg 0 d 0 w3 neg d w3 neg 0 d cl f } def
/m2 {mp x y w2 sub m 0 w d x w2 sub y m w 0 d s} def
/m5 {mp x w2 sub y w2 sub m w w d x w2 sub y w2 add m w w neg d s} def
%%IncludeResource: ProcSet (FontSetInit)
%%IncludeResource: font Times-Roman
%%IncludeResource: font Times-Italic
%%IncludeResource: font Times-Bold
%%IncludeResource: font Times-BoldItalic
%%IncludeResource: font Helvetica
%%IncludeResource: font Helvetica-Oblique
%%IncludeResource: font Helvetica-Bold
%%IncludeResource: font Helvetica-BoldOblique
%%IncludeResource: font Courier
%%IncludeResource: font Courier-Oblique
%%IncludeResource: font Courier-Bold
%%IncludeResource: font Courier-BoldOblique
%%IncludeResource: font Symbol
%%IncludeResource: font ZapfDingbats
/reEncode {exch findfont dup length dict begin {1 index /FID eq  {pop pop} {def} ifelse } forall /Encoding exch def currentdict end dup /FontName get exch definefont pop } def [/Times-Bold /Times-Italic /Times-BoldItalic /Helvetica /Helvetica-Oblique
 /Helvetica-Bold /Helvetica-BoldOblique /Courier /Courier-Oblique /Courier-Bold /Courier-BoldOblique /Times-Roman /AvantGarde-Book /AvantGarde-BookOblique /AvantGarde-Demi /AvantGarde-DemiOblique /Bookman-Demi /Bookman-DemiItalic /Bookman-Light
 /Bookman-LightItalic /Helvetica-Narrow /Helvetica-Narrow-Bold /Helvetica-Narrow-BoldOblique /Helvetica-Narrow-Oblique /NewCenturySchlbk-Roman /NewCenturySchlbk-Bold /NewCenturySchlbk-BoldItalic /NewCenturySchlbk-Italic /Palatino-Bold
 /Palatino-BoldItalic /Palatino-Italic /Palatino-Roman ] {ISOLatin1Encoding reEncode } forall
%%EndProlog
%%BeginSetup
%%EndSetup
newpath  gsave  .25 .25 scale  gsave  0 0 t black[  ] 0 sd 6 lw 1 1 1 c 2268 2234 0 0 bf black 3 lw 1 1 1 c 1882 1966 340 223 bf black 1882 1966 340 223 bl 1 1 1 c 1882 1966 340 223 bf black 1882 1966 340 223 bl 0 0 1 c 6 lw 1 1 1 c 0 0 1 c 3 lw /w
 19 def /w2 {w 2 div} def /w3 {w 3 div} def 425 1714 m21 6 lw 3 lw 444 2053 m21 6 lw 3 lw 463 2095 m21 6 lw 3 lw 481 2000 m21 6 lw 3 lw 500 1861 m21 6 lw 3 lw 519 1722 m21 6 lw 3 lw 538 1592 m21 6 lw 3 lw 557 1472 m21 6 lw 3 lw 575 1365 m21 6 lw 3 lw
 594 1274 m21 6 lw 3 lw 613 1193 m21 6 lw 3 lw 632 1125 m21 6 lw 3 lw 651 1059 m21 6 lw 3 lw 670 998 m21 6 lw 3 lw 688 942 m21 6 lw 3 lw 707 894 m21 6 lw 3 lw 726 847 m21 6 lw 3 lw 745 805 m21 6 lw 3 lw 764 767 m21 6 lw 3 lw 782 731 m21 6 lw 3 lw 801
 700 m21 6 lw 3 lw 820 670 m21 6 lw 3 lw 839 642 m21 6 lw 3 lw 858 616 m21 6 lw 3 lw 877 593 m21 6 lw 3 lw 895 571 m21 6 lw 3 lw 914 550 m21 6 lw 3 lw 933 532 m21 6 lw 3 lw 952 514 m21 6 lw 3 lw 971 503 m21 6 lw 3 lw 990 488 m21 6 lw 3 lw 1008 474
 m21 6 lw 3 lw 1027 461 m21 6 lw 3 lw 1046 449 m21 6 lw 3 lw 1065 437 m21 6 lw 3 lw 1084 427 m21 6 lw 3 lw 1102 417 m21 6 lw 3 lw 1121 408 m21 6 lw 3 lw 1140 399 m21 6 lw 3 lw 1159 391 m21 6 lw 3 lw 1178 383 m21 6 lw 3 lw 1197 376 m21 6 lw 3 lw 1215
 369 m21 6 lw 3 lw 1234 362 m21 6 lw 3 lw 1253 356 m21 6 lw 3 lw 1272 350 m21 6 lw 3 lw 1291 345 m21 6 lw 3 lw 1309 339 m21 6 lw 3 lw 1328 334 m21 6 lw 3 lw 1347 330 m21 6 lw 3 lw 1366 325 m21 6 lw 3 lw 1385 321 m21 6 lw 3 lw 1404 317 m21 6 lw 3 lw
 1422 313 m21 6 lw 3 lw 1441 310 m21 6 lw 3 lw 1460 306 m21 6 lw 3 lw 1479 303 m21 6 lw 3 lw 1498 299 m21 6 lw 3 lw 1517 296 m21 6 lw 3 lw 1535 294 m21 6 lw 3 lw 1554 291 m21 6 lw 3 lw 1573 288 m21 6 lw 3 lw 1592 286 m21 6 lw 3 lw 1611 284 m21 6 lw 3
 lw 1629 281 m21 6 lw 3 lw 1648 279 m21 6 lw 3 lw 1667 277 m21 6 lw 3 lw 1686 275 m21 6 lw 3 lw 1705 273 m21 6 lw 3 lw 1724 271 m21 6 lw 3 lw 1742 270 m21 6 lw 3 lw 1761 268 m21 6 lw 3 lw 1780 266 m21 6 lw 3 lw 1799 265 m21 6 lw 3 lw 1818 263 m21 6
 lw 3 lw 1837 262 m21 6 lw 3 lw 1855 261 m21 6 lw 3 lw 1874 259 m21 6 lw 3 lw 1893 258 m21 6 lw 3 lw 1912 257 m21 6 lw 3 lw 1931 256 m21 6 lw 3 lw 1949 255 m21 6 lw 3 lw 1968 254 m21 6 lw 3 lw 1987 253 m21 6 lw 3 lw 2006 252 m21 6 lw 3 lw 2025 251
 m21 6 lw 3 lw 2044 250 m21 6 lw 3 lw 2062 249 m21 6 lw 3 lw 2081 248 m21 6 lw 3 lw 2100 247 m21 6 lw 3 lw 2119 247 m21 6 lw 3 lw 2138 246 m21 6 lw 3 lw 2156 245 m21 6 lw 3 lw 2175 245 m21 6 lw 3 lw 2194 244 m21 6 lw 3 lw 2213 243 m21 6 lw black 340
 223 m 1882 X s
 gsave  2268 2234 0 0 C 1943.76 58.2559 t 0 r /Helvetica findfont 83.8316 sf 0 0 m (p [GeV]) show NC gr  340 279 m -56 Y s 378 251 m -28 Y s 415 251 m -28 Y s 453 251 m -28 Y s 491 251 m -28 Y s 528 279 m -56 Y s 566 251 m -28 Y s 604 251 m -28 Y s
 641 251 m -28 Y s 679 251 m -28 Y s 717 279 m -56 Y s 754 251 m -28 Y s 792 251 m -28 Y s 830 251 m -28 Y s 867 251 m -28 Y s 905 279 m -56 Y s 942 251 m -28 Y s 980 251 m -28 Y s 1018 251 m -28 Y s 1055 251 m -28 Y s 1093 279 m -56 Y s 1131 251 m
 -28 Y s 1168 251 m -28 Y s 1206 251 m -28 Y s 1244 251 m -28 Y s 1281 279 m -56 Y s 1319 251 m -28 Y s 1357 251 m -28 Y s 1394 251 m -28 Y s 1432 251 m -28 Y s 1469 279 m -56 Y s 1507 251 m -28 Y s 1545 251 m -28 Y s 1582 251 m -28 Y s 1620 251 m
 -28 Y s 1658 279 m -56 Y s 1695 251 m -28 Y s 1733 251 m -28 Y s 1771 251 m -28 Y s 1808 251 m -28 Y s 1846 279 m -56 Y s 1884 251 m -28 Y s 1921 251 m -28 Y s 1959 251 m -28 Y s 1996 251 m -28 Y s 2034 279 m -56 Y s 2072 251 m -28 Y s 2109 251 m
 -28 Y s 2147 251 m -28 Y s 2185 251 m -28 Y s 2222 279 m -56 Y s
 gsave  2268 2234 0 0 C 322.539 159.138 t 0 r /Helvetica findfont 62.5185 sf 0 0 m (0) show NC gr 
 gsave  2268 2234 0 0 C 510.094 159.138 t 0 r /Helvetica findfont 62.5185 sf 0 0 m (5) show NC gr 
 gsave  2268 2234 0 0 C 682.02 159.138 t 0 r /Helvetica findfont 62.5185 sf 0 0 m (10) show NC gr 
 gsave  2268 2234 0 0 C 869.576 159.138 t 0 r /Helvetica findfont 62.5185 sf 0 0 m (15) show NC gr 
 gsave  2268 2234 0 0 C 1058.55 159.138 t 0 r /Helvetica findfont 62.5185 sf 0 0 m (20) show NC gr 
 gsave  2268 2234 0 0 C 1246.11 159.138 t 0 r /Helvetica findfont 62.5185 sf 0 0 m (25) show NC gr 
 gsave  2268 2234 0 0 C 1435.08 159.138 t 0 r /Helvetica findfont 62.5185 sf 0 0 m (30) show NC gr 
 gsave  2268 2234 0 0 C 1622.64 159.138 t 0 r /Helvetica findfont 62.5185 sf 0 0 m (35) show NC gr 
 gsave  2268 2234 0 0 C 1811.62 159.138 t 0 r /Helvetica findfont 62.5185 sf 0 0 m (40) show NC gr 
 gsave  2268 2234 0 0 C 1999.17 159.138 t 0 r /Helvetica findfont 62.5185 sf 0 0 m (45) show NC gr 
 gsave  2268 2234 0 0 C 2188.15 159.138 t 0 r /Helvetica findfont 62.5185 sf 0 0 m (50) show NC gr  340 223 m 1966 Y s
 gsave  2268 2234 0 0 C 152.034 1967.91 t 90 r /Helvetica findfont 83.8316 sf 0 0 m (dN/dp) show NC gr  400 223 m -60 X s 370 288 m -30 X s 370 352 m -30 X s 370 416 m -30 X s 370 481 m -30 X s 400 545 m -60 X s 370 609 m -30 X s 370 673 m -30 X s
 370 738 m -30 X s 370 802 m -30 X s 400 866 m -60 X s 370 931 m -30 X s 370 995 m -30 X s 370 1059 m -30 X s 370 1123 m -30 X s 400 1188 m -60 X s 370 1252 m -30 X s 370 1316 m -30 X s 370 1381 m -30 X s 370 1445 m -30 X s 400 1509 m -60 X s 370
 1574 m -30 X s 370 1638 m -30 X s 370 1702 m -30 X s 370 1766 m -30 X s 400 1831 m -60 X s 370 1895 m -30 X s 370 1959 m -30 X s 370 2024 m -30 X s 370 2088 m -30 X s 400 2152 m -60 X s 400 2152 m -60 X s
 gsave  2268 2234 0 0 C 295.542 201.764 t 0 r /Helvetica findfont 62.5185 sf 0 0 m (0) show NC gr 
 gsave  2268 2234 0 0 C 218.815 522.882 t 0 r /Helvetica findfont 62.5185 sf 0 0 m (0.01) show NC gr 
 gsave  2268 2234 0 0 C 208.869 844 t 0 r /Helvetica findfont 62.5185 sf 0 0 m (0.02) show NC gr 
 gsave  2268 2234 0 0 C 208.869 1165.12 t 0 r /Helvetica findfont 62.5185 sf 0 0 m (0.03) show NC gr 
 gsave  2268 2234 0 0 C 207.448 1487.66 t 0 r /Helvetica findfont 62.5185 sf 0 0 m (0.04) show NC gr 
 gsave  2268 2234 0 0 C 208.869 1808.77 t 0 r /Helvetica findfont 62.5185 sf 0 0 m (0.05) show NC gr 
 gsave  2268 2234 0 0 C 208.869 2129.89 t 0 r /Helvetica findfont 62.5185 sf 0 0 m (0.06) show NC gr  1 0 0 c 1 1 1 c 1 0 0 c 3 lw 425 1489 m21 6 lw 3 lw 444 1833 m21 6 lw 3 lw 463 1909 m21 6 lw 3 lw 481 1856 m21 6 lw 3 lw 500 1751 m21 6 lw 3 lw 519
 1637 m21 6 lw 3 lw 538 1528 m21 6 lw 3 lw 557 1427 m21 6 lw 3 lw 575 1332 m21 6 lw 3 lw 594 1252 m21 6 lw 3 lw 613 1179 m21 6 lw 3 lw 632 1117 m21 6 lw 3 lw 651 1057 m21 6 lw 3 lw 670 999 m21 6 lw 3 lw 688 945 m21 6 lw 3 lw 707 898 m21 6 lw 3 lw 726
 853 m21 6 lw 3 lw 745 811 m21 6 lw 3 lw 764 774 m21 6 lw 3 lw 782 739 m21 6 lw 3 lw 801 708 m21 6 lw 3 lw 820 678 m21 6 lw 3 lw 839 650 m21 6 lw 3 lw 858 624 m21 6 lw 3 lw 877 601 m21 6 lw 3 lw 895 579 m21 6 lw 3 lw 914 558 m21 6 lw 3 lw 933 539 m21
 6 lw 3 lw 952 522 m21 6 lw 3 lw 971 513 m21 6 lw 3 lw 990 501 m21 6 lw 3 lw 1008 487 m21 6 lw 3 lw 1027 473 m21 6 lw 3 lw 1046 461 m21 6 lw 3 lw 1065 449 m21 6 lw 3 lw 1084 439 m21 6 lw 3 lw 1102 429 m21 6 lw 3 lw 1121 420 m21 6 lw 3 lw 1140 411 m21
 6 lw 3 lw 1159 402 m21 6 lw 3 lw 1178 395 m21 6 lw 3 lw 1197 387 m21 6 lw 3 lw 1215 380 m21 6 lw 3 lw 1234 374 m21 6 lw 3 lw 1253 367 m21 6 lw 3 lw 1272 361 m21 6 lw 3 lw 1291 356 m21 6 lw 3 lw 1309 351 m21 6 lw 3 lw 1328 345 m21 6 lw 3 lw 1347 341
 m21 6 lw 3 lw 1366 336 m21 6 lw 3 lw 1385 332 m21 6 lw 3 lw 1404 328 m21 6 lw 3 lw 1422 324 m21 6 lw 3 lw 1441 320 m21 6 lw 3 lw 1460 317 m21 6 lw 3 lw 1479 313 m21 6 lw 3 lw 1498 310 m21 6 lw 3 lw 1517 307 m21 6 lw 3 lw 1535 304 m21 6 lw 3 lw 1554
 301 m21 6 lw 3 lw 1573 299 m21 6 lw 3 lw 1592 296 m21 6 lw 3 lw 1611 293 m21 6 lw 3 lw 1629 291 m21 6 lw 3 lw 1648 289 m21 6 lw 3 lw 1667 287 m21 6 lw 3 lw 1686 285 m21 6 lw 3 lw 1705 283 m21 6 lw 3 lw 1724 281 m21 6 lw 3 lw 1742 279 m21 6 lw 3 lw
 1761 277 m21 6 lw 3 lw 1780 275 m21 6 lw 3 lw 1799 274 m21 6 lw 3 lw 1818 272 m21 6 lw 3 lw 1837 271 m21 6 lw 3 lw 1855 269 m21 6 lw 3 lw 1874 268 m21 6 lw 3 lw 1893 266 m21 6 lw 3 lw 1912 265 m21 6 lw 3 lw 1931 264 m21 6 lw 3 lw 1949 263 m21 6 lw 3
 lw 1968 262 m21 6 lw 3 lw 1987 260 m21 6 lw 3 lw 2006 259 m21 6 lw 3 lw 2025 258 m21 6 lw 3 lw 2044 257 m21 6 lw 3 lw 2062 256 m21 6 lw 3 lw 2081 255 m21 6 lw 3 lw 2100 254 m21 6 lw 3 lw 2119 254 m21 6 lw 3 lw 2138 253 m21 6 lw 3 lw 2156 252 m21 6
 lw 3 lw 2175 251 m21 6 lw 3 lw 2194 250 m21 6 lw 3 lw 2213 250 m21 6 lw black 1 1 1 c 340 224 1814 558 bf black 1814 558 m 340 X s 2154 558 m 224 Y s 2154 782 m -340 X s 1814 782 m -224 Y s
 gsave  2268 2234 0 0 C 1898.29 706.175 t 0 r /Helvetica findfont 51.1515 sf 0 0 m (PYTHIA) show NC gr  0 0 1 c 1857 692 m 67 Y s 3 lw 1857 726 m21 6 lw black
 gsave  2268 2234 0 0 C 1898.29 595.347 t 0 r /Helvetica findfont 51.1515 sf 0 0 m (data) show NC gr  1 0 0 c 1857 581 m 67 Y s 3 lw 1857 614 m21 6 lw
 gr  gr showpage
end
%%EOF
