%!PS-Adobe-2.0 EPSF-2.0
%%BoundingBox:  0 0 567 546
%%Title: plots/cloneDist.eps: cd1
%%Creator: ROOT Version 5.34/36
%%CreationDate: Tue Jan 31 17:38:00 2017
%%EndComments
%%BeginProlog
80 dict begin
/s {stroke} def /l {lineto} def /m {moveto} def /t {translate} def
/r {rotate} def /rl {roll}  def /R {repeat} def
/d {rlineto} def /rm {rmoveto} def /gr {grestore} def /f {eofill} def
/c {setrgbcolor} def /black {0 setgray} def /sd {setdash} def
/cl {closepath} def /sf {scalefont setfont} def /lw {setlinewidth} def
/box {m dup 0 exch d exch 0 d 0 exch neg d cl} def
/NC{systemdict begin initclip end}def/C{NC box clip newpath}def
/bl {box s} def /bf {gsave box gsave f grestore 1 lw [] 0 sd s grestore} def /Y { 0 exch d} def /X { 0 d} def 
/K {{pop pop 0 moveto} exch kshow} bind def
/ita {/ang 15 def gsave [1 0 ang dup sin exch cos div 1 0 0] concat} def 
/mp {newpath /y exch def /x exch def} def
/side {[w .77 mul w .23 mul] .385 w mul sd w 0 l currentpoint t -144 r} def
/mr {mp x y w2 0 360 arc} def /m24 {mr s} def /m20 {mr f} def
/mb {mp x y w2 add m w2 neg 0 d 0 w neg d w 0 d 0 w d cl} def
/mt {mp x y w2 add m w2 neg w neg d w 0 d cl} def
/m21 {mb f} def /m25 {mb s} def /m22 {mt f} def /m26{mt s} def
/m23 {mp x y w2 sub m w2 w d w neg 0 d cl f} def
/m27 {mp x y w2 add m w3 neg w2 neg d w3 w2 neg d w3 w2 d cl s} def
/m28 {mp x w2 sub y w2 sub w3 add m w3 0 d  0 w3 neg d w3 0 d 0 w3 d w3 0 d  0 w3 d w3 neg 0 d 0 w3 d w3 neg 0 d 0 w3 neg d w3 neg 0 d cl s } def
/m29 {mp gsave x w2 sub y w2 add w3 sub m currentpoint t 4 {side} repeat cl fill gr} def
/m30 {mp gsave x w2 sub y w2 add w3 sub m currentpoint t 4 {side} repeat cl s gr} def
/m31 {mp x y w2 sub m 0 w d x w2 sub y m w 0 d x w2 sub y w2 add m w w neg d x w2 sub y w2 sub m w w d s} def
/m32 {mp x y w2 sub m w2 w d w neg 0 d cl s} def
/m33 {mp x y w2 add m w3 neg w2 neg d w3 w2 neg d w3 w2 d cl f} def
/m34 {mp x w2 sub y w2 sub w3 add m w3 0 d  0 w3 neg d w3 0 d 0 w3 d w3 0 d  0 w3 d w3 neg 0 d 0 w3 d w3 neg 0 d 0 w3 neg d w3 neg 0 d cl f } def
/m2 {mp x y w2 sub m 0 w d x w2 sub y m w 0 d s} def
/m5 {mp x w2 sub y w2 sub m w w d x w2 sub y w2 add m w w neg d s} def
/reEncode {exch findfont dup length dict begin {1 index /FID eq  {pop pop} {def} ifelse } forall /Encoding exch def currentdict end dup /FontName get exch definefont pop } def [/Times-Bold /Times-Italic /Times-BoldItalic /Helvetica /Helvetica-Oblique
 /Helvetica-Bold /Helvetica-BoldOblique /Courier /Courier-Oblique /Courier-Bold /Courier-BoldOblique /Times-Roman /AvantGarde-Book /AvantGarde-BookOblique /AvantGarde-Demi /AvantGarde-DemiOblique /Bookman-Demi /Bookman-DemiItalic /Bookman-Light
 /Bookman-LightItalic /Helvetica-Narrow /Helvetica-Narrow-Bold /Helvetica-Narrow-BoldOblique /Helvetica-Narrow-Oblique /NewCenturySchlbk-Roman /NewCenturySchlbk-Bold /NewCenturySchlbk-BoldItalic /NewCenturySchlbk-Italic /Palatino-Bold
 /Palatino-BoldItalic /Palatino-Italic /Palatino-Roman ] {ISOLatin1Encoding reEncode } forall
%%EndProlog
%%BeginSetup
%%EndSetup
newpath  gsave  .25 .25 scale  gsave  0 0 t 1 0 0 c[  ] 0 sd 3 lw 1 1 1 c 2268 2184 0 0 bf black 1 1 1 c 1814 1748 227 218 bf black 1814 1748 227 218 bl 6 lw 1 1 1 c black 227 218 m 508 X 948 Y 18 X 77 Y 18 X 9 Y 18 X 10 Y 18 X 10 Y 18 X 10 Y 19 X 20
 Y 18 X 18 Y 18 X 26 Y 18 X 27 Y 18 X 42 Y 18 X 33 Y 18 X 36 Y 19 X 37 Y 18 X 35 Y 18 X 34 Y 18 X 34 Y 18 X 37 Y 18 X 40 Y 18 X 44 Y 19 X 43 Y 18 X 41 Y 18 X 30 Y 18 X 17 Y 18 X 6 Y 18 X -2 Y 18 X -8 Y 19 X -13 Y 18 X -18 Y 18 X -23 Y 18 X -27 Y 18 X
 -33 Y 18 X -41 Y 18 X -45 Y 19 X -45 Y 18 X -55 Y 18 X -54 Y 18 X -58 Y 18 X -60 Y 18 X -63 Y 18 X -61 Y 19 X -59 Y 18 X -86 Y 18 X -61 Y 18 X -82 Y 18 X -77 Y 18 X -80 Y 18 X -115 Y 19 X -262 Y 18 X -144 Y 18 X -92 Y 399 X s 3 lw 227 218 m 1814 X s
 gsave  2268 2184 0 0 C 1535.83 68.259 t 0 r /Helvetica findfont 83.4277 sf 0 0 m (log\(cloneDist\)) show NC gr  227 271 m -53 Y s 287 245 m -27 Y s 348 245 m -27 Y s 408 245 m -27 Y s 469 245 m -27 Y s 529 271 m -53 Y s 590 245 m -27 Y s 650 245 m
 -27 Y s 711 245 m -27 Y s 771 245 m -27 Y s 831 271 m -53 Y s 892 245 m -27 Y s 952 245 m -27 Y s 1013 245 m -27 Y s 1073 245 m -27 Y s 1134 271 m -53 Y s 1194 245 m -27 Y s 1255 245 m -27 Y s 1315 245 m -27 Y s 1376 245 m -27 Y s 1436 271 m -53 Y s
 1497 245 m -27 Y s 1557 245 m -27 Y s 1618 245 m -27 Y s 1678 245 m -27 Y s 1739 271 m -53 Y s 1799 245 m -27 Y s 1860 245 m -27 Y s 1920 245 m -27 Y s 1980 245 m -27 Y s 2041 271 m -53 Y s
 gsave  2268 2184 0 0 C 204.777 155.479 t 0 r /Helvetica findfont 60.6747 sf 0 0 m (0) show NC gr 
 gsave  2268 2184 0 0 C 508.151 155.479 t 0 r /Helvetica findfont 60.6747 sf 0 0 m (5) show NC gr 
 gsave  2268 2184 0 0 C 796.355 155.479 t 0 r /Helvetica findfont 60.6747 sf 0 0 m (10) show NC gr 
 gsave  2268 2184 0 0 C 1099.73 155.479 t 0 r /Helvetica findfont 60.6747 sf 0 0 m (15) show NC gr 
 gsave  2268 2184 0 0 C 1399.31 155.479 t 0 r /Helvetica findfont 60.6747 sf 0 0 m (20) show NC gr 
 gsave  2268 2184 0 0 C 1702.68 155.479 t 0 r /Helvetica findfont 60.6747 sf 0 0 m (25) show NC gr 
 gsave  2268 2184 0 0 C 2006.06 155.479 t 0 r /Helvetica findfont 60.6747 sf 0 0 m (30) show NC gr  227 218 m 1748 Y s
 gsave  2268 2184 0 0 C 79.6355 561.241 t 90 r /Helvetica findfont 83.4277 sf 0 0 m (Normalized to same number of events) show NC gr  254 218 m -27 X s 254 242 m -27 X s 254 263 m -27 X s 254 280 m -27 X s 254 296 m -27 X s 281 310 m -54 X s
 gsave  2268 2184 0 0 C 209.991 283.757 t 0 r  -33 0 t /Helvetica findfont 60.6747 sf 0 0 m (1) show NC gr  254 401 m -27 X s 254 454 m -27 X s 254 492 m -27 X s 254 521 m -27 X s 254 545 m -27 X s 254 565 m -27 X s 254 583 m -27 X s 254 598 m -27 X
 s 281 612 m -54 X s
 gsave  2268 2184 0 0 C 209.991 586.433 t 0 r  -67 0 t /Helvetica findfont 60.6747 sf 0 0 m (10) show NC gr  254 703 m -27 X s 254 757 m -27 X s 254 794 m -27 X s 254 824 m -27 X s 254 848 m -27 X s 254 868 m -27 X s 254 886 m -27 X s 254 901 m -27 X
 s 281 915 m -54 X s
 gsave  2268 2184 0 0 C 185.816 917.705 t 0 r /Helvetica findfont 41.7138 sf 0 0 m (2) show NC gr 
 gsave  2268 2184 0 0 C 121.349 887.367 t 0 r /Helvetica findfont 60.6747 sf 0 0 m (10) show NC gr  254 1006 m -27 X s 254 1059 m -27 X s 254 1097 m -27 X s 254 1126 m -27 X s 254 1150 m -27 X s 254 1171 m -27 X s 254 1188 m -27 X s 254 1204 m -27 X
 s 281 1218 m -54 X s
 gsave  2268 2184 0 0 C 185.816 1224.87 t 0 r /Helvetica findfont 41.7138 sf 0 0 m (3) show NC gr 
 gsave  2268 2184 0 0 C 121.349 1190.74 t 0 r /Helvetica findfont 60.6747 sf 0 0 m (10) show NC gr  254 1309 m -27 X s 254 1362 m -27 X s 254 1400 m -27 X s 254 1429 m -27 X s 254 1453 m -27 X s 254 1473 m -27 X s 254 1491 m -27 X s 254 1506 m -27 X
 s 281 1520 m -54 X s
 gsave  2268 2184 0 0 C 185.816 1520.66 t 0 r /Helvetica findfont 41.7138 sf 0 0 m (4) show NC gr 
 gsave  2268 2184 0 0 C 121.349 1490.32 t 0 r /Helvetica findfont 60.6747 sf 0 0 m (10) show NC gr  254 1611 m -27 X s 254 1665 m -27 X s 254 1702 m -27 X s 254 1732 m -27 X s 254 1756 m -27 X s 254 1776 m -27 X s 254 1794 m -27 X s 254 1809 m -27 X
 s 281 1823 m -54 X s
 gsave  2268 2184 0 0 C 185.816 1827.82 t 0 r /Helvetica findfont 41.7138 sf 0 0 m (5) show NC gr 
 gsave  2268 2184 0 0 C 121.349 1793.7 t 0 r /Helvetica findfont 60.6747 sf 0 0 m (10) show NC gr  254 1914 m -27 X s 1 0 0 c 6 lw 1 1 1 c black 1 0 0 c 227 218 m 508 X 872 Y 18 X 52 Y 18 X -1 Y 18 X -21 Y 18 X -54 Y 18 X -40 Y 19 X -60 Y 18 X -66 Y
 18 X -64 Y 18 X -147 Y 18 X -33 Y 18 X -111 Y 18 X -91 Y 19 X -144 Y 36 X -92 Y 1034 X s black
 gsave  2268 2184 0 0 C 337.503 1858.16 t 0 r /Helvetica-Bold findfont 72.0512 sf 0 0 m (DATA) show NC gr  1 0 0 c black 1 0 0 c
 gsave  2268 2184 0 0 C 337.503 1748.19 t 0 r /Helvetica-Bold findfont 72.0512 sf 0 0 m (cloned pairs \(MC\)) show NC gr 
 gr  gr showpage
end
%%EOF
