%!PS-Adobe-2.0 EPSF-2.0
%%BoundingBox:  0 0 567 558
%%Title: ./MC_pion_0c65_h3101_2_h3401_2.eps: MC_pion_0c65_h3101_2_h3401_2
%%Creator: ROOT Version 6.06/02
%%CreationDate: Wed Feb  1 16:20:58 2017
%%DocumentNeededResources: ProcSet (FontSetInit)
%%EndComments
%%BeginProlog
80 dict begin
/s {stroke} def /l {lineto} def /m {moveto} def /t {translate} def
/r {rotate} def /rl {roll}  def /R {repeat} def
/d {rlineto} def /rm {rmoveto} def /gr {grestore} def /f {eofill} def
/c {setrgbcolor} def /black {0 setgray} def /sd {setdash} def
/cl {closepath} def /sf {scalefont setfont} def /lw {setlinewidth} def
/box {m dup 0 exch d exch 0 d 0 exch neg d cl} def
/NC{systemdict begin initclip end}def/C{NC box clip newpath}def
/bl {box s} def /bf {gsave box gsave f grestore 1 lw [] 0 sd s grestore} def /Y { 0 exch d} def /X { 0 d} def 
/K {{pop pop 0 moveto} exch kshow} bind def
/ita {/ang 15 def gsave [1 0 ang dup sin exch cos div 1 0 0] concat} def 
/mp {newpath /y exch def /x exch def} def
/side {[w .77 mul w .23 mul] .385 w mul sd w 0 l currentpoint t -144 r} def
/mr {mp x y w2 0 360 arc} def /m24 {mr s} def /m20 {mr f} def
/mb {mp x y w2 add m w2 neg 0 d 0 w neg d w 0 d 0 w d cl} def
/mt {mp x y w2 add m w2 neg w neg d w 0 d cl} def
/m21 {mb f} def /m25 {mb s} def /m22 {mt f} def /m26{mt s} def
/m23 {mp x y w2 sub m w2 w d w neg 0 d cl f} def
/m27 {mp x y w2 add m w3 neg w2 neg d w3 w2 neg d w3 w2 d cl s} def
/m28 {mp x w2 sub y w2 sub w3 add m w3 0 d  0 w3 neg d w3 0 d 0 w3 d w3 0 d  0 w3 d w3 neg 0 d 0 w3 d w3 neg 0 d 0 w3 neg d w3 neg 0 d cl s } def
/m29 {mp gsave x w2 sub y w2 add w3 sub m currentpoint t 4 {side} repeat cl fill gr} def
/m30 {mp gsave x w2 sub y w2 add w3 sub m currentpoint t 4 {side} repeat cl s gr} def
/m31 {mp x y w2 sub m 0 w d x w2 sub y m w 0 d x w2 sub y w2 add m w w neg d x w2 sub y w2 sub m w w d s} def
/m32 {mp x y w2 sub m w2 w d w neg 0 d cl s} def
/m33 {mp x y w2 add m w3 neg w2 neg d w3 w2 neg d w3 w2 d cl f} def
/m34 {mp x w2 sub y w2 sub w3 add m w3 0 d  0 w3 neg d w3 0 d 0 w3 d w3 0 d  0 w3 d w3 neg 0 d 0 w3 d w3 neg 0 d 0 w3 neg d w3 neg 0 d cl f } def
/m2 {mp x y w2 sub m 0 w d x w2 sub y m w 0 d s} def
/m5 {mp x w2 sub y w2 sub m w w d x w2 sub y w2 add m w w neg d s} def
%%IncludeResource: ProcSet (FontSetInit)
%%IncludeResource: font Times-Roman
%%IncludeResource: font Times-Italic
%%IncludeResource: font Times-Bold
%%IncludeResource: font Times-BoldItalic
%%IncludeResource: font Helvetica
%%IncludeResource: font Helvetica-Oblique
%%IncludeResource: font Helvetica-Bold
%%IncludeResource: font Helvetica-BoldOblique
%%IncludeResource: font Courier
%%IncludeResource: font Courier-Oblique
%%IncludeResource: font Courier-Bold
%%IncludeResource: font Courier-BoldOblique
%%IncludeResource: font Symbol
%%IncludeResource: font ZapfDingbats
/reEncode {exch findfont dup length dict begin {1 index /FID eq  {pop pop} {def} ifelse } forall /Encoding exch def currentdict end dup /FontName get exch definefont pop } def [/Times-Bold /Times-Italic /Times-BoldItalic /Helvetica /Helvetica-Oblique
 /Helvetica-Bold /Helvetica-BoldOblique /Courier /Courier-Oblique /Courier-Bold /Courier-BoldOblique /Times-Roman /AvantGarde-Book /AvantGarde-BookOblique /AvantGarde-Demi /AvantGarde-DemiOblique /Bookman-Demi /Bookman-DemiItalic /Bookman-Light
 /Bookman-LightItalic /Helvetica-Narrow /Helvetica-Narrow-Bold /Helvetica-Narrow-BoldOblique /Helvetica-Narrow-Oblique /NewCenturySchlbk-Roman /NewCenturySchlbk-Bold /NewCenturySchlbk-BoldItalic /NewCenturySchlbk-Italic /Palatino-Bold
 /Palatino-BoldItalic /Palatino-Italic /Palatino-Roman ] {ISOLatin1Encoding reEncode } forall
%%EndProlog
%%BeginSetup
%%EndSetup
newpath  gsave  .25 .25 scale  gsave  0 0 t black[  ] 0 sd 6 lw 1 1 1 c 2268 2234 0 0 bf black 3 lw 1 1 1 c 1882 1966 340 223 bf black 1882 1966 340 223 bl 1 1 1 c 1882 1966 340 223 bf black 1882 1966 340 223 bl 0 0 1 c 6 lw 1 1 1 c 0 0 1 c 390 1026
 m 11 Y s 390 1048 m 11 Y s 3 lw /w 14 def /w2 {w 2 div} def /w3 {w 3 div} def 390 1043 m21 6 lw 394 1032 m 10 Y s 394 1053 m 10 Y s 3 lw 394 1047 m21 6 lw 399 1047 m 8 Y s 399 1067 m 8 Y s 3 lw 399 1061 m21 6 lw 404 1064 m 8 Y s 404 1083 m 8 Y s 3
 lw 404 1078 m21 6 lw 408 1095 m 7 Y s 408 1113 m 7 Y s 3 lw 408 1107 m21 6 lw 413 1096 m 6 Y s 413 1114 m 6 Y s 3 lw 413 1108 m21 6 lw 418 1102 m 6 Y s 418 1119 m 6 Y s 3 lw 418 1114 m21 6 lw 423 1107 m 5 Y s 423 1123 m 5 Y s 3 lw 423 1118 m21 6 lw
 427 1109 m 5 Y s 427 1126 m 4 Y s 3 lw 427 1120 m21 6 lw 432 1120 m 4 Y s 432 1136 m 4 Y s 3 lw 432 1130 m21 6 lw 437 1106 m 3 Y s 437 1121 m 4 Y s 3 lw 437 1115 m21 6 lw 441 1143 m 4 Y s 441 1159 m 3 Y s 3 lw 441 1153 m21 6 lw 446 1123 m 3 Y s 446
 1138 m 3 Y s 3 lw 446 1132 m21 6 lw 451 1143 m 3 Y s 451 1158 m 3 Y s 3 lw 451 1152 m21 6 lw 455 1146 m 3 Y s 455 1161 m 3 Y s 3 lw 455 1155 m21 6 lw 460 1148 m 2 Y s 460 1162 m 2 Y s 3 lw 460 1156 m21 6 lw 465 1164 m 3 Y s 465 1178 m 3 Y s 3 lw 465
 1173 m21 6 lw 470 1170 m 2 Y s 470 1183 m 2 Y s 3 lw 470 1177 m21 6 lw 474 1177 m 2 Y s 474 1191 m 2 Y s 3 lw 474 1185 m21 6 lw 479 1174 m 2 Y s 479 1188 m 2 Y s 3 lw 479 1182 m21 6 lw 484 1184 m 2 Y s 484 1198 m 1 Y s 3 lw 484 1192 m21 6 lw 488
 1176 m 1 Y s 488 1189 m 1 Y s 3 lw 488 1183 m21 6 lw 493 1194 m 1 Y s 493 1207 m 1 Y s 3 lw 493 1201 m21 6 lw 498 1188 m 1 Y s 498 1201 m 1 Y s 3 lw 498 1195 m21 6 lw 502 1210 m 1 Y s 502 1222 m 2 Y s 3 lw 502 1217 m21 6 lw 507 1216 m 1 Y s 507 1228
 m 1 Y s 3 lw 507 1223 m21 6 lw 512 1212 m 1 Y s 512 1224 m 1 Y s 3 lw 512 1218 m21 6 lw 517 1211 m 1 Y s 517 1223 m 1 Y s 3 lw 517 1217 m21 6 lw 521 1222 m s 521 1234 m 1 Y s 3 lw 521 1228 m21 6 lw 526 1220 m s 526 1232 m 1 Y s 3 lw 526 1226 m21 6
 lw 531 1228 m 1 Y s 531 1240 m 1 Y s 3 lw 531 1234 m21 6 lw 535 1228 m s 535 1240 m s 3 lw 535 1234 m21 6 lw 540 1249 m 1 Y s 540 1261 m 1 Y s 3 lw 540 1255 m21 6 lw 545 1240 m s 545 1251 m 1 Y s 3 lw 545 1246 m21 6 lw 550 1248 m 1 Y s 550 1260 m 1
 Y s 3 lw 550 1255 m21 6 lw 554 1249 m 1 Y s 554 1261 m s 3 lw 554 1255 m21 6 lw 559 1244 m 1 Y s 559 1256 m s 3 lw 559 1250 m21 6 lw 564 1256 m s 564 1268 m s 3 lw 564 1262 m21 6 lw 568 1259 m s 568 1271 m s 3 lw 568 1265 m21 6 lw 573 1263 m s 573
 1274 m s 3 lw 573 1269 m21 6 lw 578 1273 m s 578 1284 m 1 Y s 3 lw 578 1279 m21 6 lw 582 1262 m s 582 1273 m s 3 lw 582 1267 m21 6 lw 3 lw 587 1271 m21 6 lw 3 lw 592 1272 m21 6 lw 3 lw 597 1268 m21 6 lw 3 lw 601 1262 m21 6 lw 3 lw 606 1265 m21 6 lw
 3 lw 611 1258 m21 6 lw 3 lw 615 1260 m21 6 lw 3 lw 620 1241 m21 6 lw 3 lw 625 1234 m21 6 lw 3 lw 630 1220 m21 6 lw 3 lw 634 1201 m21 6 lw 3 lw 639 1221 m21 6 lw 3 lw 644 1204 m21 6 lw 3 lw 648 1220 m21 6 lw 3 lw 653 1218 m21 6 lw 3 lw 658 1213 m21 6
 lw 3 lw 662 1221 m21 6 lw 3 lw 667 1213 m21 6 lw 3 lw 672 1211 m21 6 lw 3 lw 677 1212 m21 6 lw 3 lw 681 1214 m21 6 lw 3 lw 686 1219 m21 6 lw 3 lw 691 1215 m21 6 lw 3 lw 695 1219 m21 6 lw 3 lw 700 1220 m21 6 lw 3 lw 705 1217 m21 6 lw 3 lw 710 1210
 m21 6 lw 3 lw 714 1222 m21 6 lw 3 lw 719 1214 m21 6 lw 3 lw 724 1218 m21 6 lw 3 lw 728 1230 m21 6 lw 3 lw 733 1214 m21 6 lw 3 lw 738 1205 m21 6 lw 3 lw 742 1205 m21 6 lw 3 lw 747 1204 m21 6 lw 3 lw 752 1197 m21 6 lw 3 lw 757 1197 m21 6 lw 3 lw 761
 1194 m21 6 lw 3 lw 766 1198 m21 6 lw 3 lw 771 1192 m21 6 lw 3 lw 775 1187 m21 6 lw 3 lw 780 1188 m21 6 lw 3 lw 785 1186 m21 6 lw 3 lw 790 1175 m21 6 lw 3 lw 794 1165 m21 6 lw 3 lw 799 1183 m21 6 lw 3 lw 804 1173 m21 6 lw 3 lw 808 1166 m21 6 lw 3 lw
 813 1161 m21 6 lw 3 lw 818 1167 m21 6 lw 3 lw 822 1155 m21 6 lw 3 lw 827 1155 m21 6 lw 3 lw 832 1154 m21 6 lw 3 lw 837 1144 m21 6 lw 3 lw 841 1149 m21 6 lw 3 lw 846 1137 m21 6 lw 3 lw 851 1143 m21 6 lw 3 lw 855 1137 m21 6 lw 3 lw 860 1132 m21 6 lw 3
 lw 865 1126 m21 6 lw 3 lw 870 1127 m21 6 lw 3 lw 874 1127 m21 6 lw 3 lw 879 1126 m21 6 lw 3 lw 884 1124 m21 6 lw 3 lw 888 1120 m21 6 lw 3 lw 893 1118 m21 6 lw 3 lw 898 1120 m21 6 lw 3 lw 902 1132 m21 6 lw 3 lw 907 1122 m21 6 lw 3 lw 912 1126 m21 6
 lw 3 lw 917 1135 m21 6 lw 3 lw 921 1133 m21 6 lw 3 lw 926 1132 m21 6 lw 3 lw 931 1138 m21 6 lw 3 lw 935 1146 m21 6 lw 3 lw 940 1146 m21 6 lw 3 lw 945 1155 m21 6 lw 3 lw 950 1156 m21 6 lw 3 lw 954 1165 m21 6 lw 3 lw 959 1173 m21 6 lw 3 lw 964 1161
 m21 6 lw 3 lw 968 1177 m21 6 lw 3 lw 973 1181 m21 6 lw 3 lw 978 1188 m21 6 lw 3 lw 982 1199 m21 6 lw 3 lw 987 1204 m21 6 lw 3 lw 992 1195 m21 6 lw 3 lw 997 1220 m21 6 lw 3 lw 1001 1219 m21 6 lw 3 lw 1006 1218 m21 6 lw 3 lw 1011 1219 m21 6 lw 3 lw
 1015 1229 m21 6 lw 3 lw 1020 1233 m21 6 lw 3 lw 1025 1239 m21 6 lw 3 lw 1030 1237 m21 6 lw 3 lw 1034 1231 m21 6 lw 3 lw 1039 1211 m21 6 lw 3 lw 1044 1211 m21 6 lw 3 lw 1048 1198 m21 6 lw 3 lw 1053 1198 m21 6 lw 3 lw 1058 1188 m21 6 lw 3 lw 1062 1179
 m21 6 lw 3 lw 1067 1170 m21 6 lw 3 lw 1072 1167 m21 6 lw 3 lw 1077 1167 m21 6 lw 3 lw 1081 1153 m21 6 lw 3 lw 1086 1146 m21 6 lw 3 lw 1091 1145 m21 6 lw 3 lw 1095 1137 m21 6 lw 3 lw 1100 1131 m21 6 lw 3 lw 1105 1129 m21 6 lw 3 lw 1110 1122 m21 6 lw
 3 lw 1114 1126 m21 6 lw 3 lw 1119 1122 m21 6 lw 3 lw 1124 1108 m21 6 lw 3 lw 1128 1106 m21 6 lw 3 lw 1133 1112 m21 6 lw 3 lw 1138 1111 m21 6 lw 3 lw 1142 1098 m21 6 lw 3 lw 1147 1094 m21 6 lw 3 lw 1152 1087 m21 6 lw 3 lw 1157 1092 m21 6 lw 3 lw 1161
 1101 m21 6 lw 3 lw 1166 1084 m21 6 lw 3 lw 1171 1083 m21 6 lw 3 lw 1175 1080 m21 6 lw 3 lw 1180 1086 m21 6 lw 3 lw 1185 1085 m21 6 lw 3 lw 1190 1074 m21 6 lw 3 lw 1194 1073 m21 6 lw 3 lw 1199 1069 m21 6 lw 3 lw 1204 1066 m21 6 lw 3 lw 1208 1067 m21
 6 lw 3 lw 1213 1068 m21 6 lw 3 lw 1218 1073 m21 6 lw 3 lw 1222 1069 m21 6 lw 3 lw 1227 1059 m21 6 lw 3 lw 1232 1059 m21 6 lw 3 lw 1237 1054 m21 6 lw 3 lw 1241 1066 m21 6 lw 3 lw 1246 1062 m21 6 lw 3 lw 1251 1050 m21 6 lw 3 lw 1255 1063 m21 6 lw 3 lw
 1260 1055 m21 6 lw 3 lw 1265 1058 m21 6 lw 3 lw 1269 1054 m21 6 lw 3 lw 1274 1047 m21 6 lw 3 lw 1279 1047 m21 6 lw 3 lw 1284 1054 m21 6 lw 3 lw 1288 1050 m21 6 lw 3 lw 1293 1058 m21 6 lw 3 lw 1298 1038 m21 6 lw 3 lw 1302 1041 m21 6 lw 3 lw 1307 1034
 m21 6 lw 3 lw 1312 1041 m21 6 lw 3 lw 1317 1040 m21 6 lw 3 lw 1321 1034 m21 6 lw 3 lw 1326 1039 m21 6 lw 3 lw 1331 1044 m21 6 lw 3 lw 1335 1031 m21 6 lw 3 lw 1340 1036 m21 6 lw 3 lw 1345 1037 m21 6 lw 3 lw 1349 1034 m21 6 lw 3 lw 1354 1036 m21 6 lw
 3 lw 1359 1033 m21 6 lw 3 lw 1364 1028 m21 6 lw 3 lw 1368 1030 m21 6 lw 3 lw 1373 1035 m21 6 lw 3 lw 1378 1027 m21 6 lw 3 lw 1382 1020 m21 6 lw 3 lw 1387 1032 m21 6 lw 3 lw 1392 1033 m21 6 lw 3 lw 1397 1023 m21 6 lw 3 lw 1401 1027 m21 6 lw 3 lw 1406
 1023 m21 6 lw 3 lw 1411 1035 m21 6 lw 3 lw 1415 1035 m21 6 lw 3 lw 1420 1033 m21 6 lw 3 lw 1425 1020 m21 6 lw 3 lw 1429 1024 m21 6 lw 3 lw 1434 1018 m21 6 lw 3 lw 1439 1017 m21 6 lw 3 lw 1444 1028 m21 6 lw 3 lw 1448 1027 m21 6 lw 3 lw 1453 1024 m21
 6 lw 3 lw 1458 1021 m21 6 lw 3 lw 1462 1021 m21 6 lw 3 lw 1467 1013 m21 6 lw 3 lw 1472 1021 m21 6 lw 1477 1024 m s 1477 1036 m s 3 lw 1477 1030 m21 6 lw 1481 1022 m s 1481 1033 m s 3 lw 1481 1027 m21 6 lw 1486 1014 m s 1486 1025 m s 3 lw 1486 1020
 m21 6 lw 1491 1013 m 1 Y s 1491 1025 m s 3 lw 1491 1019 m21 6 lw 1495 1013 m s 1495 1024 m s 3 lw 1495 1019 m21 6 lw 1500 1011 m s 1500 1022 m s 3 lw 1500 1016 m21 6 lw 1505 1021 m s 1505 1033 m s 3 lw 1505 1027 m21 6 lw 1509 1012 m s 1509 1024 m s
 3 lw 1509 1018 m21 6 lw 1514 1018 m s 1514 1029 m 1 Y s 3 lw 1514 1024 m21 6 lw 1519 1022 m s 1519 1033 m 1 Y s 3 lw 1519 1028 m21 6 lw 1524 1009 m 1 Y s 1524 1021 m s 3 lw 1524 1015 m21 6 lw 1528 997 m s 1528 1009 m s 3 lw 1528 1003 m21 6 lw 1533
 1013 m s 1533 1025 m s 3 lw 1533 1019 m21 6 lw 1538 1008 m s 1538 1020 m s 3 lw 1538 1014 m21 6 lw 1542 1012 m s 1542 1023 m 1 Y s 3 lw 1542 1018 m21 6 lw 1547 1014 m s 1547 1025 m 1 Y s 3 lw 1547 1020 m21 6 lw 1552 1010 m s 1552 1022 m s 3 lw 1552
 1016 m21 6 lw 1557 1012 m s 1557 1023 m 1 Y s 3 lw 1557 1018 m21 6 lw 1561 1017 m s 1561 1028 m 1 Y s 3 lw 1561 1023 m21 6 lw 1566 1012 m s 1566 1023 m 1 Y s 3 lw 1566 1018 m21 6 lw 1571 1005 m s 1571 1017 m s 3 lw 1571 1011 m21 6 lw 1575 1004 m 1 Y
 s 1575 1016 m s 3 lw 1575 1010 m21 6 lw 1580 1003 m s 1580 1014 m 1 Y s 3 lw 1580 1009 m21 6 lw 1585 1006 m 1 Y s 1585 1018 m 1 Y s 3 lw 1585 1012 m21 6 lw 1589 1004 m 1 Y s 1589 1016 m 1 Y s 3 lw 1589 1011 m21 6 lw 1594 1004 m s 1594 1016 m s 3 lw
 1594 1010 m21 6 lw 1599 1006 m 1 Y s 1599 1018 m 1 Y s 3 lw 1599 1013 m21 6 lw 1604 998 m 1 Y s 1604 1010 m 1 Y s 3 lw 1604 1004 m21 6 lw 1608 1002 m 1 Y s 1608 1014 m 1 Y s 3 lw 1608 1008 m21 6 lw 1613 998 m 1 Y s 1613 1010 m 1 Y s 3 lw 1613 1004
 m21 6 lw 1618 991 m s 1618 1003 m s 3 lw 1618 997 m21 6 lw 1622 990 m 1 Y s 1622 1002 m 1 Y s 3 lw 1622 996 m21 6 lw 1627 987 m 1 Y s 1627 1000 m s 3 lw 1627 994 m21 6 lw 1632 995 m 1 Y s 1632 1008 m s 3 lw 1632 1002 m21 6 lw 1637 988 m 1 Y s 1637
 1000 m 1 Y s 3 lw 1637 995 m21 6 lw 1641 988 m 1 Y s 1641 1001 m s 3 lw 1641 995 m21 6 lw 1646 998 m s 1646 1010 m 1 Y s 3 lw 1646 1004 m21 6 lw 1651 1010 m 1 Y s 1651 1023 m 1 Y s 3 lw 1651 1017 m21 6 lw 1655 980 m 1 Y s 1655 992 m 1 Y s 3 lw 1655
 987 m21 6 lw 1660 1000 m 1 Y s 1660 1012 m 1 Y s 3 lw 1660 1007 m21 6 lw 1665 989 m 1 Y s 1665 1001 m 1 Y s 3 lw 1665 995 m21 6 lw 1669 991 m 1 Y s 1669 1003 m 1 Y s 3 lw 1669 998 m21 6 lw 1674 992 m 1 Y s 1674 1004 m 1 Y s 3 lw 1674 998 m21 6 lw
 1679 983 m 1 Y s 1679 995 m 1 Y s 3 lw 1679 990 m21 6 lw 1684 986 m 1 Y s 1684 999 m 1 Y s 3 lw 1684 993 m21 6 lw 1688 987 m 1 Y s 1688 999 m 1 Y s 3 lw 1688 994 m21 6 lw 1693 987 m 1 Y s 1693 1000 m 1 Y s 3 lw 1693 994 m21 6 lw 1698 991 m 2 Y s
 1698 1004 m 1 Y s 3 lw 1698 998 m21 6 lw 1702 983 m 1 Y s 1702 995 m 2 Y s 3 lw 1702 990 m21 6 lw 1707 977 m 1 Y s 1707 989 m 1 Y s 3 lw 1707 984 m21 6 lw 1712 985 m 2 Y s 1712 998 m 1 Y s 3 lw 1712 992 m21 6 lw 1717 986 m 2 Y s 1717 999 m 1 Y s 3
 lw 1717 993 m21 6 lw 1721 990 m 1 Y s 1721 1003 m 1 Y s 3 lw 1721 997 m21 6 lw 1726 990 m 1 Y s 1726 1002 m 2 Y s 3 lw 1726 997 m21 6 lw 1731 991 m 1 Y s 1731 1004 m 1 Y s 3 lw 1731 998 m21 6 lw 1735 976 m 2 Y s 1735 989 m 2 Y s 3 lw 1735 984 m21 6
 lw 1740 975 m 2 Y s 1740 988 m 1 Y s 3 lw 1740 982 m21 6 lw 1745 976 m 1 Y s 1745 989 m 1 Y s 3 lw 1745 983 m21 6 lw 1749 980 m 2 Y s 1749 993 m 2 Y s 3 lw 1749 987 m21 6 lw 1754 972 m 2 Y s 1754 985 m 2 Y s 3 lw 1754 980 m21 6 lw 1759 984 m 1 Y s
 1759 997 m 1 Y s 3 lw 1759 991 m21 6 lw 1764 980 m 1 Y s 1764 993 m 2 Y s 3 lw 1764 987 m21 6 lw 1768 977 m 2 Y s 1768 990 m 2 Y s 3 lw 1768 985 m21 6 lw 1773 969 m 2 Y s 1773 982 m 2 Y s 3 lw 1773 977 m21 6 lw 1778 981 m 2 Y s 1778 994 m 2 Y s 3 lw
 1778 989 m21 6 lw 1782 965 m 2 Y s 1782 978 m 2 Y s 3 lw 1782 972 m21 6 lw 1787 989 m 2 Y s 1787 1002 m 2 Y s 3 lw 1787 997 m21 6 lw 1792 986 m 2 Y s 1792 1000 m 1 Y s 3 lw 1792 994 m21 6 lw 1797 971 m 2 Y s 1797 984 m 2 Y s 3 lw 1797 979 m21 6 lw
 1801 973 m 2 Y s 1801 986 m 2 Y s 3 lw 1801 981 m21 6 lw 1806 981 m 2 Y s 1806 994 m 2 Y s 3 lw 1806 988 m21 6 lw 1811 984 m 2 Y s 1811 998 m 2 Y s 3 lw 1811 992 m21 6 lw 1815 988 m 2 Y s 1815 1002 m 2 Y s 3 lw 1815 996 m21 6 lw 1820 971 m 2 Y s
 1820 984 m 2 Y s 3 lw 1820 979 m21 6 lw 1825 976 m 2 Y s 1825 989 m 2 Y s 3 lw 1825 984 m21 6 lw 1829 978 m 2 Y s 1829 991 m 3 Y s 3 lw 1829 986 m21 6 lw 1834 993 m 2 Y s 1834 1007 m 2 Y s 3 lw 1834 1001 m21 6 lw 1839 974 m 2 Y s 1839 987 m 3 Y s 3
 lw 1839 982 m21 6 lw 1844 966 m 2 Y s 1844 979 m 2 Y s 3 lw 1844 974 m21 6 lw 1848 962 m 2 Y s 1848 975 m 2 Y s 3 lw 1848 970 m21 6 lw 1853 980 m 2 Y s 1853 994 m 2 Y s 3 lw 1853 988 m21 6 lw 1858 966 m 2 Y s 1858 979 m 3 Y s 3 lw 1858 974 m21 6 lw
 1862 971 m 2 Y s 1862 985 m 2 Y s 3 lw 1862 979 m21 6 lw 1867 973 m 3 Y s 1867 987 m 2 Y s 3 lw 1867 981 m21 6 lw 1872 973 m 3 Y s 1872 987 m 3 Y s 3 lw 1872 981 m21 6 lw 1877 970 m 3 Y s 1877 984 m 3 Y s 3 lw 1877 978 m21 6 lw 1881 980 m 3 Y s 1881
 994 m 3 Y s 3 lw 1881 989 m21 6 lw 1886 964 m 3 Y s 1886 978 m 3 Y s 3 lw 1886 973 m21 6 lw 1891 976 m 3 Y s 1891 990 m 3 Y s 3 lw 1891 984 m21 6 lw 1895 969 m 2 Y s 1895 983 m 2 Y s 3 lw 1895 977 m21 6 lw 1900 965 m 3 Y s 1900 979 m 3 Y s 3 lw 1900
 974 m21 6 lw 1905 976 m 3 Y s 1905 990 m 3 Y s 3 lw 1905 985 m21 6 lw 1909 973 m 2 Y s 1909 987 m 3 Y s 3 lw 1909 981 m21 6 lw 1914 973 m 2 Y s 1914 987 m 3 Y s 3 lw 1914 981 m21 6 lw 1919 964 m 3 Y s 1919 978 m 3 Y s 3 lw 1919 973 m21 6 lw 1924 971
 m 2 Y s 1924 985 m 3 Y s 3 lw 1924 979 m21 6 lw 1928 967 m 3 Y s 1928 981 m 3 Y s 3 lw 1928 975 m21 6 lw 1933 977 m 3 Y s 1933 992 m 3 Y s 3 lw 1933 986 m21 6 lw 1938 968 m 3 Y s 1938 983 m 3 Y s 3 lw 1938 977 m21 6 lw 1942 964 m 3 Y s 1942 978 m 3
 Y s 3 lw 1942 973 m21 6 lw 1947 986 m 3 Y s 1947 1001 m 3 Y s 3 lw 1947 995 m21 6 lw 1952 963 m 4 Y s 1952 978 m 3 Y s 3 lw 1952 972 m21 6 lw 1957 985 m 3 Y s 1957 999 m 4 Y s 3 lw 1957 994 m21 6 lw 1961 978 m 3 Y s 1961 992 m 3 Y s 3 lw 1961 987
 m21 6 lw 1966 950 m 3 Y s 1966 964 m 3 Y s 3 lw 1966 958 m21 6 lw 1971 973 m 3 Y s 1971 988 m 3 Y s 3 lw 1971 982 m21 6 lw 1975 966 m 3 Y s 1975 980 m 4 Y s 3 lw 1975 975 m21 6 lw 1980 974 m 3 Y s 1980 989 m 3 Y s 3 lw 1980 983 m21 6 lw 1985 967 m 3
 Y s 1985 981 m 4 Y s 3 lw 1985 976 m21 6 lw 1989 975 m 3 Y s 1989 989 m 4 Y s 3 lw 1989 984 m21 6 lw 1994 973 m 4 Y s 1994 988 m 4 Y s 3 lw 1994 982 m21 6 lw 1999 983 m 4 Y s 1999 998 m 4 Y s 3 lw 1999 992 m21 6 lw 2004 973 m 3 Y s 2004 988 m 3 Y s
 3 lw 2004 982 m21 6 lw 2008 972 m 4 Y s 2008 987 m 4 Y s 3 lw 2008 982 m21 6 lw 2013 972 m 4 Y s 2013 988 m 3 Y s 3 lw 2013 982 m21 6 lw 2018 955 m 3 Y s 2018 970 m 3 Y s 3 lw 2018 964 m21 6 lw 2022 977 m 4 Y s 2022 993 m 3 Y s 3 lw 2022 987 m21 6
 lw 2027 953 m 4 Y s 2027 968 m 4 Y s 3 lw 2027 963 m21 6 lw 2032 975 m 4 Y s 2032 990 m 4 Y s 3 lw 2032 985 m21 6 lw 2036 957 m 4 Y s 2036 973 m 3 Y s 3 lw 2036 967 m21 6 lw 2041 955 m 4 Y s 2041 971 m 3 Y s 3 lw 2041 965 m21 6 lw 2046 948 m 4 Y s
 2046 963 m 4 Y s 3 lw 2046 957 m21 6 lw 2051 951 m 4 Y s 2051 966 m 4 Y s 3 lw 2051 961 m21 6 lw 2055 970 m 4 Y s 2055 986 m 4 Y s 3 lw 2055 980 m21 6 lw 2060 950 m 4 Y s 2060 965 m 4 Y s 3 lw 2060 960 m21 6 lw 2065 968 m 4 Y s 2065 984 m 4 Y s 3 lw
 2065 978 m21 6 lw 2069 975 m 4 Y s 2069 991 m 4 Y s 3 lw 2069 985 m21 6 lw 2074 970 m 4 Y s 2074 985 m 5 Y s 3 lw 2074 980 m21 6 lw 2079 974 m 5 Y s 2079 990 m 4 Y s 3 lw 2079 984 m21 6 lw 2084 955 m 4 Y s 2084 970 m 5 Y s 3 lw 2084 965 m21 6 lw
 2088 965 m 4 Y s 2088 981 m 4 Y s 3 lw 2088 975 m21 6 lw 2093 947 m 5 Y s 2093 963 m 4 Y s 3 lw 2093 957 m21 6 lw 2098 975 m 4 Y s 2098 990 m 5 Y s 3 lw 2098 985 m21 6 lw 2102 961 m 4 Y s 2102 977 m 4 Y s 3 lw 2102 971 m21 6 lw 2107 950 m 4 Y s 2107
 966 m 4 Y s 3 lw 2107 960 m21 6 lw 2112 978 m 4 Y s 2112 994 m 4 Y s 3 lw 2112 988 m21 6 lw 2116 972 m 5 Y s 2116 988 m 5 Y s 3 lw 2116 982 m21 6 lw 2121 978 m 5 Y s 2121 994 m 5 Y s 3 lw 2121 988 m21 6 lw 2126 967 m 4 Y s 2126 983 m 5 Y s 3 lw 2126
 977 m21 6 lw 2131 956 m 5 Y s 2131 972 m 5 Y s 3 lw 2131 967 m21 6 lw 2135 969 m 5 Y s 2135 985 m 5 Y s 3 lw 2135 979 m21 6 lw 2140 948 m 5 Y s 2140 964 m 5 Y s 3 lw 2140 959 m21 6 lw 2145 960 m 5 Y s 2145 976 m 5 Y s 3 lw 2145 971 m21 6 lw 2149 961
 m 5 Y s 2149 977 m 5 Y s 3 lw 2149 972 m21 6 lw 2154 944 m 5 Y s 2154 961 m 5 Y s 3 lw 2154 955 m21 6 lw 2159 970 m 5 Y s 2159 986 m 5 Y s 3 lw 2159 980 m21 6 lw 2164 967 m 5 Y s 2164 984 m 5 Y s 3 lw 2164 978 m21 6 lw 2168 990 m 6 Y s 2168 1007 m 5
 Y s 3 lw 2168 1001 m21 6 lw 2173 969 m 5 Y s 2173 985 m 5 Y s 3 lw 2173 979 m21 6 lw 2178 967 m 6 Y s 2178 984 m 5 Y s 3 lw 2178 978 m21 6 lw 2182 973 m 5 Y s 2182 989 m 6 Y s 3 lw 2182 984 m21 6 lw 2187 960 m 5 Y s 2187 977 m 5 Y s 3 lw 2187 971
 m21 6 lw 2192 961 m 6 Y s 2192 978 m 6 Y s 3 lw 2192 973 m21 6 lw 2196 969 m 6 Y s 2196 986 m 6 Y s 3 lw 2196 981 m21 6 lw 2201 968 m 5 Y s 2201 985 m 5 Y s 3 lw 2201 979 m21 6 lw 2206 1004 m 6 Y s 2206 1022 m 6 Y s 3 lw 2206 1016 m21 6 lw 2211 972
 m 6 Y s 2211 990 m 5 Y s 3 lw 2211 984 m21 6 lw 2215 964 m 5 Y s 2215 981 m 5 Y s 3 lw 2215 975 m21 6 lw 2220 977 m 6 Y s 2220 994 m 6 Y s 3 lw 2220 988 m21 6 lw black 340 223 m 1882 X s
 gsave  2268 2234 0 0 C 1923.86 58.2559 t 0 r /Helvetica findfont 83.8316 sf 0 0 m (Q [GeV]) show NC gr  340 279 m -56 Y s 387 251 m -28 Y s 434 251 m -28 Y s 481 251 m -28 Y s 528 279 m -56 Y s 575 251 m -28 Y s 622 251 m -28 Y s 670 251 m -28 Y s
 717 279 m -56 Y s 764 251 m -28 Y s 811 251 m -28 Y s 858 251 m -28 Y s 905 279 m -56 Y s 952 251 m -28 Y s 999 251 m -28 Y s 1046 251 m -28 Y s 1093 279 m -56 Y s 1140 251 m -28 Y s 1187 251 m -28 Y s 1234 251 m -28 Y s 1281 279 m -56 Y s 1328 251
 m -28 Y s 1375 251 m -28 Y s 1422 251 m -28 Y s 1469 279 m -56 Y s 1517 251 m -28 Y s 1564 251 m -28 Y s 1611 251 m -28 Y s 1658 279 m -56 Y s 1705 251 m -28 Y s 1752 251 m -28 Y s 1799 251 m -28 Y s 1846 279 m -56 Y s 1893 251 m -28 Y s 1940 251 m
 -28 Y s 1987 251 m -28 Y s 2034 279 m -56 Y s 2081 251 m -28 Y s 2128 251 m -28 Y s 2175 251 m -28 Y s 2222 279 m -56 Y s
 gsave  2268 2234 0 0 C 322.539 159.138 t 0 r /Helvetica findfont 62.5185 sf 0 0 m (0) show NC gr 
 gsave  2268 2234 0 0 C 484.518 159.138 t 0 r /Helvetica findfont 62.5185 sf 0 0 m (0.2) show NC gr 
 gsave  2268 2234 0 0 C 673.495 159.138 t 0 r /Helvetica findfont 62.5185 sf 0 0 m (0.4) show NC gr 
 gsave  2268 2234 0 0 C 861.05 159.138 t 0 r /Helvetica findfont 62.5185 sf 0 0 m (0.6) show NC gr 
 gsave  2268 2234 0 0 C 1050.03 159.138 t 0 r /Helvetica findfont 62.5185 sf 0 0 m (0.8) show NC gr 
 gsave  2268 2234 0 0 C 1268.84 159.138 t 0 r /Helvetica findfont 62.5185 sf 0 0 m (1) show NC gr 
 gsave  2268 2234 0 0 C 1426.56 159.138 t 0 r /Helvetica findfont 62.5185 sf 0 0 m (1.2) show NC gr 
 gsave  2268 2234 0 0 C 1614.11 159.138 t 0 r /Helvetica findfont 62.5185 sf 0 0 m (1.4) show NC gr 
 gsave  2268 2234 0 0 C 1803.09 159.138 t 0 r /Helvetica findfont 62.5185 sf 0 0 m (1.6) show NC gr 
 gsave  2268 2234 0 0 C 1990.65 159.138 t 0 r /Helvetica findfont 62.5185 sf 0 0 m (1.8) show NC gr 
 gsave  2268 2234 0 0 C 2205.2 159.138 t 0 r /Helvetica findfont 62.5185 sf 0 0 m (2) show NC gr  340 223 m 1966 Y s
 gsave  2268 2234 0 0 C 147.771 1547.33 t 90 r /Helvetica findfont 83.8316 sf 0 0 m (\(Q\) / \(0.005 GeV\)) show NC gr 
 gsave  2268 2234 0 0 C 174.768 1518.92 t 90 r /Helvetica findfont 55.4141 sf 0 0 m (2) show NC gr 
 gsave  2268 2234 0 0 C 147.771 1437.93 t 90 r /Helvetica findfont 83.8316 sf 0 0 m ( C) show NC gr  400 402 m -60 X s 370 491 m -30 X s 370 581 m -30 X s 370 670 m -30 X s 400 759 m -60 X s 370 849 m -30 X s 370 938 m -30 X s 370 1027 m -30 X s 400
 1117 m -60 X s 370 1206 m -30 X s 370 1295 m -30 X s 370 1385 m -30 X s 400 1474 m -60 X s 370 1564 m -30 X s 370 1653 m -30 X s 370 1742 m -30 X s 400 1832 m -60 X s 370 1921 m -30 X s 370 2010 m -30 X s 370 2100 m -30 X s 400 2189 m -60 X s 400
 402 m -60 X s 370 313 m -30 X s 370 223 m -30 X s
 gsave  2268 2234 0 0 C 242.97 379.374 t 0 r /Helvetica findfont 62.5185 sf 0 0 m (0.6) show NC gr 
 gsave  2268 2234 0 0 C 242.97 737.434 t 0 r /Helvetica findfont 62.5185 sf 0 0 m (0.8) show NC gr 
 gsave  2268 2234 0 0 C 305.488 1092.65 t 0 r /Helvetica findfont 62.5185 sf 0 0 m (1) show NC gr 
 gsave  2268 2234 0 0 C 242.97 1450.71 t 0 r /Helvetica findfont 62.5185 sf 0 0 m (1.2) show NC gr 
 gsave  2268 2234 0 0 C 242.97 1808.77 t 0 r /Helvetica findfont 62.5185 sf 0 0 m (1.4) show NC gr 
 gsave  2268 2234 0 0 C 242.97 2166.83 t 0 r /Helvetica findfont 62.5185 sf 0 0 m (1.6) show NC gr 
 gsave  2268 2234 0 0 C 906.518 670.653 t 0 r /Helvetica-Bold findfont 72.4646 sf 0 0 m (MC PIONS) show NC gr 
 gsave  2268 2234 0 0 C 906.518 558.404 t 0 r /Helvetica-Bold findfont 72.4646 sf 0 0 m (ref. sample: EVENT MIX) show NC gr 
 gsave  2268 2234 0 0 C 906.518 447.576 t 0 r /Helvetica-Bold findfont 72.4646 sf 0 0 m (VELO tracks multiplicity: 11 \255 20) show NC gr 
 gr  gr showpage
end
%%EOF
