%!PS-Adobe-2.0 EPSF-2.0
%%BoundingBox:  0 0 567 558
%%Title: ./RD_pion_0c65_h3115_3_h3401_3.eps: RD_pion_0c65_h3115_3_h3401_3
%%Creator: ROOT Version 6.06/02
%%CreationDate: Wed Feb  1 16:20:58 2017
%%DocumentNeededResources: ProcSet (FontSetInit)
%%EndComments
%%BeginProlog
80 dict begin
/s {stroke} def /l {lineto} def /m {moveto} def /t {translate} def
/r {rotate} def /rl {roll}  def /R {repeat} def
/d {rlineto} def /rm {rmoveto} def /gr {grestore} def /f {eofill} def
/c {setrgbcolor} def /black {0 setgray} def /sd {setdash} def
/cl {closepath} def /sf {scalefont setfont} def /lw {setlinewidth} def
/box {m dup 0 exch d exch 0 d 0 exch neg d cl} def
/NC{systemdict begin initclip end}def/C{NC box clip newpath}def
/bl {box s} def /bf {gsave box gsave f grestore 1 lw [] 0 sd s grestore} def /Y { 0 exch d} def /X { 0 d} def 
/K {{pop pop 0 moveto} exch kshow} bind def
/ita {/ang 15 def gsave [1 0 ang dup sin exch cos div 1 0 0] concat} def 
/mp {newpath /y exch def /x exch def} def
/side {[w .77 mul w .23 mul] .385 w mul sd w 0 l currentpoint t -144 r} def
/mr {mp x y w2 0 360 arc} def /m24 {mr s} def /m20 {mr f} def
/mb {mp x y w2 add m w2 neg 0 d 0 w neg d w 0 d 0 w d cl} def
/mt {mp x y w2 add m w2 neg w neg d w 0 d cl} def
/m21 {mb f} def /m25 {mb s} def /m22 {mt f} def /m26{mt s} def
/m23 {mp x y w2 sub m w2 w d w neg 0 d cl f} def
/m27 {mp x y w2 add m w3 neg w2 neg d w3 w2 neg d w3 w2 d cl s} def
/m28 {mp x w2 sub y w2 sub w3 add m w3 0 d  0 w3 neg d w3 0 d 0 w3 d w3 0 d  0 w3 d w3 neg 0 d 0 w3 d w3 neg 0 d 0 w3 neg d w3 neg 0 d cl s } def
/m29 {mp gsave x w2 sub y w2 add w3 sub m currentpoint t 4 {side} repeat cl fill gr} def
/m30 {mp gsave x w2 sub y w2 add w3 sub m currentpoint t 4 {side} repeat cl s gr} def
/m31 {mp x y w2 sub m 0 w d x w2 sub y m w 0 d x w2 sub y w2 add m w w neg d x w2 sub y w2 sub m w w d s} def
/m32 {mp x y w2 sub m w2 w d w neg 0 d cl s} def
/m33 {mp x y w2 add m w3 neg w2 neg d w3 w2 neg d w3 w2 d cl f} def
/m34 {mp x w2 sub y w2 sub w3 add m w3 0 d  0 w3 neg d w3 0 d 0 w3 d w3 0 d  0 w3 d w3 neg 0 d 0 w3 d w3 neg 0 d 0 w3 neg d w3 neg 0 d cl f } def
/m2 {mp x y w2 sub m 0 w d x w2 sub y m w 0 d s} def
/m5 {mp x w2 sub y w2 sub m w w d x w2 sub y w2 add m w w neg d s} def
%%IncludeResource: ProcSet (FontSetInit)
%%IncludeResource: font Times-Roman
%%IncludeResource: font Times-Italic
%%IncludeResource: font Times-Bold
%%IncludeResource: font Times-BoldItalic
%%IncludeResource: font Helvetica
%%IncludeResource: font Helvetica-Oblique
%%IncludeResource: font Helvetica-Bold
%%IncludeResource: font Helvetica-BoldOblique
%%IncludeResource: font Courier
%%IncludeResource: font Courier-Oblique
%%IncludeResource: font Courier-Bold
%%IncludeResource: font Courier-BoldOblique
%%IncludeResource: font Symbol
%%IncludeResource: font ZapfDingbats
/reEncode {exch findfont dup length dict begin {1 index /FID eq  {pop pop} {def} ifelse } forall /Encoding exch def currentdict end dup /FontName get exch definefont pop } def [/Times-Bold /Times-Italic /Times-BoldItalic /Helvetica /Helvetica-Oblique
 /Helvetica-Bold /Helvetica-BoldOblique /Courier /Courier-Oblique /Courier-Bold /Courier-BoldOblique /Times-Roman /AvantGarde-Book /AvantGarde-BookOblique /AvantGarde-Demi /AvantGarde-DemiOblique /Bookman-Demi /Bookman-DemiItalic /Bookman-Light
 /Bookman-LightItalic /Helvetica-Narrow /Helvetica-Narrow-Bold /Helvetica-Narrow-BoldOblique /Helvetica-Narrow-Oblique /NewCenturySchlbk-Roman /NewCenturySchlbk-Bold /NewCenturySchlbk-BoldItalic /NewCenturySchlbk-Italic /Palatino-Bold
 /Palatino-BoldItalic /Palatino-Italic /Palatino-Roman ] {ISOLatin1Encoding reEncode } forall
%%EndProlog
%%BeginSetup
%%EndSetup
newpath  gsave  .25 .25 scale  gsave  0 0 t black[  ] 0 sd 6 lw 1 1 1 c 2268 2234 0 0 bf black 3 lw 1 1 1 c 1882 1966 340 223 bf black 1882 1966 340 223 bl 1 1 1 c 1882 1966 340 223 bf black 1882 1966 340 223 bl 0 0 1 c 6 lw 1 1 1 c 0 0 1 c 390 971 m
 10 Y s 390 992 m 10 Y s 3 lw /w 14 def /w2 {w 2 div} def /w3 {w 3 div} def 390 986 m21 6 lw 394 1026 m 9 Y s 394 1047 m 9 Y s 3 lw 394 1041 m21 6 lw 399 1018 m 8 Y s 399 1038 m 7 Y s 3 lw 399 1032 m21 6 lw 404 1019 m 7 Y s 404 1037 m 7 Y s 3 lw 404
 1032 m21 6 lw 408 1044 m 7 Y s 408 1062 m 6 Y s 3 lw 408 1056 m21 6 lw 413 1060 m 6 Y s 413 1077 m 6 Y s 3 lw 413 1071 m21 6 lw 418 1061 m 5 Y s 418 1077 m 5 Y s 3 lw 418 1071 m21 6 lw 423 1064 m 5 Y s 423 1080 m 5 Y s 3 lw 423 1075 m21 6 lw 427
 1088 m 5 Y s 427 1104 m 4 Y s 3 lw 427 1098 m21 6 lw 432 1082 m 4 Y s 432 1097 m 4 Y s 3 lw 432 1091 m21 6 lw 437 1087 m 3 Y s 437 1102 m 3 Y s 3 lw 437 1096 m21 6 lw 441 1096 m 3 Y s 441 1110 m 3 Y s 3 lw 441 1104 m21 6 lw 446 1092 m 3 Y s 446 1106
 m 3 Y s 3 lw 446 1101 m21 6 lw 451 1106 m 3 Y s 451 1120 m 3 Y s 3 lw 451 1115 m21 6 lw 455 1121 m 3 Y s 455 1135 m 2 Y s 3 lw 455 1129 m21 6 lw 460 1109 m 2 Y s 460 1123 m 2 Y s 3 lw 460 1117 m21 6 lw 465 1109 m 2 Y s 465 1123 m 2 Y s 3 lw 465 1117
 m21 6 lw 470 1128 m 2 Y s 470 1142 m 1 Y s 3 lw 470 1136 m21 6 lw 474 1128 m 1 Y s 474 1141 m 1 Y s 3 lw 474 1135 m21 6 lw 479 1130 m 1 Y s 479 1143 m 1 Y s 3 lw 479 1137 m21 6 lw 484 1130 m 1 Y s 484 1142 m 2 Y s 3 lw 484 1137 m21 6 lw 488 1139 m 1
 Y s 488 1152 m 1 Y s 3 lw 488 1146 m21 6 lw 493 1142 m 1 Y s 493 1154 m 1 Y s 3 lw 493 1148 m21 6 lw 498 1143 m 1 Y s 498 1155 m 1 Y s 3 lw 498 1149 m21 6 lw 502 1143 m s 502 1155 m 1 Y s 3 lw 502 1149 m21 6 lw 507 1133 m 1 Y s 507 1145 m 1 Y s 3 lw
 507 1140 m21 6 lw 512 1147 m s 512 1159 m s 3 lw 512 1153 m21 6 lw 517 1146 m 1 Y s 517 1158 m s 3 lw 517 1152 m21 6 lw 521 1151 m 1 Y s 521 1163 m 1 Y s 3 lw 521 1157 m21 6 lw 526 1163 m s 526 1174 m 1 Y s 3 lw 526 1169 m21 6 lw 531 1153 m s 531
 1164 m 1 Y s 3 lw 531 1159 m21 6 lw 535 1172 m s 535 1184 m s 3 lw 535 1178 m21 6 lw 540 1162 m s 540 1174 m s 3 lw 540 1168 m21 6 lw 545 1168 m 1 Y s 545 1180 m s 3 lw 545 1174 m21 6 lw 550 1166 m s 550 1178 m s 3 lw 550 1172 m21 6 lw 3 lw 554 1185
 m21 6 lw 3 lw 559 1184 m21 6 lw 3 lw 564 1187 m21 6 lw 3 lw 568 1181 m21 6 lw 3 lw 573 1188 m21 6 lw 3 lw 578 1185 m21 6 lw 3 lw 582 1187 m21 6 lw 3 lw 587 1183 m21 6 lw 3 lw 592 1189 m21 6 lw 3 lw 597 1192 m21 6 lw 3 lw 601 1200 m21 6 lw 3 lw 606
 1182 m21 6 lw 3 lw 611 1193 m21 6 lw 3 lw 615 1192 m21 6 lw 3 lw 620 1179 m21 6 lw 3 lw 625 1178 m21 6 lw 3 lw 630 1172 m21 6 lw 3 lw 634 1175 m21 6 lw 3 lw 639 1186 m21 6 lw 3 lw 644 1183 m21 6 lw 3 lw 648 1181 m21 6 lw 3 lw 653 1175 m21 6 lw 3 lw
 658 1179 m21 6 lw 3 lw 662 1175 m21 6 lw 3 lw 667 1176 m21 6 lw 3 lw 672 1177 m21 6 lw 3 lw 677 1171 m21 6 lw 3 lw 681 1181 m21 6 lw 3 lw 686 1183 m21 6 lw 3 lw 691 1189 m21 6 lw 3 lw 695 1182 m21 6 lw 3 lw 700 1175 m21 6 lw 3 lw 705 1180 m21 6 lw 3
 lw 710 1177 m21 6 lw 3 lw 714 1185 m21 6 lw 3 lw 719 1185 m21 6 lw 3 lw 724 1187 m21 6 lw 3 lw 728 1184 m21 6 lw 3 lw 733 1186 m21 6 lw 3 lw 738 1174 m21 6 lw 3 lw 742 1169 m21 6 lw 3 lw 747 1178 m21 6 lw 3 lw 752 1177 m21 6 lw 3 lw 757 1169 m21 6
 lw 3 lw 761 1173 m21 6 lw 3 lw 766 1173 m21 6 lw 3 lw 771 1171 m21 6 lw 3 lw 775 1174 m21 6 lw 3 lw 780 1166 m21 6 lw 3 lw 785 1172 m21 6 lw 3 lw 790 1167 m21 6 lw 3 lw 794 1168 m21 6 lw 3 lw 799 1161 m21 6 lw 3 lw 804 1156 m21 6 lw 3 lw 808 1159
 m21 6 lw 3 lw 813 1158 m21 6 lw 3 lw 818 1158 m21 6 lw 3 lw 822 1162 m21 6 lw 3 lw 827 1154 m21 6 lw 3 lw 832 1153 m21 6 lw 3 lw 837 1152 m21 6 lw 3 lw 841 1147 m21 6 lw 3 lw 846 1150 m21 6 lw 3 lw 851 1143 m21 6 lw 3 lw 855 1146 m21 6 lw 3 lw 860
 1147 m21 6 lw 3 lw 865 1136 m21 6 lw 3 lw 870 1139 m21 6 lw 3 lw 874 1148 m21 6 lw 3 lw 879 1143 m21 6 lw 3 lw 884 1135 m21 6 lw 3 lw 888 1138 m21 6 lw 3 lw 893 1137 m21 6 lw 3 lw 898 1144 m21 6 lw 3 lw 902 1139 m21 6 lw 3 lw 907 1148 m21 6 lw 3 lw
 912 1139 m21 6 lw 3 lw 917 1147 m21 6 lw 3 lw 921 1147 m21 6 lw 3 lw 926 1133 m21 6 lw 3 lw 931 1141 m21 6 lw 3 lw 935 1148 m21 6 lw 3 lw 940 1152 m21 6 lw 3 lw 945 1149 m21 6 lw 3 lw 950 1147 m21 6 lw 3 lw 954 1151 m21 6 lw 3 lw 959 1147 m21 6 lw 3
 lw 964 1149 m21 6 lw 3 lw 968 1156 m21 6 lw 3 lw 973 1153 m21 6 lw 3 lw 978 1152 m21 6 lw 3 lw 982 1151 m21 6 lw 3 lw 987 1152 m21 6 lw 3 lw 992 1154 m21 6 lw 3 lw 997 1156 m21 6 lw 3 lw 1001 1160 m21 6 lw 3 lw 1006 1153 m21 6 lw 3 lw 1011 1148 m21
 6 lw 3 lw 1015 1148 m21 6 lw 3 lw 1020 1142 m21 6 lw 3 lw 1025 1145 m21 6 lw 3 lw 1030 1137 m21 6 lw 3 lw 1034 1133 m21 6 lw 3 lw 1039 1139 m21 6 lw 3 lw 1044 1132 m21 6 lw 3 lw 1048 1132 m21 6 lw 3 lw 1053 1122 m21 6 lw 3 lw 1058 1116 m21 6 lw 3 lw
 1062 1119 m21 6 lw 3 lw 1067 1113 m21 6 lw 3 lw 1072 1117 m21 6 lw 3 lw 1077 1115 m21 6 lw 3 lw 1081 1104 m21 6 lw 3 lw 1086 1108 m21 6 lw 3 lw 1091 1100 m21 6 lw 3 lw 1095 1100 m21 6 lw 3 lw 1100 1099 m21 6 lw 3 lw 1105 1096 m21 6 lw 3 lw 1110 1101
 m21 6 lw 3 lw 1114 1101 m21 6 lw 3 lw 1119 1097 m21 6 lw 3 lw 1124 1094 m21 6 lw 3 lw 1128 1086 m21 6 lw 3 lw 1133 1085 m21 6 lw 3 lw 1138 1096 m21 6 lw 3 lw 1142 1085 m21 6 lw 3 lw 1147 1089 m21 6 lw 3 lw 1152 1093 m21 6 lw 3 lw 1157 1094 m21 6 lw
 3 lw 1161 1092 m21 6 lw 3 lw 1166 1086 m21 6 lw 3 lw 1171 1094 m21 6 lw 3 lw 1175 1092 m21 6 lw 3 lw 1180 1090 m21 6 lw 3 lw 1185 1091 m21 6 lw 3 lw 1190 1084 m21 6 lw 3 lw 1194 1095 m21 6 lw 3 lw 1199 1088 m21 6 lw 3 lw 1204 1090 m21 6 lw 3 lw 1208
 1091 m21 6 lw 3 lw 1213 1101 m21 6 lw 3 lw 1218 1096 m21 6 lw 3 lw 1222 1092 m21 6 lw 3 lw 1227 1095 m21 6 lw 3 lw 1232 1090 m21 6 lw 3 lw 1237 1087 m21 6 lw 3 lw 1241 1088 m21 6 lw 3 lw 1246 1076 m21 6 lw 3 lw 1251 1078 m21 6 lw 3 lw 1255 1082 m21
 6 lw 3 lw 1260 1075 m21 6 lw 3 lw 1265 1078 m21 6 lw 3 lw 1269 1081 m21 6 lw 3 lw 1274 1081 m21 6 lw 3 lw 1279 1075 m21 6 lw 3 lw 1284 1080 m21 6 lw 3 lw 1288 1076 m21 6 lw 3 lw 1293 1075 m21 6 lw 3 lw 1298 1079 m21 6 lw 3 lw 1302 1074 m21 6 lw 3 lw
 1307 1078 m21 6 lw 3 lw 1312 1078 m21 6 lw 3 lw 1317 1077 m21 6 lw 3 lw 1321 1075 m21 6 lw 3 lw 1326 1078 m21 6 lw 3 lw 1331 1075 m21 6 lw 3 lw 1335 1076 m21 6 lw 3 lw 1340 1070 m21 6 lw 3 lw 1345 1080 m21 6 lw 3 lw 1349 1077 m21 6 lw 3 lw 1354 1076
 m21 6 lw 3 lw 1359 1081 m21 6 lw 3 lw 1364 1081 m21 6 lw 3 lw 1368 1063 m21 6 lw 3 lw 1373 1067 m21 6 lw 3 lw 1378 1068 m21 6 lw 3 lw 1382 1070 m21 6 lw 3 lw 1387 1065 m21 6 lw 3 lw 1392 1073 m21 6 lw 3 lw 1397 1072 m21 6 lw 3 lw 1401 1077 m21 6 lw
 3 lw 1406 1076 m21 6 lw 3 lw 1411 1068 m21 6 lw 3 lw 1415 1069 m21 6 lw 3 lw 1420 1077 m21 6 lw 3 lw 1425 1078 m21 6 lw 3 lw 1429 1076 m21 6 lw 3 lw 1434 1062 m21 6 lw 3 lw 1439 1068 m21 6 lw 3 lw 1444 1073 m21 6 lw 3 lw 1448 1082 m21 6 lw 3 lw 1453
 1061 m21 6 lw 3 lw 1458 1075 m21 6 lw 3 lw 1462 1068 m21 6 lw 3 lw 1467 1079 m21 6 lw 3 lw 1472 1075 m21 6 lw 3 lw 1477 1080 m21 6 lw 3 lw 1481 1082 m21 6 lw 3 lw 1486 1071 m21 6 lw 3 lw 1491 1079 m21 6 lw 3 lw 1495 1084 m21 6 lw 3 lw 1500 1083 m21
 6 lw 3 lw 1505 1071 m21 6 lw 3 lw 1509 1077 m21 6 lw 3 lw 1514 1073 m21 6 lw 3 lw 1519 1071 m21 6 lw 3 lw 1524 1067 m21 6 lw 3 lw 1528 1067 m21 6 lw 3 lw 1533 1071 m21 6 lw 3 lw 1538 1072 m21 6 lw 3 lw 1542 1071 m21 6 lw 3 lw 1547 1077 m21 6 lw 3 lw
 1552 1069 m21 6 lw 3 lw 1557 1067 m21 6 lw 3 lw 1561 1073 m21 6 lw 3 lw 1566 1074 m21 6 lw 3 lw 1571 1073 m21 6 lw 3 lw 1575 1073 m21 6 lw 3 lw 1580 1069 m21 6 lw 3 lw 1585 1078 m21 6 lw 3 lw 1589 1071 m21 6 lw 3 lw 1594 1074 m21 6 lw 3 lw 1599 1072
 m21 6 lw 3 lw 1604 1061 m21 6 lw 1608 1069 m s 1608 1080 m s 3 lw 1608 1075 m21 6 lw 1613 1066 m s 1613 1078 m s 3 lw 1613 1072 m21 6 lw 1618 1062 m s 1618 1073 m s 3 lw 1618 1068 m21 6 lw 3 lw 1622 1050 m21 6 lw 1627 1063 m s 1627 1075 m s 3 lw
 1627 1069 m21 6 lw 1632 1053 m s 1632 1065 m s 3 lw 1632 1059 m21 6 lw 1637 1061 m s 1637 1073 m s 3 lw 1637 1067 m21 6 lw 1641 1066 m 1 Y s 1641 1078 m s 3 lw 1641 1072 m21 6 lw 1646 1064 m s 1646 1076 m s 3 lw 1646 1070 m21 6 lw 1651 1061 m s 1651
 1072 m s 3 lw 1651 1067 m21 6 lw 1655 1063 m 1 Y s 1655 1075 m s 3 lw 1655 1069 m21 6 lw 1660 1065 m 1 Y s 1660 1077 m s 3 lw 1660 1071 m21 6 lw 1665 1054 m s 1665 1066 m s 3 lw 1665 1060 m21 6 lw 1669 1063 m 1 Y s 1669 1075 m s 3 lw 1669 1069 m21 6
 lw 1674 1067 m s 1674 1078 m 1 Y s 3 lw 1674 1073 m21 6 lw 1679 1068 m s 1679 1079 m 1 Y s 3 lw 1679 1074 m21 6 lw 1684 1051 m s 1684 1063 m s 3 lw 1684 1057 m21 6 lw 1688 1068 m s 1688 1080 m s 3 lw 1688 1074 m21 6 lw 1693 1054 m 1 Y s 1693 1066 m
 s 3 lw 1693 1060 m21 6 lw 1698 1061 m 1 Y s 1698 1073 m s 3 lw 1698 1067 m21 6 lw 1702 1056 m s 1702 1068 m s 3 lw 1702 1062 m21 6 lw 1707 1058 m s 1707 1070 m s 3 lw 1707 1064 m21 6 lw 1712 1066 m s 1712 1077 m 1 Y s 3 lw 1712 1072 m21 6 lw 1717
 1051 m 1 Y s 1717 1063 m 1 Y s 3 lw 1717 1057 m21 6 lw 1721 1061 m s 1721 1073 m s 3 lw 1721 1067 m21 6 lw 1726 1062 m 1 Y s 1726 1074 m 1 Y s 3 lw 1726 1068 m21 6 lw 1731 1069 m 1 Y s 1731 1081 m 1 Y s 3 lw 1731 1075 m21 6 lw 1735 1061 m s 1735
 1073 m s 3 lw 1735 1067 m21 6 lw 1740 1069 m s 1740 1081 m s 3 lw 1740 1075 m21 6 lw 1745 1079 m 1 Y s 1745 1091 m 1 Y s 3 lw 1745 1085 m21 6 lw 1749 1054 m 1 Y s 1749 1066 m 1 Y s 3 lw 1749 1060 m21 6 lw 1754 1062 m s 1754 1074 m 1 Y s 3 lw 1754
 1068 m21 6 lw 1759 1073 m 1 Y s 1759 1085 m 1 Y s 3 lw 1759 1079 m21 6 lw 1764 1065 m 1 Y s 1764 1077 m 1 Y s 3 lw 1764 1071 m21 6 lw 1768 1068 m s 1768 1080 m 1 Y s 3 lw 1768 1074 m21 6 lw 1773 1063 m 1 Y s 1773 1075 m 1 Y s 3 lw 1773 1070 m21 6 lw
 1778 1071 m 1 Y s 1778 1083 m 1 Y s 3 lw 1778 1077 m21 6 lw 1782 1066 m s 1782 1078 m 1 Y s 3 lw 1782 1072 m21 6 lw 1787 1057 m 1 Y s 1787 1069 m 1 Y s 3 lw 1787 1064 m21 6 lw 1792 1066 m 1 Y s 1792 1079 m 1 Y s 3 lw 1792 1073 m21 6 lw 1797 1055 m 1
 Y s 1797 1067 m 1 Y s 3 lw 1797 1062 m21 6 lw 1801 1058 m 1 Y s 1801 1070 m 1 Y s 3 lw 1801 1065 m21 6 lw 1806 1070 m 1 Y s 1806 1082 m 1 Y s 3 lw 1806 1076 m21 6 lw 1811 1046 m 1 Y s 1811 1058 m 1 Y s 3 lw 1811 1052 m21 6 lw 1815 1061 m 1 Y s 1815
 1073 m 1 Y s 3 lw 1815 1067 m21 6 lw 1820 1069 m 1 Y s 1820 1082 m 1 Y s 3 lw 1820 1076 m21 6 lw 1825 1072 m 2 Y s 1825 1085 m 1 Y s 3 lw 1825 1079 m21 6 lw 1829 1063 m 1 Y s 1829 1075 m 1 Y s 3 lw 1829 1069 m21 6 lw 1834 1059 m 1 Y s 1834 1071 m 2
 Y s 3 lw 1834 1066 m21 6 lw 1839 1052 m 2 Y s 1839 1065 m 1 Y s 3 lw 1839 1059 m21 6 lw 1844 1049 m 1 Y s 1844 1061 m 1 Y s 3 lw 1844 1055 m21 6 lw 1848 1074 m 1 Y s 1848 1087 m 1 Y s 3 lw 1848 1081 m21 6 lw 1853 1065 m 1 Y s 1853 1077 m 2 Y s 3 lw
 1853 1072 m21 6 lw 1858 1064 m 1 Y s 1858 1077 m 1 Y s 3 lw 1858 1071 m21 6 lw 1862 1068 m 1 Y s 1862 1080 m 2 Y s 3 lw 1862 1075 m21 6 lw 1867 1066 m 1 Y s 1867 1079 m 1 Y s 3 lw 1867 1073 m21 6 lw 1872 1070 m 1 Y s 1872 1082 m 2 Y s 3 lw 1872 1077
 m21 6 lw 1877 1065 m 2 Y s 1877 1078 m 2 Y s 3 lw 1877 1073 m21 6 lw 1881 1064 m 2 Y s 1881 1077 m 2 Y s 3 lw 1881 1072 m21 6 lw 1886 1069 m 2 Y s 1886 1082 m 2 Y s 3 lw 1886 1076 m21 6 lw 1891 1055 m 2 Y s 1891 1068 m 2 Y s 3 lw 1891 1062 m21 6 lw
 1895 1059 m 2 Y s 1895 1072 m 2 Y s 3 lw 1895 1066 m21 6 lw 1900 1068 m 2 Y s 1900 1081 m 2 Y s 3 lw 1900 1075 m21 6 lw 1905 1075 m 2 Y s 1905 1088 m 2 Y s 3 lw 1905 1083 m21 6 lw 1909 1054 m 1 Y s 1909 1067 m 1 Y s 3 lw 1909 1061 m21 6 lw 1914 1058
 m 1 Y s 1914 1071 m 1 Y s 3 lw 1914 1065 m21 6 lw 1919 1070 m 1 Y s 1919 1083 m 1 Y s 3 lw 1919 1077 m21 6 lw 1924 1062 m 2 Y s 1924 1075 m 2 Y s 3 lw 1924 1069 m21 6 lw 1928 1069 m 2 Y s 1928 1082 m 2 Y s 3 lw 1928 1076 m21 6 lw 1933 1061 m 2 Y s
 1933 1074 m 2 Y s 3 lw 1933 1069 m21 6 lw 1938 1080 m 2 Y s 1938 1094 m 2 Y s 3 lw 1938 1088 m21 6 lw 1942 1065 m 2 Y s 1942 1078 m 2 Y s 3 lw 1942 1073 m21 6 lw 1947 1077 m 2 Y s 1947 1090 m 2 Y s 3 lw 1947 1084 m21 6 lw 1952 1072 m 2 Y s 1952 1086
 m 1 Y s 3 lw 1952 1080 m21 6 lw 1957 1067 m 2 Y s 1957 1080 m 2 Y s 3 lw 1957 1075 m21 6 lw 1961 1066 m 2 Y s 1961 1080 m 2 Y s 3 lw 1961 1074 m21 6 lw 1966 1045 m 2 Y s 1966 1058 m 2 Y s 3 lw 1966 1052 m21 6 lw 1971 1061 m 2 Y s 1971 1074 m 2 Y s 3
 lw 1971 1069 m21 6 lw 1975 1070 m 2 Y s 1975 1083 m 2 Y s 3 lw 1975 1077 m21 6 lw 1980 1057 m 2 Y s 1980 1070 m 2 Y s 3 lw 1980 1064 m21 6 lw 1985 1061 m 2 Y s 1985 1075 m 2 Y s 3 lw 1985 1069 m21 6 lw 1989 1070 m 3 Y s 1989 1084 m 2 Y s 3 lw 1989
 1078 m21 6 lw 1994 1065 m 3 Y s 1994 1079 m 2 Y s 3 lw 1994 1073 m21 6 lw 1999 1068 m 2 Y s 1999 1081 m 3 Y s 3 lw 1999 1076 m21 6 lw 2004 1061 m 2 Y s 2004 1075 m 2 Y s 3 lw 2004 1069 m21 6 lw 2008 1063 m 2 Y s 2008 1077 m 2 Y s 3 lw 2008 1071 m21
 6 lw 2013 1071 m 2 Y s 2013 1084 m 3 Y s 3 lw 2013 1079 m21 6 lw 2018 1065 m 3 Y s 2018 1079 m 3 Y s 3 lw 2018 1073 m21 6 lw 2022 1082 m 2 Y s 2022 1096 m 2 Y s 3 lw 2022 1090 m21 6 lw 2027 1075 m 3 Y s 2027 1089 m 3 Y s 3 lw 2027 1084 m21 6 lw 2032
 1072 m 2 Y s 2032 1086 m 2 Y s 3 lw 2032 1080 m21 6 lw 2036 1069 m 2 Y s 2036 1083 m 2 Y s 3 lw 2036 1077 m21 6 lw 2041 1066 m 2 Y s 2041 1080 m 2 Y s 3 lw 2041 1074 m21 6 lw 2046 1055 m 2 Y s 2046 1069 m 2 Y s 3 lw 2046 1063 m21 6 lw 2051 1056 m 3
 Y s 2051 1070 m 3 Y s 3 lw 2051 1064 m21 6 lw 2055 1075 m 3 Y s 2055 1090 m 2 Y s 3 lw 2055 1084 m21 6 lw 2060 1079 m 3 Y s 2060 1093 m 3 Y s 3 lw 2060 1088 m21 6 lw 2065 1083 m 3 Y s 2065 1097 m 3 Y s 3 lw 2065 1091 m21 6 lw 2069 1067 m 2 Y s 2069
 1081 m 3 Y s 3 lw 2069 1075 m21 6 lw 2074 1071 m 3 Y s 2074 1085 m 3 Y s 3 lw 2074 1079 m21 6 lw 2079 1074 m 3 Y s 2079 1088 m 3 Y s 3 lw 2079 1083 m21 6 lw 2084 1091 m 3 Y s 2084 1105 m 3 Y s 3 lw 2084 1099 m21 6 lw 2088 1051 m 3 Y s 2088 1066 m 2
 Y s 3 lw 2088 1060 m21 6 lw 2093 1068 m 3 Y s 2093 1082 m 3 Y s 3 lw 2093 1077 m21 6 lw 2098 1074 m 3 Y s 2098 1089 m 3 Y s 3 lw 2098 1083 m21 6 lw 2102 1082 m 3 Y s 2102 1096 m 4 Y s 3 lw 2102 1091 m21 6 lw 2107 1074 m 3 Y s 2107 1088 m 3 Y s 3 lw
 2107 1082 m21 6 lw 2112 1064 m 3 Y s 2112 1078 m 4 Y s 3 lw 2112 1073 m21 6 lw 2116 1077 m 3 Y s 2116 1091 m 3 Y s 3 lw 2116 1085 m21 6 lw 2121 1090 m 3 Y s 2121 1105 m 3 Y s 3 lw 2121 1099 m21 6 lw 2126 1063 m 3 Y s 2126 1077 m 3 Y s 3 lw 2126 1072
 m21 6 lw 2131 1076 m 3 Y s 2131 1090 m 4 Y s 3 lw 2131 1085 m21 6 lw 2135 1079 m 3 Y s 2135 1094 m 3 Y s 3 lw 2135 1088 m21 6 lw 2140 1072 m 3 Y s 2140 1087 m 3 Y s 3 lw 2140 1081 m21 6 lw 2145 1076 m 3 Y s 2145 1091 m 3 Y s 3 lw 2145 1085 m21 6 lw
 2149 1065 m 4 Y s 2149 1080 m 4 Y s 3 lw 2149 1074 m21 6 lw 2154 1055 m 3 Y s 2154 1069 m 3 Y s 3 lw 2154 1064 m21 6 lw 2159 1065 m 3 Y s 2159 1080 m 3 Y s 3 lw 2159 1074 m21 6 lw 2164 1087 m 4 Y s 2164 1102 m 4 Y s 3 lw 2164 1097 m21 6 lw 2168 1066
 m 3 Y s 2168 1081 m 3 Y s 3 lw 2168 1075 m21 6 lw 2173 1063 m 4 Y s 2173 1078 m 4 Y s 3 lw 2173 1073 m21 6 lw 2178 1090 m 4 Y s 2178 1105 m 4 Y s 3 lw 2178 1099 m21 6 lw 2182 1074 m 4 Y s 2182 1089 m 4 Y s 3 lw 2182 1083 m21 6 lw 2187 1069 m 4 Y s
 2187 1084 m 4 Y s 3 lw 2187 1079 m21 6 lw 2192 1065 m 4 Y s 2192 1080 m 4 Y s 3 lw 2192 1074 m21 6 lw 2196 1060 m 4 Y s 2196 1075 m 4 Y s 3 lw 2196 1069 m21 6 lw 2201 1078 m 4 Y s 2201 1094 m 4 Y s 3 lw 2201 1088 m21 6 lw 2206 1064 m 4 Y s 2206 1079
 m 4 Y s 3 lw 2206 1073 m21 6 lw 2211 1078 m 4 Y s 2211 1094 m 4 Y s 3 lw 2211 1088 m21 6 lw 2215 1082 m 4 Y s 2215 1097 m 4 Y s 3 lw 2215 1092 m21 6 lw 2220 1075 m 4 Y s 2220 1091 m 4 Y s 3 lw 2220 1085 m21 6 lw black 340 223 m 1882 X s
 gsave  2268 2234 0 0 C 1923.86 58.2559 t 0 r /Helvetica findfont 83.8316 sf 0 0 m (Q [GeV]) show NC gr  340 279 m -56 Y s 387 251 m -28 Y s 434 251 m -28 Y s 481 251 m -28 Y s 528 279 m -56 Y s 575 251 m -28 Y s 622 251 m -28 Y s 670 251 m -28 Y s
 717 279 m -56 Y s 764 251 m -28 Y s 811 251 m -28 Y s 858 251 m -28 Y s 905 279 m -56 Y s 952 251 m -28 Y s 999 251 m -28 Y s 1046 251 m -28 Y s 1093 279 m -56 Y s 1140 251 m -28 Y s 1187 251 m -28 Y s 1234 251 m -28 Y s 1281 279 m -56 Y s 1328 251
 m -28 Y s 1375 251 m -28 Y s 1422 251 m -28 Y s 1469 279 m -56 Y s 1517 251 m -28 Y s 1564 251 m -28 Y s 1611 251 m -28 Y s 1658 279 m -56 Y s 1705 251 m -28 Y s 1752 251 m -28 Y s 1799 251 m -28 Y s 1846 279 m -56 Y s 1893 251 m -28 Y s 1940 251 m
 -28 Y s 1987 251 m -28 Y s 2034 279 m -56 Y s 2081 251 m -28 Y s 2128 251 m -28 Y s 2175 251 m -28 Y s 2222 279 m -56 Y s
 gsave  2268 2234 0 0 C 322.539 159.138 t 0 r /Helvetica findfont 62.5185 sf 0 0 m (0) show NC gr 
 gsave  2268 2234 0 0 C 484.518 159.138 t 0 r /Helvetica findfont 62.5185 sf 0 0 m (0.2) show NC gr 
 gsave  2268 2234 0 0 C 673.495 159.138 t 0 r /Helvetica findfont 62.5185 sf 0 0 m (0.4) show NC gr 
 gsave  2268 2234 0 0 C 861.05 159.138 t 0 r /Helvetica findfont 62.5185 sf 0 0 m (0.6) show NC gr 
 gsave  2268 2234 0 0 C 1050.03 159.138 t 0 r /Helvetica findfont 62.5185 sf 0 0 m (0.8) show NC gr 
 gsave  2268 2234 0 0 C 1268.84 159.138 t 0 r /Helvetica findfont 62.5185 sf 0 0 m (1) show NC gr 
 gsave  2268 2234 0 0 C 1426.56 159.138 t 0 r /Helvetica findfont 62.5185 sf 0 0 m (1.2) show NC gr 
 gsave  2268 2234 0 0 C 1614.11 159.138 t 0 r /Helvetica findfont 62.5185 sf 0 0 m (1.4) show NC gr 
 gsave  2268 2234 0 0 C 1803.09 159.138 t 0 r /Helvetica findfont 62.5185 sf 0 0 m (1.6) show NC gr 
 gsave  2268 2234 0 0 C 1990.65 159.138 t 0 r /Helvetica findfont 62.5185 sf 0 0 m (1.8) show NC gr 
 gsave  2268 2234 0 0 C 2205.2 159.138 t 0 r /Helvetica findfont 62.5185 sf 0 0 m (2) show NC gr  340 223 m 1966 Y s
 gsave  2268 2234 0 0 C 147.771 1547.33 t 90 r /Helvetica findfont 83.8316 sf 0 0 m (\(Q\) / \(0.005 GeV\)) show NC gr 
 gsave  2268 2234 0 0 C 174.768 1518.92 t 90 r /Helvetica findfont 55.4141 sf 0 0 m (2) show NC gr 
 gsave  2268 2234 0 0 C 147.771 1437.93 t 90 r /Helvetica findfont 83.8316 sf 0 0 m ( C) show NC gr  400 402 m -60 X s 370 491 m -30 X s 370 581 m -30 X s 370 670 m -30 X s 400 759 m -60 X s 370 849 m -30 X s 370 938 m -30 X s 370 1027 m -30 X s 400
 1117 m -60 X s 370 1206 m -30 X s 370 1295 m -30 X s 370 1385 m -30 X s 400 1474 m -60 X s 370 1564 m -30 X s 370 1653 m -30 X s 370 1742 m -30 X s 400 1832 m -60 X s 370 1921 m -30 X s 370 2010 m -30 X s 370 2100 m -30 X s 400 2189 m -60 X s 400
 402 m -60 X s 370 313 m -30 X s 370 223 m -30 X s
 gsave  2268 2234 0 0 C 242.97 379.374 t 0 r /Helvetica findfont 62.5185 sf 0 0 m (0.6) show NC gr 
 gsave  2268 2234 0 0 C 242.97 737.434 t 0 r /Helvetica findfont 62.5185 sf 0 0 m (0.8) show NC gr 
 gsave  2268 2234 0 0 C 305.488 1092.65 t 0 r /Helvetica findfont 62.5185 sf 0 0 m (1) show NC gr 
 gsave  2268 2234 0 0 C 242.97 1450.71 t 0 r /Helvetica findfont 62.5185 sf 0 0 m (1.2) show NC gr 
 gsave  2268 2234 0 0 C 242.97 1808.77 t 0 r /Helvetica findfont 62.5185 sf 0 0 m (1.4) show NC gr 
 gsave  2268 2234 0 0 C 242.97 2166.83 t 0 r /Helvetica findfont 62.5185 sf 0 0 m (1.6) show NC gr 
 gsave  2268 2234 0 0 C 906.518 670.653 t 0 r /Helvetica-Bold findfont 72.4646 sf 0 0 m (RD PIONS) show NC gr 
 gsave  2268 2234 0 0 C 906.518 558.404 t 0 r /Helvetica-Bold findfont 72.4646 sf 0 0 m (ref. sample: EVENT MIX) show NC gr 
 gsave  2268 2234 0 0 C 906.518 447.576 t 0 r /Helvetica-Bold findfont 72.4646 sf 0 0 m (VELO tracks multiplicity: 21 \255 60) show NC gr 
 gr  gr showpage
end
%%EOF
