%!PS-Adobe-2.0 EPSF-2.0
%%BoundingBox:  0 0 567 558
%%Title: ./RD_pion_0c65_h3001_3_h3401_3.eps: RD_pion_0c65_h3001_3_h3401_3
%%Creator: ROOT Version 6.06/02
%%CreationDate: Wed Feb  1 16:20:58 2017
%%DocumentNeededResources: ProcSet (FontSetInit)
%%EndComments
%%BeginProlog
80 dict begin
/s {stroke} def /l {lineto} def /m {moveto} def /t {translate} def
/r {rotate} def /rl {roll}  def /R {repeat} def
/d {rlineto} def /rm {rmoveto} def /gr {grestore} def /f {eofill} def
/c {setrgbcolor} def /black {0 setgray} def /sd {setdash} def
/cl {closepath} def /sf {scalefont setfont} def /lw {setlinewidth} def
/box {m dup 0 exch d exch 0 d 0 exch neg d cl} def
/NC{systemdict begin initclip end}def/C{NC box clip newpath}def
/bl {box s} def /bf {gsave box gsave f grestore 1 lw [] 0 sd s grestore} def /Y { 0 exch d} def /X { 0 d} def 
/K {{pop pop 0 moveto} exch kshow} bind def
/ita {/ang 15 def gsave [1 0 ang dup sin exch cos div 1 0 0] concat} def 
/mp {newpath /y exch def /x exch def} def
/side {[w .77 mul w .23 mul] .385 w mul sd w 0 l currentpoint t -144 r} def
/mr {mp x y w2 0 360 arc} def /m24 {mr s} def /m20 {mr f} def
/mb {mp x y w2 add m w2 neg 0 d 0 w neg d w 0 d 0 w d cl} def
/mt {mp x y w2 add m w2 neg w neg d w 0 d cl} def
/m21 {mb f} def /m25 {mb s} def /m22 {mt f} def /m26{mt s} def
/m23 {mp x y w2 sub m w2 w d w neg 0 d cl f} def
/m27 {mp x y w2 add m w3 neg w2 neg d w3 w2 neg d w3 w2 d cl s} def
/m28 {mp x w2 sub y w2 sub w3 add m w3 0 d  0 w3 neg d w3 0 d 0 w3 d w3 0 d  0 w3 d w3 neg 0 d 0 w3 d w3 neg 0 d 0 w3 neg d w3 neg 0 d cl s } def
/m29 {mp gsave x w2 sub y w2 add w3 sub m currentpoint t 4 {side} repeat cl fill gr} def
/m30 {mp gsave x w2 sub y w2 add w3 sub m currentpoint t 4 {side} repeat cl s gr} def
/m31 {mp x y w2 sub m 0 w d x w2 sub y m w 0 d x w2 sub y w2 add m w w neg d x w2 sub y w2 sub m w w d s} def
/m32 {mp x y w2 sub m w2 w d w neg 0 d cl s} def
/m33 {mp x y w2 add m w3 neg w2 neg d w3 w2 neg d w3 w2 d cl f} def
/m34 {mp x w2 sub y w2 sub w3 add m w3 0 d  0 w3 neg d w3 0 d 0 w3 d w3 0 d  0 w3 d w3 neg 0 d 0 w3 d w3 neg 0 d 0 w3 neg d w3 neg 0 d cl f } def
/m2 {mp x y w2 sub m 0 w d x w2 sub y m w 0 d s} def
/m5 {mp x w2 sub y w2 sub m w w d x w2 sub y w2 add m w w neg d s} def
%%IncludeResource: ProcSet (FontSetInit)
%%IncludeResource: font Times-Roman
%%IncludeResource: font Times-Italic
%%IncludeResource: font Times-Bold
%%IncludeResource: font Times-BoldItalic
%%IncludeResource: font Helvetica
%%IncludeResource: font Helvetica-Oblique
%%IncludeResource: font Helvetica-Bold
%%IncludeResource: font Helvetica-BoldOblique
%%IncludeResource: font Courier
%%IncludeResource: font Courier-Oblique
%%IncludeResource: font Courier-Bold
%%IncludeResource: font Courier-BoldOblique
%%IncludeResource: font Symbol
%%IncludeResource: font ZapfDingbats
/reEncode {exch findfont dup length dict begin {1 index /FID eq  {pop pop} {def} ifelse } forall /Encoding exch def currentdict end dup /FontName get exch definefont pop } def [/Times-Bold /Times-Italic /Times-BoldItalic /Helvetica /Helvetica-Oblique
 /Helvetica-Bold /Helvetica-BoldOblique /Courier /Courier-Oblique /Courier-Bold /Courier-BoldOblique /Times-Roman /AvantGarde-Book /AvantGarde-BookOblique /AvantGarde-Demi /AvantGarde-DemiOblique /Bookman-Demi /Bookman-DemiItalic /Bookman-Light
 /Bookman-LightItalic /Helvetica-Narrow /Helvetica-Narrow-Bold /Helvetica-Narrow-BoldOblique /Helvetica-Narrow-Oblique /NewCenturySchlbk-Roman /NewCenturySchlbk-Bold /NewCenturySchlbk-BoldItalic /NewCenturySchlbk-Italic /Palatino-Bold
 /Palatino-BoldItalic /Palatino-Italic /Palatino-Roman ] {ISOLatin1Encoding reEncode } forall
%%EndProlog
%%BeginSetup
%%EndSetup
newpath  gsave  .25 .25 scale  gsave  0 0 t black[  ] 0 sd 6 lw 1 1 1 c 2268 2234 0 0 bf black 3 lw 1 1 1 c 1882 1966 340 223 bf black 1882 1966 340 223 bl 1 1 1 c 1882 1966 340 223 bf black 1882 1966 340 223 bl 0 0 1 c 6 lw 1 1 1 c 0 0 1 c 390 1643
 m 16 Y s 390 1670 m 15 Y s 3 lw /w 14 def /w2 {w 2 div} def /w3 {w 3 div} def 390 1664 m21 6 lw 394 1663 m 14 Y s 394 1689 m 13 Y s 3 lw 394 1683 m21 6 lw 399 1625 m 12 Y s 399 1648 m 12 Y s 3 lw 399 1643 m21 6 lw 404 1592 m 11 Y s 404 1614 m 11 Y s
 3 lw 404 1608 m21 6 lw 408 1592 m 10 Y s 408 1613 m 10 Y s 3 lw 408 1608 m21 6 lw 413 1570 m 8 Y s 413 1590 m 8 Y s 3 lw 413 1584 m21 6 lw 418 1547 m 8 Y s 418 1566 m 8 Y s 3 lw 418 1560 m21 6 lw 423 1511 m 7 Y s 423 1529 m 7 Y s 3 lw 423 1523 m21 6
 lw 427 1515 m 7 Y s 427 1533 m 6 Y s 3 lw 427 1527 m21 6 lw 432 1485 m 6 Y s 432 1503 m 6 Y s 3 lw 432 1497 m21 6 lw 437 1480 m 5 Y s 437 1497 m 5 Y s 3 lw 437 1491 m21 6 lw 441 1456 m 4 Y s 441 1472 m 5 Y s 3 lw 441 1466 m21 6 lw 446 1433 m 4 Y s
 446 1448 m 5 Y s 3 lw 446 1443 m21 6 lw 451 1423 m 4 Y s 451 1438 m 4 Y s 3 lw 451 1433 m21 6 lw 455 1419 m 3 Y s 455 1434 m 3 Y s 3 lw 455 1428 m21 6 lw 460 1389 m 3 Y s 460 1404 m 3 Y s 3 lw 460 1398 m21 6 lw 465 1378 m 3 Y s 465 1392 m 3 Y s 3 lw
 465 1387 m21 6 lw 470 1388 m 3 Y s 470 1402 m 3 Y s 3 lw 470 1397 m21 6 lw 474 1362 m 3 Y s 474 1376 m 3 Y s 3 lw 474 1371 m21 6 lw 479 1355 m 2 Y s 479 1369 m 2 Y s 3 lw 479 1363 m21 6 lw 484 1353 m 2 Y s 484 1367 m 2 Y s 3 lw 484 1361 m21 6 lw 488
 1344 m 2 Y s 488 1357 m 2 Y s 3 lw 488 1351 m21 6 lw 493 1338 m 2 Y s 493 1351 m 2 Y s 3 lw 493 1345 m21 6 lw 498 1324 m 1 Y s 498 1337 m 1 Y s 3 lw 498 1331 m21 6 lw 502 1321 m 1 Y s 502 1334 m 1 Y s 3 lw 502 1328 m21 6 lw 507 1293 m 1 Y s 507 1306
 m 1 Y s 3 lw 507 1300 m21 6 lw 512 1295 m 1 Y s 512 1308 m 1 Y s 3 lw 512 1302 m21 6 lw 517 1292 m 1 Y s 517 1304 m 1 Y s 3 lw 517 1298 m21 6 lw 521 1290 m 1 Y s 521 1302 m 1 Y s 3 lw 521 1297 m21 6 lw 526 1283 m 1 Y s 526 1296 m s 3 lw 526 1290 m21
 6 lw 531 1269 m s 531 1281 m s 3 lw 531 1275 m21 6 lw 535 1272 m 1 Y s 535 1284 m 1 Y s 3 lw 535 1278 m21 6 lw 540 1272 m s 540 1284 m s 3 lw 540 1278 m21 6 lw 545 1263 m s 545 1275 m s 3 lw 545 1269 m21 6 lw 550 1255 m s 550 1267 m s 3 lw 550 1261
 m21 6 lw 554 1252 m 1 Y s 554 1264 m s 3 lw 554 1258 m21 6 lw 559 1248 m s 559 1260 m s 3 lw 559 1254 m21 6 lw 564 1235 m s 564 1246 m s 3 lw 564 1240 m21 6 lw 3 lw 568 1243 m21 6 lw 3 lw 573 1250 m21 6 lw 3 lw 578 1229 m21 6 lw 3 lw 582 1231 m21 6
 lw 3 lw 587 1220 m21 6 lw 3 lw 592 1227 m21 6 lw 3 lw 597 1217 m21 6 lw 3 lw 601 1222 m21 6 lw 3 lw 606 1208 m21 6 lw 3 lw 611 1215 m21 6 lw 3 lw 615 1212 m21 6 lw 3 lw 620 1206 m21 6 lw 3 lw 625 1200 m21 6 lw 3 lw 630 1198 m21 6 lw 3 lw 634 1194
 m21 6 lw 3 lw 639 1196 m21 6 lw 3 lw 644 1198 m21 6 lw 3 lw 648 1191 m21 6 lw 3 lw 653 1182 m21 6 lw 3 lw 658 1182 m21 6 lw 3 lw 662 1175 m21 6 lw 3 lw 667 1181 m21 6 lw 3 lw 672 1175 m21 6 lw 3 lw 677 1165 m21 6 lw 3 lw 681 1168 m21 6 lw 3 lw 686
 1170 m21 6 lw 3 lw 691 1175 m21 6 lw 3 lw 695 1165 m21 6 lw 3 lw 700 1157 m21 6 lw 3 lw 705 1157 m21 6 lw 3 lw 710 1159 m21 6 lw 3 lw 714 1161 m21 6 lw 3 lw 719 1160 m21 6 lw 3 lw 724 1152 m21 6 lw 3 lw 728 1151 m21 6 lw 3 lw 733 1149 m21 6 lw 3 lw
 738 1150 m21 6 lw 3 lw 742 1140 m21 6 lw 3 lw 747 1143 m21 6 lw 3 lw 752 1150 m21 6 lw 3 lw 757 1139 m21 6 lw 3 lw 761 1140 m21 6 lw 3 lw 766 1143 m21 6 lw 3 lw 771 1138 m21 6 lw 3 lw 775 1136 m21 6 lw 3 lw 780 1136 m21 6 lw 3 lw 785 1134 m21 6 lw 3
 lw 790 1134 m21 6 lw 3 lw 794 1133 m21 6 lw 3 lw 799 1125 m21 6 lw 3 lw 804 1126 m21 6 lw 3 lw 808 1126 m21 6 lw 3 lw 813 1125 m21 6 lw 3 lw 818 1122 m21 6 lw 3 lw 822 1124 m21 6 lw 3 lw 827 1121 m21 6 lw 3 lw 832 1118 m21 6 lw 3 lw 837 1121 m21 6
 lw 3 lw 841 1116 m21 6 lw 3 lw 846 1116 m21 6 lw 3 lw 851 1117 m21 6 lw 3 lw 855 1111 m21 6 lw 3 lw 860 1116 m21 6 lw 3 lw 865 1102 m21 6 lw 3 lw 870 1105 m21 6 lw 3 lw 874 1117 m21 6 lw 3 lw 879 1110 m21 6 lw 3 lw 884 1101 m21 6 lw 3 lw 888 1098
 m21 6 lw 3 lw 893 1104 m21 6 lw 3 lw 898 1109 m21 6 lw 3 lw 902 1098 m21 6 lw 3 lw 907 1107 m21 6 lw 3 lw 912 1101 m21 6 lw 3 lw 917 1103 m21 6 lw 3 lw 921 1103 m21 6 lw 3 lw 926 1095 m21 6 lw 3 lw 931 1093 m21 6 lw 3 lw 935 1101 m21 6 lw 3 lw 940
 1103 m21 6 lw 3 lw 945 1098 m21 6 lw 3 lw 950 1095 m21 6 lw 3 lw 954 1096 m21 6 lw 3 lw 959 1094 m21 6 lw 3 lw 964 1091 m21 6 lw 3 lw 968 1096 m21 6 lw 3 lw 973 1091 m21 6 lw 3 lw 978 1091 m21 6 lw 3 lw 982 1089 m21 6 lw 3 lw 987 1089 m21 6 lw 3 lw
 992 1088 m21 6 lw 3 lw 997 1090 m21 6 lw 3 lw 1001 1094 m21 6 lw 3 lw 1006 1091 m21 6 lw 3 lw 1011 1084 m21 6 lw 3 lw 1015 1085 m21 6 lw 3 lw 1020 1083 m21 6 lw 3 lw 1025 1083 m21 6 lw 3 lw 1030 1080 m21 6 lw 3 lw 1034 1083 m21 6 lw 3 lw 1039 1089
 m21 6 lw 3 lw 1044 1085 m21 6 lw 3 lw 1048 1084 m21 6 lw 3 lw 1053 1089 m21 6 lw 3 lw 1058 1075 m21 6 lw 3 lw 1062 1087 m21 6 lw 3 lw 1067 1084 m21 6 lw 3 lw 1072 1082 m21 6 lw 3 lw 1077 1084 m21 6 lw 3 lw 1081 1080 m21 6 lw 3 lw 1086 1079 m21 6 lw
 3 lw 1091 1070 m21 6 lw 3 lw 1095 1082 m21 6 lw 3 lw 1100 1072 m21 6 lw 3 lw 1105 1078 m21 6 lw 3 lw 1110 1083 m21 6 lw 3 lw 1114 1084 m21 6 lw 3 lw 1119 1082 m21 6 lw 3 lw 1124 1078 m21 6 lw 3 lw 1128 1070 m21 6 lw 3 lw 1133 1069 m21 6 lw 3 lw 1138
 1078 m21 6 lw 3 lw 1142 1074 m21 6 lw 3 lw 1147 1074 m21 6 lw 3 lw 1152 1079 m21 6 lw 3 lw 1157 1081 m21 6 lw 3 lw 1161 1076 m21 6 lw 3 lw 1166 1074 m21 6 lw 3 lw 1171 1082 m21 6 lw 3 lw 1175 1081 m21 6 lw 3 lw 1180 1076 m21 6 lw 3 lw 1185 1077 m21
 6 lw 3 lw 1190 1065 m21 6 lw 3 lw 1194 1083 m21 6 lw 3 lw 1199 1075 m21 6 lw 3 lw 1204 1075 m21 6 lw 3 lw 1208 1073 m21 6 lw 3 lw 1213 1082 m21 6 lw 3 lw 1218 1076 m21 6 lw 3 lw 1222 1073 m21 6 lw 3 lw 1227 1078 m21 6 lw 3 lw 1232 1077 m21 6 lw 3 lw
 1237 1077 m21 6 lw 3 lw 1241 1078 m21 6 lw 3 lw 1246 1068 m21 6 lw 3 lw 1251 1073 m21 6 lw 3 lw 1255 1078 m21 6 lw 3 lw 1260 1069 m21 6 lw 3 lw 1265 1076 m21 6 lw 3 lw 1269 1075 m21 6 lw 3 lw 1274 1071 m21 6 lw 3 lw 1279 1070 m21 6 lw 3 lw 1284 1081
 m21 6 lw 3 lw 1288 1082 m21 6 lw 3 lw 1293 1076 m21 6 lw 3 lw 1298 1078 m21 6 lw 3 lw 1302 1076 m21 6 lw 3 lw 1307 1080 m21 6 lw 3 lw 1312 1075 m21 6 lw 3 lw 1317 1078 m21 6 lw 3 lw 1321 1079 m21 6 lw 3 lw 1326 1081 m21 6 lw 3 lw 1331 1076 m21 6 lw
 3 lw 1335 1082 m21 6 lw 3 lw 1340 1071 m21 6 lw 3 lw 1345 1079 m21 6 lw 3 lw 1349 1079 m21 6 lw 3 lw 1354 1081 m21 6 lw 3 lw 1359 1081 m21 6 lw 3 lw 1364 1083 m21 6 lw 3 lw 1368 1071 m21 6 lw 3 lw 1373 1077 m21 6 lw 3 lw 1378 1072 m21 6 lw 3 lw 1382
 1080 m21 6 lw 3 lw 1387 1072 m21 6 lw 3 lw 1392 1081 m21 6 lw 3 lw 1397 1079 m21 6 lw 3 lw 1401 1080 m21 6 lw 3 lw 1406 1076 m21 6 lw 3 lw 1411 1077 m21 6 lw 3 lw 1415 1075 m21 6 lw 3 lw 1420 1083 m21 6 lw 3 lw 1425 1078 m21 6 lw 3 lw 1429 1083 m21
 6 lw 3 lw 1434 1070 m21 6 lw 3 lw 1439 1078 m21 6 lw 3 lw 1444 1075 m21 6 lw 3 lw 1448 1088 m21 6 lw 3 lw 1453 1070 m21 6 lw 3 lw 1458 1084 m21 6 lw 3 lw 1462 1067 m21 6 lw 3 lw 1467 1077 m21 6 lw 3 lw 1472 1082 m21 6 lw 3 lw 1477 1080 m21 6 lw 3 lw
 1481 1080 m21 6 lw 3 lw 1486 1080 m21 6 lw 3 lw 1491 1083 m21 6 lw 3 lw 1495 1084 m21 6 lw 3 lw 1500 1089 m21 6 lw 3 lw 1505 1074 m21 6 lw 3 lw 1509 1087 m21 6 lw 3 lw 1514 1077 m21 6 lw 3 lw 1519 1081 m21 6 lw 3 lw 1524 1079 m21 6 lw 3 lw 1528 1084
 m21 6 lw 3 lw 1533 1082 m21 6 lw 3 lw 1538 1085 m21 6 lw 3 lw 1542 1082 m21 6 lw 3 lw 1547 1088 m21 6 lw 3 lw 1552 1084 m21 6 lw 3 lw 1557 1079 m21 6 lw 3 lw 1561 1084 m21 6 lw 3 lw 1566 1083 m21 6 lw 3 lw 1571 1090 m21 6 lw 3 lw 1575 1084 m21 6 lw
 3 lw 1580 1083 m21 6 lw 3 lw 1585 1091 m21 6 lw 3 lw 1589 1088 m21 6 lw 1594 1087 m s 1594 1098 m s 3 lw 1594 1092 m21 6 lw 1599 1085 m s 1599 1096 m s 3 lw 1599 1090 m21 6 lw 3 lw 1604 1075 m21 6 lw 1608 1087 m s 1608 1098 m s 3 lw 1608 1092 m21 6
 lw 1613 1080 m 1 Y s 1613 1092 m s 3 lw 1613 1086 m21 6 lw 1618 1084 m s 1618 1095 m s 3 lw 1618 1090 m21 6 lw 1622 1070 m s 1622 1082 m s 3 lw 1622 1076 m21 6 lw 1627 1078 m s 1627 1090 m s 3 lw 1627 1084 m21 6 lw 1632 1079 m s 1632 1091 m s 3 lw
 1632 1085 m21 6 lw 1637 1082 m s 1637 1093 m s 3 lw 1637 1087 m21 6 lw 1641 1087 m 1 Y s 1641 1099 m s 3 lw 1641 1093 m21 6 lw 1646 1087 m s 1646 1098 m 1 Y s 3 lw 1646 1093 m21 6 lw 1651 1079 m s 1651 1090 m 1 Y s 3 lw 1651 1085 m21 6 lw 1655 1087
 m s 1655 1099 m s 3 lw 1655 1093 m21 6 lw 1660 1084 m s 1660 1096 m s 3 lw 1660 1090 m21 6 lw 1665 1082 m s 1665 1094 m s 3 lw 1665 1088 m21 6 lw 1669 1083 m s 1669 1095 m s 3 lw 1669 1089 m21 6 lw 1674 1085 m s 1674 1097 m s 3 lw 1674 1091 m21 6 lw
 1679 1093 m s 1679 1104 m 1 Y s 3 lw 1679 1099 m21 6 lw 1684 1077 m s 1684 1088 m 1 Y s 3 lw 1684 1083 m21 6 lw 1688 1088 m s 1688 1100 m s 3 lw 1688 1094 m21 6 lw 1693 1080 m s 1693 1092 m s 3 lw 1693 1086 m21 6 lw 1698 1079 m 1 Y s 1698 1091 m s 3
 lw 1698 1085 m21 6 lw 1702 1077 m s 1702 1089 m s 3 lw 1702 1083 m21 6 lw 1707 1088 m s 1707 1100 m s 3 lw 1707 1094 m21 6 lw 1712 1085 m s 1712 1097 m s 3 lw 1712 1091 m21 6 lw 1717 1076 m s 1717 1087 m 1 Y s 3 lw 1717 1082 m21 6 lw 1721 1084 m s
 1721 1096 m s 3 lw 1721 1090 m21 6 lw 1726 1085 m 1 Y s 1726 1097 m 1 Y s 3 lw 1726 1092 m21 6 lw 1731 1092 m 1 Y s 1731 1104 m 1 Y s 3 lw 1731 1099 m21 6 lw 1735 1085 m s 1735 1097 m s 3 lw 1735 1091 m21 6 lw 1740 1087 m 1 Y s 1740 1100 m s 3 lw
 1740 1094 m21 6 lw 1745 1098 m 1 Y s 1745 1110 m 1 Y s 3 lw 1745 1105 m21 6 lw 1749 1081 m 1 Y s 1749 1093 m 1 Y s 3 lw 1749 1088 m21 6 lw 1754 1088 m s 1754 1100 m 1 Y s 3 lw 1754 1094 m21 6 lw 1759 1099 m 1 Y s 1759 1111 m 1 Y s 3 lw 1759 1105 m21
 6 lw 1764 1094 m 1 Y s 1764 1106 m 1 Y s 3 lw 1764 1101 m21 6 lw 1768 1091 m 1 Y s 1768 1103 m 1 Y s 3 lw 1768 1097 m21 6 lw 1773 1094 m s 1773 1106 m 1 Y s 3 lw 1773 1100 m21 6 lw 1778 1093 m 1 Y s 1778 1106 m 1 Y s 3 lw 1778 1100 m21 6 lw 1782
 1102 m 1 Y s 1782 1114 m 1 Y s 3 lw 1782 1109 m21 6 lw 1787 1086 m 1 Y s 1787 1098 m 1 Y s 3 lw 1787 1093 m21 6 lw 1792 1091 m 1 Y s 1792 1104 m 1 Y s 3 lw 1792 1098 m21 6 lw 1797 1092 m 1 Y s 1797 1104 m 1 Y s 3 lw 1797 1099 m21 6 lw 1801 1091 m 1
 Y s 1801 1103 m 1 Y s 3 lw 1801 1097 m21 6 lw 1806 1096 m 2 Y s 1806 1109 m 1 Y s 3 lw 1806 1103 m21 6 lw 1811 1079 m 1 Y s 1811 1092 m 1 Y s 3 lw 1811 1086 m21 6 lw 1815 1084 m 1 Y s 1815 1097 m 1 Y s 3 lw 1815 1091 m21 6 lw 1820 1091 m 1 Y s 1820
 1104 m 1 Y s 3 lw 1820 1098 m21 6 lw 1825 1097 m 1 Y s 1825 1109 m 2 Y s 3 lw 1825 1104 m21 6 lw 1829 1098 m 1 Y s 1829 1111 m 1 Y s 3 lw 1829 1105 m21 6 lw 1834 1081 m 1 Y s 1834 1094 m 1 Y s 3 lw 1834 1088 m21 6 lw 1839 1090 m 1 Y s 1839 1102 m 2
 Y s 3 lw 1839 1097 m21 6 lw 1844 1079 m 1 Y s 1844 1092 m 1 Y s 3 lw 1844 1086 m21 6 lw 1848 1104 m 2 Y s 1848 1117 m 1 Y s 3 lw 1848 1111 m21 6 lw 1853 1098 m 1 Y s 1853 1110 m 2 Y s 3 lw 1853 1105 m21 6 lw 1858 1104 m 1 Y s 1858 1116 m 2 Y s 3 lw
 1858 1111 m21 6 lw 1862 1098 m 2 Y s 1862 1111 m 2 Y s 3 lw 1862 1106 m21 6 lw 1867 1089 m 2 Y s 1867 1102 m 1 Y s 3 lw 1867 1096 m21 6 lw 1872 1099 m 1 Y s 1872 1112 m 1 Y s 3 lw 1872 1106 m21 6 lw 1877 1092 m 1 Y s 1877 1105 m 1 Y s 3 lw 1877 1099
 m21 6 lw 1881 1084 m 1 Y s 1881 1097 m 1 Y s 3 lw 1881 1091 m21 6 lw 1886 1096 m 2 Y s 1886 1109 m 2 Y s 3 lw 1886 1103 m21 6 lw 1891 1087 m 2 Y s 1891 1100 m 2 Y s 3 lw 1891 1094 m21 6 lw 1895 1091 m 2 Y s 1895 1104 m 2 Y s 3 lw 1895 1099 m21 6 lw
 1900 1098 m 1 Y s 1900 1111 m 1 Y s 3 lw 1900 1105 m21 6 lw 1905 1100 m 2 Y s 1905 1113 m 2 Y s 3 lw 1905 1108 m21 6 lw 1909 1091 m 2 Y s 1909 1105 m 1 Y s 3 lw 1909 1099 m21 6 lw 1914 1090 m 2 Y s 1914 1104 m 1 Y s 3 lw 1914 1098 m21 6 lw 1919 1096
 m 2 Y s 1919 1110 m 1 Y s 3 lw 1919 1104 m21 6 lw 1924 1099 m 2 Y s 1924 1112 m 2 Y s 3 lw 1924 1106 m21 6 lw 1928 1096 m 2 Y s 1928 1109 m 2 Y s 3 lw 1928 1103 m21 6 lw 1933 1094 m 1 Y s 1933 1107 m 2 Y s 3 lw 1933 1101 m21 6 lw 1938 1116 m 2 Y s
 1938 1129 m 2 Y s 3 lw 1938 1124 m21 6 lw 1942 1092 m 2 Y s 1942 1105 m 2 Y s 3 lw 1942 1100 m21 6 lw 1947 1105 m 2 Y s 1947 1119 m 2 Y s 3 lw 1947 1113 m21 6 lw 1952 1103 m 2 Y s 1952 1116 m 2 Y s 3 lw 1952 1111 m21 6 lw 1957 1099 m 2 Y s 1957 1113
 m 2 Y s 3 lw 1957 1107 m21 6 lw 1961 1099 m 2 Y s 1961 1113 m 2 Y s 3 lw 1961 1107 m21 6 lw 1966 1086 m 2 Y s 1966 1100 m 2 Y s 3 lw 1966 1094 m21 6 lw 1971 1091 m 2 Y s 1971 1104 m 3 Y s 3 lw 1971 1099 m21 6 lw 1975 1099 m 2 Y s 1975 1113 m 2 Y s 3
 lw 1975 1107 m21 6 lw 1980 1088 m 2 Y s 1980 1101 m 3 Y s 3 lw 1980 1096 m21 6 lw 1985 1090 m 3 Y s 1985 1104 m 2 Y s 3 lw 1985 1098 m21 6 lw 1989 1104 m 2 Y s 1989 1118 m 2 Y s 3 lw 1989 1112 m21 6 lw 1994 1095 m 2 Y s 1994 1108 m 3 Y s 3 lw 1994
 1103 m21 6 lw 1999 1095 m 2 Y s 1999 1108 m 3 Y s 3 lw 1999 1103 m21 6 lw 2004 1096 m 3 Y s 2004 1110 m 2 Y s 3 lw 2004 1104 m21 6 lw 2008 1096 m 2 Y s 2008 1109 m 3 Y s 3 lw 2008 1104 m21 6 lw 2013 1095 m 3 Y s 2013 1109 m 3 Y s 3 lw 2013 1104 m21
 6 lw 2018 1095 m 3 Y s 2018 1109 m 2 Y s 3 lw 2018 1103 m21 6 lw 2022 1118 m 3 Y s 2022 1132 m 3 Y s 3 lw 2022 1127 m21 6 lw 2027 1105 m 3 Y s 2027 1119 m 3 Y s 3 lw 2027 1113 m21 6 lw 2032 1102 m 3 Y s 2032 1116 m 3 Y s 3 lw 2032 1111 m21 6 lw 2036
 1103 m 3 Y s 2036 1118 m 2 Y s 3 lw 2036 1112 m21 6 lw 2041 1091 m 2 Y s 2041 1105 m 2 Y s 3 lw 2041 1099 m21 6 lw 2046 1096 m 3 Y s 2046 1110 m 3 Y s 3 lw 2046 1104 m21 6 lw 2051 1099 m 2 Y s 2051 1113 m 2 Y s 3 lw 2051 1107 m21 6 lw 2055 1114 m 3
 Y s 2055 1128 m 3 Y s 3 lw 2055 1123 m21 6 lw 2060 1107 m 2 Y s 2060 1121 m 3 Y s 3 lw 2060 1115 m21 6 lw 2065 1114 m 3 Y s 2065 1128 m 3 Y s 3 lw 2065 1122 m21 6 lw 2069 1105 m 3 Y s 2069 1119 m 3 Y s 3 lw 2069 1113 m21 6 lw 2074 1104 m 3 Y s 2074
 1118 m 3 Y s 3 lw 2074 1113 m21 6 lw 2079 1122 m 3 Y s 2079 1137 m 3 Y s 3 lw 2079 1131 m21 6 lw 2084 1120 m 3 Y s 2084 1135 m 3 Y s 3 lw 2084 1129 m21 6 lw 2088 1090 m 3 Y s 2088 1104 m 3 Y s 3 lw 2088 1099 m21 6 lw 2093 1107 m 3 Y s 2093 1122 m 3
 Y s 3 lw 2093 1116 m21 6 lw 2098 1105 m 3 Y s 2098 1120 m 3 Y s 3 lw 2098 1114 m21 6 lw 2102 1111 m 3 Y s 2102 1125 m 4 Y s 3 lw 2102 1120 m21 6 lw 2107 1115 m 3 Y s 2107 1129 m 4 Y s 3 lw 2107 1124 m21 6 lw 2112 1101 m 4 Y s 2112 1116 m 3 Y s 3 lw
 2112 1110 m21 6 lw 2116 1109 m 4 Y s 2116 1124 m 3 Y s 3 lw 2116 1118 m21 6 lw 2121 1123 m 4 Y s 2121 1138 m 4 Y s 3 lw 2121 1132 m21 6 lw 2126 1106 m 3 Y s 2126 1121 m 3 Y s 3 lw 2126 1115 m21 6 lw 2131 1123 m 3 Y s 2131 1138 m 3 Y s 3 lw 2131 1132
 m21 6 lw 2135 1108 m 4 Y s 2135 1123 m 3 Y s 3 lw 2135 1117 m21 6 lw 2140 1100 m 3 Y s 2140 1114 m 4 Y s 3 lw 2140 1109 m21 6 lw 2145 1113 m 4 Y s 2145 1128 m 4 Y s 3 lw 2145 1123 m21 6 lw 2149 1101 m 4 Y s 2149 1116 m 4 Y s 3 lw 2149 1111 m21 6 lw
 2154 1094 m 4 Y s 2154 1109 m 4 Y s 3 lw 2154 1103 m21 6 lw 2159 1099 m 3 Y s 2159 1114 m 3 Y s 3 lw 2159 1108 m21 6 lw 2164 1130 m 4 Y s 2164 1146 m 3 Y s 3 lw 2164 1140 m21 6 lw 2168 1101 m 4 Y s 2168 1116 m 4 Y s 3 lw 2168 1111 m21 6 lw 2173 1101
 m 3 Y s 2173 1116 m 4 Y s 3 lw 2173 1110 m21 6 lw 2178 1119 m 3 Y s 2178 1134 m 4 Y s 3 lw 2178 1128 m21 6 lw 2182 1103 m 3 Y s 2182 1118 m 4 Y s 3 lw 2182 1112 m21 6 lw 2187 1118 m 4 Y s 2187 1133 m 4 Y s 3 lw 2187 1127 m21 6 lw 2192 1098 m 3 Y s
 2192 1113 m 4 Y s 3 lw 2192 1107 m21 6 lw 2196 1106 m 4 Y s 2196 1121 m 4 Y s 3 lw 2196 1116 m21 6 lw 2201 1108 m 4 Y s 2201 1124 m 4 Y s 3 lw 2201 1118 m21 6 lw 2206 1093 m 4 Y s 2206 1108 m 4 Y s 3 lw 2206 1102 m21 6 lw 2211 1115 m 4 Y s 2211 1130
 m 5 Y s 3 lw 2211 1125 m21 6 lw 2215 1114 m 4 Y s 2215 1130 m 4 Y s 3 lw 2215 1124 m21 6 lw 2220 1111 m 4 Y s 2220 1126 m 4 Y s 3 lw 2220 1121 m21 6 lw black 340 223 m 1882 X s
 gsave  2268 2234 0 0 C 1923.86 58.2559 t 0 r /Helvetica findfont 83.8316 sf 0 0 m (Q [GeV]) show NC gr  340 279 m -56 Y s 387 251 m -28 Y s 434 251 m -28 Y s 481 251 m -28 Y s 528 279 m -56 Y s 575 251 m -28 Y s 622 251 m -28 Y s 670 251 m -28 Y s
 717 279 m -56 Y s 764 251 m -28 Y s 811 251 m -28 Y s 858 251 m -28 Y s 905 279 m -56 Y s 952 251 m -28 Y s 999 251 m -28 Y s 1046 251 m -28 Y s 1093 279 m -56 Y s 1140 251 m -28 Y s 1187 251 m -28 Y s 1234 251 m -28 Y s 1281 279 m -56 Y s 1328 251
 m -28 Y s 1375 251 m -28 Y s 1422 251 m -28 Y s 1469 279 m -56 Y s 1517 251 m -28 Y s 1564 251 m -28 Y s 1611 251 m -28 Y s 1658 279 m -56 Y s 1705 251 m -28 Y s 1752 251 m -28 Y s 1799 251 m -28 Y s 1846 279 m -56 Y s 1893 251 m -28 Y s 1940 251 m
 -28 Y s 1987 251 m -28 Y s 2034 279 m -56 Y s 2081 251 m -28 Y s 2128 251 m -28 Y s 2175 251 m -28 Y s 2222 279 m -56 Y s
 gsave  2268 2234 0 0 C 322.539 159.138 t 0 r /Helvetica findfont 62.5185 sf 0 0 m (0) show NC gr 
 gsave  2268 2234 0 0 C 484.518 159.138 t 0 r /Helvetica findfont 62.5185 sf 0 0 m (0.2) show NC gr 
 gsave  2268 2234 0 0 C 673.495 159.138 t 0 r /Helvetica findfont 62.5185 sf 0 0 m (0.4) show NC gr 
 gsave  2268 2234 0 0 C 861.05 159.138 t 0 r /Helvetica findfont 62.5185 sf 0 0 m (0.6) show NC gr 
 gsave  2268 2234 0 0 C 1050.03 159.138 t 0 r /Helvetica findfont 62.5185 sf 0 0 m (0.8) show NC gr 
 gsave  2268 2234 0 0 C 1268.84 159.138 t 0 r /Helvetica findfont 62.5185 sf 0 0 m (1) show NC gr 
 gsave  2268 2234 0 0 C 1426.56 159.138 t 0 r /Helvetica findfont 62.5185 sf 0 0 m (1.2) show NC gr 
 gsave  2268 2234 0 0 C 1614.11 159.138 t 0 r /Helvetica findfont 62.5185 sf 0 0 m (1.4) show NC gr 
 gsave  2268 2234 0 0 C 1803.09 159.138 t 0 r /Helvetica findfont 62.5185 sf 0 0 m (1.6) show NC gr 
 gsave  2268 2234 0 0 C 1990.65 159.138 t 0 r /Helvetica findfont 62.5185 sf 0 0 m (1.8) show NC gr 
 gsave  2268 2234 0 0 C 2205.2 159.138 t 0 r /Helvetica findfont 62.5185 sf 0 0 m (2) show NC gr  340 223 m 1966 Y s
 gsave  2268 2234 0 0 C 147.771 1547.33 t 90 r /Helvetica findfont 83.8316 sf 0 0 m (\(Q\) / \(0.005 GeV\)) show NC gr 
 gsave  2268 2234 0 0 C 174.768 1518.92 t 90 r /Helvetica findfont 55.4141 sf 0 0 m (2) show NC gr 
 gsave  2268 2234 0 0 C 147.771 1437.93 t 90 r /Helvetica findfont 83.8316 sf 0 0 m ( C) show NC gr  400 402 m -60 X s 370 491 m -30 X s 370 581 m -30 X s 370 670 m -30 X s 400 759 m -60 X s 370 849 m -30 X s 370 938 m -30 X s 370 1027 m -30 X s 400
 1117 m -60 X s 370 1206 m -30 X s 370 1295 m -30 X s 370 1385 m -30 X s 400 1474 m -60 X s 370 1564 m -30 X s 370 1653 m -30 X s 370 1742 m -30 X s 400 1832 m -60 X s 370 1921 m -30 X s 370 2010 m -30 X s 370 2100 m -30 X s 400 2189 m -60 X s 400
 402 m -60 X s 370 313 m -30 X s 370 223 m -30 X s
 gsave  2268 2234 0 0 C 242.97 379.374 t 0 r /Helvetica findfont 62.5185 sf 0 0 m (0.6) show NC gr 
 gsave  2268 2234 0 0 C 242.97 737.434 t 0 r /Helvetica findfont 62.5185 sf 0 0 m (0.8) show NC gr 
 gsave  2268 2234 0 0 C 305.488 1092.65 t 0 r /Helvetica findfont 62.5185 sf 0 0 m (1) show NC gr 
 gsave  2268 2234 0 0 C 242.97 1450.71 t 0 r /Helvetica findfont 62.5185 sf 0 0 m (1.2) show NC gr 
 gsave  2268 2234 0 0 C 242.97 1808.77 t 0 r /Helvetica findfont 62.5185 sf 0 0 m (1.4) show NC gr 
 gsave  2268 2234 0 0 C 242.97 2166.83 t 0 r /Helvetica findfont 62.5185 sf 0 0 m (1.6) show NC gr 
 gsave  2268 2234 0 0 C 906.518 670.653 t 0 r /Helvetica-Bold findfont 72.4646 sf 0 0 m (RD PIONS) show NC gr 
 gsave  2268 2234 0 0 C 906.518 558.404 t 0 r /Helvetica-Bold findfont 72.4646 sf 0 0 m (ref. sample: EVENT MIX) show NC gr 
 gsave  2268 2234 0 0 C 906.518 447.576 t 0 r /Helvetica-Bold findfont 72.4646 sf 0 0 m (VELO tracks multiplicity: 21 \255 60) show NC gr 
 gr  gr showpage
end
%%EOF
