%!PS-Adobe-2.0 EPSF-2.0
%%BoundingBox:  0 0 567 558
%%Title: ./RD_pion_0c65_h3001_2_h3401_2.eps: RD_pion_0c65_h3001_2_h3401_2
%%Creator: ROOT Version 6.06/02
%%CreationDate: Wed Feb  1 16:20:58 2017
%%DocumentNeededResources: ProcSet (FontSetInit)
%%EndComments
%%BeginProlog
80 dict begin
/s {stroke} def /l {lineto} def /m {moveto} def /t {translate} def
/r {rotate} def /rl {roll}  def /R {repeat} def
/d {rlineto} def /rm {rmoveto} def /gr {grestore} def /f {eofill} def
/c {setrgbcolor} def /black {0 setgray} def /sd {setdash} def
/cl {closepath} def /sf {scalefont setfont} def /lw {setlinewidth} def
/box {m dup 0 exch d exch 0 d 0 exch neg d cl} def
/NC{systemdict begin initclip end}def/C{NC box clip newpath}def
/bl {box s} def /bf {gsave box gsave f grestore 1 lw [] 0 sd s grestore} def /Y { 0 exch d} def /X { 0 d} def 
/K {{pop pop 0 moveto} exch kshow} bind def
/ita {/ang 15 def gsave [1 0 ang dup sin exch cos div 1 0 0] concat} def 
/mp {newpath /y exch def /x exch def} def
/side {[w .77 mul w .23 mul] .385 w mul sd w 0 l currentpoint t -144 r} def
/mr {mp x y w2 0 360 arc} def /m24 {mr s} def /m20 {mr f} def
/mb {mp x y w2 add m w2 neg 0 d 0 w neg d w 0 d 0 w d cl} def
/mt {mp x y w2 add m w2 neg w neg d w 0 d cl} def
/m21 {mb f} def /m25 {mb s} def /m22 {mt f} def /m26{mt s} def
/m23 {mp x y w2 sub m w2 w d w neg 0 d cl f} def
/m27 {mp x y w2 add m w3 neg w2 neg d w3 w2 neg d w3 w2 d cl s} def
/m28 {mp x w2 sub y w2 sub w3 add m w3 0 d  0 w3 neg d w3 0 d 0 w3 d w3 0 d  0 w3 d w3 neg 0 d 0 w3 d w3 neg 0 d 0 w3 neg d w3 neg 0 d cl s } def
/m29 {mp gsave x w2 sub y w2 add w3 sub m currentpoint t 4 {side} repeat cl fill gr} def
/m30 {mp gsave x w2 sub y w2 add w3 sub m currentpoint t 4 {side} repeat cl s gr} def
/m31 {mp x y w2 sub m 0 w d x w2 sub y m w 0 d x w2 sub y w2 add m w w neg d x w2 sub y w2 sub m w w d s} def
/m32 {mp x y w2 sub m w2 w d w neg 0 d cl s} def
/m33 {mp x y w2 add m w3 neg w2 neg d w3 w2 neg d w3 w2 d cl f} def
/m34 {mp x w2 sub y w2 sub w3 add m w3 0 d  0 w3 neg d w3 0 d 0 w3 d w3 0 d  0 w3 d w3 neg 0 d 0 w3 d w3 neg 0 d 0 w3 neg d w3 neg 0 d cl f } def
/m2 {mp x y w2 sub m 0 w d x w2 sub y m w 0 d s} def
/m5 {mp x w2 sub y w2 sub m w w d x w2 sub y w2 add m w w neg d s} def
%%IncludeResource: ProcSet (FontSetInit)
%%IncludeResource: font Times-Roman
%%IncludeResource: font Times-Italic
%%IncludeResource: font Times-Bold
%%IncludeResource: font Times-BoldItalic
%%IncludeResource: font Helvetica
%%IncludeResource: font Helvetica-Oblique
%%IncludeResource: font Helvetica-Bold
%%IncludeResource: font Helvetica-BoldOblique
%%IncludeResource: font Courier
%%IncludeResource: font Courier-Oblique
%%IncludeResource: font Courier-Bold
%%IncludeResource: font Courier-BoldOblique
%%IncludeResource: font Symbol
%%IncludeResource: font ZapfDingbats
/reEncode {exch findfont dup length dict begin {1 index /FID eq  {pop pop} {def} ifelse } forall /Encoding exch def currentdict end dup /FontName get exch definefont pop } def [/Times-Bold /Times-Italic /Times-BoldItalic /Helvetica /Helvetica-Oblique
 /Helvetica-Bold /Helvetica-BoldOblique /Courier /Courier-Oblique /Courier-Bold /Courier-BoldOblique /Times-Roman /AvantGarde-Book /AvantGarde-BookOblique /AvantGarde-Demi /AvantGarde-DemiOblique /Bookman-Demi /Bookman-DemiItalic /Bookman-Light
 /Bookman-LightItalic /Helvetica-Narrow /Helvetica-Narrow-Bold /Helvetica-Narrow-BoldOblique /Helvetica-Narrow-Oblique /NewCenturySchlbk-Roman /NewCenturySchlbk-Bold /NewCenturySchlbk-BoldItalic /NewCenturySchlbk-Italic /Palatino-Bold
 /Palatino-BoldItalic /Palatino-Italic /Palatino-Roman ] {ISOLatin1Encoding reEncode } forall
%%EndProlog
%%BeginSetup
%%EndSetup
newpath  gsave  .25 .25 scale  gsave  0 0 t black[  ] 0 sd 6 lw 1 1 1 c 2268 2234 0 0 bf black 3 lw 1 1 1 c 1882 1966 340 223 bf black 1882 1966 340 223 bl 1 1 1 c 1882 1966 340 223 bf black 1882 1966 340 223 bl 0 0 1 c 6 lw 1 1 1 c 0 0 1 c 390 1735
 m 16 Y s 390 1763 m 16 Y s 3 lw /w 14 def /w2 {w 2 div} def /w3 {w 3 div} def 390 1757 m21 6 lw 394 1711 m 14 Y s 394 1737 m 14 Y s 3 lw 394 1731 m21 6 lw 399 1735 m 14 Y s 399 1760 m 13 Y s 3 lw 399 1754 m21 6 lw 404 1695 m 12 Y s 404 1718 m 12 Y s
 3 lw 404 1712 m21 6 lw 408 1681 m 11 Y s 408 1703 m 11 Y s 3 lw 408 1697 m21 6 lw 413 1666 m 10 Y s 413 1687 m 10 Y s 3 lw 413 1682 m21 6 lw 418 1675 m 9 Y s 418 1695 m 9 Y s 3 lw 418 1690 m21 6 lw 423 1634 m 8 Y s 423 1653 m 8 Y s 3 lw 423 1647 m21
 6 lw 427 1616 m 7 Y s 427 1635 m 7 Y s 3 lw 427 1629 m21 6 lw 432 1573 m 7 Y s 432 1591 m 7 Y s 3 lw 432 1585 m21 6 lw 437 1590 m 6 Y s 437 1608 m 6 Y s 3 lw 437 1602 m21 6 lw 441 1552 m 5 Y s 441 1569 m 6 Y s 3 lw 441 1563 m21 6 lw 446 1548 m 5 Y s
 446 1565 m 5 Y s 3 lw 446 1559 m21 6 lw 451 1532 m 5 Y s 451 1548 m 5 Y s 3 lw 451 1543 m21 6 lw 455 1524 m 5 Y s 455 1540 m 5 Y s 3 lw 455 1534 m21 6 lw 460 1484 m 4 Y s 460 1499 m 4 Y s 3 lw 460 1493 m21 6 lw 465 1495 m 4 Y s 465 1510 m 4 Y s 3 lw
 465 1505 m21 6 lw 470 1481 m 3 Y s 470 1496 m 3 Y s 3 lw 470 1490 m21 6 lw 474 1470 m 4 Y s 474 1485 m 3 Y s 3 lw 474 1479 m21 6 lw 479 1433 m 2 Y s 479 1447 m 3 Y s 3 lw 479 1441 m21 6 lw 484 1420 m 2 Y s 484 1434 m 2 Y s 3 lw 484 1428 m21 6 lw 488
 1413 m 3 Y s 488 1427 m 3 Y s 3 lw 488 1422 m21 6 lw 493 1408 m 2 Y s 493 1421 m 3 Y s 3 lw 493 1416 m21 6 lw 498 1392 m 2 Y s 498 1406 m 2 Y s 3 lw 498 1400 m21 6 lw 502 1398 m 2 Y s 502 1411 m 3 Y s 3 lw 502 1406 m21 6 lw 507 1399 m 2 Y s 507 1412
 m 2 Y s 3 lw 507 1407 m21 6 lw 512 1364 m 1 Y s 512 1377 m 1 Y s 3 lw 512 1371 m21 6 lw 517 1370 m 1 Y s 517 1383 m 1 Y s 3 lw 517 1377 m21 6 lw 521 1361 m 1 Y s 521 1373 m 2 Y s 3 lw 521 1368 m21 6 lw 526 1353 m 2 Y s 526 1366 m 1 Y s 3 lw 526 1360
 m21 6 lw 531 1349 m 1 Y s 531 1361 m 2 Y s 3 lw 531 1356 m21 6 lw 535 1330 m 1 Y s 535 1342 m 1 Y s 3 lw 535 1336 m21 6 lw 540 1320 m 1 Y s 540 1333 m 1 Y s 3 lw 540 1327 m21 6 lw 545 1316 m s 545 1328 m 1 Y s 3 lw 545 1322 m21 6 lw 550 1322 m 1 Y s
 550 1334 m 1 Y s 3 lw 550 1329 m21 6 lw 554 1307 m 1 Y s 554 1319 m 1 Y s 3 lw 554 1314 m21 6 lw 559 1297 m 1 Y s 559 1309 m s 3 lw 559 1303 m21 6 lw 564 1292 m s 564 1304 m s 3 lw 564 1298 m21 6 lw 568 1291 m s 568 1302 m 1 Y s 3 lw 568 1297 m21 6
 lw 573 1280 m s 573 1291 m 1 Y s 3 lw 573 1286 m21 6 lw 578 1272 m s 578 1284 m s 3 lw 578 1278 m21 6 lw 582 1271 m s 582 1283 m s 3 lw 582 1277 m21 6 lw 587 1273 m s 587 1285 m s 3 lw 587 1279 m21 6 lw 592 1258 m 1 Y s 592 1270 m s 3 lw 592 1264
 m21 6 lw 3 lw 597 1255 m21 6 lw 3 lw 601 1257 m21 6 lw 3 lw 606 1249 m21 6 lw 3 lw 611 1253 m21 6 lw 3 lw 615 1238 m21 6 lw 3 lw 620 1239 m21 6 lw 3 lw 625 1233 m21 6 lw 3 lw 630 1231 m21 6 lw 3 lw 634 1229 m21 6 lw 3 lw 639 1219 m21 6 lw 3 lw 644
 1206 m21 6 lw 3 lw 648 1214 m21 6 lw 3 lw 653 1201 m21 6 lw 3 lw 658 1202 m21 6 lw 3 lw 662 1207 m21 6 lw 3 lw 667 1195 m21 6 lw 3 lw 672 1193 m21 6 lw 3 lw 677 1200 m21 6 lw 3 lw 681 1185 m21 6 lw 3 lw 686 1192 m21 6 lw 3 lw 691 1183 m21 6 lw 3 lw
 695 1192 m21 6 lw 3 lw 700 1172 m21 6 lw 3 lw 705 1174 m21 6 lw 3 lw 710 1168 m21 6 lw 3 lw 714 1171 m21 6 lw 3 lw 719 1164 m21 6 lw 3 lw 724 1167 m21 6 lw 3 lw 728 1167 m21 6 lw 3 lw 733 1169 m21 6 lw 3 lw 738 1160 m21 6 lw 3 lw 742 1157 m21 6 lw 3
 lw 747 1166 m21 6 lw 3 lw 752 1153 m21 6 lw 3 lw 757 1151 m21 6 lw 3 lw 761 1146 m21 6 lw 3 lw 766 1147 m21 6 lw 3 lw 771 1152 m21 6 lw 3 lw 775 1141 m21 6 lw 3 lw 780 1136 m21 6 lw 3 lw 785 1135 m21 6 lw 3 lw 790 1138 m21 6 lw 3 lw 794 1130 m21 6
 lw 3 lw 799 1131 m21 6 lw 3 lw 804 1123 m21 6 lw 3 lw 808 1129 m21 6 lw 3 lw 813 1133 m21 6 lw 3 lw 818 1118 m21 6 lw 3 lw 822 1117 m21 6 lw 3 lw 827 1121 m21 6 lw 3 lw 832 1117 m21 6 lw 3 lw 837 1113 m21 6 lw 3 lw 841 1117 m21 6 lw 3 lw 846 1112
 m21 6 lw 3 lw 851 1114 m21 6 lw 3 lw 855 1109 m21 6 lw 3 lw 860 1111 m21 6 lw 3 lw 865 1110 m21 6 lw 3 lw 870 1110 m21 6 lw 3 lw 874 1107 m21 6 lw 3 lw 879 1101 m21 6 lw 3 lw 884 1099 m21 6 lw 3 lw 888 1107 m21 6 lw 3 lw 893 1104 m21 6 lw 3 lw 898
 1100 m21 6 lw 3 lw 902 1103 m21 6 lw 3 lw 907 1089 m21 6 lw 3 lw 912 1090 m21 6 lw 3 lw 917 1091 m21 6 lw 3 lw 921 1084 m21 6 lw 3 lw 926 1105 m21 6 lw 3 lw 931 1093 m21 6 lw 3 lw 935 1086 m21 6 lw 3 lw 940 1084 m21 6 lw 3 lw 945 1084 m21 6 lw 3 lw
 950 1085 m21 6 lw 3 lw 954 1082 m21 6 lw 3 lw 959 1082 m21 6 lw 3 lw 964 1089 m21 6 lw 3 lw 968 1084 m21 6 lw 3 lw 973 1081 m21 6 lw 3 lw 978 1079 m21 6 lw 3 lw 982 1080 m21 6 lw 3 lw 987 1075 m21 6 lw 3 lw 992 1078 m21 6 lw 3 lw 997 1077 m21 6 lw 3
 lw 1001 1078 m21 6 lw 3 lw 1006 1076 m21 6 lw 3 lw 1011 1072 m21 6 lw 3 lw 1015 1077 m21 6 lw 3 lw 1020 1071 m21 6 lw 3 lw 1025 1072 m21 6 lw 3 lw 1030 1073 m21 6 lw 3 lw 1034 1069 m21 6 lw 3 lw 1039 1073 m21 6 lw 3 lw 1044 1076 m21 6 lw 3 lw 1048
 1077 m21 6 lw 3 lw 1053 1064 m21 6 lw 3 lw 1058 1068 m21 6 lw 3 lw 1062 1066 m21 6 lw 3 lw 1067 1063 m21 6 lw 3 lw 1072 1065 m21 6 lw 3 lw 1077 1058 m21 6 lw 3 lw 1081 1063 m21 6 lw 3 lw 1086 1070 m21 6 lw 3 lw 1091 1068 m21 6 lw 3 lw 1095 1067 m21
 6 lw 3 lw 1100 1065 m21 6 lw 3 lw 1105 1066 m21 6 lw 3 lw 1110 1062 m21 6 lw 3 lw 1114 1065 m21 6 lw 3 lw 1119 1058 m21 6 lw 3 lw 1124 1064 m21 6 lw 3 lw 1128 1061 m21 6 lw 3 lw 1133 1056 m21 6 lw 3 lw 1138 1070 m21 6 lw 3 lw 1142 1068 m21 6 lw 3 lw
 1147 1057 m21 6 lw 3 lw 1152 1060 m21 6 lw 3 lw 1157 1060 m21 6 lw 3 lw 1161 1060 m21 6 lw 3 lw 1166 1055 m21 6 lw 3 lw 1171 1060 m21 6 lw 3 lw 1175 1055 m21 6 lw 3 lw 1180 1059 m21 6 lw 3 lw 1185 1059 m21 6 lw 3 lw 1190 1054 m21 6 lw 3 lw 1194 1060
 m21 6 lw 3 lw 1199 1054 m21 6 lw 3 lw 1204 1058 m21 6 lw 3 lw 1208 1062 m21 6 lw 3 lw 1213 1054 m21 6 lw 3 lw 1218 1057 m21 6 lw 3 lw 1222 1048 m21 6 lw 3 lw 1227 1051 m21 6 lw 3 lw 1232 1055 m21 6 lw 3 lw 1237 1050 m21 6 lw 3 lw 1241 1048 m21 6 lw
 3 lw 1246 1050 m21 6 lw 3 lw 1251 1051 m21 6 lw 3 lw 1255 1047 m21 6 lw 3 lw 1260 1060 m21 6 lw 3 lw 1265 1052 m21 6 lw 3 lw 1269 1061 m21 6 lw 3 lw 1274 1055 m21 6 lw 3 lw 1279 1057 m21 6 lw 3 lw 1284 1043 m21 6 lw 3 lw 1288 1048 m21 6 lw 3 lw 1293
 1049 m21 6 lw 3 lw 1298 1047 m21 6 lw 3 lw 1302 1045 m21 6 lw 3 lw 1307 1053 m21 6 lw 3 lw 1312 1051 m21 6 lw 3 lw 1317 1048 m21 6 lw 3 lw 1321 1050 m21 6 lw 3 lw 1326 1052 m21 6 lw 3 lw 1331 1043 m21 6 lw 3 lw 1335 1058 m21 6 lw 3 lw 1340 1049 m21
 6 lw 3 lw 1345 1054 m21 6 lw 3 lw 1349 1051 m21 6 lw 3 lw 1354 1056 m21 6 lw 3 lw 1359 1052 m21 6 lw 3 lw 1364 1049 m21 6 lw 3 lw 1368 1062 m21 6 lw 3 lw 1373 1047 m21 6 lw 3 lw 1378 1054 m21 6 lw 3 lw 1382 1056 m21 6 lw 3 lw 1387 1055 m21 6 lw 3 lw
 1392 1063 m21 6 lw 3 lw 1397 1047 m21 6 lw 3 lw 1401 1057 m21 6 lw 3 lw 1406 1047 m21 6 lw 3 lw 1411 1048 m21 6 lw 3 lw 1415 1056 m21 6 lw 3 lw 1420 1047 m21 6 lw 3 lw 1425 1046 m21 6 lw 1429 1060 m s 1429 1071 m s 3 lw 1429 1065 m21 6 lw 1434 1062
 m s 1434 1074 m s 3 lw 1434 1068 m21 6 lw 1439 1048 m s 1439 1059 m s 3 lw 1439 1053 m21 6 lw 1444 1051 m s 1444 1062 m 1 Y s 3 lw 1444 1057 m21 6 lw 1448 1055 m s 1448 1067 m s 3 lw 1448 1061 m21 6 lw 1453 1037 m s 1453 1049 m s 3 lw 1453 1043 m21
 6 lw 1458 1061 m s 1458 1072 m 1 Y s 3 lw 1458 1067 m21 6 lw 1462 1053 m 1 Y s 1462 1065 m s 3 lw 1462 1059 m21 6 lw 1467 1051 m s 1467 1062 m 1 Y s 3 lw 1467 1057 m21 6 lw 1472 1052 m 1 Y s 1472 1064 m s 3 lw 1472 1058 m21 6 lw 1477 1050 m s 1477
 1061 m 1 Y s 3 lw 1477 1056 m21 6 lw 1481 1049 m s 1481 1061 m s 3 lw 1481 1055 m21 6 lw 1486 1055 m s 1486 1066 m 1 Y s 3 lw 1486 1061 m21 6 lw 1491 1059 m 1 Y s 1491 1071 m 1 Y s 3 lw 1491 1065 m21 6 lw 1495 1046 m 1 Y s 1495 1058 m s 3 lw 1495
 1052 m21 6 lw 1500 1051 m 1 Y s 1500 1063 m 1 Y s 3 lw 1500 1057 m21 6 lw 1505 1051 m s 1505 1063 m s 3 lw 1505 1057 m21 6 lw 1509 1047 m s 1509 1058 m 1 Y s 3 lw 1509 1053 m21 6 lw 1514 1044 m s 1514 1056 m s 3 lw 1514 1050 m21 6 lw 1519 1054 m 1 Y
 s 1519 1066 m 1 Y s 3 lw 1519 1060 m21 6 lw 1524 1054 m s 1524 1066 m s 3 lw 1524 1060 m21 6 lw 1528 1063 m 1 Y s 1528 1075 m 1 Y s 3 lw 1528 1069 m21 6 lw 1533 1039 m 1 Y s 1533 1051 m 1 Y s 3 lw 1533 1046 m21 6 lw 1538 1050 m 1 Y s 1538 1062 m 1 Y
 s 3 lw 1538 1057 m21 6 lw 1542 1059 m 1 Y s 1542 1071 m 1 Y s 3 lw 1542 1066 m21 6 lw 1547 1050 m s 1547 1062 m s 3 lw 1547 1056 m21 6 lw 1552 1055 m s 1552 1067 m 1 Y s 3 lw 1552 1061 m21 6 lw 1557 1061 m 1 Y s 1557 1073 m 1 Y s 3 lw 1557 1067 m21
 6 lw 1561 1060 m s 1561 1072 m 1 Y s 3 lw 1561 1066 m21 6 lw 1566 1052 m 1 Y s 1566 1065 m 1 Y s 3 lw 1566 1059 m21 6 lw 1571 1060 m 1 Y s 1571 1072 m 1 Y s 3 lw 1571 1067 m21 6 lw 1575 1050 m 1 Y s 1575 1062 m 1 Y s 3 lw 1575 1057 m21 6 lw 1580
 1050 m 1 Y s 1580 1062 m 1 Y s 3 lw 1580 1056 m21 6 lw 1585 1061 m 1 Y s 1585 1073 m 1 Y s 3 lw 1585 1067 m21 6 lw 1589 1042 m 1 Y s 1589 1055 m 1 Y s 3 lw 1589 1049 m21 6 lw 1594 1063 m 1 Y s 1594 1075 m 1 Y s 3 lw 1594 1070 m21 6 lw 1599 1062 m 1
 Y s 1599 1075 m 1 Y s 3 lw 1599 1069 m21 6 lw 1604 1049 m 1 Y s 1604 1062 m 1 Y s 3 lw 1604 1056 m21 6 lw 1608 1063 m 1 Y s 1608 1075 m 1 Y s 3 lw 1608 1069 m21 6 lw 1613 1062 m 1 Y s 1613 1075 m 1 Y s 3 lw 1613 1069 m21 6 lw 1618 1057 m 1 Y s 1618
 1070 m 1 Y s 3 lw 1618 1064 m21 6 lw 1622 1057 m 1 Y s 1622 1069 m 2 Y s 3 lw 1622 1064 m21 6 lw 1627 1065 m 2 Y s 1627 1078 m 1 Y s 3 lw 1627 1072 m21 6 lw 1632 1061 m 2 Y s 1632 1074 m 1 Y s 3 lw 1632 1068 m21 6 lw 1637 1062 m 1 Y s 1637 1074 m 2
 Y s 3 lw 1637 1069 m21 6 lw 1641 1065 m 1 Y s 1641 1077 m 2 Y s 3 lw 1641 1072 m21 6 lw 1646 1056 m 1 Y s 1646 1068 m 2 Y s 3 lw 1646 1063 m21 6 lw 1651 1054 m 1 Y s 1651 1066 m 2 Y s 3 lw 1651 1061 m21 6 lw 1655 1054 m 1 Y s 1655 1067 m 1 Y s 3 lw
 1655 1061 m21 6 lw 1660 1073 m 2 Y s 1660 1086 m 2 Y s 3 lw 1660 1080 m21 6 lw 1665 1051 m 2 Y s 1665 1064 m 1 Y s 3 lw 1665 1058 m21 6 lw 1669 1060 m 2 Y s 1669 1073 m 2 Y s 3 lw 1669 1068 m21 6 lw 1674 1052 m 2 Y s 1674 1065 m 2 Y s 3 lw 1674 1060
 m21 6 lw 1679 1070 m 2 Y s 1679 1083 m 2 Y s 3 lw 1679 1078 m21 6 lw 1684 1072 m 1 Y s 1684 1085 m 2 Y s 3 lw 1684 1079 m21 6 lw 1688 1068 m 2 Y s 1688 1081 m 2 Y s 3 lw 1688 1075 m21 6 lw 1693 1050 m 2 Y s 1693 1063 m 2 Y s 3 lw 1693 1057 m21 6 lw
 1698 1080 m 2 Y s 1698 1093 m 2 Y s 3 lw 1698 1087 m21 6 lw 1702 1072 m 1 Y s 1702 1085 m 2 Y s 3 lw 1702 1079 m21 6 lw 1707 1065 m 2 Y s 1707 1078 m 2 Y s 3 lw 1707 1072 m21 6 lw 1712 1061 m 2 Y s 1712 1074 m 2 Y s 3 lw 1712 1069 m21 6 lw 1717 1066
 m 1 Y s 1717 1079 m 2 Y s 3 lw 1717 1073 m21 6 lw 1721 1065 m 2 Y s 1721 1078 m 2 Y s 3 lw 1721 1073 m21 6 lw 1726 1053 m 2 Y s 1726 1066 m 2 Y s 3 lw 1726 1061 m21 6 lw 1731 1077 m 2 Y s 1731 1090 m 3 Y s 3 lw 1731 1085 m21 6 lw 1735 1080 m 2 Y s
 1735 1093 m 2 Y s 3 lw 1735 1087 m21 6 lw 1740 1074 m 2 Y s 1740 1088 m 2 Y s 3 lw 1740 1082 m21 6 lw 1745 1085 m 2 Y s 1745 1099 m 2 Y s 3 lw 1745 1093 m21 6 lw 1749 1079 m 2 Y s 1749 1093 m 2 Y s 3 lw 1749 1087 m21 6 lw 1754 1063 m 3 Y s 1754 1077
 m 2 Y s 3 lw 1754 1071 m21 6 lw 1759 1055 m 2 Y s 1759 1068 m 2 Y s 3 lw 1759 1062 m21 6 lw 1764 1063 m 2 Y s 1764 1076 m 3 Y s 3 lw 1764 1071 m21 6 lw 1768 1068 m 2 Y s 1768 1081 m 3 Y s 3 lw 1768 1076 m21 6 lw 1773 1073 m 2 Y s 1773 1086 m 3 Y s 3
 lw 1773 1081 m21 6 lw 1778 1071 m 2 Y s 1778 1084 m 3 Y s 3 lw 1778 1079 m21 6 lw 1782 1067 m 3 Y s 1782 1081 m 2 Y s 3 lw 1782 1075 m21 6 lw 1787 1067 m 3 Y s 1787 1081 m 3 Y s 3 lw 1787 1076 m21 6 lw 1792 1082 m 3 Y s 1792 1096 m 3 Y s 3 lw 1792
 1090 m21 6 lw 1797 1054 m 3 Y s 1797 1068 m 3 Y s 3 lw 1797 1062 m21 6 lw 1801 1066 m 3 Y s 1801 1080 m 3 Y s 3 lw 1801 1075 m21 6 lw 1806 1078 m 3 Y s 1806 1092 m 3 Y s 3 lw 1806 1086 m21 6 lw 1811 1080 m 3 Y s 1811 1094 m 3 Y s 3 lw 1811 1088 m21
 6 lw 1815 1063 m 3 Y s 1815 1077 m 3 Y s 3 lw 1815 1072 m21 6 lw 1820 1078 m 3 Y s 1820 1092 m 3 Y s 3 lw 1820 1086 m21 6 lw 1825 1075 m 2 Y s 1825 1089 m 2 Y s 3 lw 1825 1083 m21 6 lw 1829 1069 m 3 Y s 1829 1083 m 3 Y s 3 lw 1829 1078 m21 6 lw 1834
 1090 m 3 Y s 1834 1104 m 3 Y s 3 lw 1834 1098 m21 6 lw 1839 1080 m 3 Y s 1839 1094 m 3 Y s 3 lw 1839 1089 m21 6 lw 1844 1091 m 3 Y s 1844 1105 m 3 Y s 3 lw 1844 1100 m21 6 lw 1848 1068 m 3 Y s 1848 1082 m 3 Y s 3 lw 1848 1077 m21 6 lw 1853 1086 m 3
 Y s 1853 1101 m 3 Y s 3 lw 1853 1095 m21 6 lw 1858 1077 m 3 Y s 1858 1091 m 3 Y s 3 lw 1858 1086 m21 6 lw 1862 1065 m 3 Y s 1862 1080 m 3 Y s 3 lw 1862 1074 m21 6 lw 1867 1086 m 3 Y s 1867 1100 m 4 Y s 3 lw 1867 1095 m21 6 lw 1872 1078 m 4 Y s 1872
 1093 m 3 Y s 3 lw 1872 1087 m21 6 lw 1877 1073 m 3 Y s 1877 1087 m 4 Y s 3 lw 1877 1082 m21 6 lw 1881 1075 m 3 Y s 1881 1089 m 4 Y s 3 lw 1881 1084 m21 6 lw 1886 1069 m 3 Y s 1886 1084 m 3 Y s 3 lw 1886 1078 m21 6 lw 1891 1086 m 3 Y s 1891 1101 m 3
 Y s 3 lw 1891 1095 m21 6 lw 1895 1082 m 4 Y s 1895 1097 m 3 Y s 3 lw 1895 1091 m21 6 lw 1900 1069 m 3 Y s 1900 1084 m 3 Y s 3 lw 1900 1078 m21 6 lw 1905 1068 m 3 Y s 1905 1083 m 3 Y s 3 lw 1905 1077 m21 6 lw 1909 1073 m 3 Y s 1909 1088 m 3 Y s 3 lw
 1909 1082 m21 6 lw 1914 1070 m 3 Y s 1914 1084 m 4 Y s 3 lw 1914 1079 m21 6 lw 1919 1081 m 4 Y s 1919 1096 m 4 Y s 3 lw 1919 1090 m21 6 lw 1924 1092 m 4 Y s 1924 1107 m 4 Y s 3 lw 1924 1102 m21 6 lw 1928 1079 m 4 Y s 1928 1094 m 4 Y s 3 lw 1928 1089
 m21 6 lw 1933 1088 m 4 Y s 1933 1104 m 3 Y s 3 lw 1933 1098 m21 6 lw 1938 1081 m 4 Y s 1938 1097 m 3 Y s 3 lw 1938 1091 m21 6 lw 1942 1099 m 4 Y s 1942 1114 m 4 Y s 3 lw 1942 1109 m21 6 lw 1947 1087 m 4 Y s 1947 1102 m 4 Y s 3 lw 1947 1096 m21 6 lw
 1952 1084 m 4 Y s 1952 1099 m 4 Y s 3 lw 1952 1093 m21 6 lw 1957 1075 m 4 Y s 1957 1090 m 4 Y s 3 lw 1957 1084 m21 6 lw 1961 1075 m 4 Y s 1961 1090 m 4 Y s 3 lw 1961 1085 m21 6 lw 1966 1088 m 4 Y s 1966 1103 m 5 Y s 3 lw 1966 1098 m21 6 lw 1971 1088
 m 4 Y s 1971 1103 m 4 Y s 3 lw 1971 1098 m21 6 lw 1975 1080 m 4 Y s 1975 1095 m 4 Y s 3 lw 1975 1090 m21 6 lw 1980 1092 m 4 Y s 1980 1107 m 5 Y s 3 lw 1980 1102 m21 6 lw 1985 1075 m 4 Y s 1985 1091 m 4 Y s 3 lw 1985 1085 m21 6 lw 1989 1087 m 5 Y s
 1989 1103 m 4 Y s 3 lw 1989 1097 m21 6 lw 1994 1117 m 5 Y s 1994 1133 m 5 Y s 3 lw 1994 1127 m21 6 lw 1999 1080 m 4 Y s 1999 1096 m 4 Y s 3 lw 1999 1090 m21 6 lw 2004 1073 m 4 Y s 2004 1088 m 5 Y s 3 lw 2004 1083 m21 6 lw 2008 1074 m 4 Y s 2008 1089
 m 5 Y s 3 lw 2008 1084 m21 6 lw 2013 1064 m 5 Y s 2013 1080 m 4 Y s 3 lw 2013 1074 m21 6 lw 2018 1072 m 4 Y s 2018 1088 m 4 Y s 3 lw 2018 1082 m21 6 lw 2022 1081 m 5 Y s 2022 1097 m 5 Y s 3 lw 2022 1091 m21 6 lw 2027 1084 m 4 Y s 2027 1100 m 5 Y s 3
 lw 2027 1094 m21 6 lw 2032 1116 m 5 Y s 2032 1133 m 5 Y s 3 lw 2032 1127 m21 6 lw 2036 1102 m 5 Y s 2036 1119 m 5 Y s 3 lw 2036 1113 m21 6 lw 2041 1100 m 5 Y s 2041 1116 m 5 Y s 3 lw 2041 1111 m21 6 lw 2046 1098 m 5 Y s 2046 1114 m 5 Y s 3 lw 2046
 1109 m21 6 lw 2051 1078 m 5 Y s 2051 1094 m 5 Y s 3 lw 2051 1088 m21 6 lw 2055 1073 m 5 Y s 2055 1089 m 5 Y s 3 lw 2055 1083 m21 6 lw 2060 1085 m 5 Y s 2060 1102 m 5 Y s 3 lw 2060 1096 m21 6 lw 2065 1073 m 5 Y s 2065 1089 m 5 Y s 3 lw 2065 1083 m21
 6 lw 2069 1111 m 5 Y s 2069 1127 m 6 Y s 3 lw 2069 1122 m21 6 lw 2074 1094 m 5 Y s 2074 1110 m 6 Y s 3 lw 2074 1105 m21 6 lw 2079 1093 m 5 Y s 2079 1109 m 6 Y s 3 lw 2079 1104 m21 6 lw 2084 1102 m 5 Y s 2084 1119 m 5 Y s 3 lw 2084 1113 m21 6 lw 2088
 1099 m 5 Y s 2088 1116 m 5 Y s 3 lw 2088 1110 m21 6 lw 2093 1097 m 6 Y s 2093 1114 m 5 Y s 3 lw 2093 1108 m21 6 lw 2098 1093 m 6 Y s 2098 1110 m 6 Y s 3 lw 2098 1104 m21 6 lw 2102 1083 m 5 Y s 2102 1099 m 6 Y s 3 lw 2102 1094 m21 6 lw 2107 1118 m 6
 Y s 2107 1135 m 6 Y s 3 lw 2107 1130 m21 6 lw 2112 1100 m 5 Y s 2112 1117 m 5 Y s 3 lw 2112 1111 m21 6 lw 2116 1108 m 6 Y s 2116 1125 m 6 Y s 3 lw 2116 1119 m21 6 lw 2121 1102 m 6 Y s 2121 1119 m 6 Y s 3 lw 2121 1114 m21 6 lw 2126 1112 m 6 Y s 2126
 1129 m 6 Y s 3 lw 2126 1123 m21 6 lw 2131 1084 m 6 Y s 2131 1101 m 6 Y s 3 lw 2131 1096 m21 6 lw 2135 1082 m 6 Y s 2135 1100 m 5 Y s 3 lw 2135 1094 m21 6 lw 2140 1093 m 6 Y s 2140 1111 m 6 Y s 3 lw 2140 1105 m21 6 lw 2145 1071 m 6 Y s 2145 1088 m 6
 Y s 3 lw 2145 1083 m21 6 lw 2149 1113 m 6 Y s 2149 1130 m 7 Y s 3 lw 2149 1125 m21 6 lw 2154 1093 m 6 Y s 2154 1111 m 6 Y s 3 lw 2154 1105 m21 6 lw 2159 1109 m 6 Y s 2159 1126 m 7 Y s 3 lw 2159 1121 m21 6 lw 2164 1114 m 6 Y s 2164 1132 m 6 Y s 3 lw
 2164 1126 m21 6 lw 2168 1082 m 6 Y s 2168 1099 m 6 Y s 3 lw 2168 1093 m21 6 lw 2173 1070 m 7 Y s 2173 1088 m 6 Y s 3 lw 2173 1082 m21 6 lw 2178 1105 m 7 Y s 2178 1123 m 7 Y s 3 lw 2178 1117 m21 6 lw 2182 1105 m 7 Y s 2182 1123 m 6 Y s 3 lw 2182 1117
 m21 6 lw 2187 1095 m 7 Y s 2187 1113 m 7 Y s 3 lw 2187 1107 m21 6 lw 2192 1088 m 7 Y s 2192 1106 m 7 Y s 3 lw 2192 1101 m21 6 lw 2196 1111 m 7 Y s 2196 1129 m 7 Y s 3 lw 2196 1124 m21 6 lw 2201 1115 m 7 Y s 2201 1133 m 7 Y s 3 lw 2201 1128 m21 6 lw
 2206 1108 m 7 Y s 2206 1127 m 6 Y s 3 lw 2206 1121 m21 6 lw 2211 1106 m 7 Y s 2211 1124 m 7 Y s 3 lw 2211 1118 m21 6 lw 2215 1101 m 7 Y s 2215 1119 m 7 Y s 3 lw 2215 1113 m21 6 lw 2220 1107 m 7 Y s 2220 1126 m 7 Y s 3 lw 2220 1120 m21 6 lw black 340
 223 m 1882 X s
 gsave  2268 2234 0 0 C 1923.86 58.2559 t 0 r /Helvetica findfont 83.8316 sf 0 0 m (Q [GeV]) show NC gr  340 279 m -56 Y s 387 251 m -28 Y s 434 251 m -28 Y s 481 251 m -28 Y s 528 279 m -56 Y s 575 251 m -28 Y s 622 251 m -28 Y s 670 251 m -28 Y s
 717 279 m -56 Y s 764 251 m -28 Y s 811 251 m -28 Y s 858 251 m -28 Y s 905 279 m -56 Y s 952 251 m -28 Y s 999 251 m -28 Y s 1046 251 m -28 Y s 1093 279 m -56 Y s 1140 251 m -28 Y s 1187 251 m -28 Y s 1234 251 m -28 Y s 1281 279 m -56 Y s 1328 251
 m -28 Y s 1375 251 m -28 Y s 1422 251 m -28 Y s 1469 279 m -56 Y s 1517 251 m -28 Y s 1564 251 m -28 Y s 1611 251 m -28 Y s 1658 279 m -56 Y s 1705 251 m -28 Y s 1752 251 m -28 Y s 1799 251 m -28 Y s 1846 279 m -56 Y s 1893 251 m -28 Y s 1940 251 m
 -28 Y s 1987 251 m -28 Y s 2034 279 m -56 Y s 2081 251 m -28 Y s 2128 251 m -28 Y s 2175 251 m -28 Y s 2222 279 m -56 Y s
 gsave  2268 2234 0 0 C 322.539 159.138 t 0 r /Helvetica findfont 62.5185 sf 0 0 m (0) show NC gr 
 gsave  2268 2234 0 0 C 484.518 159.138 t 0 r /Helvetica findfont 62.5185 sf 0 0 m (0.2) show NC gr 
 gsave  2268 2234 0 0 C 673.495 159.138 t 0 r /Helvetica findfont 62.5185 sf 0 0 m (0.4) show NC gr 
 gsave  2268 2234 0 0 C 861.05 159.138 t 0 r /Helvetica findfont 62.5185 sf 0 0 m (0.6) show NC gr 
 gsave  2268 2234 0 0 C 1050.03 159.138 t 0 r /Helvetica findfont 62.5185 sf 0 0 m (0.8) show NC gr 
 gsave  2268 2234 0 0 C 1268.84 159.138 t 0 r /Helvetica findfont 62.5185 sf 0 0 m (1) show NC gr 
 gsave  2268 2234 0 0 C 1426.56 159.138 t 0 r /Helvetica findfont 62.5185 sf 0 0 m (1.2) show NC gr 
 gsave  2268 2234 0 0 C 1614.11 159.138 t 0 r /Helvetica findfont 62.5185 sf 0 0 m (1.4) show NC gr 
 gsave  2268 2234 0 0 C 1803.09 159.138 t 0 r /Helvetica findfont 62.5185 sf 0 0 m (1.6) show NC gr 
 gsave  2268 2234 0 0 C 1990.65 159.138 t 0 r /Helvetica findfont 62.5185 sf 0 0 m (1.8) show NC gr 
 gsave  2268 2234 0 0 C 2205.2 159.138 t 0 r /Helvetica findfont 62.5185 sf 0 0 m (2) show NC gr  340 223 m 1966 Y s
 gsave  2268 2234 0 0 C 147.771 1547.33 t 90 r /Helvetica findfont 83.8316 sf 0 0 m (\(Q\) / \(0.005 GeV\)) show NC gr 
 gsave  2268 2234 0 0 C 174.768 1518.92 t 90 r /Helvetica findfont 55.4141 sf 0 0 m (2) show NC gr 
 gsave  2268 2234 0 0 C 147.771 1437.93 t 90 r /Helvetica findfont 83.8316 sf 0 0 m ( C) show NC gr  400 402 m -60 X s 370 491 m -30 X s 370 581 m -30 X s 370 670 m -30 X s 400 759 m -60 X s 370 849 m -30 X s 370 938 m -30 X s 370 1027 m -30 X s 400
 1117 m -60 X s 370 1206 m -30 X s 370 1295 m -30 X s 370 1385 m -30 X s 400 1474 m -60 X s 370 1564 m -30 X s 370 1653 m -30 X s 370 1742 m -30 X s 400 1832 m -60 X s 370 1921 m -30 X s 370 2010 m -30 X s 370 2100 m -30 X s 400 2189 m -60 X s 400
 402 m -60 X s 370 313 m -30 X s 370 223 m -30 X s
 gsave  2268 2234 0 0 C 242.97 379.374 t 0 r /Helvetica findfont 62.5185 sf 0 0 m (0.6) show NC gr 
 gsave  2268 2234 0 0 C 242.97 737.434 t 0 r /Helvetica findfont 62.5185 sf 0 0 m (0.8) show NC gr 
 gsave  2268 2234 0 0 C 305.488 1092.65 t 0 r /Helvetica findfont 62.5185 sf 0 0 m (1) show NC gr 
 gsave  2268 2234 0 0 C 242.97 1450.71 t 0 r /Helvetica findfont 62.5185 sf 0 0 m (1.2) show NC gr 
 gsave  2268 2234 0 0 C 242.97 1808.77 t 0 r /Helvetica findfont 62.5185 sf 0 0 m (1.4) show NC gr 
 gsave  2268 2234 0 0 C 242.97 2166.83 t 0 r /Helvetica findfont 62.5185 sf 0 0 m (1.6) show NC gr 
 gsave  2268 2234 0 0 C 906.518 670.653 t 0 r /Helvetica-Bold findfont 72.4646 sf 0 0 m (RD PIONS) show NC gr 
 gsave  2268 2234 0 0 C 906.518 558.404 t 0 r /Helvetica-Bold findfont 72.4646 sf 0 0 m (ref. sample: EVENT MIX) show NC gr 
 gsave  2268 2234 0 0 C 906.518 447.576 t 0 r /Helvetica-Bold findfont 72.4646 sf 0 0 m (VELO tracks multiplicity: 11 \255 20) show NC gr 
 gr  gr showpage
end
%%EOF
