%!PS-Adobe-2.0 EPSF-2.0
%%BoundingBox:  0 0 567 558
%%Title: ./MC_pion_0c65_h3101_3_h3401_3.eps: MC_pion_0c65_h3101_3_h3401_3
%%Creator: ROOT Version 6.06/02
%%CreationDate: Wed Feb  1 16:20:58 2017
%%DocumentNeededResources: ProcSet (FontSetInit)
%%EndComments
%%BeginProlog
80 dict begin
/s {stroke} def /l {lineto} def /m {moveto} def /t {translate} def
/r {rotate} def /rl {roll}  def /R {repeat} def
/d {rlineto} def /rm {rmoveto} def /gr {grestore} def /f {eofill} def
/c {setrgbcolor} def /black {0 setgray} def /sd {setdash} def
/cl {closepath} def /sf {scalefont setfont} def /lw {setlinewidth} def
/box {m dup 0 exch d exch 0 d 0 exch neg d cl} def
/NC{systemdict begin initclip end}def/C{NC box clip newpath}def
/bl {box s} def /bf {gsave box gsave f grestore 1 lw [] 0 sd s grestore} def /Y { 0 exch d} def /X { 0 d} def 
/K {{pop pop 0 moveto} exch kshow} bind def
/ita {/ang 15 def gsave [1 0 ang dup sin exch cos div 1 0 0] concat} def 
/mp {newpath /y exch def /x exch def} def
/side {[w .77 mul w .23 mul] .385 w mul sd w 0 l currentpoint t -144 r} def
/mr {mp x y w2 0 360 arc} def /m24 {mr s} def /m20 {mr f} def
/mb {mp x y w2 add m w2 neg 0 d 0 w neg d w 0 d 0 w d cl} def
/mt {mp x y w2 add m w2 neg w neg d w 0 d cl} def
/m21 {mb f} def /m25 {mb s} def /m22 {mt f} def /m26{mt s} def
/m23 {mp x y w2 sub m w2 w d w neg 0 d cl f} def
/m27 {mp x y w2 add m w3 neg w2 neg d w3 w2 neg d w3 w2 d cl s} def
/m28 {mp x w2 sub y w2 sub w3 add m w3 0 d  0 w3 neg d w3 0 d 0 w3 d w3 0 d  0 w3 d w3 neg 0 d 0 w3 d w3 neg 0 d 0 w3 neg d w3 neg 0 d cl s } def
/m29 {mp gsave x w2 sub y w2 add w3 sub m currentpoint t 4 {side} repeat cl fill gr} def
/m30 {mp gsave x w2 sub y w2 add w3 sub m currentpoint t 4 {side} repeat cl s gr} def
/m31 {mp x y w2 sub m 0 w d x w2 sub y m w 0 d x w2 sub y w2 add m w w neg d x w2 sub y w2 sub m w w d s} def
/m32 {mp x y w2 sub m w2 w d w neg 0 d cl s} def
/m33 {mp x y w2 add m w3 neg w2 neg d w3 w2 neg d w3 w2 d cl f} def
/m34 {mp x w2 sub y w2 sub w3 add m w3 0 d  0 w3 neg d w3 0 d 0 w3 d w3 0 d  0 w3 d w3 neg 0 d 0 w3 d w3 neg 0 d 0 w3 neg d w3 neg 0 d cl f } def
/m2 {mp x y w2 sub m 0 w d x w2 sub y m w 0 d s} def
/m5 {mp x w2 sub y w2 sub m w w d x w2 sub y w2 add m w w neg d s} def
%%IncludeResource: ProcSet (FontSetInit)
%%IncludeResource: font Times-Roman
%%IncludeResource: font Times-Italic
%%IncludeResource: font Times-Bold
%%IncludeResource: font Times-BoldItalic
%%IncludeResource: font Helvetica
%%IncludeResource: font Helvetica-Oblique
%%IncludeResource: font Helvetica-Bold
%%IncludeResource: font Helvetica-BoldOblique
%%IncludeResource: font Courier
%%IncludeResource: font Courier-Oblique
%%IncludeResource: font Courier-Bold
%%IncludeResource: font Courier-BoldOblique
%%IncludeResource: font Symbol
%%IncludeResource: font ZapfDingbats
/reEncode {exch findfont dup length dict begin {1 index /FID eq  {pop pop} {def} ifelse } forall /Encoding exch def currentdict end dup /FontName get exch definefont pop } def [/Times-Bold /Times-Italic /Times-BoldItalic /Helvetica /Helvetica-Oblique
 /Helvetica-Bold /Helvetica-BoldOblique /Courier /Courier-Oblique /Courier-Bold /Courier-BoldOblique /Times-Roman /AvantGarde-Book /AvantGarde-BookOblique /AvantGarde-Demi /AvantGarde-DemiOblique /Bookman-Demi /Bookman-DemiItalic /Bookman-Light
 /Bookman-LightItalic /Helvetica-Narrow /Helvetica-Narrow-Bold /Helvetica-Narrow-BoldOblique /Helvetica-Narrow-Oblique /NewCenturySchlbk-Roman /NewCenturySchlbk-Bold /NewCenturySchlbk-BoldItalic /NewCenturySchlbk-Italic /Palatino-Bold
 /Palatino-BoldItalic /Palatino-Italic /Palatino-Roman ] {ISOLatin1Encoding reEncode } forall
%%EndProlog
%%BeginSetup
%%EndSetup
newpath  gsave  .25 .25 scale  gsave  0 0 t black[  ] 0 sd 6 lw 1 1 1 c 2268 2234 0 0 bf black 3 lw 1 1 1 c 1882 1966 340 223 bf black 1882 1966 340 223 bl 1 1 1 c 1882 1966 340 223 bf black 1882 1966 340 223 bl 0 0 1 c 6 lw 1 1 1 c 0 0 1 c 390 1024
 m 13 Y s 390 1049 m 13 Y s 3 lw /w 14 def /w2 {w 2 div} def /w3 {w 3 div} def 390 1043 m21 6 lw 394 1050 m 11 Y s 394 1073 m 12 Y s 3 lw 394 1067 m21 6 lw 399 1024 m 10 Y s 399 1045 m 10 Y s 3 lw 399 1039 m21 6 lw 404 1111 m 10 Y s 404 1133 m 10 Y s
 3 lw 404 1127 m21 6 lw 408 1059 m 8 Y s 408 1079 m 8 Y s 3 lw 408 1073 m21 6 lw 413 1061 m 8 Y s 413 1080 m 8 Y s 3 lw 413 1074 m21 6 lw 418 1084 m 7 Y s 418 1102 m 7 Y s 3 lw 418 1096 m21 6 lw 423 1094 m 7 Y s 423 1112 m 7 Y s 3 lw 423 1106 m21 6
 lw 427 1115 m 6 Y s 427 1132 m 7 Y s 3 lw 427 1127 m21 6 lw 432 1130 m 6 Y s 432 1147 m 6 Y s 3 lw 432 1141 m21 6 lw 437 1108 m 5 Y s 437 1124 m 6 Y s 3 lw 437 1119 m21 6 lw 441 1127 m 5 Y s 441 1143 m 5 Y s 3 lw 441 1137 m21 6 lw 446 1133 m 5 Y s
 446 1149 m 5 Y s 3 lw 446 1144 m21 6 lw 451 1131 m 4 Y s 451 1146 m 4 Y s 3 lw 451 1140 m21 6 lw 455 1135 m 4 Y s 455 1150 m 4 Y s 3 lw 455 1144 m21 6 lw 460 1142 m 3 Y s 460 1157 m 3 Y s 3 lw 460 1151 m21 6 lw 465 1165 m 4 Y s 465 1180 m 4 Y s 3 lw
 465 1175 m21 6 lw 470 1147 m 3 Y s 470 1162 m 3 Y s 3 lw 470 1156 m21 6 lw 474 1163 m 3 Y s 474 1178 m 3 Y s 3 lw 474 1172 m21 6 lw 479 1176 m 3 Y s 479 1190 m 3 Y s 3 lw 479 1185 m21 6 lw 484 1174 m 2 Y s 484 1188 m 2 Y s 3 lw 484 1182 m21 6 lw 488
 1187 m 3 Y s 488 1201 m 3 Y s 3 lw 488 1196 m21 6 lw 493 1173 m 2 Y s 493 1187 m 2 Y s 3 lw 493 1181 m21 6 lw 498 1176 m 2 Y s 498 1190 m 2 Y s 3 lw 498 1184 m21 6 lw 502 1200 m 2 Y s 502 1213 m 2 Y s 3 lw 502 1207 m21 6 lw 507 1185 m 2 Y s 507 1198
 m 2 Y s 3 lw 507 1193 m21 6 lw 512 1203 m 2 Y s 512 1216 m 2 Y s 3 lw 512 1211 m21 6 lw 517 1197 m 2 Y s 517 1210 m 2 Y s 3 lw 517 1204 m21 6 lw 521 1202 m 1 Y s 521 1215 m 1 Y s 3 lw 521 1209 m21 6 lw 526 1208 m 1 Y s 526 1221 m 1 Y s 3 lw 526 1215
 m21 6 lw 531 1212 m 1 Y s 531 1225 m 1 Y s 3 lw 531 1219 m21 6 lw 535 1216 m 1 Y s 535 1229 m 1 Y s 3 lw 535 1223 m21 6 lw 540 1214 m 1 Y s 540 1226 m 2 Y s 3 lw 540 1221 m21 6 lw 545 1208 m 1 Y s 545 1220 m 1 Y s 3 lw 545 1214 m21 6 lw 550 1207 m 1
 Y s 550 1219 m 1 Y s 3 lw 550 1213 m21 6 lw 554 1219 m 1 Y s 554 1231 m 1 Y s 3 lw 554 1226 m21 6 lw 559 1217 m 1 Y s 559 1229 m 1 Y s 3 lw 559 1224 m21 6 lw 564 1219 m s 564 1231 m 1 Y s 3 lw 564 1225 m21 6 lw 568 1234 m s 568 1246 m 1 Y s 3 lw 568
 1240 m21 6 lw 573 1239 m 1 Y s 573 1251 m 1 Y s 3 lw 573 1246 m21 6 lw 578 1230 m 1 Y s 578 1242 m 1 Y s 3 lw 578 1236 m21 6 lw 582 1227 m 1 Y s 582 1239 m 1 Y s 3 lw 582 1234 m21 6 lw 587 1233 m 1 Y s 587 1245 m 1 Y s 3 lw 587 1239 m21 6 lw 592
 1229 m 1 Y s 592 1241 m 1 Y s 3 lw 592 1236 m21 6 lw 597 1236 m 1 Y s 597 1248 m 1 Y s 3 lw 597 1243 m21 6 lw 601 1228 m s 601 1240 m s 3 lw 601 1234 m21 6 lw 606 1237 m s 606 1248 m 1 Y s 3 lw 606 1243 m21 6 lw 611 1227 m s 611 1239 m s 3 lw 611
 1233 m21 6 lw 615 1223 m s 615 1234 m 1 Y s 3 lw 615 1229 m21 6 lw 620 1203 m s 620 1214 m s 3 lw 620 1208 m21 6 lw 625 1204 m s 625 1215 m 1 Y s 3 lw 625 1210 m21 6 lw 3 lw 630 1193 m21 6 lw 3 lw 634 1202 m21 6 lw 3 lw 639 1199 m21 6 lw 3 lw 644
 1202 m21 6 lw 3 lw 648 1193 m21 6 lw 3 lw 653 1192 m21 6 lw 3 lw 658 1195 m21 6 lw 3 lw 662 1198 m21 6 lw 3 lw 667 1200 m21 6 lw 3 lw 672 1193 m21 6 lw 3 lw 677 1185 m21 6 lw 3 lw 681 1197 m21 6 lw 3 lw 686 1204 m21 6 lw 3 lw 691 1199 m21 6 lw 3 lw
 695 1198 m21 6 lw 3 lw 700 1193 m21 6 lw 3 lw 705 1195 m21 6 lw 3 lw 710 1197 m21 6 lw 3 lw 714 1191 m21 6 lw 3 lw 719 1192 m21 6 lw 3 lw 724 1195 m21 6 lw 3 lw 728 1203 m21 6 lw 3 lw 733 1196 m21 6 lw 3 lw 738 1190 m21 6 lw 3 lw 742 1188 m21 6 lw 3
 lw 747 1188 m21 6 lw 3 lw 752 1176 m21 6 lw 3 lw 757 1185 m21 6 lw 3 lw 761 1176 m21 6 lw 3 lw 766 1183 m21 6 lw 3 lw 771 1183 m21 6 lw 3 lw 775 1180 m21 6 lw 3 lw 780 1178 m21 6 lw 3 lw 785 1173 m21 6 lw 3 lw 790 1162 m21 6 lw 3 lw 794 1162 m21 6
 lw 3 lw 799 1157 m21 6 lw 3 lw 804 1161 m21 6 lw 3 lw 808 1162 m21 6 lw 3 lw 813 1165 m21 6 lw 3 lw 818 1158 m21 6 lw 3 lw 822 1152 m21 6 lw 3 lw 827 1154 m21 6 lw 3 lw 832 1154 m21 6 lw 3 lw 837 1143 m21 6 lw 3 lw 841 1149 m21 6 lw 3 lw 846 1141
 m21 6 lw 3 lw 851 1136 m21 6 lw 3 lw 855 1135 m21 6 lw 3 lw 860 1133 m21 6 lw 3 lw 865 1143 m21 6 lw 3 lw 870 1133 m21 6 lw 3 lw 874 1125 m21 6 lw 3 lw 879 1135 m21 6 lw 3 lw 884 1131 m21 6 lw 3 lw 888 1134 m21 6 lw 3 lw 893 1127 m21 6 lw 3 lw 898
 1125 m21 6 lw 3 lw 902 1124 m21 6 lw 3 lw 907 1142 m21 6 lw 3 lw 912 1129 m21 6 lw 3 lw 917 1129 m21 6 lw 3 lw 921 1138 m21 6 lw 3 lw 926 1140 m21 6 lw 3 lw 931 1132 m21 6 lw 3 lw 935 1139 m21 6 lw 3 lw 940 1139 m21 6 lw 3 lw 945 1147 m21 6 lw 3 lw
 950 1144 m21 6 lw 3 lw 954 1151 m21 6 lw 3 lw 959 1156 m21 6 lw 3 lw 964 1153 m21 6 lw 3 lw 968 1160 m21 6 lw 3 lw 973 1160 m21 6 lw 3 lw 978 1168 m21 6 lw 3 lw 982 1169 m21 6 lw 3 lw 987 1172 m21 6 lw 3 lw 992 1177 m21 6 lw 3 lw 997 1180 m21 6 lw 3
 lw 1001 1179 m21 6 lw 3 lw 1006 1182 m21 6 lw 3 lw 1011 1185 m21 6 lw 3 lw 1015 1193 m21 6 lw 3 lw 1020 1185 m21 6 lw 3 lw 1025 1196 m21 6 lw 3 lw 1030 1193 m21 6 lw 3 lw 1034 1185 m21 6 lw 3 lw 1039 1183 m21 6 lw 3 lw 1044 1173 m21 6 lw 3 lw 1048
 1162 m21 6 lw 3 lw 1053 1164 m21 6 lw 3 lw 1058 1158 m21 6 lw 3 lw 1062 1155 m21 6 lw 3 lw 1067 1149 m21 6 lw 3 lw 1072 1151 m21 6 lw 3 lw 1077 1141 m21 6 lw 3 lw 1081 1141 m21 6 lw 3 lw 1086 1147 m21 6 lw 3 lw 1091 1133 m21 6 lw 3 lw 1095 1132 m21
 6 lw 3 lw 1100 1141 m21 6 lw 3 lw 1105 1124 m21 6 lw 3 lw 1110 1126 m21 6 lw 3 lw 1114 1120 m21 6 lw 3 lw 1119 1117 m21 6 lw 3 lw 1124 1115 m21 6 lw 3 lw 1128 1118 m21 6 lw 3 lw 1133 1116 m21 6 lw 3 lw 1138 1109 m21 6 lw 3 lw 1142 1111 m21 6 lw 3 lw
 1147 1105 m21 6 lw 3 lw 1152 1105 m21 6 lw 3 lw 1157 1099 m21 6 lw 3 lw 1161 1091 m21 6 lw 3 lw 1166 1098 m21 6 lw 3 lw 1171 1103 m21 6 lw 3 lw 1175 1090 m21 6 lw 3 lw 1180 1099 m21 6 lw 3 lw 1185 1093 m21 6 lw 3 lw 1190 1084 m21 6 lw 3 lw 1194 1078
 m21 6 lw 3 lw 1199 1089 m21 6 lw 3 lw 1204 1082 m21 6 lw 3 lw 1208 1093 m21 6 lw 3 lw 1213 1083 m21 6 lw 3 lw 1218 1078 m21 6 lw 3 lw 1222 1085 m21 6 lw 3 lw 1227 1075 m21 6 lw 3 lw 1232 1088 m21 6 lw 3 lw 1237 1076 m21 6 lw 3 lw 1241 1087 m21 6 lw
 3 lw 1246 1077 m21 6 lw 3 lw 1251 1079 m21 6 lw 3 lw 1255 1078 m21 6 lw 3 lw 1260 1075 m21 6 lw 3 lw 1265 1068 m21 6 lw 3 lw 1269 1073 m21 6 lw 3 lw 1274 1075 m21 6 lw 3 lw 1279 1076 m21 6 lw 3 lw 1284 1068 m21 6 lw 3 lw 1288 1068 m21 6 lw 3 lw 1293
 1076 m21 6 lw 3 lw 1298 1074 m21 6 lw 3 lw 1302 1068 m21 6 lw 3 lw 1307 1066 m21 6 lw 3 lw 1312 1066 m21 6 lw 3 lw 1317 1065 m21 6 lw 3 lw 1321 1054 m21 6 lw 3 lw 1326 1066 m21 6 lw 3 lw 1331 1068 m21 6 lw 3 lw 1335 1065 m21 6 lw 3 lw 1340 1069 m21
 6 lw 3 lw 1345 1067 m21 6 lw 3 lw 1349 1062 m21 6 lw 3 lw 1354 1054 m21 6 lw 3 lw 1359 1066 m21 6 lw 3 lw 1364 1048 m21 6 lw 3 lw 1368 1066 m21 6 lw 3 lw 1373 1068 m21 6 lw 3 lw 1378 1061 m21 6 lw 3 lw 1382 1064 m21 6 lw 3 lw 1387 1051 m21 6 lw 3 lw
 1392 1061 m21 6 lw 3 lw 1397 1056 m21 6 lw 3 lw 1401 1049 m21 6 lw 3 lw 1406 1067 m21 6 lw 3 lw 1411 1058 m21 6 lw 3 lw 1415 1064 m21 6 lw 3 lw 1420 1059 m21 6 lw 3 lw 1425 1058 m21 6 lw 3 lw 1429 1057 m21 6 lw 3 lw 1434 1053 m21 6 lw 3 lw 1439 1056
 m21 6 lw 1444 1055 m s 1444 1067 m s 3 lw 1444 1061 m21 6 lw 3 lw 1448 1050 m21 6 lw 1453 1050 m s 1453 1061 m s 3 lw 1453 1056 m21 6 lw 1458 1049 m s 1458 1060 m s 3 lw 1458 1055 m21 6 lw 1462 1055 m s 1462 1066 m s 3 lw 1462 1060 m21 6 lw 1467
 1053 m s 1467 1065 m s 3 lw 1467 1059 m21 6 lw 1472 1045 m s 1472 1056 m s 3 lw 1472 1051 m21 6 lw 1477 1053 m s 1477 1064 m s 3 lw 1477 1058 m21 6 lw 1481 1049 m s 1481 1060 m s 3 lw 1481 1054 m21 6 lw 1486 1049 m s 1486 1061 m s 3 lw 1486 1055 m21
 6 lw 1491 1044 m s 1491 1056 m s 3 lw 1491 1050 m21 6 lw 1495 1054 m s 1495 1066 m s 3 lw 1495 1060 m21 6 lw 1500 1049 m s 1500 1061 m s 3 lw 1500 1055 m21 6 lw 1505 1043 m s 1505 1054 m 1 Y s 3 lw 1505 1049 m21 6 lw 1509 1049 m 1 Y s 1509 1061 m s
 3 lw 1509 1055 m21 6 lw 1514 1053 m s 1514 1064 m 1 Y s 3 lw 1514 1059 m21 6 lw 1519 1045 m 1 Y s 1519 1057 m s 3 lw 1519 1051 m21 6 lw 1524 1041 m s 1524 1053 m s 3 lw 1524 1047 m21 6 lw 1528 1039 m s 1528 1051 m s 3 lw 1528 1045 m21 6 lw 1533 1044
 m s 1533 1056 m s 3 lw 1533 1050 m21 6 lw 1538 1037 m s 1538 1048 m 1 Y s 3 lw 1538 1043 m21 6 lw 1542 1038 m s 1542 1049 m 1 Y s 3 lw 1542 1044 m21 6 lw 1547 1046 m 1 Y s 1547 1058 m s 3 lw 1547 1052 m21 6 lw 1552 1043 m s 1552 1055 m s 3 lw 1552
 1049 m21 6 lw 1557 1046 m s 1557 1058 m s 3 lw 1557 1052 m21 6 lw 1561 1040 m 1 Y s 1561 1052 m 1 Y s 3 lw 1561 1047 m21 6 lw 1566 1054 m 1 Y s 1566 1066 m 1 Y s 3 lw 1566 1060 m21 6 lw 1571 1035 m 1 Y s 1571 1047 m 1 Y s 3 lw 1571 1042 m21 6 lw
 1575 1045 m s 1575 1057 m s 3 lw 1575 1051 m21 6 lw 1580 1043 m s 1580 1055 m s 3 lw 1580 1049 m21 6 lw 1585 1046 m s 1585 1058 m s 3 lw 1585 1052 m21 6 lw 1589 1038 m 1 Y s 1589 1050 m 1 Y s 3 lw 1589 1045 m21 6 lw 1594 1043 m 1 Y s 1594 1055 m 1 Y
 s 3 lw 1594 1049 m21 6 lw 1599 1031 m 1 Y s 1599 1043 m 1 Y s 3 lw 1599 1038 m21 6 lw 1604 1040 m 1 Y s 1604 1052 m 1 Y s 3 lw 1604 1047 m21 6 lw 1608 1041 m s 1608 1053 m s 3 lw 1608 1047 m21 6 lw 1613 1039 m 1 Y s 1613 1051 m 1 Y s 3 lw 1613 1045
 m21 6 lw 1618 1045 m 1 Y s 1618 1057 m 1 Y s 3 lw 1618 1052 m21 6 lw 1622 1038 m 1 Y s 1622 1051 m s 3 lw 1622 1045 m21 6 lw 1627 1032 m 1 Y s 1627 1045 m s 3 lw 1627 1039 m21 6 lw 1632 1030 m 1 Y s 1632 1042 m 1 Y s 3 lw 1632 1037 m21 6 lw 1637
 1032 m 1 Y s 1637 1044 m 1 Y s 3 lw 1637 1038 m21 6 lw 1641 1033 m 1 Y s 1641 1045 m 1 Y s 3 lw 1641 1039 m21 6 lw 1646 1033 m 1 Y s 1646 1045 m 1 Y s 3 lw 1646 1039 m21 6 lw 1651 1041 m 1 Y s 1651 1053 m 1 Y s 3 lw 1651 1048 m21 6 lw 1655 1034 m 1
 Y s 1655 1046 m 1 Y s 3 lw 1655 1041 m21 6 lw 1660 1032 m 1 Y s 1660 1045 m 1 Y s 3 lw 1660 1039 m21 6 lw 1665 1024 m 1 Y s 1665 1037 m 1 Y s 3 lw 1665 1031 m21 6 lw 1669 1032 m 1 Y s 1669 1044 m 1 Y s 3 lw 1669 1039 m21 6 lw 1674 1021 m 1 Y s 1674
 1034 m 1 Y s 3 lw 1674 1028 m21 6 lw 1679 1028 m 2 Y s 1679 1041 m 1 Y s 3 lw 1679 1035 m21 6 lw 1684 1027 m 1 Y s 1684 1039 m 2 Y s 3 lw 1684 1034 m21 6 lw 1688 1043 m 2 Y s 1688 1056 m 1 Y s 3 lw 1688 1050 m21 6 lw 1693 1025 m 1 Y s 1693 1038 m 1
 Y s 3 lw 1693 1032 m21 6 lw 1698 1039 m 2 Y s 1698 1052 m 1 Y s 3 lw 1698 1046 m21 6 lw 1702 1028 m 1 Y s 1702 1041 m 1 Y s 3 lw 1702 1035 m21 6 lw 1707 1036 m 2 Y s 1707 1049 m 1 Y s 3 lw 1707 1043 m21 6 lw 1712 1044 m 2 Y s 1712 1057 m 1 Y s 3 lw
 1712 1051 m21 6 lw 1717 1032 m 1 Y s 1717 1044 m 2 Y s 3 lw 1717 1039 m21 6 lw 1721 1025 m 1 Y s 1721 1037 m 2 Y s 3 lw 1721 1032 m21 6 lw 1726 1025 m 2 Y s 1726 1038 m 1 Y s 3 lw 1726 1032 m21 6 lw 1731 1029 m 2 Y s 1731 1042 m 2 Y s 3 lw 1731 1036
 m21 6 lw 1735 1037 m 2 Y s 1735 1050 m 1 Y s 3 lw 1735 1044 m21 6 lw 1740 1030 m 1 Y s 1740 1042 m 2 Y s 3 lw 1740 1037 m21 6 lw 1745 1032 m 2 Y s 1745 1045 m 2 Y s 3 lw 1745 1040 m21 6 lw 1749 1017 m 2 Y s 1749 1030 m 2 Y s 3 lw 1749 1024 m21 6 lw
 1754 1045 m 1 Y s 1754 1058 m 1 Y s 3 lw 1754 1052 m21 6 lw 1759 1036 m 2 Y s 1759 1049 m 2 Y s 3 lw 1759 1043 m21 6 lw 1764 1015 m 2 Y s 1764 1028 m 2 Y s 3 lw 1764 1022 m21 6 lw 1768 1038 m 2 Y s 1768 1051 m 2 Y s 3 lw 1768 1045 m21 6 lw 1773 1032
 m 1 Y s 1773 1045 m 2 Y s 3 lw 1773 1039 m21 6 lw 1778 1035 m 1 Y s 1778 1048 m 1 Y s 3 lw 1778 1042 m21 6 lw 1782 1021 m 2 Y s 1782 1034 m 2 Y s 3 lw 1782 1029 m21 6 lw 1787 1023 m 2 Y s 1787 1036 m 2 Y s 3 lw 1787 1031 m21 6 lw 1792 1024 m 2 Y s
 1792 1037 m 2 Y s 3 lw 1792 1032 m21 6 lw 1797 1023 m 2 Y s 1797 1036 m 2 Y s 3 lw 1797 1031 m21 6 lw 1801 1036 m 2 Y s 1801 1049 m 2 Y s 3 lw 1801 1044 m21 6 lw 1806 1021 m 2 Y s 1806 1035 m 2 Y s 3 lw 1806 1029 m21 6 lw 1811 1023 m 2 Y s 1811 1036
 m 2 Y s 3 lw 1811 1031 m21 6 lw 1815 1023 m 2 Y s 1815 1036 m 2 Y s 3 lw 1815 1030 m21 6 lw 1820 1026 m 2 Y s 1820 1040 m 2 Y s 3 lw 1820 1034 m21 6 lw 1825 1028 m 3 Y s 1825 1042 m 2 Y s 3 lw 1825 1036 m21 6 lw 1829 1036 m 2 Y s 1829 1049 m 3 Y s 3
 lw 1829 1044 m21 6 lw 1834 1026 m 2 Y s 1834 1040 m 2 Y s 3 lw 1834 1034 m21 6 lw 1839 1023 m 2 Y s 1839 1037 m 2 Y s 3 lw 1839 1031 m21 6 lw 1844 1010 m 2 Y s 1844 1023 m 2 Y s 3 lw 1844 1017 m21 6 lw 1848 1020 m 2 Y s 1848 1034 m 2 Y s 3 lw 1848
 1028 m21 6 lw 1853 1035 m 3 Y s 1853 1049 m 2 Y s 3 lw 1853 1043 m21 6 lw 1858 1037 m 2 Y s 1858 1051 m 2 Y s 3 lw 1858 1045 m21 6 lw 1862 1026 m 2 Y s 1862 1040 m 2 Y s 3 lw 1862 1034 m21 6 lw 1867 1026 m 2 Y s 1867 1040 m 2 Y s 3 lw 1867 1034 m21
 6 lw 1872 1016 m 2 Y s 1872 1029 m 3 Y s 3 lw 1872 1024 m21 6 lw 1877 1039 m 3 Y s 1877 1053 m 3 Y s 3 lw 1877 1048 m21 6 lw 1881 1024 m 2 Y s 1881 1038 m 2 Y s 3 lw 1881 1032 m21 6 lw 1886 1024 m 2 Y s 1886 1038 m 2 Y s 3 lw 1886 1032 m21 6 lw 1891
 1022 m 3 Y s 1891 1036 m 3 Y s 3 lw 1891 1030 m21 6 lw 1895 1019 m 2 Y s 1895 1033 m 2 Y s 3 lw 1895 1027 m21 6 lw 1900 1028 m 2 Y s 1900 1042 m 2 Y s 3 lw 1900 1036 m21 6 lw 1905 1034 m 3 Y s 1905 1048 m 3 Y s 3 lw 1905 1042 m21 6 lw 1909 1029 m 3
 Y s 1909 1043 m 3 Y s 3 lw 1909 1037 m21 6 lw 1914 1021 m 3 Y s 1914 1035 m 3 Y s 3 lw 1914 1029 m21 6 lw 1919 1017 m 3 Y s 1919 1031 m 3 Y s 3 lw 1919 1026 m21 6 lw 1924 1023 m 3 Y s 1924 1037 m 3 Y s 3 lw 1924 1031 m21 6 lw 1928 1024 m 3 Y s 1928
 1038 m 3 Y s 3 lw 1928 1032 m21 6 lw 1933 1024 m 3 Y s 1933 1039 m 2 Y s 3 lw 1933 1033 m21 6 lw 1938 1021 m 3 Y s 1938 1036 m 2 Y s 3 lw 1938 1030 m21 6 lw 1942 1011 m 3 Y s 1942 1025 m 3 Y s 3 lw 1942 1020 m21 6 lw 1947 1028 m 3 Y s 1947 1043 m 3
 Y s 3 lw 1947 1037 m21 6 lw 1952 1032 m 3 Y s 1952 1047 m 3 Y s 3 lw 1952 1041 m21 6 lw 1957 1029 m 3 Y s 1957 1043 m 3 Y s 3 lw 1957 1037 m21 6 lw 1961 1017 m 3 Y s 1961 1032 m 3 Y s 3 lw 1961 1026 m21 6 lw 1966 1028 m 3 Y s 1966 1042 m 3 Y s 3 lw
 1966 1037 m21 6 lw 1971 1020 m 3 Y s 1971 1035 m 3 Y s 3 lw 1971 1029 m21 6 lw 1975 1025 m 3 Y s 1975 1039 m 3 Y s 3 lw 1975 1033 m21 6 lw 1980 1024 m 3 Y s 1980 1039 m 3 Y s 3 lw 1980 1033 m21 6 lw 1985 1016 m 3 Y s 1985 1031 m 3 Y s 3 lw 1985 1025
 m21 6 lw 1989 1007 m 3 Y s 1989 1021 m 3 Y s 3 lw 1989 1015 m21 6 lw 1994 1031 m 3 Y s 1994 1045 m 4 Y s 3 lw 1994 1040 m21 6 lw 1999 1024 m 3 Y s 1999 1038 m 4 Y s 3 lw 1999 1033 m21 6 lw 2004 1014 m 3 Y s 2004 1029 m 3 Y s 3 lw 2004 1023 m21 6 lw
 2008 1018 m 3 Y s 2008 1033 m 3 Y s 3 lw 2008 1027 m21 6 lw 2013 1028 m 3 Y s 2013 1042 m 4 Y s 3 lw 2013 1037 m21 6 lw 2018 1018 m 3 Y s 2018 1033 m 3 Y s 3 lw 2018 1027 m21 6 lw 2022 1026 m 4 Y s 2022 1041 m 3 Y s 3 lw 2022 1035 m21 6 lw 2027 1038
 m 3 Y s 2027 1053 m 3 Y s 3 lw 2027 1047 m21 6 lw 2032 1032 m 4 Y s 2032 1047 m 4 Y s 3 lw 2032 1041 m21 6 lw 2036 1025 m 3 Y s 2036 1040 m 3 Y s 3 lw 2036 1034 m21 6 lw 2041 1029 m 3 Y s 2041 1044 m 3 Y s 3 lw 2041 1038 m21 6 lw 2046 1010 m 4 Y s
 2046 1025 m 4 Y s 3 lw 2046 1020 m21 6 lw 2051 1026 m 4 Y s 2051 1041 m 4 Y s 3 lw 2051 1035 m21 6 lw 2055 1010 m 3 Y s 2055 1025 m 3 Y s 3 lw 2055 1019 m21 6 lw 2060 1031 m 4 Y s 2060 1046 m 4 Y s 3 lw 2060 1040 m21 6 lw 2065 1032 m 4 Y s 2065 1047
 m 4 Y s 3 lw 2065 1041 m21 6 lw 2069 1019 m 4 Y s 2069 1034 m 4 Y s 3 lw 2069 1029 m21 6 lw 2074 1016 m 4 Y s 2074 1032 m 3 Y s 3 lw 2074 1026 m21 6 lw 2079 1026 m 4 Y s 2079 1041 m 4 Y s 3 lw 2079 1035 m21 6 lw 2084 1037 m 4 Y s 2084 1052 m 4 Y s 3
 lw 2084 1047 m21 6 lw 2088 1019 m 4 Y s 2088 1034 m 4 Y s 3 lw 2088 1028 m21 6 lw 2093 1024 m 4 Y s 2093 1039 m 5 Y s 3 lw 2093 1034 m21 6 lw 2098 1025 m 4 Y s 2098 1040 m 4 Y s 3 lw 2098 1035 m21 6 lw 2102 1026 m 5 Y s 2102 1042 m 4 Y s 3 lw 2102
 1036 m21 6 lw 2107 1013 m 4 Y s 2107 1028 m 4 Y s 3 lw 2107 1022 m21 6 lw 2112 1033 m 5 Y s 2112 1049 m 4 Y s 3 lw 2112 1043 m21 6 lw 2116 1044 m 5 Y s 2116 1060 m 4 Y s 3 lw 2116 1054 m21 6 lw 2121 1029 m 4 Y s 2121 1045 m 4 Y s 3 lw 2121 1039 m21
 6 lw 2126 1006 m 4 Y s 2126 1021 m 4 Y s 3 lw 2126 1015 m21 6 lw 2131 1037 m 4 Y s 2131 1053 m 4 Y s 3 lw 2131 1047 m21 6 lw 2135 1017 m 5 Y s 2135 1033 m 4 Y s 3 lw 2135 1027 m21 6 lw 2140 1020 m 4 Y s 2140 1036 m 4 Y s 3 lw 2140 1030 m21 6 lw 2145
 1043 m 5 Y s 2145 1059 m 5 Y s 3 lw 2145 1053 m21 6 lw 2149 1023 m 4 Y s 2149 1039 m 4 Y s 3 lw 2149 1033 m21 6 lw 2154 1021 m 4 Y s 2154 1037 m 4 Y s 3 lw 2154 1031 m21 6 lw 2159 1038 m 5 Y s 2159 1055 m 4 Y s 3 lw 2159 1049 m21 6 lw 2164 1036 m 5
 Y s 2164 1053 m 4 Y s 3 lw 2164 1047 m21 6 lw 2168 1030 m 5 Y s 2168 1046 m 5 Y s 3 lw 2168 1041 m21 6 lw 2173 1016 m 5 Y s 2173 1032 m 5 Y s 3 lw 2173 1026 m21 6 lw 2178 1012 m 5 Y s 2178 1028 m 5 Y s 3 lw 2178 1023 m21 6 lw 2182 1025 m 5 Y s 2182
 1041 m 5 Y s 3 lw 2182 1036 m21 6 lw 2187 1011 m 4 Y s 2187 1027 m 4 Y s 3 lw 2187 1021 m21 6 lw 2192 1021 m 5 Y s 2192 1037 m 5 Y s 3 lw 2192 1031 m21 6 lw 2196 1028 m 5 Y s 2196 1044 m 5 Y s 3 lw 2196 1039 m21 6 lw 2201 1004 m 5 Y s 2201 1021 m 5
 Y s 3 lw 2201 1015 m21 6 lw 2206 1010 m 5 Y s 2206 1026 m 5 Y s 3 lw 2206 1021 m21 6 lw 2211 1015 m 6 Y s 2211 1032 m 5 Y s 3 lw 2211 1026 m21 6 lw 2215 1022 m 5 Y s 2215 1039 m 5 Y s 3 lw 2215 1033 m21 6 lw 2220 1037 m 5 Y s 2220 1053 m 6 Y s 3 lw
 2220 1048 m21 6 lw black 340 223 m 1882 X s
 gsave  2268 2234 0 0 C 1923.86 58.2559 t 0 r /Helvetica findfont 83.8316 sf 0 0 m (Q [GeV]) show NC gr  340 279 m -56 Y s 387 251 m -28 Y s 434 251 m -28 Y s 481 251 m -28 Y s 528 279 m -56 Y s 575 251 m -28 Y s 622 251 m -28 Y s 670 251 m -28 Y s
 717 279 m -56 Y s 764 251 m -28 Y s 811 251 m -28 Y s 858 251 m -28 Y s 905 279 m -56 Y s 952 251 m -28 Y s 999 251 m -28 Y s 1046 251 m -28 Y s 1093 279 m -56 Y s 1140 251 m -28 Y s 1187 251 m -28 Y s 1234 251 m -28 Y s 1281 279 m -56 Y s 1328 251
 m -28 Y s 1375 251 m -28 Y s 1422 251 m -28 Y s 1469 279 m -56 Y s 1517 251 m -28 Y s 1564 251 m -28 Y s 1611 251 m -28 Y s 1658 279 m -56 Y s 1705 251 m -28 Y s 1752 251 m -28 Y s 1799 251 m -28 Y s 1846 279 m -56 Y s 1893 251 m -28 Y s 1940 251 m
 -28 Y s 1987 251 m -28 Y s 2034 279 m -56 Y s 2081 251 m -28 Y s 2128 251 m -28 Y s 2175 251 m -28 Y s 2222 279 m -56 Y s
 gsave  2268 2234 0 0 C 322.539 159.138 t 0 r /Helvetica findfont 62.5185 sf 0 0 m (0) show NC gr 
 gsave  2268 2234 0 0 C 484.518 159.138 t 0 r /Helvetica findfont 62.5185 sf 0 0 m (0.2) show NC gr 
 gsave  2268 2234 0 0 C 673.495 159.138 t 0 r /Helvetica findfont 62.5185 sf 0 0 m (0.4) show NC gr 
 gsave  2268 2234 0 0 C 861.05 159.138 t 0 r /Helvetica findfont 62.5185 sf 0 0 m (0.6) show NC gr 
 gsave  2268 2234 0 0 C 1050.03 159.138 t 0 r /Helvetica findfont 62.5185 sf 0 0 m (0.8) show NC gr 
 gsave  2268 2234 0 0 C 1268.84 159.138 t 0 r /Helvetica findfont 62.5185 sf 0 0 m (1) show NC gr 
 gsave  2268 2234 0 0 C 1426.56 159.138 t 0 r /Helvetica findfont 62.5185 sf 0 0 m (1.2) show NC gr 
 gsave  2268 2234 0 0 C 1614.11 159.138 t 0 r /Helvetica findfont 62.5185 sf 0 0 m (1.4) show NC gr 
 gsave  2268 2234 0 0 C 1803.09 159.138 t 0 r /Helvetica findfont 62.5185 sf 0 0 m (1.6) show NC gr 
 gsave  2268 2234 0 0 C 1990.65 159.138 t 0 r /Helvetica findfont 62.5185 sf 0 0 m (1.8) show NC gr 
 gsave  2268 2234 0 0 C 2205.2 159.138 t 0 r /Helvetica findfont 62.5185 sf 0 0 m (2) show NC gr  340 223 m 1966 Y s
 gsave  2268 2234 0 0 C 147.771 1547.33 t 90 r /Helvetica findfont 83.8316 sf 0 0 m (\(Q\) / \(0.005 GeV\)) show NC gr 
 gsave  2268 2234 0 0 C 174.768 1518.92 t 90 r /Helvetica findfont 55.4141 sf 0 0 m (2) show NC gr 
 gsave  2268 2234 0 0 C 147.771 1437.93 t 90 r /Helvetica findfont 83.8316 sf 0 0 m ( C) show NC gr  400 402 m -60 X s 370 491 m -30 X s 370 581 m -30 X s 370 670 m -30 X s 400 759 m -60 X s 370 849 m -30 X s 370 938 m -30 X s 370 1027 m -30 X s 400
 1117 m -60 X s 370 1206 m -30 X s 370 1295 m -30 X s 370 1385 m -30 X s 400 1474 m -60 X s 370 1564 m -30 X s 370 1653 m -30 X s 370 1742 m -30 X s 400 1832 m -60 X s 370 1921 m -30 X s 370 2010 m -30 X s 370 2100 m -30 X s 400 2189 m -60 X s 400
 402 m -60 X s 370 313 m -30 X s 370 223 m -30 X s
 gsave  2268 2234 0 0 C 242.97 379.374 t 0 r /Helvetica findfont 62.5185 sf 0 0 m (0.6) show NC gr 
 gsave  2268 2234 0 0 C 242.97 737.434 t 0 r /Helvetica findfont 62.5185 sf 0 0 m (0.8) show NC gr 
 gsave  2268 2234 0 0 C 305.488 1092.65 t 0 r /Helvetica findfont 62.5185 sf 0 0 m (1) show NC gr 
 gsave  2268 2234 0 0 C 242.97 1450.71 t 0 r /Helvetica findfont 62.5185 sf 0 0 m (1.2) show NC gr 
 gsave  2268 2234 0 0 C 242.97 1808.77 t 0 r /Helvetica findfont 62.5185 sf 0 0 m (1.4) show NC gr 
 gsave  2268 2234 0 0 C 242.97 2166.83 t 0 r /Helvetica findfont 62.5185 sf 0 0 m (1.6) show NC gr 
 gsave  2268 2234 0 0 C 906.518 670.653 t 0 r /Helvetica-Bold findfont 72.4646 sf 0 0 m (MC PIONS) show NC gr 
 gsave  2268 2234 0 0 C 906.518 558.404 t 0 r /Helvetica-Bold findfont 72.4646 sf 0 0 m (ref. sample: EVENT MIX) show NC gr 
 gsave  2268 2234 0 0 C 906.518 447.576 t 0 r /Helvetica-Bold findfont 72.4646 sf 0 0 m (VELO tracks multiplicity: 21 \255 60) show NC gr 
 gr  gr showpage
end
%%EOF
