%!PS-Adobe-2.0 EPSF-2.0
%%BoundingBox:  0 0 567 558
%%Title: ./RD_pion_0c65_h3001_1_h3401_1_compare.eps: RD_pion_0c65_h3001_1_h3401_1_compare
%%Creator: ROOT Version 6.06/02
%%CreationDate: Fri Jan 27 15:03:35 2017
%%DocumentNeededResources: ProcSet (FontSetInit)
%%EndComments
%%BeginProlog
80 dict begin
/s {stroke} def /l {lineto} def /m {moveto} def /t {translate} def
/r {rotate} def /rl {roll}  def /R {repeat} def
/d {rlineto} def /rm {rmoveto} def /gr {grestore} def /f {eofill} def
/c {setrgbcolor} def /black {0 setgray} def /sd {setdash} def
/cl {closepath} def /sf {scalefont setfont} def /lw {setlinewidth} def
/box {m dup 0 exch d exch 0 d 0 exch neg d cl} def
/NC{systemdict begin initclip end}def/C{NC box clip newpath}def
/bl {box s} def /bf {gsave box gsave f grestore 1 lw [] 0 sd s grestore} def /Y { 0 exch d} def /X { 0 d} def 
/K {{pop pop 0 moveto} exch kshow} bind def
/ita {/ang 15 def gsave [1 0 ang dup sin exch cos div 1 0 0] concat} def 
/mp {newpath /y exch def /x exch def} def
/side {[w .77 mul w .23 mul] .385 w mul sd w 0 l currentpoint t -144 r} def
/mr {mp x y w2 0 360 arc} def /m24 {mr s} def /m20 {mr f} def
/mb {mp x y w2 add m w2 neg 0 d 0 w neg d w 0 d 0 w d cl} def
/mt {mp x y w2 add m w2 neg w neg d w 0 d cl} def
/m21 {mb f} def /m25 {mb s} def /m22 {mt f} def /m26{mt s} def
/m23 {mp x y w2 sub m w2 w d w neg 0 d cl f} def
/m27 {mp x y w2 add m w3 neg w2 neg d w3 w2 neg d w3 w2 d cl s} def
/m28 {mp x w2 sub y w2 sub w3 add m w3 0 d  0 w3 neg d w3 0 d 0 w3 d w3 0 d  0 w3 d w3 neg 0 d 0 w3 d w3 neg 0 d 0 w3 neg d w3 neg 0 d cl s } def
/m29 {mp gsave x w2 sub y w2 add w3 sub m currentpoint t 4 {side} repeat cl fill gr} def
/m30 {mp gsave x w2 sub y w2 add w3 sub m currentpoint t 4 {side} repeat cl s gr} def
/m31 {mp x y w2 sub m 0 w d x w2 sub y m w 0 d x w2 sub y w2 add m w w neg d x w2 sub y w2 sub m w w d s} def
/m32 {mp x y w2 sub m w2 w d w neg 0 d cl s} def
/m33 {mp x y w2 add m w3 neg w2 neg d w3 w2 neg d w3 w2 d cl f} def
/m34 {mp x w2 sub y w2 sub w3 add m w3 0 d  0 w3 neg d w3 0 d 0 w3 d w3 0 d  0 w3 d w3 neg 0 d 0 w3 d w3 neg 0 d 0 w3 neg d w3 neg 0 d cl f } def
/m2 {mp x y w2 sub m 0 w d x w2 sub y m w 0 d s} def
/m5 {mp x w2 sub y w2 sub m w w d x w2 sub y w2 add m w w neg d s} def
%%IncludeResource: ProcSet (FontSetInit)
%%IncludeResource: font Times-Roman
%%IncludeResource: font Times-Italic
%%IncludeResource: font Times-Bold
%%IncludeResource: font Times-BoldItalic
%%IncludeResource: font Helvetica
%%IncludeResource: font Helvetica-Oblique
%%IncludeResource: font Helvetica-Bold
%%IncludeResource: font Helvetica-BoldOblique
%%IncludeResource: font Courier
%%IncludeResource: font Courier-Oblique
%%IncludeResource: font Courier-Bold
%%IncludeResource: font Courier-BoldOblique
%%IncludeResource: font Symbol
%%IncludeResource: font ZapfDingbats
/reEncode {exch findfont dup length dict begin {1 index /FID eq  {pop pop} {def} ifelse } forall /Encoding exch def currentdict end dup /FontName get exch definefont pop } def [/Times-Bold /Times-Italic /Times-BoldItalic /Helvetica /Helvetica-Oblique
 /Helvetica-Bold /Helvetica-BoldOblique /Courier /Courier-Oblique /Courier-Bold /Courier-BoldOblique /Times-Roman /AvantGarde-Book /AvantGarde-BookOblique /AvantGarde-Demi /AvantGarde-DemiOblique /Bookman-Demi /Bookman-DemiItalic /Bookman-Light
 /Bookman-LightItalic /Helvetica-Narrow /Helvetica-Narrow-Bold /Helvetica-Narrow-BoldOblique /Helvetica-Narrow-Oblique /NewCenturySchlbk-Roman /NewCenturySchlbk-Bold /NewCenturySchlbk-BoldItalic /NewCenturySchlbk-Italic /Palatino-Bold
 /Palatino-BoldItalic /Palatino-Italic /Palatino-Roman ] {ISOLatin1Encoding reEncode } forall
%%EndProlog
%%BeginSetup
%%EndSetup
newpath  gsave  .25 .25 scale  gsave  0 0 t black[  ] 0 sd 6 lw 1 1 1 c 2268 2234 0 0 bf black 3 lw 1 1 1 c 1882 1966 340 223 bf black 1882 1966 340 223 bl 1 1 1 c 1882 1966 340 223 bf black 1882 1966 340 223 bl 0 0 1 c 6 lw 1 1 1 c 0 0 1 c 368 2049
 m 17 Y s 368 2083 m 16 Y s 3 lw /w 19 def /w2 {w 2 div} def /w3 {w 3 div} def 368 2074 m21 6 lw 3 lw 406 1286 m21 6 lw 3 lw 425 1215 m21 6 lw 3 lw 444 1148 m21 6 lw 3 lw 463 1100 m21 6 lw 3 lw 481 1067 m21 6 lw 3 lw 500 1033 m21 6 lw 3 lw 519 1002
 m21 6 lw 3 lw 538 979 m21 6 lw 3 lw 557 956 m21 6 lw 3 lw 575 938 m21 6 lw 3 lw 594 916 m21 6 lw 3 lw 613 904 m21 6 lw 3 lw 632 886 m21 6 lw 3 lw 651 874 m21 6 lw 3 lw 670 862 m21 6 lw 3 lw 688 852 m21 6 lw 3 lw 707 841 m21 6 lw 3 lw 726 830 m21 6
 lw 3 lw 745 822 m21 6 lw 3 lw 764 818 m21 6 lw 3 lw 782 811 m21 6 lw 3 lw 801 803 m21 6 lw 3 lw 820 796 m21 6 lw 3 lw 839 793 m21 6 lw 3 lw 858 789 m21 6 lw 3 lw 877 782 m21 6 lw 3 lw 895 777 m21 6 lw 3 lw 914 771 m21 6 lw 3 lw 933 769 m21 6 lw 3 lw
 952 765 m21 6 lw 3 lw 971 760 m21 6 lw 3 lw 990 757 m21 6 lw 3 lw 1008 755 m21 6 lw 3 lw 1027 756 m21 6 lw 3 lw 1046 754 m21 6 lw 3 lw 1065 750 m21 6 lw 3 lw 1084 746 m21 6 lw 3 lw 1102 743 m21 6 lw 3 lw 1121 743 m21 6 lw 3 lw 1140 741 m21 6 lw 3 lw
 1159 741 m21 6 lw 3 lw 1178 742 m21 6 lw 3 lw 1197 744 m21 6 lw 3 lw 1215 743 m21 6 lw 3 lw 1234 739 m21 6 lw 3 lw 1253 742 m21 6 lw 3 lw 1272 741 m21 6 lw 3 lw 1291 743 m21 6 lw 3 lw 1309 742 m21 6 lw 3 lw 1328 737 m21 6 lw 3 lw 1347 737 m21 6 lw 3
 lw 1366 743 m21 6 lw 3 lw 1385 744 m21 6 lw 3 lw 1404 741 m21 6 lw 3 lw 1422 745 m21 6 lw 3 lw 1441 744 m21 6 lw 3 lw 1460 745 m21 6 lw 3 lw 1479 747 m21 6 lw 3 lw 1498 752 m21 6 lw 3 lw 1517 755 m21 6 lw 3 lw 1535 752 m21 6 lw 3 lw 1554 752 m21 6
 lw 3 lw 1573 759 m21 6 lw 3 lw 1592 764 m21 6 lw 3 lw 1611 762 m21 6 lw 3 lw 1629 770 m21 6 lw 3 lw 1648 765 m21 6 lw 3 lw 1667 763 m21 6 lw 3 lw 1686 773 m21 6 lw 3 lw 1705 774 m21 6 lw 3 lw 1724 774 m21 6 lw 3 lw 1742 780 m21 6 lw 3 lw 1761 781
 m21 6 lw 3 lw 1780 788 m21 6 lw 3 lw 1799 796 m21 6 lw 3 lw 1818 781 m21 6 lw 3 lw 1837 788 m21 6 lw 3 lw 1855 796 m21 6 lw 3 lw 1874 796 m21 6 lw 3 lw 1893 790 m21 6 lw 3 lw 1912 802 m21 6 lw 3 lw 1931 796 m21 6 lw 3 lw 1949 811 m21 6 lw 3 lw 1968
 813 m21 6 lw 3 lw 1987 807 m21 6 lw 3 lw 2006 816 m21 6 lw 3 lw 2025 831 m21 6 lw 3 lw 2044 819 m21 6 lw 3 lw 2062 816 m21 6 lw 3 lw 2081 822 m21 6 lw 3 lw 2100 818 m21 6 lw 3 lw 2119 829 m21 6 lw 3 lw 2138 827 m21 6 lw 3 lw 2156 814 m21 6 lw 3 lw
 2175 825 m21 6 lw 3 lw 2194 831 m21 6 lw 3 lw 2213 847 m21 6 lw black 340 223 m 1882 X s
 gsave  2268 2234 0 0 C 1923.86 58.2559 t 0 r /Helvetica findfont 83.8316 sf 0 0 m (Q [GeV]) show NC gr  340 279 m -56 Y s 387 251 m -28 Y s 434 251 m -28 Y s 481 251 m -28 Y s 528 279 m -56 Y s 575 251 m -28 Y s 622 251 m -28 Y s 670 251 m -28 Y s
 717 279 m -56 Y s 764 251 m -28 Y s 811 251 m -28 Y s 858 251 m -28 Y s 905 279 m -56 Y s 952 251 m -28 Y s 999 251 m -28 Y s 1046 251 m -28 Y s 1093 279 m -56 Y s 1140 251 m -28 Y s 1187 251 m -28 Y s 1234 251 m -28 Y s 1281 279 m -56 Y s 1328 251
 m -28 Y s 1375 251 m -28 Y s 1422 251 m -28 Y s 1469 279 m -56 Y s 1517 251 m -28 Y s 1564 251 m -28 Y s 1611 251 m -28 Y s 1658 279 m -56 Y s 1705 251 m -28 Y s 1752 251 m -28 Y s 1799 251 m -28 Y s 1846 279 m -56 Y s 1893 251 m -28 Y s 1940 251 m
 -28 Y s 1987 251 m -28 Y s 2034 279 m -56 Y s 2081 251 m -28 Y s 2128 251 m -28 Y s 2175 251 m -28 Y s 2222 279 m -56 Y s
 gsave  2268 2234 0 0 C 322.539 159.138 t 0 r /Helvetica findfont 62.5185 sf 0 0 m (0) show NC gr 
 gsave  2268 2234 0 0 C 484.518 159.138 t 0 r /Helvetica findfont 62.5185 sf 0 0 m (0.2) show NC gr 
 gsave  2268 2234 0 0 C 673.495 159.138 t 0 r /Helvetica findfont 62.5185 sf 0 0 m (0.4) show NC gr 
 gsave  2268 2234 0 0 C 861.05 159.138 t 0 r /Helvetica findfont 62.5185 sf 0 0 m (0.6) show NC gr 
 gsave  2268 2234 0 0 C 1050.03 159.138 t 0 r /Helvetica findfont 62.5185 sf 0 0 m (0.8) show NC gr 
 gsave  2268 2234 0 0 C 1268.84 159.138 t 0 r /Helvetica findfont 62.5185 sf 0 0 m (1) show NC gr 
 gsave  2268 2234 0 0 C 1426.56 159.138 t 0 r /Helvetica findfont 62.5185 sf 0 0 m (1.2) show NC gr 
 gsave  2268 2234 0 0 C 1614.11 159.138 t 0 r /Helvetica findfont 62.5185 sf 0 0 m (1.4) show NC gr 
 gsave  2268 2234 0 0 C 1803.09 159.138 t 0 r /Helvetica findfont 62.5185 sf 0 0 m (1.6) show NC gr 
 gsave  2268 2234 0 0 C 1990.65 159.138 t 0 r /Helvetica findfont 62.5185 sf 0 0 m (1.8) show NC gr 
 gsave  2268 2234 0 0 C 2205.2 159.138 t 0 r /Helvetica findfont 62.5185 sf 0 0 m (2) show NC gr  340 223 m 1966 Y s
 gsave  2268 2234 0 0 C 147.771 1594.22 t 90 r /Helvetica findfont 83.8316 sf 0 0 m (\(Q\) / \(0.02 GeV\)) show NC gr 
 gsave  2268 2234 0 0 C 174.768 1565.8 t 90 r /Helvetica findfont 55.4141 sf 0 0 m (2) show NC gr 
 gsave  2268 2234 0 0 C 147.771 1484.81 t 90 r /Helvetica findfont 83.8316 sf 0 0 m ( C) show NC gr  400 339 m -60 X s 370 397 m -30 X s 370 455 m -30 X s 370 512 m -30 X s 400 570 m -60 X s 370 628 m -30 X s 370 686 m -30 X s 370 744 m -30 X s 400
 801 m -60 X s 370 859 m -30 X s 370 917 m -30 X s 370 975 m -30 X s 400 1033 m -60 X s 370 1091 m -30 X s 370 1148 m -30 X s 370 1206 m -30 X s 400 1264 m -60 X s 370 1322 m -30 X s 370 1380 m -30 X s 370 1437 m -30 X s 400 1495 m -60 X s 370 1553 m
 -30 X s 370 1611 m -30 X s 370 1669 m -30 X s 400 1726 m -60 X s 370 1784 m -30 X s 370 1842 m -30 X s 370 1900 m -30 X s 400 1958 m -60 X s 370 2016 m -30 X s 370 2073 m -30 X s 370 2131 m -30 X s 400 2189 m -60 X s 400 339 m -60 X s 370 281 m -30
 X s 370 223 m -30 X s
 gsave  2268 2234 0 0 C 242.97 316.855 t 0 r /Helvetica findfont 62.5185 sf 0 0 m (0.6) show NC gr 
 gsave  2268 2234 0 0 C 242.97 548.458 t 0 r /Helvetica findfont 62.5185 sf 0 0 m (0.8) show NC gr 
 gsave  2268 2234 0 0 C 305.488 778.639 t 0 r /Helvetica findfont 62.5185 sf 0 0 m (1) show NC gr 
 gsave  2268 2234 0 0 C 242.97 1008.82 t 0 r /Helvetica findfont 62.5185 sf 0 0 m (1.2) show NC gr 
 gsave  2268 2234 0 0 C 242.97 1240.42 t 0 r /Helvetica findfont 62.5185 sf 0 0 m (1.4) show NC gr 
 gsave  2268 2234 0 0 C 242.97 1473.45 t 0 r /Helvetica findfont 62.5185 sf 0 0 m (1.6) show NC gr 
 gsave  2268 2234 0 0 C 242.97 1705.05 t 0 r /Helvetica findfont 62.5185 sf 0 0 m (1.8) show NC gr 
 gsave  2268 2234 0 0 C 295.542 1933.81 t 0 r /Helvetica findfont 62.5185 sf 0 0 m (2) show NC gr 
 gsave  2268 2234 0 0 C 242.97 2165.41 t 0 r /Helvetica findfont 62.5185 sf 0 0 m (2.2) show NC gr  1 0 0 c 1 1 1 c 1 0 0 c 368 1278 m 9 Y s 368 1304 m 9 Y s 3 lw 368 1295 m21 6 lw 3 lw 406 1225 m21 6 lw 3 lw 425 1180 m21 6 lw 3 lw 444 1143 m21 6 lw
 3 lw 463 1094 m21 6 lw 3 lw 481 1068 m21 6 lw 3 lw 500 1034 m21 6 lw 3 lw 519 1002 m21 6 lw 3 lw 538 984 m21 6 lw 3 lw 557 958 m21 6 lw 3 lw 575 939 m21 6 lw 3 lw 594 922 m21 6 lw 3 lw 613 903 m21 6 lw 3 lw 632 888 m21 6 lw 3 lw 651 878 m21 6 lw 3
 lw 670 867 m21 6 lw 3 lw 688 854 m21 6 lw 3 lw 707 843 m21 6 lw 3 lw 726 835 m21 6 lw 3 lw 745 823 m21 6 lw 3 lw 764 817 m21 6 lw 3 lw 782 809 m21 6 lw 3 lw 801 804 m21 6 lw 3 lw 820 797 m21 6 lw 3 lw 839 795 m21 6 lw 3 lw 858 788 m21 6 lw 3 lw 877
 784 m21 6 lw 3 lw 895 779 m21 6 lw 3 lw 914 772 m21 6 lw 3 lw 933 772 m21 6 lw 3 lw 952 768 m21 6 lw 3 lw 971 762 m21 6 lw 3 lw 990 759 m21 6 lw 3 lw 1008 753 m21 6 lw 3 lw 1027 757 m21 6 lw 3 lw 1046 755 m21 6 lw 3 lw 1065 752 m21 6 lw 3 lw 1084
 746 m21 6 lw 3 lw 1102 746 m21 6 lw 3 lw 1121 746 m21 6 lw 3 lw 1140 744 m21 6 lw 3 lw 1159 744 m21 6 lw 3 lw 1178 744 m21 6 lw 3 lw 1197 744 m21 6 lw 3 lw 1215 741 m21 6 lw 3 lw 1234 744 m21 6 lw 3 lw 1253 740 m21 6 lw 3 lw 1272 740 m21 6 lw 3 lw
 1291 739 m21 6 lw 3 lw 1309 744 m21 6 lw 3 lw 1328 736 m21 6 lw 3 lw 1347 739 m21 6 lw 3 lw 1366 742 m21 6 lw 3 lw 1385 742 m21 6 lw 3 lw 1404 742 m21 6 lw 3 lw 1422 745 m21 6 lw 3 lw 1441 744 m21 6 lw 3 lw 1460 747 m21 6 lw 3 lw 1479 748 m21 6 lw 3
 lw 1498 748 m21 6 lw 3 lw 1517 755 m21 6 lw 3 lw 1535 752 m21 6 lw 3 lw 1554 756 m21 6 lw 3 lw 1573 763 m21 6 lw 3 lw 1592 768 m21 6 lw 3 lw 1611 762 m21 6 lw 3 lw 1629 765 m21 6 lw 3 lw 1648 768 m21 6 lw 3 lw 1667 771 m21 6 lw 3 lw 1686 774 m21 6
 lw 3 lw 1705 776 m21 6 lw 3 lw 1724 775 m21 6 lw 3 lw 1742 785 m21 6 lw 3 lw 1761 788 m21 6 lw 3 lw 1780 783 m21 6 lw 3 lw 1799 798 m21 6 lw 3 lw 1818 787 m21 6 lw 3 lw 1837 788 m21 6 lw 3 lw 1855 790 m21 6 lw 3 lw 1874 799 m21 6 lw 3 lw 1893 802
 m21 6 lw 3 lw 1912 801 m21 6 lw 3 lw 1931 800 m21 6 lw 3 lw 1949 810 m21 6 lw 3 lw 1968 815 m21 6 lw 3 lw 1987 810 m21 6 lw 3 lw 2006 815 m21 6 lw 3 lw 2025 826 m21 6 lw 3 lw 2044 826 m21 6 lw 3 lw 2062 822 m21 6 lw 3 lw 2081 819 m21 6 lw 3 lw 2100
 823 m21 6 lw 3 lw 2119 827 m21 6 lw 3 lw 2138 827 m21 6 lw 3 lw 2156 823 m21 6 lw 3 lw 2175 837 m21 6 lw 3 lw 2194 829 m21 6 lw 3 lw 2213 838 m21 6 lw black 1 1 1 c 680 447 1474 1675 bf black 1474 1675 m 680 X s 2154 1675 m 447 Y s 2154 2122 m -680
 X s 1474 2122 m -447 Y s
 gsave  2268 2234 0 0 C 1490.5 2029.01 t 0 r /Helvetica findfont 49.7306 sf 0 0 m (shared VELO cut) show NC gr 
 gsave  2268 2234 0 0 C 1643.95 1881.24 t 0 r /Helvetica findfont 49.7306 sf 0 0 m (before) show NC gr  0 0 1 c 1559 1854 m 89 Y s 3 lw 1559 1899 m21 6 lw black
 gsave  2268 2234 0 0 C 1643.95 1732.05 t 0 r /Helvetica findfont 49.7306 sf 0 0 m (after) show NC gr  1 0 0 c 1559 1705 m 89 Y s 3 lw 1559 1750 m21 6 lw black
 gsave  2268 2234 0 0 C 906.518 670.653 t 0 r /Helvetica-Bold findfont 72.4646 sf 0 0 m (RD PIONS) show NC gr 
 gsave  2268 2234 0 0 C 906.518 558.404 t 0 r /Helvetica-Bold findfont 72.4646 sf 0 0 m (ref. sample: EVENT MIX) show NC gr 
 gsave  2268 2234 0 0 C 906.518 447.576 t 0 r /Helvetica-Bold findfont 72.4646 sf 0 0 m (VELO tracks multiplicity: 2 \255 10) show NC gr 
 gr  gr showpage
end
%%EOF
