%!PS-Adobe-2.0 EPSF-2.0
%%BoundingBox:  0 0 567 558
%%Title: ./RD_pion_0c65_h3115_1_h3401_1.eps: RD_pion_0c65_h3115_1_h3401_1
%%Creator: ROOT Version 6.06/02
%%CreationDate: Wed Feb  1 16:20:57 2017
%%DocumentNeededResources: ProcSet (FontSetInit)
%%EndComments
%%BeginProlog
80 dict begin
/s {stroke} def /l {lineto} def /m {moveto} def /t {translate} def
/r {rotate} def /rl {roll}  def /R {repeat} def
/d {rlineto} def /rm {rmoveto} def /gr {grestore} def /f {eofill} def
/c {setrgbcolor} def /black {0 setgray} def /sd {setdash} def
/cl {closepath} def /sf {scalefont setfont} def /lw {setlinewidth} def
/box {m dup 0 exch d exch 0 d 0 exch neg d cl} def
/NC{systemdict begin initclip end}def/C{NC box clip newpath}def
/bl {box s} def /bf {gsave box gsave f grestore 1 lw [] 0 sd s grestore} def /Y { 0 exch d} def /X { 0 d} def 
/K {{pop pop 0 moveto} exch kshow} bind def
/ita {/ang 15 def gsave [1 0 ang dup sin exch cos div 1 0 0] concat} def 
/mp {newpath /y exch def /x exch def} def
/side {[w .77 mul w .23 mul] .385 w mul sd w 0 l currentpoint t -144 r} def
/mr {mp x y w2 0 360 arc} def /m24 {mr s} def /m20 {mr f} def
/mb {mp x y w2 add m w2 neg 0 d 0 w neg d w 0 d 0 w d cl} def
/mt {mp x y w2 add m w2 neg w neg d w 0 d cl} def
/m21 {mb f} def /m25 {mb s} def /m22 {mt f} def /m26{mt s} def
/m23 {mp x y w2 sub m w2 w d w neg 0 d cl f} def
/m27 {mp x y w2 add m w3 neg w2 neg d w3 w2 neg d w3 w2 d cl s} def
/m28 {mp x w2 sub y w2 sub w3 add m w3 0 d  0 w3 neg d w3 0 d 0 w3 d w3 0 d  0 w3 d w3 neg 0 d 0 w3 d w3 neg 0 d 0 w3 neg d w3 neg 0 d cl s } def
/m29 {mp gsave x w2 sub y w2 add w3 sub m currentpoint t 4 {side} repeat cl fill gr} def
/m30 {mp gsave x w2 sub y w2 add w3 sub m currentpoint t 4 {side} repeat cl s gr} def
/m31 {mp x y w2 sub m 0 w d x w2 sub y m w 0 d x w2 sub y w2 add m w w neg d x w2 sub y w2 sub m w w d s} def
/m32 {mp x y w2 sub m w2 w d w neg 0 d cl s} def
/m33 {mp x y w2 add m w3 neg w2 neg d w3 w2 neg d w3 w2 d cl f} def
/m34 {mp x w2 sub y w2 sub w3 add m w3 0 d  0 w3 neg d w3 0 d 0 w3 d w3 0 d  0 w3 d w3 neg 0 d 0 w3 d w3 neg 0 d 0 w3 neg d w3 neg 0 d cl f } def
/m2 {mp x y w2 sub m 0 w d x w2 sub y m w 0 d s} def
/m5 {mp x w2 sub y w2 sub m w w d x w2 sub y w2 add m w w neg d s} def
%%IncludeResource: ProcSet (FontSetInit)
%%IncludeResource: font Times-Roman
%%IncludeResource: font Times-Italic
%%IncludeResource: font Times-Bold
%%IncludeResource: font Times-BoldItalic
%%IncludeResource: font Helvetica
%%IncludeResource: font Helvetica-Oblique
%%IncludeResource: font Helvetica-Bold
%%IncludeResource: font Helvetica-BoldOblique
%%IncludeResource: font Courier
%%IncludeResource: font Courier-Oblique
%%IncludeResource: font Courier-Bold
%%IncludeResource: font Courier-BoldOblique
%%IncludeResource: font Symbol
%%IncludeResource: font ZapfDingbats
/reEncode {exch findfont dup length dict begin {1 index /FID eq  {pop pop} {def} ifelse } forall /Encoding exch def currentdict end dup /FontName get exch definefont pop } def [/Times-Bold /Times-Italic /Times-BoldItalic /Helvetica /Helvetica-Oblique
 /Helvetica-Bold /Helvetica-BoldOblique /Courier /Courier-Oblique /Courier-Bold /Courier-BoldOblique /Times-Roman /AvantGarde-Book /AvantGarde-BookOblique /AvantGarde-Demi /AvantGarde-DemiOblique /Bookman-Demi /Bookman-DemiItalic /Bookman-Light
 /Bookman-LightItalic /Helvetica-Narrow /Helvetica-Narrow-Bold /Helvetica-Narrow-BoldOblique /Helvetica-Narrow-Oblique /NewCenturySchlbk-Roman /NewCenturySchlbk-Bold /NewCenturySchlbk-BoldItalic /NewCenturySchlbk-Italic /Palatino-Bold
 /Palatino-BoldItalic /Palatino-Italic /Palatino-Roman ] {ISOLatin1Encoding reEncode } forall
%%EndProlog
%%BeginSetup
%%EndSetup
newpath  gsave  .25 .25 scale  gsave  0 0 t black[  ] 0 sd 6 lw 1 1 1 c 2268 2234 0 0 bf black 3 lw 1 1 1 c 1882 1966 340 223 bf black 1882 1966 340 223 bl 1 1 1 c 1882 1966 340 223 bf black 1882 1966 340 223 bl 0 0 1 c 6 lw 1 1 1 c 0 0 1 c 390 924 m
 16 Y s 390 951 m 15 Y s 3 lw /w 14 def /w2 {w 2 div} def /w3 {w 3 div} def 390 945 m21 6 lw 394 978 m 15 Y s 394 1004 m 14 Y s 3 lw 394 998 m21 6 lw 399 964 m 13 Y s 399 988 m 13 Y s 3 lw 399 983 m21 6 lw 404 972 m 11 Y s 404 995 m 11 Y s 3 lw 404
 989 m21 6 lw 408 984 m 11 Y s 408 1006 m 11 Y s 3 lw 408 1001 m21 6 lw 413 1018 m 10 Y s 413 1040 m 9 Y s 3 lw 413 1034 m21 6 lw 418 1026 m 9 Y s 418 1047 m 9 Y s 3 lw 418 1041 m21 6 lw 423 1010 m 9 Y s 423 1030 m 8 Y s 3 lw 423 1024 m21 6 lw 427
 1016 m 7 Y s 427 1035 m 7 Y s 3 lw 427 1029 m21 6 lw 432 1031 m 7 Y s 432 1050 m 7 Y s 3 lw 432 1044 m21 6 lw 437 1028 m 7 Y s 437 1046 m 7 Y s 3 lw 437 1040 m21 6 lw 441 1042 m 6 Y s 441 1060 m 6 Y s 3 lw 441 1054 m21 6 lw 446 1053 m 6 Y s 446 1071
 m 6 Y s 3 lw 446 1065 m21 6 lw 451 1062 m 6 Y s 451 1079 m 6 Y s 3 lw 451 1074 m21 6 lw 455 1063 m 6 Y s 455 1080 m 5 Y s 3 lw 455 1074 m21 6 lw 460 1082 m 6 Y s 460 1099 m 5 Y s 3 lw 460 1093 m21 6 lw 465 1052 m 5 Y s 465 1068 m 5 Y s 3 lw 465 1063
 m21 6 lw 470 1070 m 5 Y s 470 1086 m 5 Y s 3 lw 470 1080 m21 6 lw 474 1079 m 4 Y s 474 1095 m 4 Y s 3 lw 474 1089 m21 6 lw 479 1079 m 4 Y s 479 1094 m 4 Y s 3 lw 479 1088 m21 6 lw 484 1061 m 4 Y s 484 1076 m 4 Y s 3 lw 484 1071 m21 6 lw 488 1090 m 3
 Y s 488 1105 m 4 Y s 3 lw 488 1099 m21 6 lw 493 1097 m 3 Y s 493 1112 m 3 Y s 3 lw 493 1106 m21 6 lw 498 1101 m 3 Y s 498 1115 m 4 Y s 3 lw 498 1110 m21 6 lw 502 1093 m 3 Y s 502 1108 m 3 Y s 3 lw 502 1102 m21 6 lw 507 1105 m 3 Y s 507 1120 m 3 Y s
 3 lw 507 1114 m21 6 lw 512 1100 m 3 Y s 512 1115 m 3 Y s 3 lw 512 1109 m21 6 lw 517 1095 m 3 Y s 517 1109 m 3 Y s 3 lw 517 1104 m21 6 lw 521 1105 m 3 Y s 521 1119 m 3 Y s 3 lw 521 1114 m21 6 lw 526 1100 m 3 Y s 526 1114 m 3 Y s 3 lw 526 1108 m21 6
 lw 531 1112 m 3 Y s 531 1126 m 3 Y s 3 lw 531 1121 m21 6 lw 535 1113 m 2 Y s 535 1127 m 2 Y s 3 lw 535 1121 m21 6 lw 540 1114 m 2 Y s 540 1128 m 2 Y s 3 lw 540 1122 m21 6 lw 545 1125 m 3 Y s 545 1139 m 2 Y s 3 lw 545 1133 m21 6 lw 550 1126 m 2 Y s
 550 1139 m 2 Y s 3 lw 550 1134 m21 6 lw 554 1131 m 2 Y s 554 1144 m 3 Y s 3 lw 554 1139 m21 6 lw 559 1128 m 2 Y s 559 1142 m 2 Y s 3 lw 559 1136 m21 6 lw 564 1129 m 2 Y s 564 1143 m 2 Y s 3 lw 564 1137 m21 6 lw 568 1141 m 2 Y s 568 1154 m 2 Y s 3 lw
 568 1148 m21 6 lw 573 1150 m 2 Y s 573 1164 m 1 Y s 3 lw 573 1158 m21 6 lw 578 1154 m 2 Y s 578 1167 m 2 Y s 3 lw 578 1162 m21 6 lw 582 1167 m 2 Y s 582 1180 m 2 Y s 3 lw 582 1174 m21 6 lw 587 1162 m 2 Y s 587 1175 m 2 Y s 3 lw 587 1169 m21 6 lw 592
 1164 m 1 Y s 592 1177 m 1 Y s 3 lw 592 1171 m21 6 lw 597 1169 m 2 Y s 597 1182 m 2 Y s 3 lw 597 1176 m21 6 lw 601 1158 m 2 Y s 601 1171 m 2 Y s 3 lw 601 1165 m21 6 lw 606 1164 m 2 Y s 606 1177 m 2 Y s 3 lw 606 1172 m21 6 lw 611 1151 m 1 Y s 611 1164
 m 1 Y s 3 lw 611 1158 m21 6 lw 615 1156 m 1 Y s 615 1169 m 1 Y s 3 lw 615 1163 m21 6 lw 620 1155 m 1 Y s 620 1168 m 1 Y s 3 lw 620 1162 m21 6 lw 625 1155 m 1 Y s 625 1168 m 1 Y s 3 lw 625 1162 m21 6 lw 630 1131 m 1 Y s 630 1143 m 2 Y s 3 lw 630 1138
 m21 6 lw 634 1145 m 1 Y s 634 1158 m 1 Y s 3 lw 634 1152 m21 6 lw 639 1126 m 1 Y s 639 1138 m 1 Y s 3 lw 639 1133 m21 6 lw 644 1145 m 1 Y s 644 1158 m 1 Y s 3 lw 644 1152 m21 6 lw 648 1145 m 1 Y s 648 1158 m 1 Y s 3 lw 648 1152 m21 6 lw 653 1145 m 1
 Y s 653 1157 m 1 Y s 3 lw 653 1151 m21 6 lw 658 1151 m s 658 1163 m 1 Y s 3 lw 658 1157 m21 6 lw 662 1154 m s 662 1166 m 1 Y s 3 lw 662 1160 m21 6 lw 667 1157 m 1 Y s 667 1170 m s 3 lw 667 1164 m21 6 lw 672 1155 m 1 Y s 672 1168 m s 3 lw 672 1162
 m21 6 lw 677 1157 m 1 Y s 677 1169 m 1 Y s 3 lw 677 1164 m21 6 lw 681 1148 m 1 Y s 681 1160 m 1 Y s 3 lw 681 1155 m21 6 lw 686 1156 m 1 Y s 686 1168 m 1 Y s 3 lw 686 1163 m21 6 lw 691 1175 m 1 Y s 691 1187 m 1 Y s 3 lw 691 1182 m21 6 lw 695 1158 m 1
 Y s 695 1170 m 1 Y s 3 lw 695 1164 m21 6 lw 700 1162 m s 700 1174 m s 3 lw 700 1168 m21 6 lw 705 1159 m 1 Y s 705 1171 m s 3 lw 705 1165 m21 6 lw 710 1172 m 1 Y s 710 1184 m s 3 lw 710 1178 m21 6 lw 714 1157 m s 714 1169 m s 3 lw 714 1163 m21 6 lw
 719 1168 m 1 Y s 719 1180 m s 3 lw 719 1174 m21 6 lw 724 1195 m 1 Y s 724 1207 m 1 Y s 3 lw 724 1202 m21 6 lw 728 1193 m s 728 1205 m s 3 lw 728 1199 m21 6 lw 733 1173 m s 733 1184 m 1 Y s 3 lw 733 1179 m21 6 lw 738 1178 m s 738 1190 m s 3 lw 738
 1184 m21 6 lw 742 1174 m 1 Y s 742 1186 m s 3 lw 742 1180 m21 6 lw 747 1172 m s 747 1183 m 1 Y s 3 lw 747 1178 m21 6 lw 752 1159 m s 752 1171 m s 3 lw 752 1165 m21 6 lw 757 1180 m s 757 1191 m 1 Y s 3 lw 757 1186 m21 6 lw 761 1164 m 1 Y s 761 1176 m
 s 3 lw 761 1170 m21 6 lw 766 1173 m 1 Y s 766 1185 m s 3 lw 766 1179 m21 6 lw 771 1172 m s 771 1183 m 1 Y s 3 lw 771 1178 m21 6 lw 775 1175 m s 775 1186 m s 3 lw 775 1180 m21 6 lw 780 1170 m 1 Y s 780 1182 m s 3 lw 780 1176 m21 6 lw 785 1178 m s 785
 1189 m 1 Y s 3 lw 785 1184 m21 6 lw 790 1162 m 1 Y s 790 1174 m s 3 lw 790 1168 m21 6 lw 794 1169 m s 794 1181 m s 3 lw 794 1175 m21 6 lw 799 1170 m s 799 1182 m s 3 lw 799 1176 m21 6 lw 804 1164 m s 804 1176 m s 3 lw 804 1170 m21 6 lw 808 1164 m s
 808 1175 m s 3 lw 808 1169 m21 6 lw 813 1167 m 1 Y s 813 1179 m s 3 lw 813 1173 m21 6 lw 818 1153 m s 818 1164 m 1 Y s 3 lw 818 1159 m21 6 lw 822 1156 m s 822 1168 m s 3 lw 822 1162 m21 6 lw 827 1157 m s 827 1169 m s 3 lw 827 1163 m21 6 lw 832 1162
 m s 832 1173 m s 3 lw 832 1167 m21 6 lw 837 1161 m s 837 1173 m s 3 lw 837 1167 m21 6 lw 841 1147 m 1 Y s 841 1159 m s 3 lw 841 1153 m21 6 lw 846 1159 m 1 Y s 846 1171 m s 3 lw 846 1165 m21 6 lw 851 1157 m s 851 1169 m s 3 lw 851 1163 m21 6 lw 855
 1143 m s 855 1154 m 1 Y s 3 lw 855 1149 m21 6 lw 860 1141 m s 860 1153 m s 3 lw 860 1147 m21 6 lw 865 1142 m s 865 1154 m s 3 lw 865 1148 m21 6 lw 870 1143 m s 870 1154 m 1 Y s 3 lw 870 1149 m21 6 lw 874 1145 m s 874 1157 m s 3 lw 874 1151 m21 6 lw
 879 1138 m s 879 1149 m s 3 lw 879 1144 m21 6 lw 884 1144 m s 884 1156 m s 3 lw 884 1150 m21 6 lw 888 1144 m s 888 1155 m s 3 lw 888 1150 m21 6 lw 893 1143 m s 893 1154 m s 3 lw 893 1149 m21 6 lw 898 1143 m s 898 1154 m s 3 lw 898 1149 m21 6 lw 902
 1153 m s 902 1164 m s 3 lw 902 1158 m21 6 lw 907 1153 m s 907 1165 m s 3 lw 907 1159 m21 6 lw 912 1153 m s 912 1165 m s 3 lw 912 1159 m21 6 lw 917 1158 m s 917 1169 m s 3 lw 917 1163 m21 6 lw 921 1160 m s 921 1172 m s 3 lw 921 1166 m21 6 lw 926 1180
 m s 926 1192 m s 3 lw 926 1186 m21 6 lw 931 1168 m s 931 1180 m s 3 lw 931 1174 m21 6 lw 935 1178 m s 935 1190 m s 3 lw 935 1184 m21 6 lw 940 1185 m s 940 1196 m 1 Y s 3 lw 940 1191 m21 6 lw 945 1189 m s 945 1201 m s 3 lw 945 1195 m21 6 lw 950 1204
 m s 950 1216 m s 3 lw 950 1210 m21 6 lw 954 1204 m 1 Y s 954 1216 m s 3 lw 954 1210 m21 6 lw 959 1220 m s 959 1232 m s 3 lw 959 1226 m21 6 lw 964 1207 m s 964 1219 m s 3 lw 964 1213 m21 6 lw 968 1220 m s 968 1231 m 1 Y s 3 lw 968 1226 m21 6 lw 973
 1227 m s 973 1239 m s 3 lw 973 1233 m21 6 lw 978 1236 m 1 Y s 978 1248 m 1 Y s 3 lw 978 1242 m21 6 lw 982 1239 m s 982 1251 m s 3 lw 982 1245 m21 6 lw 987 1240 m 1 Y s 987 1252 m 1 Y s 3 lw 987 1246 m21 6 lw 992 1246 m 1 Y s 992 1258 m s 3 lw 992
 1252 m21 6 lw 997 1247 m 1 Y s 997 1259 m 1 Y s 3 lw 997 1254 m21 6 lw 1001 1251 m 1 Y s 1001 1263 m 1 Y s 3 lw 1001 1258 m21 6 lw 1006 1239 m 1 Y s 1006 1251 m 1 Y s 3 lw 1006 1245 m21 6 lw 1011 1240 m s 1011 1252 m s 3 lw 1011 1246 m21 6 lw 1015
 1238 m s 1015 1250 m s 3 lw 1015 1244 m21 6 lw 1020 1254 m 1 Y s 1020 1266 m 1 Y s 3 lw 1020 1261 m21 6 lw 1025 1237 m s 1025 1249 m s 3 lw 1025 1243 m21 6 lw 1030 1231 m 1 Y s 1030 1243 m 1 Y s 3 lw 1030 1237 m21 6 lw 1034 1221 m s 1034 1233 m s 3
 lw 1034 1227 m21 6 lw 1039 1190 m 1 Y s 1039 1202 m 1 Y s 3 lw 1039 1197 m21 6 lw 1044 1188 m 1 Y s 1044 1200 m 1 Y s 3 lw 1044 1195 m21 6 lw 1048 1179 m 1 Y s 1048 1191 m 1 Y s 3 lw 1048 1185 m21 6 lw 1053 1165 m s 1053 1177 m s 3 lw 1053 1171 m21
 6 lw 1058 1164 m 1 Y s 1058 1176 m 1 Y s 3 lw 1058 1170 m21 6 lw 1062 1152 m s 1062 1164 m s 3 lw 1062 1158 m21 6 lw 1067 1144 m 1 Y s 1067 1156 m 1 Y s 3 lw 1067 1150 m21 6 lw 1072 1134 m s 1072 1146 m s 3 lw 1072 1140 m21 6 lw 1077 1121 m 1 Y s
 1077 1133 m 1 Y s 3 lw 1077 1127 m21 6 lw 1081 1125 m s 1081 1137 m s 3 lw 1081 1131 m21 6 lw 1086 1113 m 1 Y s 1086 1125 m 1 Y s 3 lw 1086 1119 m21 6 lw 1091 1105 m 1 Y s 1091 1117 m 1 Y s 3 lw 1091 1111 m21 6 lw 1095 1102 m s 1095 1114 m s 3 lw
 1095 1108 m21 6 lw 1100 1077 m s 1100 1089 m s 3 lw 1100 1083 m21 6 lw 1105 1083 m s 1105 1095 m s 3 lw 1105 1089 m21 6 lw 1110 1079 m 1 Y s 1110 1091 m 1 Y s 3 lw 1110 1085 m21 6 lw 1114 1082 m 1 Y s 1114 1094 m 1 Y s 3 lw 1114 1088 m21 6 lw 1119
 1080 m 1 Y s 1119 1092 m 1 Y s 3 lw 1119 1086 m21 6 lw 1124 1084 m 1 Y s 1124 1096 m 1 Y s 3 lw 1124 1091 m21 6 lw 1128 1067 m 1 Y s 1128 1079 m 1 Y s 3 lw 1128 1073 m21 6 lw 1133 1069 m 1 Y s 1133 1081 m 1 Y s 3 lw 1133 1075 m21 6 lw 1138 1074 m 1
 Y s 1138 1086 m 1 Y s 3 lw 1138 1081 m21 6 lw 1142 1054 m 1 Y s 1142 1066 m 1 Y s 3 lw 1142 1061 m21 6 lw 1147 1068 m 1 Y s 1147 1080 m 1 Y s 3 lw 1147 1074 m21 6 lw 1152 1062 m 1 Y s 1152 1074 m 1 Y s 3 lw 1152 1069 m21 6 lw 1157 1066 m 1 Y s 1157
 1078 m 1 Y s 3 lw 1157 1073 m21 6 lw 1161 1065 m s 1161 1077 m 1 Y s 3 lw 1161 1071 m21 6 lw 1166 1073 m 1 Y s 1166 1085 m 1 Y s 3 lw 1166 1080 m21 6 lw 1171 1075 m 1 Y s 1171 1087 m 1 Y s 3 lw 1171 1082 m21 6 lw 1175 1063 m 1 Y s 1175 1075 m 1 Y s
 3 lw 1175 1070 m21 6 lw 1180 1068 m 1 Y s 1180 1081 m 1 Y s 3 lw 1180 1075 m21 6 lw 1185 1069 m 1 Y s 1185 1082 m 1 Y s 3 lw 1185 1076 m21 6 lw 1190 1068 m 1 Y s 1190 1080 m 1 Y s 3 lw 1190 1075 m21 6 lw 1194 1073 m 1 Y s 1194 1085 m 1 Y s 3 lw 1194
 1080 m21 6 lw 1199 1081 m 2 Y s 1199 1094 m 1 Y s 3 lw 1199 1088 m21 6 lw 1204 1087 m 1 Y s 1204 1099 m 1 Y s 3 lw 1204 1093 m21 6 lw 1208 1077 m 1 Y s 1208 1089 m 1 Y s 3 lw 1208 1084 m21 6 lw 1213 1091 m 1 Y s 1213 1103 m 2 Y s 3 lw 1213 1098 m21
 6 lw 1218 1084 m 1 Y s 1218 1096 m 2 Y s 3 lw 1218 1091 m21 6 lw 1222 1076 m 1 Y s 1222 1088 m 1 Y s 3 lw 1222 1083 m21 6 lw 1227 1106 m 1 Y s 1227 1119 m 1 Y s 3 lw 1227 1113 m21 6 lw 1232 1086 m 1 Y s 1232 1098 m 2 Y s 3 lw 1232 1093 m21 6 lw 1237
 1060 m 1 Y s 1237 1072 m 2 Y s 3 lw 1237 1067 m21 6 lw 1241 1058 m 1 Y s 1241 1070 m 2 Y s 3 lw 1241 1065 m21 6 lw 1246 1045 m 1 Y s 1246 1057 m 1 Y s 3 lw 1246 1052 m21 6 lw 1251 1023 m 1 Y s 1251 1035 m 1 Y s 3 lw 1251 1029 m21 6 lw 1255 1034 m 1
 Y s 1255 1047 m 1 Y s 3 lw 1255 1041 m21 6 lw 1260 1026 m 1 Y s 1260 1039 m 1 Y s 3 lw 1260 1033 m21 6 lw 1265 1030 m 1 Y s 1265 1042 m 2 Y s 3 lw 1265 1037 m21 6 lw 1269 1023 m 2 Y s 1269 1036 m 1 Y s 3 lw 1269 1030 m21 6 lw 1274 1012 m 2 Y s 1274
 1025 m 2 Y s 3 lw 1274 1019 m21 6 lw 1279 1018 m 2 Y s 1279 1031 m 2 Y s 3 lw 1279 1025 m21 6 lw 1284 1021 m 2 Y s 1284 1034 m 1 Y s 3 lw 1284 1028 m21 6 lw 1288 1004 m 2 Y s 1288 1017 m 1 Y s 3 lw 1288 1011 m21 6 lw 1293 1013 m 2 Y s 1293 1026 m 2
 Y s 3 lw 1293 1020 m21 6 lw 1298 1021 m 1 Y s 1298 1034 m 1 Y s 3 lw 1298 1028 m21 6 lw 1302 1016 m 2 Y s 1302 1029 m 2 Y s 3 lw 1302 1024 m21 6 lw 1307 1014 m 1 Y s 1307 1027 m 1 Y s 3 lw 1307 1021 m21 6 lw 1312 1026 m 2 Y s 1312 1039 m 2 Y s 3 lw
 1312 1033 m21 6 lw 1317 1019 m 2 Y s 1317 1032 m 2 Y s 3 lw 1317 1027 m21 6 lw 1321 1004 m 2 Y s 1321 1017 m 2 Y s 3 lw 1321 1012 m21 6 lw 1326 1009 m 2 Y s 1326 1022 m 2 Y s 3 lw 1326 1016 m21 6 lw 1331 1006 m 1 Y s 1331 1019 m 2 Y s 3 lw 1331 1013
 m21 6 lw 1335 1011 m 2 Y s 1335 1024 m 2 Y s 3 lw 1335 1019 m21 6 lw 1340 1008 m 1 Y s 1340 1021 m 2 Y s 3 lw 1340 1015 m21 6 lw 1345 1006 m 2 Y s 1345 1020 m 2 Y s 3 lw 1345 1014 m21 6 lw 1349 1012 m 2 Y s 1349 1025 m 2 Y s 3 lw 1349 1019 m21 6 lw
 1354 1019 m 2 Y s 1354 1033 m 2 Y s 3 lw 1354 1027 m21 6 lw 1359 1017 m 2 Y s 1359 1031 m 2 Y s 3 lw 1359 1025 m21 6 lw 1364 1011 m 2 Y s 1364 1025 m 2 Y s 3 lw 1364 1019 m21 6 lw 1368 1018 m 2 Y s 1368 1031 m 3 Y s 3 lw 1368 1026 m21 6 lw 1373 1002
 m 2 Y s 1373 1015 m 2 Y s 3 lw 1373 1009 m21 6 lw 1378 1011 m 3 Y s 1378 1025 m 2 Y s 3 lw 1378 1019 m21 6 lw 1382 1011 m 3 Y s 1382 1025 m 2 Y s 3 lw 1382 1019 m21 6 lw 1387 1006 m 3 Y s 1387 1020 m 2 Y s 3 lw 1387 1014 m21 6 lw 1392 1009 m 2 Y s
 1392 1022 m 3 Y s 3 lw 1392 1017 m21 6 lw 1397 1010 m 3 Y s 1397 1024 m 2 Y s 3 lw 1397 1018 m21 6 lw 1401 1018 m 3 Y s 1401 1032 m 3 Y s 3 lw 1401 1026 m21 6 lw 1406 1008 m 3 Y s 1406 1022 m 3 Y s 3 lw 1406 1017 m21 6 lw 1411 1025 m 2 Y s 1411 1039
 m 2 Y s 3 lw 1411 1033 m21 6 lw 1415 1013 m 2 Y s 1415 1027 m 2 Y s 3 lw 1415 1021 m21 6 lw 1420 1019 m 3 Y s 1420 1033 m 3 Y s 3 lw 1420 1028 m21 6 lw 1425 1039 m 3 Y s 1425 1053 m 3 Y s 3 lw 1425 1048 m21 6 lw 1429 1036 m 3 Y s 1429 1050 m 3 Y s 3
 lw 1429 1044 m21 6 lw 1434 1021 m 3 Y s 1434 1035 m 3 Y s 3 lw 1434 1030 m21 6 lw 1439 1035 m 3 Y s 1439 1050 m 2 Y s 3 lw 1439 1044 m21 6 lw 1444 1023 m 3 Y s 1444 1037 m 3 Y s 3 lw 1444 1032 m21 6 lw 1448 1016 m 3 Y s 1448 1031 m 2 Y s 3 lw 1448
 1025 m21 6 lw 1453 1022 m 3 Y s 1453 1037 m 3 Y s 3 lw 1453 1031 m21 6 lw 1458 1041 m 3 Y s 1458 1055 m 3 Y s 3 lw 1458 1049 m21 6 lw 1462 1038 m 3 Y s 1462 1053 m 3 Y s 3 lw 1462 1047 m21 6 lw 1467 1029 m 3 Y s 1467 1043 m 3 Y s 3 lw 1467 1037 m21
 6 lw 1472 1042 m 3 Y s 1472 1056 m 3 Y s 3 lw 1472 1050 m21 6 lw 1477 1044 m 3 Y s 1477 1058 m 3 Y s 3 lw 1477 1053 m21 6 lw 1481 1047 m 3 Y s 1481 1062 m 3 Y s 3 lw 1481 1056 m21 6 lw 1486 1053 m 3 Y s 1486 1067 m 4 Y s 3 lw 1486 1062 m21 6 lw 1491
 1031 m 3 Y s 1491 1046 m 3 Y s 3 lw 1491 1040 m21 6 lw 1495 1045 m 3 Y s 1495 1060 m 3 Y s 3 lw 1495 1054 m21 6 lw 1500 1032 m 3 Y s 1500 1047 m 3 Y s 3 lw 1500 1041 m21 6 lw 1505 1044 m 3 Y s 1505 1059 m 3 Y s 3 lw 1505 1053 m21 6 lw 1509 1039 m 3
 Y s 1509 1054 m 3 Y s 3 lw 1509 1048 m21 6 lw 1514 1050 m 4 Y s 1514 1065 m 4 Y s 3 lw 1514 1059 m21 6 lw 1519 1028 m 4 Y s 1519 1043 m 4 Y s 3 lw 1519 1037 m21 6 lw 1524 1039 m 4 Y s 1524 1054 m 4 Y s 3 lw 1524 1049 m21 6 lw 1528 1026 m 4 Y s 1528
 1041 m 4 Y s 3 lw 1528 1035 m21 6 lw 1533 1039 m 4 Y s 1533 1054 m 4 Y s 3 lw 1533 1049 m21 6 lw 1538 1024 m 3 Y s 1538 1039 m 3 Y s 3 lw 1538 1033 m21 6 lw 1542 1022 m 4 Y s 1542 1037 m 4 Y s 3 lw 1542 1032 m21 6 lw 1547 1041 m 4 Y s 1547 1056 m 4
 Y s 3 lw 1547 1050 m21 6 lw 1552 1026 m 4 Y s 1552 1041 m 4 Y s 3 lw 1552 1036 m21 6 lw 1557 1006 m 4 Y s 1557 1022 m 3 Y s 3 lw 1557 1016 m21 6 lw 1561 1019 m 4 Y s 1561 1034 m 5 Y s 3 lw 1561 1029 m21 6 lw 1566 997 m 4 Y s 1566 1012 m 4 Y s 3 lw
 1566 1007 m21 6 lw 1571 1015 m 4 Y s 1571 1030 m 4 Y s 3 lw 1571 1025 m21 6 lw 1575 1015 m 5 Y s 1575 1031 m 4 Y s 3 lw 1575 1025 m21 6 lw 1580 1022 m 4 Y s 1580 1037 m 5 Y s 3 lw 1580 1032 m21 6 lw 1585 1015 m 5 Y s 1585 1031 m 4 Y s 3 lw 1585 1025
 m21 6 lw 1589 1011 m 4 Y s 1589 1027 m 4 Y s 3 lw 1589 1021 m21 6 lw 1594 992 m 5 Y s 1594 1008 m 4 Y s 3 lw 1594 1002 m21 6 lw 1599 1010 m 5 Y s 1599 1026 m 5 Y s 3 lw 1599 1020 m21 6 lw 1604 984 m 4 Y s 1604 999 m 5 Y s 3 lw 1604 994 m21 6 lw 1608
 1016 m 5 Y s 1608 1032 m 5 Y s 3 lw 1608 1026 m21 6 lw 1613 1004 m 5 Y s 1613 1020 m 4 Y s 3 lw 1613 1014 m21 6 lw 1618 1007 m 4 Y s 1618 1023 m 4 Y s 3 lw 1618 1017 m21 6 lw 1622 986 m 5 Y s 1622 1002 m 5 Y s 3 lw 1622 997 m21 6 lw 1627 990 m 5 Y s
 1627 1006 m 5 Y s 3 lw 1627 1000 m21 6 lw 1632 978 m 5 Y s 1632 994 m 5 Y s 3 lw 1632 988 m21 6 lw 1637 1004 m 5 Y s 1637 1020 m 5 Y s 3 lw 1637 1015 m21 6 lw 1641 993 m 5 Y s 1641 1009 m 5 Y s 3 lw 1641 1004 m21 6 lw 1646 993 m 5 Y s 1646 1009 m 5
 Y s 3 lw 1646 1004 m21 6 lw 1651 992 m 4 Y s 1651 1008 m 5 Y s 3 lw 1651 1002 m21 6 lw 1655 985 m 5 Y s 1655 1001 m 5 Y s 3 lw 1655 995 m21 6 lw 1660 1015 m 5 Y s 1660 1032 m 5 Y s 3 lw 1660 1026 m21 6 lw 1665 981 m 5 Y s 1665 997 m 6 Y s 3 lw 1665
 992 m21 6 lw 1669 1002 m 5 Y s 1669 1019 m 5 Y s 3 lw 1669 1013 m21 6 lw 1674 990 m 5 Y s 1674 1007 m 5 Y s 3 lw 1674 1001 m21 6 lw 1679 982 m 5 Y s 1679 998 m 6 Y s 3 lw 1679 993 m21 6 lw 1684 979 m 6 Y s 1684 996 m 5 Y s 3 lw 1684 990 m21 6 lw
 1688 988 m 5 Y s 1688 1005 m 5 Y s 3 lw 1688 999 m21 6 lw 1693 988 m 6 Y s 1693 1005 m 6 Y s 3 lw 1693 1000 m21 6 lw 1698 977 m 5 Y s 1698 994 m 5 Y s 3 lw 1698 988 m21 6 lw 1702 1007 m 6 Y s 1702 1024 m 6 Y s 3 lw 1702 1019 m21 6 lw 1707 995 m 6 Y
 s 1707 1012 m 6 Y s 3 lw 1707 1007 m21 6 lw 1712 996 m 6 Y s 1712 1013 m 6 Y s 3 lw 1712 1008 m21 6 lw 1717 976 m 5 Y s 1717 993 m 5 Y s 3 lw 1717 987 m21 6 lw 1721 991 m 6 Y s 1721 1009 m 5 Y s 3 lw 1721 1003 m21 6 lw 1726 1003 m 6 Y s 1726 1021 m
 6 Y s 3 lw 1726 1015 m21 6 lw 1731 977 m 6 Y s 1731 994 m 6 Y s 3 lw 1731 988 m21 6 lw 1735 987 m 6 Y s 1735 1004 m 6 Y s 3 lw 1735 999 m21 6 lw 1740 995 m 6 Y s 1740 1013 m 6 Y s 3 lw 1740 1007 m21 6 lw 1745 996 m 6 Y s 1745 1013 m 6 Y s 3 lw 1745
 1008 m21 6 lw 1749 990 m 6 Y s 1749 1008 m 6 Y s 3 lw 1749 1002 m21 6 lw 1754 1001 m 7 Y s 1754 1019 m 6 Y s 3 lw 1754 1013 m21 6 lw 1759 1009 m 6 Y s 1759 1027 m 6 Y s 3 lw 1759 1021 m21 6 lw 1764 991 m 7 Y s 1764 1009 m 7 Y s 3 lw 1764 1004 m21 6
 lw 1768 1001 m 7 Y s 1768 1019 m 7 Y s 3 lw 1768 1014 m21 6 lw 1773 1001 m 7 Y s 1773 1019 m 7 Y s 3 lw 1773 1013 m21 6 lw 1778 983 m 7 Y s 1778 1001 m 7 Y s 3 lw 1778 995 m21 6 lw 1782 994 m 6 Y s 1782 1012 m 6 Y s 3 lw 1782 1006 m21 6 lw 1787 1000
 m 7 Y s 1787 1018 m 7 Y s 3 lw 1787 1013 m21 6 lw 1792 985 m 6 Y s 1792 1003 m 7 Y s 3 lw 1792 997 m21 6 lw 1797 1023 m 8 Y s 1797 1042 m 7 Y s 3 lw 1797 1036 m21 6 lw 1801 996 m 7 Y s 1801 1014 m 7 Y s 3 lw 1801 1008 m21 6 lw 1806 1002 m 7 Y s 1806
 1020 m 7 Y s 3 lw 1806 1014 m21 6 lw 1811 996 m 7 Y s 1811 1014 m 7 Y s 3 lw 1811 1008 m21 6 lw 1815 1000 m 7 Y s 1815 1019 m 7 Y s 3 lw 1815 1013 m21 6 lw 1820 996 m 7 Y s 1820 1014 m 8 Y s 3 lw 1820 1009 m21 6 lw 1825 1013 m 8 Y s 1825 1032 m 8 Y
 s 3 lw 1825 1027 m21 6 lw 1829 1004 m 8 Y s 1829 1023 m 8 Y s 3 lw 1829 1018 m21 6 lw 1834 1012 m 8 Y s 1834 1031 m 8 Y s 3 lw 1834 1026 m21 6 lw 1839 1004 m 8 Y s 1839 1023 m 8 Y s 3 lw 1839 1018 m21 6 lw 1844 995 m 7 Y s 1844 1014 m 7 Y s 3 lw
 1844 1008 m21 6 lw 1848 1009 m 8 Y s 1848 1029 m 7 Y s 3 lw 1848 1023 m21 6 lw 1853 1026 m 8 Y s 1853 1045 m 8 Y s 3 lw 1853 1039 m21 6 lw 1858 991 m 8 Y s 1858 1011 m 7 Y s 3 lw 1858 1005 m21 6 lw 1862 1008 m 8 Y s 1862 1027 m 9 Y s 3 lw 1862 1022
 m21 6 lw 1867 981 m 8 Y s 1867 1001 m 7 Y s 3 lw 1867 995 m21 6 lw 1872 1025 m 8 Y s 1872 1044 m 8 Y s 3 lw 1872 1038 m21 6 lw 1877 1007 m 9 Y s 1877 1027 m 8 Y s 3 lw 1877 1021 m21 6 lw 1881 992 m 8 Y s 1881 1012 m 8 Y s 3 lw 1881 1006 m21 6 lw
 1886 987 m 9 Y s 1886 1007 m 8 Y s 3 lw 1886 1001 m21 6 lw 1891 1041 m 9 Y s 1891 1061 m 9 Y s 3 lw 1891 1055 m21 6 lw 1895 1009 m 9 Y s 1895 1029 m 9 Y s 3 lw 1895 1024 m21 6 lw 1900 1011 m 9 Y s 1900 1031 m 9 Y s 3 lw 1900 1026 m21 6 lw 1905 1013
 m 8 Y s 1905 1033 m 9 Y s 3 lw 1905 1027 m21 6 lw 1909 1000 m 9 Y s 1909 1020 m 9 Y s 3 lw 1909 1015 m21 6 lw 1914 987 m 8 Y s 1914 1007 m 9 Y s 3 lw 1914 1001 m21 6 lw 1919 992 m 9 Y s 1919 1012 m 9 Y s 3 lw 1919 1006 m21 6 lw 1924 998 m 9 Y s 1924
 1018 m 9 Y s 3 lw 1924 1012 m21 6 lw 1928 1003 m 10 Y s 1928 1024 m 9 Y s 3 lw 1928 1018 m21 6 lw 1933 997 m 9 Y s 1933 1018 m 9 Y s 3 lw 1933 1012 m21 6 lw 1938 994 m 9 Y s 1938 1015 m 9 Y s 3 lw 1938 1009 m21 6 lw 1942 1011 m 9 Y s 1942 1032 m 9 Y
 s 3 lw 1942 1026 m21 6 lw 1947 1008 m 10 Y s 1947 1029 m 10 Y s 3 lw 1947 1024 m21 6 lw 1952 1009 m 9 Y s 1952 1029 m 10 Y s 3 lw 1952 1024 m21 6 lw 1957 1015 m 10 Y s 1957 1036 m 10 Y s 3 lw 1957 1031 m21 6 lw 1961 1031 m 10 Y s 1961 1052 m 10 Y s
 3 lw 1961 1047 m21 6 lw 1966 987 m 10 Y s 1966 1008 m 10 Y s 3 lw 1966 1003 m21 6 lw 1971 1011 m 10 Y s 1971 1033 m 10 Y s 3 lw 1971 1027 m21 6 lw 1975 991 m 10 Y s 1975 1012 m 10 Y s 3 lw 1975 1007 m21 6 lw 1980 1016 m 10 Y s 1980 1037 m 10 Y s 3
 lw 1980 1032 m21 6 lw 1985 1000 m 10 Y s 1985 1021 m 10 Y s 3 lw 1985 1016 m21 6 lw 1989 984 m 10 Y s 1989 1005 m 10 Y s 3 lw 1989 999 m21 6 lw 1994 1005 m 10 Y s 1994 1027 m 10 Y s 3 lw 1994 1021 m21 6 lw 1999 1010 m 10 Y s 1999 1032 m 10 Y s 3 lw
 1999 1026 m21 6 lw 2004 1024 m 10 Y s 2004 1046 m 10 Y s 3 lw 2004 1040 m21 6 lw 2008 998 m 10 Y s 2008 1019 m 11 Y s 3 lw 2008 1014 m21 6 lw 2013 1021 m 10 Y s 2013 1043 m 11 Y s 3 lw 2013 1037 m21 6 lw 2018 990 m 11 Y s 2018 1012 m 11 Y s 3 lw
 2018 1006 m21 6 lw 2022 1018 m 11 Y s 2022 1040 m 11 Y s 3 lw 2022 1035 m21 6 lw 2027 981 m 11 Y s 2027 1003 m 11 Y s 3 lw 2027 997 m21 6 lw 2032 1013 m 11 Y s 2032 1035 m 11 Y s 3 lw 2032 1030 m21 6 lw 2036 1008 m 11 Y s 2036 1031 m 11 Y s 3 lw
 2036 1025 m21 6 lw 2041 1010 m 12 Y s 2041 1033 m 11 Y s 3 lw 2041 1027 m21 6 lw 2046 996 m 11 Y s 2046 1019 m 11 Y s 3 lw 2046 1013 m21 6 lw 2051 1018 m 12 Y s 2051 1041 m 11 Y s 3 lw 2051 1035 m21 6 lw 2055 998 m 11 Y s 2055 1021 m 11 Y s 3 lw
 2055 1015 m21 6 lw 2060 1003 m 12 Y s 2060 1026 m 12 Y s 3 lw 2060 1021 m21 6 lw 2065 1030 m 12 Y s 2065 1053 m 12 Y s 3 lw 2065 1048 m21 6 lw 2069 1049 m 12 Y s 2069 1072 m 12 Y s 3 lw 2069 1066 m21 6 lw 2074 1009 m 12 Y s 2074 1032 m 12 Y s 3 lw
 2074 1027 m21 6 lw 2079 1017 m 12 Y s 2079 1040 m 12 Y s 3 lw 2079 1034 m21 6 lw 2084 988 m 12 Y s 2084 1011 m 12 Y s 3 lw 2084 1006 m21 6 lw 2088 983 m 11 Y s 2088 1006 m 11 Y s 3 lw 2088 1000 m21 6 lw 2093 1008 m 12 Y s 2093 1031 m 13 Y s 3 lw
 2093 1026 m21 6 lw 2098 1037 m 12 Y s 2098 1061 m 12 Y s 3 lw 2098 1055 m21 6 lw 2102 993 m 12 Y s 2102 1017 m 12 Y s 3 lw 2102 1011 m21 6 lw 2107 1006 m 13 Y s 2107 1030 m 13 Y s 3 lw 2107 1025 m21 6 lw 2112 1008 m 12 Y s 2112 1032 m 12 Y s 3 lw
 2112 1026 m21 6 lw 2116 1013 m 13 Y s 2116 1038 m 12 Y s 3 lw 2116 1032 m21 6 lw 2121 987 m 13 Y s 2121 1011 m 13 Y s 3 lw 2121 1005 m21 6 lw 2126 997 m 13 Y s 2126 1021 m 13 Y s 3 lw 2126 1016 m21 6 lw 2131 1016 m 13 Y s 2131 1040 m 13 Y s 3 lw
 2131 1035 m21 6 lw 2135 1006 m 13 Y s 2135 1031 m 13 Y s 3 lw 2135 1025 m21 6 lw 2140 1011 m 13 Y s 2140 1036 m 13 Y s 3 lw 2140 1030 m21 6 lw 2145 1024 m 14 Y s 2145 1049 m 13 Y s 3 lw 2145 1043 m21 6 lw 2149 1041 m 14 Y s 2149 1066 m 14 Y s 3 lw
 2149 1060 m21 6 lw 2154 1022 m 13 Y s 2154 1047 m 13 Y s 3 lw 2154 1041 m21 6 lw 2159 1038 m 14 Y s 2159 1063 m 14 Y s 3 lw 2159 1058 m21 6 lw 2164 995 m 13 Y s 2164 1020 m 13 Y s 3 lw 2164 1014 m21 6 lw 2168 1072 m 15 Y s 2168 1098 m 14 Y s 3 lw
 2168 1092 m21 6 lw 2173 1036 m 14 Y s 2173 1062 m 14 Y s 3 lw 2173 1056 m21 6 lw 2178 1018 m 14 Y s 2178 1044 m 14 Y s 3 lw 2178 1038 m21 6 lw 2182 1030 m 14 Y s 2182 1056 m 14 Y s 3 lw 2182 1050 m21 6 lw 2187 1032 m 15 Y s 2187 1058 m 14 Y s 3 lw
 2187 1052 m21 6 lw 2192 986 m 14 Y s 2192 1012 m 14 Y s 3 lw 2192 1006 m21 6 lw 2196 1023 m 15 Y s 2196 1049 m 15 Y s 3 lw 2196 1043 m21 6 lw 2201 1011 m 14 Y s 2201 1037 m 14 Y s 3 lw 2201 1031 m21 6 lw 2206 1009 m 15 Y s 2206 1035 m 15 Y s 3 lw
 2206 1029 m21 6 lw 2211 1026 m 15 Y s 2211 1053 m 14 Y s 3 lw 2211 1047 m21 6 lw 2215 1019 m 15 Y s 2215 1045 m 15 Y s 3 lw 2215 1039 m21 6 lw 2220 1041 m 16 Y s 2220 1068 m 15 Y s 3 lw 2220 1062 m21 6 lw black 340 223 m 1882 X s
 gsave  2268 2234 0 0 C 1923.86 58.2559 t 0 r /Helvetica findfont 83.8316 sf 0 0 m (Q [GeV]) show NC gr  340 279 m -56 Y s 387 251 m -28 Y s 434 251 m -28 Y s 481 251 m -28 Y s 528 279 m -56 Y s 575 251 m -28 Y s 622 251 m -28 Y s 670 251 m -28 Y s
 717 279 m -56 Y s 764 251 m -28 Y s 811 251 m -28 Y s 858 251 m -28 Y s 905 279 m -56 Y s 952 251 m -28 Y s 999 251 m -28 Y s 1046 251 m -28 Y s 1093 279 m -56 Y s 1140 251 m -28 Y s 1187 251 m -28 Y s 1234 251 m -28 Y s 1281 279 m -56 Y s 1328 251
 m -28 Y s 1375 251 m -28 Y s 1422 251 m -28 Y s 1469 279 m -56 Y s 1517 251 m -28 Y s 1564 251 m -28 Y s 1611 251 m -28 Y s 1658 279 m -56 Y s 1705 251 m -28 Y s 1752 251 m -28 Y s 1799 251 m -28 Y s 1846 279 m -56 Y s 1893 251 m -28 Y s 1940 251 m
 -28 Y s 1987 251 m -28 Y s 2034 279 m -56 Y s 2081 251 m -28 Y s 2128 251 m -28 Y s 2175 251 m -28 Y s 2222 279 m -56 Y s
 gsave  2268 2234 0 0 C 322.539 159.138 t 0 r /Helvetica findfont 62.5185 sf 0 0 m (0) show NC gr 
 gsave  2268 2234 0 0 C 484.518 159.138 t 0 r /Helvetica findfont 62.5185 sf 0 0 m (0.2) show NC gr 
 gsave  2268 2234 0 0 C 673.495 159.138 t 0 r /Helvetica findfont 62.5185 sf 0 0 m (0.4) show NC gr 
 gsave  2268 2234 0 0 C 861.05 159.138 t 0 r /Helvetica findfont 62.5185 sf 0 0 m (0.6) show NC gr 
 gsave  2268 2234 0 0 C 1050.03 159.138 t 0 r /Helvetica findfont 62.5185 sf 0 0 m (0.8) show NC gr 
 gsave  2268 2234 0 0 C 1268.84 159.138 t 0 r /Helvetica findfont 62.5185 sf 0 0 m (1) show NC gr 
 gsave  2268 2234 0 0 C 1426.56 159.138 t 0 r /Helvetica findfont 62.5185 sf 0 0 m (1.2) show NC gr 
 gsave  2268 2234 0 0 C 1614.11 159.138 t 0 r /Helvetica findfont 62.5185 sf 0 0 m (1.4) show NC gr 
 gsave  2268 2234 0 0 C 1803.09 159.138 t 0 r /Helvetica findfont 62.5185 sf 0 0 m (1.6) show NC gr 
 gsave  2268 2234 0 0 C 1990.65 159.138 t 0 r /Helvetica findfont 62.5185 sf 0 0 m (1.8) show NC gr 
 gsave  2268 2234 0 0 C 2205.2 159.138 t 0 r /Helvetica findfont 62.5185 sf 0 0 m (2) show NC gr  340 223 m 1966 Y s
 gsave  2268 2234 0 0 C 147.771 1547.33 t 90 r /Helvetica findfont 83.8316 sf 0 0 m (\(Q\) / \(0.005 GeV\)) show NC gr 
 gsave  2268 2234 0 0 C 174.768 1518.92 t 90 r /Helvetica findfont 55.4141 sf 0 0 m (2) show NC gr 
 gsave  2268 2234 0 0 C 147.771 1437.93 t 90 r /Helvetica findfont 83.8316 sf 0 0 m ( C) show NC gr  400 402 m -60 X s 370 491 m -30 X s 370 581 m -30 X s 370 670 m -30 X s 400 759 m -60 X s 370 849 m -30 X s 370 938 m -30 X s 370 1027 m -30 X s 400
 1117 m -60 X s 370 1206 m -30 X s 370 1295 m -30 X s 370 1385 m -30 X s 400 1474 m -60 X s 370 1564 m -30 X s 370 1653 m -30 X s 370 1742 m -30 X s 400 1832 m -60 X s 370 1921 m -30 X s 370 2010 m -30 X s 370 2100 m -30 X s 400 2189 m -60 X s 400
 402 m -60 X s 370 313 m -30 X s 370 223 m -30 X s
 gsave  2268 2234 0 0 C 242.97 379.374 t 0 r /Helvetica findfont 62.5185 sf 0 0 m (0.6) show NC gr 
 gsave  2268 2234 0 0 C 242.97 737.434 t 0 r /Helvetica findfont 62.5185 sf 0 0 m (0.8) show NC gr 
 gsave  2268 2234 0 0 C 305.488 1092.65 t 0 r /Helvetica findfont 62.5185 sf 0 0 m (1) show NC gr 
 gsave  2268 2234 0 0 C 242.97 1450.71 t 0 r /Helvetica findfont 62.5185 sf 0 0 m (1.2) show NC gr 
 gsave  2268 2234 0 0 C 242.97 1808.77 t 0 r /Helvetica findfont 62.5185 sf 0 0 m (1.4) show NC gr 
 gsave  2268 2234 0 0 C 242.97 2166.83 t 0 r /Helvetica findfont 62.5185 sf 0 0 m (1.6) show NC gr 
 gsave  2268 2234 0 0 C 906.518 670.653 t 0 r /Helvetica-Bold findfont 72.4646 sf 0 0 m (RD PIONS) show NC gr 
 gsave  2268 2234 0 0 C 906.518 558.404 t 0 r /Helvetica-Bold findfont 72.4646 sf 0 0 m (ref. sample: EVENT MIX) show NC gr 
 gsave  2268 2234 0 0 C 906.518 447.576 t 0 r /Helvetica-Bold findfont 72.4646 sf 0 0 m (VELO tracks multiplicity: < 10) show NC gr 
 gr  gr showpage
end
%%EOF
