%!PS-Adobe-2.0 EPSF-2.0
%%BoundingBox:  0 0 567 558
%%Title: ./MC_pion_0c65_h3001_2_h3401_2.eps: MC_pion_0c65_h3001_2_h3401_2
%%Creator: ROOT Version 6.06/02
%%CreationDate: Wed Feb  1 16:20:58 2017
%%DocumentNeededResources: ProcSet (FontSetInit)
%%EndComments
%%BeginProlog
80 dict begin
/s {stroke} def /l {lineto} def /m {moveto} def /t {translate} def
/r {rotate} def /rl {roll}  def /R {repeat} def
/d {rlineto} def /rm {rmoveto} def /gr {grestore} def /f {eofill} def
/c {setrgbcolor} def /black {0 setgray} def /sd {setdash} def
/cl {closepath} def /sf {scalefont setfont} def /lw {setlinewidth} def
/box {m dup 0 exch d exch 0 d 0 exch neg d cl} def
/NC{systemdict begin initclip end}def/C{NC box clip newpath}def
/bl {box s} def /bf {gsave box gsave f grestore 1 lw [] 0 sd s grestore} def /Y { 0 exch d} def /X { 0 d} def 
/K {{pop pop 0 moveto} exch kshow} bind def
/ita {/ang 15 def gsave [1 0 ang dup sin exch cos div 1 0 0] concat} def 
/mp {newpath /y exch def /x exch def} def
/side {[w .77 mul w .23 mul] .385 w mul sd w 0 l currentpoint t -144 r} def
/mr {mp x y w2 0 360 arc} def /m24 {mr s} def /m20 {mr f} def
/mb {mp x y w2 add m w2 neg 0 d 0 w neg d w 0 d 0 w d cl} def
/mt {mp x y w2 add m w2 neg w neg d w 0 d cl} def
/m21 {mb f} def /m25 {mb s} def /m22 {mt f} def /m26{mt s} def
/m23 {mp x y w2 sub m w2 w d w neg 0 d cl f} def
/m27 {mp x y w2 add m w3 neg w2 neg d w3 w2 neg d w3 w2 d cl s} def
/m28 {mp x w2 sub y w2 sub w3 add m w3 0 d  0 w3 neg d w3 0 d 0 w3 d w3 0 d  0 w3 d w3 neg 0 d 0 w3 d w3 neg 0 d 0 w3 neg d w3 neg 0 d cl s } def
/m29 {mp gsave x w2 sub y w2 add w3 sub m currentpoint t 4 {side} repeat cl fill gr} def
/m30 {mp gsave x w2 sub y w2 add w3 sub m currentpoint t 4 {side} repeat cl s gr} def
/m31 {mp x y w2 sub m 0 w d x w2 sub y m w 0 d x w2 sub y w2 add m w w neg d x w2 sub y w2 sub m w w d s} def
/m32 {mp x y w2 sub m w2 w d w neg 0 d cl s} def
/m33 {mp x y w2 add m w3 neg w2 neg d w3 w2 neg d w3 w2 d cl f} def
/m34 {mp x w2 sub y w2 sub w3 add m w3 0 d  0 w3 neg d w3 0 d 0 w3 d w3 0 d  0 w3 d w3 neg 0 d 0 w3 d w3 neg 0 d 0 w3 neg d w3 neg 0 d cl f } def
/m2 {mp x y w2 sub m 0 w d x w2 sub y m w 0 d s} def
/m5 {mp x w2 sub y w2 sub m w w d x w2 sub y w2 add m w w neg d s} def
%%IncludeResource: ProcSet (FontSetInit)
%%IncludeResource: font Times-Roman
%%IncludeResource: font Times-Italic
%%IncludeResource: font Times-Bold
%%IncludeResource: font Times-BoldItalic
%%IncludeResource: font Helvetica
%%IncludeResource: font Helvetica-Oblique
%%IncludeResource: font Helvetica-Bold
%%IncludeResource: font Helvetica-BoldOblique
%%IncludeResource: font Courier
%%IncludeResource: font Courier-Oblique
%%IncludeResource: font Courier-Bold
%%IncludeResource: font Courier-BoldOblique
%%IncludeResource: font Symbol
%%IncludeResource: font ZapfDingbats
/reEncode {exch findfont dup length dict begin {1 index /FID eq  {pop pop} {def} ifelse } forall /Encoding exch def currentdict end dup /FontName get exch definefont pop } def [/Times-Bold /Times-Italic /Times-BoldItalic /Helvetica /Helvetica-Oblique
 /Helvetica-Bold /Helvetica-BoldOblique /Courier /Courier-Oblique /Courier-Bold /Courier-BoldOblique /Times-Roman /AvantGarde-Book /AvantGarde-BookOblique /AvantGarde-Demi /AvantGarde-DemiOblique /Bookman-Demi /Bookman-DemiItalic /Bookman-Light
 /Bookman-LightItalic /Helvetica-Narrow /Helvetica-Narrow-Bold /Helvetica-Narrow-BoldOblique /Helvetica-Narrow-Oblique /NewCenturySchlbk-Roman /NewCenturySchlbk-Bold /NewCenturySchlbk-BoldItalic /NewCenturySchlbk-Italic /Palatino-Bold
 /Palatino-BoldItalic /Palatino-Italic /Palatino-Roman ] {ISOLatin1Encoding reEncode } forall
%%EndProlog
%%BeginSetup
%%EndSetup
newpath  gsave  .25 .25 scale  gsave  0 0 t black[  ] 0 sd 6 lw 1 1 1 c 2268 2234 0 0 bf black 3 lw 1 1 1 c 1882 1966 340 223 bf black 1882 1966 340 223 bl 1 1 1 c 1882 1966 340 223 bf black 1882 1966 340 223 bl 0 0 1 c 6 lw 1 1 1 c 0 0 1 c 390 1144
 m 12 Y s 390 1167 m 12 Y s 3 lw /w 14 def /w2 {w 2 div} def /w3 {w 3 div} def 390 1161 m21 6 lw 394 1131 m 11 Y s 394 1153 m 11 Y s 3 lw 394 1147 m21 6 lw 399 1146 m 9 Y s 399 1167 m 9 Y s 3 lw 399 1161 m21 6 lw 404 1180 m 8 Y s 404 1200 m 8 Y s 3
 lw 404 1194 m21 6 lw 408 1202 m 8 Y s 408 1221 m 8 Y s 3 lw 408 1216 m21 6 lw 413 1187 m 7 Y s 413 1205 m 7 Y s 3 lw 413 1199 m21 6 lw 418 1207 m 6 Y s 418 1225 m 6 Y s 3 lw 418 1219 m21 6 lw 423 1194 m 6 Y s 423 1211 m 6 Y s 3 lw 423 1206 m21 6 lw
 427 1215 m 5 Y s 427 1231 m 6 Y s 3 lw 427 1226 m21 6 lw 432 1204 m 5 Y s 432 1220 m 5 Y s 3 lw 432 1215 m21 6 lw 437 1194 m 4 Y s 437 1210 m 4 Y s 3 lw 437 1204 m21 6 lw 441 1214 m 4 Y s 441 1229 m 4 Y s 3 lw 441 1224 m21 6 lw 446 1205 m 4 Y s 446
 1221 m 3 Y s 3 lw 446 1215 m21 6 lw 451 1216 m 4 Y s 451 1231 m 4 Y s 3 lw 451 1225 m21 6 lw 455 1216 m 3 Y s 455 1231 m 3 Y s 3 lw 455 1225 m21 6 lw 460 1215 m 3 Y s 460 1229 m 3 Y s 3 lw 460 1223 m21 6 lw 465 1215 m 3 Y s 465 1230 m 2 Y s 3 lw 465
 1224 m21 6 lw 470 1223 m 2 Y s 470 1237 m 2 Y s 3 lw 470 1231 m21 6 lw 474 1227 m 3 Y s 474 1241 m 2 Y s 3 lw 474 1235 m21 6 lw 479 1214 m 2 Y s 479 1228 m 2 Y s 3 lw 479 1222 m21 6 lw 484 1227 m 2 Y s 484 1240 m 2 Y s 3 lw 484 1235 m21 6 lw 488
 1211 m 2 Y s 488 1224 m 2 Y s 3 lw 488 1218 m21 6 lw 493 1225 m 2 Y s 493 1238 m 2 Y s 3 lw 493 1233 m21 6 lw 498 1216 m 1 Y s 498 1228 m 2 Y s 3 lw 498 1223 m21 6 lw 502 1218 m 2 Y s 502 1231 m 1 Y s 3 lw 502 1225 m21 6 lw 507 1225 m 2 Y s 507 1238
 m 2 Y s 3 lw 507 1232 m21 6 lw 512 1220 m 2 Y s 512 1233 m 1 Y s 3 lw 512 1227 m21 6 lw 517 1215 m 1 Y s 517 1228 m 1 Y s 3 lw 517 1222 m21 6 lw 521 1224 m 1 Y s 521 1236 m 1 Y s 3 lw 521 1231 m21 6 lw 526 1206 m 1 Y s 526 1218 m 1 Y s 3 lw 526 1213
 m21 6 lw 531 1220 m 1 Y s 531 1232 m 1 Y s 3 lw 531 1226 m21 6 lw 535 1222 m 1 Y s 535 1235 m s 3 lw 535 1229 m21 6 lw 540 1230 m 1 Y s 540 1242 m 1 Y s 3 lw 540 1236 m21 6 lw 545 1218 m 1 Y s 545 1230 m 1 Y s 3 lw 545 1225 m21 6 lw 550 1214 m s 550
 1225 m 1 Y s 3 lw 550 1220 m21 6 lw 554 1212 m 1 Y s 554 1224 m 1 Y s 3 lw 554 1219 m21 6 lw 559 1209 m s 559 1221 m s 3 lw 559 1215 m21 6 lw 564 1215 m s 564 1226 m 1 Y s 3 lw 564 1221 m21 6 lw 568 1218 m s 568 1229 m s 3 lw 568 1224 m21 6 lw 573
 1211 m s 573 1223 m s 3 lw 573 1217 m21 6 lw 578 1223 m s 578 1234 m 1 Y s 3 lw 578 1229 m21 6 lw 3 lw 582 1215 m21 6 lw 3 lw 587 1217 m21 6 lw 3 lw 592 1213 m21 6 lw 3 lw 597 1216 m21 6 lw 3 lw 601 1210 m21 6 lw 3 lw 606 1213 m21 6 lw 3 lw 611 1213
 m21 6 lw 3 lw 615 1209 m21 6 lw 3 lw 620 1211 m21 6 lw 3 lw 625 1212 m21 6 lw 3 lw 630 1212 m21 6 lw 3 lw 634 1197 m21 6 lw 3 lw 639 1202 m21 6 lw 3 lw 644 1198 m21 6 lw 3 lw 648 1206 m21 6 lw 3 lw 653 1203 m21 6 lw 3 lw 658 1200 m21 6 lw 3 lw 662
 1197 m21 6 lw 3 lw 667 1192 m21 6 lw 3 lw 672 1187 m21 6 lw 3 lw 677 1191 m21 6 lw 3 lw 681 1190 m21 6 lw 3 lw 686 1191 m21 6 lw 3 lw 691 1188 m21 6 lw 3 lw 695 1192 m21 6 lw 3 lw 700 1190 m21 6 lw 3 lw 705 1189 m21 6 lw 3 lw 710 1179 m21 6 lw 3 lw
 714 1188 m21 6 lw 3 lw 719 1176 m21 6 lw 3 lw 724 1182 m21 6 lw 3 lw 728 1179 m21 6 lw 3 lw 733 1178 m21 6 lw 3 lw 738 1173 m21 6 lw 3 lw 742 1176 m21 6 lw 3 lw 747 1173 m21 6 lw 3 lw 752 1173 m21 6 lw 3 lw 757 1175 m21 6 lw 3 lw 761 1170 m21 6 lw 3
 lw 766 1172 m21 6 lw 3 lw 771 1171 m21 6 lw 3 lw 775 1164 m21 6 lw 3 lw 780 1174 m21 6 lw 3 lw 785 1170 m21 6 lw 3 lw 790 1164 m21 6 lw 3 lw 794 1151 m21 6 lw 3 lw 799 1170 m21 6 lw 3 lw 804 1166 m21 6 lw 3 lw 808 1160 m21 6 lw 3 lw 813 1161 m21 6
 lw 3 lw 818 1166 m21 6 lw 3 lw 822 1156 m21 6 lw 3 lw 827 1166 m21 6 lw 3 lw 832 1163 m21 6 lw 3 lw 837 1156 m21 6 lw 3 lw 841 1157 m21 6 lw 3 lw 846 1152 m21 6 lw 3 lw 851 1154 m21 6 lw 3 lw 855 1153 m21 6 lw 3 lw 860 1155 m21 6 lw 3 lw 865 1153
 m21 6 lw 3 lw 870 1146 m21 6 lw 3 lw 874 1153 m21 6 lw 3 lw 879 1145 m21 6 lw 3 lw 884 1150 m21 6 lw 3 lw 888 1146 m21 6 lw 3 lw 893 1144 m21 6 lw 3 lw 898 1139 m21 6 lw 3 lw 902 1141 m21 6 lw 3 lw 907 1138 m21 6 lw 3 lw 912 1135 m21 6 lw 3 lw 917
 1146 m21 6 lw 3 lw 921 1137 m21 6 lw 3 lw 926 1131 m21 6 lw 3 lw 931 1133 m21 6 lw 3 lw 935 1140 m21 6 lw 3 lw 940 1131 m21 6 lw 3 lw 945 1143 m21 6 lw 3 lw 950 1133 m21 6 lw 3 lw 954 1137 m21 6 lw 3 lw 959 1133 m21 6 lw 3 lw 964 1124 m21 6 lw 3 lw
 968 1129 m21 6 lw 3 lw 973 1120 m21 6 lw 3 lw 978 1121 m21 6 lw 3 lw 982 1130 m21 6 lw 3 lw 987 1125 m21 6 lw 3 lw 992 1113 m21 6 lw 3 lw 997 1129 m21 6 lw 3 lw 1001 1121 m21 6 lw 3 lw 1006 1119 m21 6 lw 3 lw 1011 1117 m21 6 lw 3 lw 1015 1127 m21 6
 lw 3 lw 1020 1116 m21 6 lw 3 lw 1025 1116 m21 6 lw 3 lw 1030 1114 m21 6 lw 3 lw 1034 1118 m21 6 lw 3 lw 1039 1106 m21 6 lw 3 lw 1044 1115 m21 6 lw 3 lw 1048 1115 m21 6 lw 3 lw 1053 1112 m21 6 lw 3 lw 1058 1107 m21 6 lw 3 lw 1062 1110 m21 6 lw 3 lw
 1067 1103 m21 6 lw 3 lw 1072 1107 m21 6 lw 3 lw 1077 1110 m21 6 lw 3 lw 1081 1102 m21 6 lw 3 lw 1086 1102 m21 6 lw 3 lw 1091 1106 m21 6 lw 3 lw 1095 1100 m21 6 lw 3 lw 1100 1099 m21 6 lw 3 lw 1105 1097 m21 6 lw 3 lw 1110 1096 m21 6 lw 3 lw 1114 1102
 m21 6 lw 3 lw 1119 1103 m21 6 lw 3 lw 1124 1087 m21 6 lw 3 lw 1128 1093 m21 6 lw 3 lw 1133 1099 m21 6 lw 3 lw 1138 1098 m21 6 lw 3 lw 1142 1093 m21 6 lw 3 lw 1147 1088 m21 6 lw 3 lw 1152 1092 m21 6 lw 3 lw 1157 1090 m21 6 lw 3 lw 1161 1092 m21 6 lw
 3 lw 1166 1080 m21 6 lw 3 lw 1171 1086 m21 6 lw 3 lw 1175 1090 m21 6 lw 3 lw 1180 1087 m21 6 lw 3 lw 1185 1085 m21 6 lw 3 lw 1190 1085 m21 6 lw 3 lw 1194 1084 m21 6 lw 3 lw 1199 1081 m21 6 lw 3 lw 1204 1072 m21 6 lw 3 lw 1208 1085 m21 6 lw 3 lw 1213
 1084 m21 6 lw 3 lw 1218 1082 m21 6 lw 3 lw 1222 1083 m21 6 lw 3 lw 1227 1074 m21 6 lw 3 lw 1232 1067 m21 6 lw 3 lw 1237 1071 m21 6 lw 3 lw 1241 1072 m21 6 lw 3 lw 1246 1076 m21 6 lw 3 lw 1251 1070 m21 6 lw 3 lw 1255 1077 m21 6 lw 3 lw 1260 1075 m21
 6 lw 3 lw 1265 1066 m21 6 lw 3 lw 1269 1071 m21 6 lw 3 lw 1274 1067 m21 6 lw 3 lw 1279 1070 m21 6 lw 3 lw 1284 1074 m21 6 lw 3 lw 1288 1065 m21 6 lw 3 lw 1293 1081 m21 6 lw 3 lw 1298 1055 m21 6 lw 3 lw 1302 1061 m21 6 lw 3 lw 1307 1058 m21 6 lw 3 lw
 1312 1063 m21 6 lw 3 lw 1317 1063 m21 6 lw 3 lw 1321 1062 m21 6 lw 3 lw 1326 1069 m21 6 lw 3 lw 1331 1065 m21 6 lw 3 lw 1335 1059 m21 6 lw 3 lw 1340 1063 m21 6 lw 3 lw 1345 1054 m21 6 lw 3 lw 1349 1063 m21 6 lw 3 lw 1354 1061 m21 6 lw 3 lw 1359 1060
 m21 6 lw 3 lw 1364 1058 m21 6 lw 3 lw 1368 1063 m21 6 lw 3 lw 1373 1060 m21 6 lw 3 lw 1378 1053 m21 6 lw 3 lw 1382 1047 m21 6 lw 3 lw 1387 1059 m21 6 lw 3 lw 1392 1068 m21 6 lw 3 lw 1397 1050 m21 6 lw 3 lw 1401 1055 m21 6 lw 3 lw 1406 1057 m21 6 lw
 3 lw 1411 1067 m21 6 lw 3 lw 1415 1063 m21 6 lw 3 lw 1420 1063 m21 6 lw 3 lw 1425 1049 m21 6 lw 3 lw 1429 1056 m21 6 lw 3 lw 1434 1046 m21 6 lw 3 lw 1439 1045 m21 6 lw 3 lw 1444 1055 m21 6 lw 3 lw 1448 1050 m21 6 lw 1453 1043 m s 1453 1055 m s 3 lw
 1453 1049 m21 6 lw 1458 1044 m s 1458 1055 m s 3 lw 1458 1050 m21 6 lw 1462 1044 m s 1462 1055 m s 3 lw 1462 1049 m21 6 lw 1467 1037 m s 1467 1048 m s 3 lw 1467 1043 m21 6 lw 1472 1041 m s 1472 1053 m s 3 lw 1472 1047 m21 6 lw 1477 1049 m s 1477
 1060 m 1 Y s 3 lw 1477 1055 m21 6 lw 1481 1045 m s 1481 1056 m s 3 lw 1481 1051 m21 6 lw 1486 1041 m s 1486 1053 m s 3 lw 1486 1047 m21 6 lw 1491 1031 m s 1491 1043 m s 3 lw 1491 1037 m21 6 lw 1495 1043 m s 1495 1055 m s 3 lw 1495 1049 m21 6 lw 1500
 1045 m s 1500 1056 m 1 Y s 3 lw 1500 1051 m21 6 lw 1505 1042 m s 1505 1054 m s 3 lw 1505 1048 m21 6 lw 1509 1043 m s 1509 1054 m 1 Y s 3 lw 1509 1049 m21 6 lw 1514 1036 m s 1514 1048 m s 3 lw 1514 1042 m21 6 lw 1519 1047 m s 1519 1059 m s 3 lw 1519
 1053 m21 6 lw 1524 1041 m s 1524 1053 m s 3 lw 1524 1047 m21 6 lw 1528 1030 m s 1528 1042 m s 3 lw 1528 1036 m21 6 lw 1533 1044 m s 1533 1055 m 1 Y s 3 lw 1533 1050 m21 6 lw 1538 1043 m 1 Y s 1538 1055 m 1 Y s 3 lw 1538 1050 m21 6 lw 1542 1049 m 1 Y
 s 1542 1061 m 1 Y s 3 lw 1542 1055 m21 6 lw 1547 1048 m s 1547 1060 m s 3 lw 1547 1054 m21 6 lw 1552 1041 m s 1552 1053 m s 3 lw 1552 1047 m21 6 lw 1557 1043 m s 1557 1055 m s 3 lw 1557 1049 m21 6 lw 1561 1045 m s 1561 1057 m s 3 lw 1561 1051 m21 6
 lw 1566 1049 m 1 Y s 1566 1061 m 1 Y s 3 lw 1566 1055 m21 6 lw 1571 1046 m 1 Y s 1571 1058 m 1 Y s 3 lw 1571 1052 m21 6 lw 1575 1042 m 1 Y s 1575 1054 m 1 Y s 3 lw 1575 1049 m21 6 lw 1580 1036 m s 1580 1048 m s 3 lw 1580 1042 m21 6 lw 1585 1046 m s
 1585 1058 m 1 Y s 3 lw 1585 1052 m21 6 lw 1589 1047 m 1 Y s 1589 1059 m 1 Y s 3 lw 1589 1053 m21 6 lw 1594 1044 m 1 Y s 1594 1056 m 1 Y s 3 lw 1594 1051 m21 6 lw 1599 1045 m 1 Y s 1599 1058 m s 3 lw 1599 1052 m21 6 lw 1604 1040 m 1 Y s 1604 1053 m s
 3 lw 1604 1047 m21 6 lw 1608 1044 m 1 Y s 1608 1057 m 1 Y s 3 lw 1608 1051 m21 6 lw 1613 1041 m 1 Y s 1613 1053 m 1 Y s 3 lw 1613 1048 m21 6 lw 1618 1037 m s 1618 1049 m 1 Y s 3 lw 1618 1043 m21 6 lw 1622 1032 m 1 Y s 1622 1044 m 1 Y s 3 lw 1622
 1039 m21 6 lw 1627 1027 m 1 Y s 1627 1039 m 1 Y s 3 lw 1627 1034 m21 6 lw 1632 1032 m 1 Y s 1632 1044 m 1 Y s 3 lw 1632 1039 m21 6 lw 1637 1039 m 1 Y s 1637 1051 m 1 Y s 3 lw 1637 1045 m21 6 lw 1641 1034 m 1 Y s 1641 1046 m 1 Y s 3 lw 1641 1041 m21
 6 lw 1646 1046 m 1 Y s 1646 1059 m 1 Y s 3 lw 1646 1053 m21 6 lw 1651 1062 m 1 Y s 1651 1075 m 1 Y s 3 lw 1651 1069 m21 6 lw 1655 1031 m 1 Y s 1655 1044 m 1 Y s 3 lw 1655 1038 m21 6 lw 1660 1048 m 2 Y s 1660 1061 m 1 Y s 3 lw 1660 1055 m21 6 lw 1665
 1038 m 1 Y s 1665 1050 m 1 Y s 3 lw 1665 1044 m21 6 lw 1669 1040 m 2 Y s 1669 1053 m 1 Y s 3 lw 1669 1047 m21 6 lw 1674 1037 m 1 Y s 1674 1049 m 2 Y s 3 lw 1674 1044 m21 6 lw 1679 1028 m 1 Y s 1679 1040 m 2 Y s 3 lw 1679 1035 m21 6 lw 1684 1038 m 1
 Y s 1684 1051 m 1 Y s 3 lw 1684 1045 m21 6 lw 1688 1047 m 1 Y s 1688 1060 m 1 Y s 3 lw 1688 1054 m21 6 lw 1693 1038 m 2 Y s 1693 1051 m 2 Y s 3 lw 1693 1046 m21 6 lw 1698 1045 m 1 Y s 1698 1058 m 1 Y s 3 lw 1698 1052 m21 6 lw 1702 1038 m 2 Y s 1702
 1051 m 2 Y s 3 lw 1702 1045 m21 6 lw 1707 1027 m 2 Y s 1707 1040 m 2 Y s 3 lw 1707 1034 m21 6 lw 1712 1033 m 2 Y s 1712 1046 m 2 Y s 3 lw 1712 1041 m21 6 lw 1717 1049 m 1 Y s 1717 1062 m 1 Y s 3 lw 1717 1056 m21 6 lw 1721 1046 m 2 Y s 1721 1059 m 2
 Y s 3 lw 1721 1054 m21 6 lw 1726 1046 m 2 Y s 1726 1059 m 2 Y s 3 lw 1726 1053 m21 6 lw 1731 1055 m 2 Y s 1731 1068 m 2 Y s 3 lw 1731 1063 m21 6 lw 1735 1045 m 2 Y s 1735 1058 m 2 Y s 3 lw 1735 1052 m21 6 lw 1740 1031 m 2 Y s 1740 1045 m 1 Y s 3 lw
 1740 1039 m21 6 lw 1745 1037 m 2 Y s 1745 1051 m 1 Y s 3 lw 1745 1045 m21 6 lw 1749 1047 m 2 Y s 1749 1061 m 2 Y s 3 lw 1749 1055 m21 6 lw 1754 1046 m 2 Y s 1754 1059 m 2 Y s 3 lw 1754 1053 m21 6 lw 1759 1038 m 2 Y s 1759 1051 m 2 Y s 3 lw 1759 1045
 m21 6 lw 1764 1032 m 2 Y s 1764 1045 m 2 Y s 3 lw 1764 1040 m21 6 lw 1768 1032 m 2 Y s 1768 1046 m 2 Y s 3 lw 1768 1040 m21 6 lw 1773 1030 m 2 Y s 1773 1044 m 2 Y s 3 lw 1773 1038 m21 6 lw 1778 1043 m 2 Y s 1778 1056 m 3 Y s 3 lw 1778 1051 m21 6 lw
 1782 1028 m 2 Y s 1782 1042 m 2 Y s 3 lw 1782 1036 m21 6 lw 1787 1050 m 2 Y s 1787 1064 m 2 Y s 3 lw 1787 1058 m21 6 lw 1792 1048 m 2 Y s 1792 1062 m 2 Y s 3 lw 1792 1056 m21 6 lw 1797 1047 m 2 Y s 1797 1060 m 3 Y s 3 lw 1797 1055 m21 6 lw 1801 1029
 m 2 Y s 1801 1043 m 2 Y s 3 lw 1801 1037 m21 6 lw 1806 1043 m 3 Y s 1806 1057 m 2 Y s 3 lw 1806 1051 m21 6 lw 1811 1043 m 2 Y s 1811 1056 m 3 Y s 3 lw 1811 1051 m21 6 lw 1815 1047 m 3 Y s 1815 1061 m 2 Y s 3 lw 1815 1055 m21 6 lw 1820 1041 m 3 Y s
 1820 1055 m 2 Y s 3 lw 1820 1049 m21 6 lw 1825 1031 m 2 Y s 1825 1044 m 3 Y s 3 lw 1825 1039 m21 6 lw 1829 1043 m 2 Y s 1829 1056 m 3 Y s 3 lw 1829 1051 m21 6 lw 1834 1052 m 2 Y s 1834 1066 m 2 Y s 3 lw 1834 1060 m21 6 lw 1839 1040 m 2 Y s 1839 1054
 m 2 Y s 3 lw 1839 1048 m21 6 lw 1844 1033 m 2 Y s 1844 1047 m 2 Y s 3 lw 1844 1041 m21 6 lw 1848 1027 m 2 Y s 1848 1040 m 3 Y s 3 lw 1848 1035 m21 6 lw 1853 1051 m 3 Y s 1853 1065 m 3 Y s 3 lw 1853 1060 m21 6 lw 1858 1037 m 2 Y s 1858 1051 m 2 Y s 3
 lw 1858 1045 m21 6 lw 1862 1040 m 3 Y s 1862 1054 m 3 Y s 3 lw 1862 1048 m21 6 lw 1867 1047 m 3 Y s 1867 1061 m 3 Y s 3 lw 1867 1055 m21 6 lw 1872 1043 m 3 Y s 1872 1057 m 3 Y s 3 lw 1872 1051 m21 6 lw 1877 1027 m 2 Y s 1877 1041 m 3 Y s 3 lw 1877
 1035 m21 6 lw 1881 1051 m 3 Y s 1881 1065 m 3 Y s 3 lw 1881 1059 m21 6 lw 1886 1046 m 3 Y s 1886 1060 m 3 Y s 3 lw 1886 1054 m21 6 lw 1891 1043 m 3 Y s 1891 1057 m 3 Y s 3 lw 1891 1051 m21 6 lw 1895 1042 m 3 Y s 1895 1056 m 3 Y s 3 lw 1895 1050 m21
 6 lw 1900 1039 m 3 Y s 1900 1054 m 3 Y s 3 lw 1900 1048 m21 6 lw 1905 1048 m 3 Y s 1905 1063 m 3 Y s 3 lw 1905 1057 m21 6 lw 1909 1051 m 3 Y s 1909 1065 m 3 Y s 3 lw 1909 1060 m21 6 lw 1914 1050 m 3 Y s 1914 1065 m 3 Y s 3 lw 1914 1059 m21 6 lw 1919
 1044 m 4 Y s 1919 1059 m 3 Y s 3 lw 1919 1053 m21 6 lw 1924 1039 m 3 Y s 1924 1054 m 3 Y s 3 lw 1924 1048 m21 6 lw 1928 1042 m 3 Y s 1928 1057 m 3 Y s 3 lw 1928 1051 m21 6 lw 1933 1040 m 3 Y s 1933 1055 m 3 Y s 3 lw 1933 1049 m21 6 lw 1938 1047 m 4
 Y s 1938 1062 m 3 Y s 3 lw 1938 1056 m21 6 lw 1942 1047 m 4 Y s 1942 1062 m 3 Y s 3 lw 1942 1056 m21 6 lw 1947 1052 m 3 Y s 1947 1067 m 3 Y s 3 lw 1947 1061 m21 6 lw 1952 1043 m 3 Y s 1952 1058 m 3 Y s 3 lw 1952 1052 m21 6 lw 1957 1045 m 4 Y s 1957
 1060 m 4 Y s 3 lw 1957 1055 m21 6 lw 1961 1045 m 4 Y s 1961 1060 m 4 Y s 3 lw 1961 1054 m21 6 lw 1966 1044 m 3 Y s 1966 1059 m 3 Y s 3 lw 1966 1053 m21 6 lw 1971 1047 m 3 Y s 1971 1062 m 4 Y s 3 lw 1971 1056 m21 6 lw 1975 1027 m 3 Y s 1975 1042 m 3
 Y s 3 lw 1975 1036 m21 6 lw 1980 1043 m 4 Y s 1980 1058 m 4 Y s 3 lw 1980 1053 m21 6 lw 1985 1046 m 4 Y s 1985 1062 m 3 Y s 3 lw 1985 1056 m21 6 lw 1989 1045 m 4 Y s 1989 1060 m 4 Y s 3 lw 1989 1055 m21 6 lw 1994 1048 m 4 Y s 1994 1063 m 4 Y s 3 lw
 1994 1058 m21 6 lw 1999 1051 m 4 Y s 1999 1066 m 4 Y s 3 lw 1999 1060 m21 6 lw 2004 1041 m 4 Y s 2004 1057 m 4 Y s 3 lw 2004 1051 m21 6 lw 2008 1040 m 4 Y s 2008 1055 m 4 Y s 3 lw 2008 1049 m21 6 lw 2013 1032 m 5 Y s 2013 1048 m 4 Y s 3 lw 2013 1042
 m21 6 lw 2018 1040 m 5 Y s 2018 1056 m 4 Y s 3 lw 2018 1050 m21 6 lw 2022 1060 m 4 Y s 2022 1076 m 4 Y s 3 lw 2022 1070 m21 6 lw 2027 1029 m 5 Y s 2027 1045 m 4 Y s 3 lw 2027 1039 m21 6 lw 2032 1044 m 4 Y s 2032 1060 m 4 Y s 3 lw 2032 1054 m21 6 lw
 2036 1027 m 5 Y s 2036 1043 m 4 Y s 3 lw 2036 1037 m21 6 lw 2041 1047 m 4 Y s 2041 1063 m 4 Y s 3 lw 2041 1057 m21 6 lw 2046 1040 m 4 Y s 2046 1055 m 5 Y s 3 lw 2046 1050 m21 6 lw 2051 1040 m 4 Y s 2051 1056 m 4 Y s 3 lw 2051 1050 m21 6 lw 2055 1051
 m 5 Y s 2055 1067 m 5 Y s 3 lw 2055 1062 m21 6 lw 2060 1019 m 4 Y s 2060 1035 m 4 Y s 3 lw 2060 1029 m21 6 lw 2065 1055 m 5 Y s 2065 1072 m 4 Y s 3 lw 2065 1066 m21 6 lw 2069 1048 m 4 Y s 2069 1064 m 5 Y s 3 lw 2069 1058 m21 6 lw 2074 1049 m 4 Y s
 2074 1065 m 5 Y s 3 lw 2074 1059 m21 6 lw 2079 1043 m 5 Y s 2079 1059 m 5 Y s 3 lw 2079 1053 m21 6 lw 2084 1031 m 5 Y s 2084 1047 m 5 Y s 3 lw 2084 1042 m21 6 lw 2088 1030 m 4 Y s 2088 1046 m 5 Y s 3 lw 2088 1040 m21 6 lw 2093 1033 m 5 Y s 2093 1049
 m 5 Y s 3 lw 2093 1044 m21 6 lw 2098 1051 m 5 Y s 2098 1068 m 5 Y s 3 lw 2098 1062 m21 6 lw 2102 1036 m 5 Y s 2102 1052 m 5 Y s 3 lw 2102 1047 m21 6 lw 2107 1038 m 5 Y s 2107 1055 m 5 Y s 3 lw 2107 1049 m21 6 lw 2112 1035 m 5 Y s 2112 1052 m 5 Y s 3
 lw 2112 1046 m21 6 lw 2116 1041 m 6 Y s 2116 1058 m 5 Y s 3 lw 2116 1052 m21 6 lw 2121 1058 m 6 Y s 2121 1075 m 5 Y s 3 lw 2121 1069 m21 6 lw 2126 1036 m 5 Y s 2126 1052 m 5 Y s 3 lw 2126 1047 m21 6 lw 2131 1039 m 5 Y s 2131 1055 m 6 Y s 3 lw 2131
 1050 m21 6 lw 2135 1041 m 6 Y s 2135 1058 m 6 Y s 3 lw 2135 1052 m21 6 lw 2140 1046 m 5 Y s 2140 1063 m 5 Y s 3 lw 2140 1057 m21 6 lw 2145 1047 m 5 Y s 2145 1063 m 6 Y s 3 lw 2145 1058 m21 6 lw 2149 1052 m 6 Y s 2149 1069 m 6 Y s 3 lw 2149 1064 m21
 6 lw 2154 1044 m 6 Y s 2154 1061 m 6 Y s 3 lw 2154 1055 m21 6 lw 2159 1053 m 6 Y s 2159 1071 m 5 Y s 3 lw 2159 1065 m21 6 lw 2164 1052 m 6 Y s 2164 1069 m 6 Y s 3 lw 2164 1063 m21 6 lw 2168 1059 m 6 Y s 2168 1076 m 6 Y s 3 lw 2168 1071 m21 6 lw 2173
 1036 m 6 Y s 2173 1053 m 6 Y s 3 lw 2173 1048 m21 6 lw 2178 1048 m 6 Y s 2178 1066 m 5 Y s 3 lw 2178 1060 m21 6 lw 2182 1073 m 6 Y s 2182 1090 m 7 Y s 3 lw 2182 1085 m21 6 lw 2187 1051 m 6 Y s 2187 1069 m 6 Y s 3 lw 2187 1063 m21 6 lw 2192 1050 m 6
 Y s 2192 1068 m 6 Y s 3 lw 2192 1062 m21 6 lw 2196 1064 m 7 Y s 2196 1082 m 6 Y s 3 lw 2196 1076 m21 6 lw 2201 1049 m 6 Y s 2201 1066 m 6 Y s 3 lw 2201 1060 m21 6 lw 2206 1084 m 6 Y s 2206 1101 m 7 Y s 3 lw 2206 1096 m21 6 lw 2211 1041 m 7 Y s 2211
 1059 m 6 Y s 3 lw 2211 1053 m21 6 lw 2215 1049 m 6 Y s 2215 1066 m 7 Y s 3 lw 2215 1061 m21 6 lw 2220 1068 m 6 Y s 2220 1086 m 6 Y s 3 lw 2220 1080 m21 6 lw black 340 223 m 1882 X s
 gsave  2268 2234 0 0 C 1923.86 58.2559 t 0 r /Helvetica findfont 83.8316 sf 0 0 m (Q [GeV]) show NC gr  340 279 m -56 Y s 387 251 m -28 Y s 434 251 m -28 Y s 481 251 m -28 Y s 528 279 m -56 Y s 575 251 m -28 Y s 622 251 m -28 Y s 670 251 m -28 Y s
 717 279 m -56 Y s 764 251 m -28 Y s 811 251 m -28 Y s 858 251 m -28 Y s 905 279 m -56 Y s 952 251 m -28 Y s 999 251 m -28 Y s 1046 251 m -28 Y s 1093 279 m -56 Y s 1140 251 m -28 Y s 1187 251 m -28 Y s 1234 251 m -28 Y s 1281 279 m -56 Y s 1328 251
 m -28 Y s 1375 251 m -28 Y s 1422 251 m -28 Y s 1469 279 m -56 Y s 1517 251 m -28 Y s 1564 251 m -28 Y s 1611 251 m -28 Y s 1658 279 m -56 Y s 1705 251 m -28 Y s 1752 251 m -28 Y s 1799 251 m -28 Y s 1846 279 m -56 Y s 1893 251 m -28 Y s 1940 251 m
 -28 Y s 1987 251 m -28 Y s 2034 279 m -56 Y s 2081 251 m -28 Y s 2128 251 m -28 Y s 2175 251 m -28 Y s 2222 279 m -56 Y s
 gsave  2268 2234 0 0 C 322.539 159.138 t 0 r /Helvetica findfont 62.5185 sf 0 0 m (0) show NC gr 
 gsave  2268 2234 0 0 C 484.518 159.138 t 0 r /Helvetica findfont 62.5185 sf 0 0 m (0.2) show NC gr 
 gsave  2268 2234 0 0 C 673.495 159.138 t 0 r /Helvetica findfont 62.5185 sf 0 0 m (0.4) show NC gr 
 gsave  2268 2234 0 0 C 861.05 159.138 t 0 r /Helvetica findfont 62.5185 sf 0 0 m (0.6) show NC gr 
 gsave  2268 2234 0 0 C 1050.03 159.138 t 0 r /Helvetica findfont 62.5185 sf 0 0 m (0.8) show NC gr 
 gsave  2268 2234 0 0 C 1268.84 159.138 t 0 r /Helvetica findfont 62.5185 sf 0 0 m (1) show NC gr 
 gsave  2268 2234 0 0 C 1426.56 159.138 t 0 r /Helvetica findfont 62.5185 sf 0 0 m (1.2) show NC gr 
 gsave  2268 2234 0 0 C 1614.11 159.138 t 0 r /Helvetica findfont 62.5185 sf 0 0 m (1.4) show NC gr 
 gsave  2268 2234 0 0 C 1803.09 159.138 t 0 r /Helvetica findfont 62.5185 sf 0 0 m (1.6) show NC gr 
 gsave  2268 2234 0 0 C 1990.65 159.138 t 0 r /Helvetica findfont 62.5185 sf 0 0 m (1.8) show NC gr 
 gsave  2268 2234 0 0 C 2205.2 159.138 t 0 r /Helvetica findfont 62.5185 sf 0 0 m (2) show NC gr  340 223 m 1966 Y s
 gsave  2268 2234 0 0 C 147.771 1547.33 t 90 r /Helvetica findfont 83.8316 sf 0 0 m (\(Q\) / \(0.005 GeV\)) show NC gr 
 gsave  2268 2234 0 0 C 174.768 1518.92 t 90 r /Helvetica findfont 55.4141 sf 0 0 m (2) show NC gr 
 gsave  2268 2234 0 0 C 147.771 1437.93 t 90 r /Helvetica findfont 83.8316 sf 0 0 m ( C) show NC gr  400 402 m -60 X s 370 491 m -30 X s 370 581 m -30 X s 370 670 m -30 X s 400 759 m -60 X s 370 849 m -30 X s 370 938 m -30 X s 370 1027 m -30 X s 400
 1117 m -60 X s 370 1206 m -30 X s 370 1295 m -30 X s 370 1385 m -30 X s 400 1474 m -60 X s 370 1564 m -30 X s 370 1653 m -30 X s 370 1742 m -30 X s 400 1832 m -60 X s 370 1921 m -30 X s 370 2010 m -30 X s 370 2100 m -30 X s 400 2189 m -60 X s 400
 402 m -60 X s 370 313 m -30 X s 370 223 m -30 X s
 gsave  2268 2234 0 0 C 242.97 379.374 t 0 r /Helvetica findfont 62.5185 sf 0 0 m (0.6) show NC gr 
 gsave  2268 2234 0 0 C 242.97 737.434 t 0 r /Helvetica findfont 62.5185 sf 0 0 m (0.8) show NC gr 
 gsave  2268 2234 0 0 C 305.488 1092.65 t 0 r /Helvetica findfont 62.5185 sf 0 0 m (1) show NC gr 
 gsave  2268 2234 0 0 C 242.97 1450.71 t 0 r /Helvetica findfont 62.5185 sf 0 0 m (1.2) show NC gr 
 gsave  2268 2234 0 0 C 242.97 1808.77 t 0 r /Helvetica findfont 62.5185 sf 0 0 m (1.4) show NC gr 
 gsave  2268 2234 0 0 C 242.97 2166.83 t 0 r /Helvetica findfont 62.5185 sf 0 0 m (1.6) show NC gr 
 gsave  2268 2234 0 0 C 906.518 670.653 t 0 r /Helvetica-Bold findfont 72.4646 sf 0 0 m (MC PIONS) show NC gr 
 gsave  2268 2234 0 0 C 906.518 558.404 t 0 r /Helvetica-Bold findfont 72.4646 sf 0 0 m (ref. sample: EVENT MIX) show NC gr 
 gsave  2268 2234 0 0 C 906.518 447.576 t 0 r /Helvetica-Bold findfont 72.4646 sf 0 0 m (VELO tracks multiplicity: 11 \255 20) show NC gr 
 gr  gr showpage
end
%%EOF
