%!PS-Adobe-2.0 EPSF-2.0
%%BoundingBox:  0 0 567 558
%%Title: ./MC_pion_0c65_h3101_1_h3401_1.eps: MC_pion_0c65_h3101_1_h3401_1
%%Creator: ROOT Version 6.06/02
%%CreationDate: Wed Feb  1 16:20:57 2017
%%DocumentNeededResources: ProcSet (FontSetInit)
%%EndComments
%%BeginProlog
80 dict begin
/s {stroke} def /l {lineto} def /m {moveto} def /t {translate} def
/r {rotate} def /rl {roll}  def /R {repeat} def
/d {rlineto} def /rm {rmoveto} def /gr {grestore} def /f {eofill} def
/c {setrgbcolor} def /black {0 setgray} def /sd {setdash} def
/cl {closepath} def /sf {scalefont setfont} def /lw {setlinewidth} def
/box {m dup 0 exch d exch 0 d 0 exch neg d cl} def
/NC{systemdict begin initclip end}def/C{NC box clip newpath}def
/bl {box s} def /bf {gsave box gsave f grestore 1 lw [] 0 sd s grestore} def /Y { 0 exch d} def /X { 0 d} def 
/K {{pop pop 0 moveto} exch kshow} bind def
/ita {/ang 15 def gsave [1 0 ang dup sin exch cos div 1 0 0] concat} def 
/mp {newpath /y exch def /x exch def} def
/side {[w .77 mul w .23 mul] .385 w mul sd w 0 l currentpoint t -144 r} def
/mr {mp x y w2 0 360 arc} def /m24 {mr s} def /m20 {mr f} def
/mb {mp x y w2 add m w2 neg 0 d 0 w neg d w 0 d 0 w d cl} def
/mt {mp x y w2 add m w2 neg w neg d w 0 d cl} def
/m21 {mb f} def /m25 {mb s} def /m22 {mt f} def /m26{mt s} def
/m23 {mp x y w2 sub m w2 w d w neg 0 d cl f} def
/m27 {mp x y w2 add m w3 neg w2 neg d w3 w2 neg d w3 w2 d cl s} def
/m28 {mp x w2 sub y w2 sub w3 add m w3 0 d  0 w3 neg d w3 0 d 0 w3 d w3 0 d  0 w3 d w3 neg 0 d 0 w3 d w3 neg 0 d 0 w3 neg d w3 neg 0 d cl s } def
/m29 {mp gsave x w2 sub y w2 add w3 sub m currentpoint t 4 {side} repeat cl fill gr} def
/m30 {mp gsave x w2 sub y w2 add w3 sub m currentpoint t 4 {side} repeat cl s gr} def
/m31 {mp x y w2 sub m 0 w d x w2 sub y m w 0 d x w2 sub y w2 add m w w neg d x w2 sub y w2 sub m w w d s} def
/m32 {mp x y w2 sub m w2 w d w neg 0 d cl s} def
/m33 {mp x y w2 add m w3 neg w2 neg d w3 w2 neg d w3 w2 d cl f} def
/m34 {mp x w2 sub y w2 sub w3 add m w3 0 d  0 w3 neg d w3 0 d 0 w3 d w3 0 d  0 w3 d w3 neg 0 d 0 w3 d w3 neg 0 d 0 w3 neg d w3 neg 0 d cl f } def
/m2 {mp x y w2 sub m 0 w d x w2 sub y m w 0 d s} def
/m5 {mp x w2 sub y w2 sub m w w d x w2 sub y w2 add m w w neg d s} def
%%IncludeResource: ProcSet (FontSetInit)
%%IncludeResource: font Times-Roman
%%IncludeResource: font Times-Italic
%%IncludeResource: font Times-Bold
%%IncludeResource: font Times-BoldItalic
%%IncludeResource: font Helvetica
%%IncludeResource: font Helvetica-Oblique
%%IncludeResource: font Helvetica-Bold
%%IncludeResource: font Helvetica-BoldOblique
%%IncludeResource: font Courier
%%IncludeResource: font Courier-Oblique
%%IncludeResource: font Courier-Bold
%%IncludeResource: font Courier-BoldOblique
%%IncludeResource: font Symbol
%%IncludeResource: font ZapfDingbats
/reEncode {exch findfont dup length dict begin {1 index /FID eq  {pop pop} {def} ifelse } forall /Encoding exch def currentdict end dup /FontName get exch definefont pop } def [/Times-Bold /Times-Italic /Times-BoldItalic /Helvetica /Helvetica-Oblique
 /Helvetica-Bold /Helvetica-BoldOblique /Courier /Courier-Oblique /Courier-Bold /Courier-BoldOblique /Times-Roman /AvantGarde-Book /AvantGarde-BookOblique /AvantGarde-Demi /AvantGarde-DemiOblique /Bookman-Demi /Bookman-DemiItalic /Bookman-Light
 /Bookman-LightItalic /Helvetica-Narrow /Helvetica-Narrow-Bold /Helvetica-Narrow-BoldOblique /Helvetica-Narrow-Oblique /NewCenturySchlbk-Roman /NewCenturySchlbk-Bold /NewCenturySchlbk-BoldItalic /NewCenturySchlbk-Italic /Palatino-Bold
 /Palatino-BoldItalic /Palatino-Italic /Palatino-Roman ] {ISOLatin1Encoding reEncode } forall
%%EndProlog
%%BeginSetup
%%EndSetup
newpath  gsave  .25 .25 scale  gsave  0 0 t black[  ] 0 sd 6 lw 1 1 1 c 2268 2234 0 0 bf black 3 lw 1 1 1 c 1882 1966 340 223 bf black 1882 1966 340 223 bl 1 1 1 c 1882 1966 340 223 bf black 1882 1966 340 223 bl 0 0 1 c 6 lw 1 1 1 c 0 0 1 c 390 925 m
 12 Y s 390 949 m 12 Y s 3 lw /w 14 def /w2 {w 2 div} def /w3 {w 3 div} def 390 943 m21 6 lw 394 969 m 11 Y s 394 992 m 11 Y s 3 lw 394 986 m21 6 lw 399 954 m 10 Y s 399 976 m 9 Y s 3 lw 399 970 m21 6 lw 404 992 m 9 Y s 404 1012 m 9 Y s 3 lw 404 1006
 m21 6 lw 408 1014 m 8 Y s 408 1034 m 8 Y s 3 lw 408 1028 m21 6 lw 413 947 m 7 Y s 413 966 m 7 Y s 3 lw 413 960 m21 6 lw 418 1027 m 7 Y s 418 1046 m 7 Y s 3 lw 418 1040 m21 6 lw 423 1016 m 6 Y s 423 1034 m 6 Y s 3 lw 423 1028 m21 6 lw 427 1007 m 6 Y
 s 427 1024 m 6 Y s 3 lw 427 1019 m21 6 lw 432 1019 m 5 Y s 432 1036 m 5 Y s 3 lw 432 1030 m21 6 lw 437 1054 m 5 Y s 437 1070 m 5 Y s 3 lw 437 1064 m21 6 lw 441 1038 m 5 Y s 441 1054 m 5 Y s 3 lw 441 1048 m21 6 lw 446 1028 m 4 Y s 446 1043 m 4 Y s 3
 lw 446 1037 m21 6 lw 451 1061 m 4 Y s 451 1076 m 4 Y s 3 lw 451 1070 m21 6 lw 455 1055 m 4 Y s 455 1070 m 4 Y s 3 lw 455 1065 m21 6 lw 460 1067 m 4 Y s 460 1082 m 3 Y s 3 lw 460 1076 m21 6 lw 465 1088 m 3 Y s 465 1102 m 4 Y s 3 lw 465 1097 m21 6 lw
 470 1086 m 3 Y s 470 1100 m 3 Y s 3 lw 470 1094 m21 6 lw 474 1094 m 3 Y s 474 1109 m 2 Y s 3 lw 474 1103 m21 6 lw 479 1108 m 2 Y s 479 1122 m 2 Y s 3 lw 479 1116 m21 6 lw 484 1122 m 2 Y s 484 1136 m 2 Y s 3 lw 484 1130 m21 6 lw 488 1107 m 3 Y s 488
 1121 m 3 Y s 3 lw 488 1116 m21 6 lw 493 1120 m 2 Y s 493 1133 m 3 Y s 3 lw 493 1128 m21 6 lw 498 1135 m 3 Y s 498 1149 m 2 Y s 3 lw 498 1143 m21 6 lw 502 1138 m 2 Y s 502 1152 m 2 Y s 3 lw 502 1146 m21 6 lw 507 1136 m 2 Y s 507 1150 m 1 Y s 3 lw 507
 1144 m21 6 lw 512 1140 m 2 Y s 512 1153 m 2 Y s 3 lw 512 1147 m21 6 lw 517 1144 m 1 Y s 517 1157 m 1 Y s 3 lw 517 1151 m21 6 lw 521 1150 m 2 Y s 521 1163 m 2 Y s 3 lw 521 1158 m21 6 lw 526 1162 m 1 Y s 526 1175 m 1 Y s 3 lw 526 1169 m21 6 lw 531
 1167 m 1 Y s 531 1180 m 1 Y s 3 lw 531 1174 m21 6 lw 535 1184 m 1 Y s 535 1197 m 1 Y s 3 lw 535 1191 m21 6 lw 540 1170 m 2 Y s 540 1183 m 1 Y s 3 lw 540 1177 m21 6 lw 545 1189 m 1 Y s 545 1201 m 2 Y s 3 lw 545 1196 m21 6 lw 550 1183 m 1 Y s 550 1195
 m 1 Y s 3 lw 550 1190 m21 6 lw 554 1196 m 1 Y s 554 1209 m 1 Y s 3 lw 554 1203 m21 6 lw 559 1206 m 1 Y s 559 1218 m 1 Y s 3 lw 559 1212 m21 6 lw 564 1210 m 1 Y s 564 1223 m 1 Y s 3 lw 564 1217 m21 6 lw 568 1220 m 1 Y s 568 1232 m 1 Y s 3 lw 568 1227
 m21 6 lw 573 1228 m 1 Y s 573 1241 m 1 Y s 3 lw 573 1235 m21 6 lw 578 1236 m 1 Y s 578 1248 m 1 Y s 3 lw 578 1243 m21 6 lw 582 1226 m 1 Y s 582 1238 m 1 Y s 3 lw 582 1232 m21 6 lw 587 1221 m 1 Y s 587 1233 m 1 Y s 3 lw 587 1228 m21 6 lw 592 1221 m s
 592 1233 m s 3 lw 592 1227 m21 6 lw 597 1233 m s 597 1245 m s 3 lw 597 1239 m21 6 lw 601 1237 m 1 Y s 601 1249 m 1 Y s 3 lw 601 1243 m21 6 lw 606 1235 m s 606 1247 m s 3 lw 606 1241 m21 6 lw 611 1214 m s 611 1225 m 1 Y s 3 lw 611 1220 m21 6 lw 615
 1223 m 1 Y s 615 1235 m 1 Y s 3 lw 615 1230 m21 6 lw 620 1200 m s 620 1212 m s 3 lw 620 1206 m21 6 lw 625 1188 m s 625 1199 m 1 Y s 3 lw 625 1194 m21 6 lw 630 1162 m s 630 1173 m s 3 lw 630 1167 m21 6 lw 634 1169 m s 634 1180 m s 3 lw 634 1174 m21 6
 lw 3 lw 639 1157 m21 6 lw 3 lw 644 1160 m21 6 lw 3 lw 648 1162 m21 6 lw 3 lw 653 1171 m21 6 lw 3 lw 658 1189 m21 6 lw 3 lw 662 1169 m21 6 lw 3 lw 667 1183 m21 6 lw 3 lw 672 1176 m21 6 lw 3 lw 677 1182 m21 6 lw 3 lw 681 1183 m21 6 lw 3 lw 686 1180
 m21 6 lw 3 lw 691 1187 m21 6 lw 3 lw 695 1178 m21 6 lw 3 lw 700 1187 m21 6 lw 3 lw 705 1184 m21 6 lw 3 lw 710 1175 m21 6 lw 3 lw 714 1188 m21 6 lw 3 lw 719 1184 m21 6 lw 3 lw 724 1192 m21 6 lw 3 lw 728 1199 m21 6 lw 3 lw 733 1179 m21 6 lw 3 lw 738
 1183 m21 6 lw 3 lw 742 1176 m21 6 lw 3 lw 747 1177 m21 6 lw 3 lw 752 1165 m21 6 lw 3 lw 757 1173 m21 6 lw 3 lw 761 1164 m21 6 lw 3 lw 766 1168 m21 6 lw 3 lw 771 1161 m21 6 lw 3 lw 775 1160 m21 6 lw 3 lw 780 1155 m21 6 lw 3 lw 785 1146 m21 6 lw 3 lw
 790 1139 m21 6 lw 3 lw 794 1145 m21 6 lw 3 lw 799 1135 m21 6 lw 3 lw 804 1132 m21 6 lw 3 lw 808 1134 m21 6 lw 3 lw 813 1126 m21 6 lw 3 lw 818 1120 m21 6 lw 3 lw 822 1120 m21 6 lw 3 lw 827 1121 m21 6 lw 3 lw 832 1115 m21 6 lw 3 lw 837 1091 m21 6 lw 3
 lw 841 1098 m21 6 lw 3 lw 846 1103 m21 6 lw 3 lw 851 1095 m21 6 lw 3 lw 855 1083 m21 6 lw 3 lw 860 1079 m21 6 lw 3 lw 865 1084 m21 6 lw 3 lw 870 1080 m21 6 lw 3 lw 874 1075 m21 6 lw 3 lw 879 1072 m21 6 lw 3 lw 884 1071 m21 6 lw 3 lw 888 1079 m21 6
 lw 3 lw 893 1087 m21 6 lw 3 lw 898 1078 m21 6 lw 3 lw 902 1089 m21 6 lw 3 lw 907 1084 m21 6 lw 3 lw 912 1098 m21 6 lw 3 lw 917 1094 m21 6 lw 3 lw 921 1114 m21 6 lw 3 lw 926 1108 m21 6 lw 3 lw 931 1105 m21 6 lw 3 lw 935 1127 m21 6 lw 3 lw 940 1140
 m21 6 lw 3 lw 945 1145 m21 6 lw 3 lw 950 1156 m21 6 lw 3 lw 954 1164 m21 6 lw 3 lw 959 1176 m21 6 lw 3 lw 964 1181 m21 6 lw 3 lw 968 1202 m21 6 lw 3 lw 973 1222 m21 6 lw 3 lw 978 1221 m21 6 lw 3 lw 982 1243 m21 6 lw 3 lw 987 1253 m21 6 lw 3 lw 992
 1266 m21 6 lw 3 lw 997 1271 m21 6 lw 3 lw 1001 1288 m21 6 lw 3 lw 1006 1282 m21 6 lw 3 lw 1011 1290 m21 6 lw 3 lw 1015 1299 m21 6 lw 3 lw 1020 1312 m21 6 lw 3 lw 1025 1335 m21 6 lw 3 lw 1030 1325 m21 6 lw 3 lw 1034 1313 m21 6 lw 3 lw 1039 1290 m21 6
 lw 3 lw 1044 1279 m21 6 lw 3 lw 1048 1270 m21 6 lw 3 lw 1053 1249 m21 6 lw 3 lw 1058 1238 m21 6 lw 3 lw 1062 1229 m21 6 lw 3 lw 1067 1219 m21 6 lw 3 lw 1072 1201 m21 6 lw 3 lw 1077 1206 m21 6 lw 3 lw 1081 1192 m21 6 lw 3 lw 1086 1186 m21 6 lw 3 lw
 1091 1180 m21 6 lw 3 lw 1095 1161 m21 6 lw 3 lw 1100 1165 m21 6 lw 3 lw 1105 1152 m21 6 lw 3 lw 1110 1149 m21 6 lw 3 lw 1114 1142 m21 6 lw 3 lw 1119 1132 m21 6 lw 3 lw 1124 1134 m21 6 lw 3 lw 1128 1122 m21 6 lw 3 lw 1133 1123 m21 6 lw 3 lw 1138 1111
 m21 6 lw 3 lw 1142 1111 m21 6 lw 3 lw 1147 1104 m21 6 lw 3 lw 1152 1098 m21 6 lw 3 lw 1157 1087 m21 6 lw 3 lw 1161 1096 m21 6 lw 3 lw 1166 1098 m21 6 lw 3 lw 1171 1091 m21 6 lw 3 lw 1175 1075 m21 6 lw 3 lw 1180 1077 m21 6 lw 3 lw 1185 1075 m21 6 lw
 1190 1071 m s 1190 1083 m s 3 lw 1190 1077 m21 6 lw 1194 1066 m s 1194 1078 m s 3 lw 1194 1072 m21 6 lw 1199 1059 m s 1199 1070 m s 3 lw 1199 1065 m21 6 lw 1204 1062 m s 1204 1073 m s 3 lw 1204 1067 m21 6 lw 1208 1049 m s 1208 1060 m s 3 lw 1208
 1055 m21 6 lw 1213 1058 m s 1213 1070 m s 3 lw 1213 1064 m21 6 lw 1218 1064 m s 1218 1076 m s 3 lw 1218 1070 m21 6 lw 1222 1057 m s 1222 1069 m s 3 lw 1222 1063 m21 6 lw 1227 1038 m s 1227 1049 m s 3 lw 1227 1044 m21 6 lw 1232 1051 m s 1232 1062 m 1
 Y s 3 lw 1232 1057 m21 6 lw 1237 1049 m s 1237 1061 m s 3 lw 1237 1055 m21 6 lw 1241 1046 m s 1241 1057 m 1 Y s 3 lw 1241 1052 m21 6 lw 1246 1049 m 1 Y s 1246 1061 m s 3 lw 1246 1055 m21 6 lw 1251 1042 m 1 Y s 1251 1054 m s 3 lw 1251 1048 m21 6 lw
 1255 1028 m 1 Y s 1255 1040 m s 3 lw 1255 1034 m21 6 lw 1260 1040 m s 1260 1052 m s 3 lw 1260 1046 m21 6 lw 1265 1039 m 1 Y s 1265 1051 m s 3 lw 1265 1045 m21 6 lw 1269 1048 m 1 Y s 1269 1060 m 1 Y s 3 lw 1269 1055 m21 6 lw 1274 1041 m 1 Y s 1274
 1053 m s 3 lw 1274 1047 m21 6 lw 1279 1031 m s 1279 1043 m s 3 lw 1279 1037 m21 6 lw 1284 1032 m 1 Y s 1284 1044 m 1 Y s 3 lw 1284 1038 m21 6 lw 1288 1029 m s 1288 1041 m s 3 lw 1288 1035 m21 6 lw 1293 1030 m 1 Y s 1293 1042 m 1 Y s 3 lw 1293 1037
 m21 6 lw 1298 1034 m 1 Y s 1298 1046 m 1 Y s 3 lw 1298 1041 m21 6 lw 1302 1035 m s 1302 1047 m s 3 lw 1302 1041 m21 6 lw 1307 1023 m s 1307 1035 m s 3 lw 1307 1029 m21 6 lw 1312 1022 m 1 Y s 1312 1034 m 1 Y s 3 lw 1312 1029 m21 6 lw 1317 1020 m 1 Y
 s 1317 1032 m 1 Y s 3 lw 1317 1026 m21 6 lw 1321 1042 m 1 Y s 1321 1054 m 1 Y s 3 lw 1321 1049 m21 6 lw 1326 1038 m 1 Y s 1326 1050 m 1 Y s 3 lw 1326 1044 m21 6 lw 1331 1024 m 1 Y s 1331 1036 m 1 Y s 3 lw 1331 1031 m21 6 lw 1335 1030 m 1 Y s 1335
 1043 m s 3 lw 1335 1037 m21 6 lw 1340 1028 m 1 Y s 1340 1041 m 1 Y s 3 lw 1340 1035 m21 6 lw 1345 1020 m 1 Y s 1345 1032 m 1 Y s 3 lw 1345 1026 m21 6 lw 1349 1018 m 1 Y s 1349 1030 m 1 Y s 3 lw 1349 1025 m21 6 lw 1354 1004 m 1 Y s 1354 1016 m 1 Y s
 3 lw 1354 1011 m21 6 lw 1359 1029 m 1 Y s 1359 1041 m 1 Y s 3 lw 1359 1035 m21 6 lw 1364 1024 m 1 Y s 1364 1036 m 1 Y s 3 lw 1364 1030 m21 6 lw 1368 1020 m 1 Y s 1368 1033 m 1 Y s 3 lw 1368 1027 m21 6 lw 1373 1027 m 1 Y s 1373 1039 m 1 Y s 3 lw 1373
 1033 m21 6 lw 1378 1020 m 1 Y s 1378 1032 m 1 Y s 3 lw 1378 1027 m21 6 lw 1382 1020 m 1 Y s 1382 1032 m 1 Y s 3 lw 1382 1027 m21 6 lw 1387 1022 m 1 Y s 1387 1035 m 1 Y s 3 lw 1387 1029 m21 6 lw 1392 1018 m 1 Y s 1392 1030 m 2 Y s 3 lw 1392 1025 m21
 6 lw 1397 1029 m 1 Y s 1397 1042 m 1 Y s 3 lw 1397 1036 m21 6 lw 1401 1005 m 1 Y s 1401 1018 m 1 Y s 3 lw 1401 1012 m21 6 lw 1406 1008 m 2 Y s 1406 1021 m 1 Y s 3 lw 1406 1015 m21 6 lw 1411 1012 m 1 Y s 1411 1024 m 2 Y s 3 lw 1411 1019 m21 6 lw 1415
 1013 m 1 Y s 1415 1026 m 1 Y s 3 lw 1415 1020 m21 6 lw 1420 1016 m 1 Y s 1420 1029 m 1 Y s 3 lw 1420 1023 m21 6 lw 1425 1016 m 2 Y s 1425 1029 m 1 Y s 3 lw 1425 1023 m21 6 lw 1429 1012 m 2 Y s 1429 1025 m 2 Y s 3 lw 1429 1019 m21 6 lw 1434 1030 m 2
 Y s 1434 1043 m 2 Y s 3 lw 1434 1037 m21 6 lw 1439 1009 m 2 Y s 1439 1022 m 2 Y s 3 lw 1439 1016 m21 6 lw 1444 1025 m 2 Y s 1444 1038 m 2 Y s 3 lw 1444 1032 m21 6 lw 1448 1020 m 1 Y s 1448 1033 m 1 Y s 3 lw 1448 1027 m21 6 lw 1453 1031 m 1 Y s 1453
 1044 m 1 Y s 3 lw 1453 1038 m21 6 lw 1458 1027 m 1 Y s 1458 1040 m 1 Y s 3 lw 1458 1034 m21 6 lw 1462 1026 m 1 Y s 1462 1039 m 2 Y s 3 lw 1462 1033 m21 6 lw 1467 1016 m 2 Y s 1467 1029 m 2 Y s 3 lw 1467 1023 m21 6 lw 1472 1026 m 2 Y s 1472 1039 m 2
 Y s 3 lw 1472 1033 m21 6 lw 1477 1024 m 1 Y s 1477 1037 m 2 Y s 3 lw 1477 1031 m21 6 lw 1481 1037 m 2 Y s 1481 1051 m 2 Y s 3 lw 1481 1045 m21 6 lw 1486 1023 m 2 Y s 1486 1036 m 2 Y s 3 lw 1486 1030 m21 6 lw 1491 1004 m 2 Y s 1491 1017 m 2 Y s 3 lw
 1491 1011 m21 6 lw 1495 1034 m 3 Y s 1495 1048 m 2 Y s 3 lw 1495 1042 m21 6 lw 1500 1031 m 2 Y s 1500 1044 m 2 Y s 3 lw 1500 1039 m21 6 lw 1505 1021 m 2 Y s 1505 1035 m 2 Y s 3 lw 1505 1029 m21 6 lw 1509 1028 m 2 Y s 1509 1041 m 3 Y s 3 lw 1509 1036
 m21 6 lw 1514 1031 m 3 Y s 1514 1045 m 2 Y s 3 lw 1514 1039 m21 6 lw 1519 1031 m 2 Y s 1519 1044 m 3 Y s 3 lw 1519 1039 m21 6 lw 1524 1022 m 2 Y s 1524 1035 m 3 Y s 3 lw 1524 1030 m21 6 lw 1528 1017 m 2 Y s 1528 1031 m 2 Y s 3 lw 1528 1025 m21 6 lw
 1533 1033 m 2 Y s 1533 1047 m 2 Y s 3 lw 1533 1041 m21 6 lw 1538 1013 m 2 Y s 1538 1026 m 3 Y s 3 lw 1538 1021 m21 6 lw 1542 1007 m 3 Y s 1542 1021 m 3 Y s 3 lw 1542 1015 m21 6 lw 1547 1013 m 2 Y s 1547 1027 m 2 Y s 3 lw 1547 1021 m21 6 lw 1552 1021
 m 3 Y s 1552 1035 m 3 Y s 3 lw 1552 1030 m21 6 lw 1557 1011 m 2 Y s 1557 1024 m 3 Y s 3 lw 1557 1019 m21 6 lw 1561 1007 m 3 Y s 1561 1021 m 3 Y s 3 lw 1561 1015 m21 6 lw 1566 1007 m 2 Y s 1566 1021 m 2 Y s 3 lw 1566 1015 m21 6 lw 1571 1023 m 2 Y s
 1571 1037 m 3 Y s 3 lw 1571 1031 m21 6 lw 1575 1014 m 3 Y s 1575 1028 m 3 Y s 3 lw 1575 1023 m21 6 lw 1580 1014 m 3 Y s 1580 1029 m 2 Y s 3 lw 1580 1023 m21 6 lw 1585 1007 m 3 Y s 1585 1021 m 3 Y s 3 lw 1585 1015 m21 6 lw 1589 1017 m 3 Y s 1589 1032
 m 3 Y s 3 lw 1589 1026 m21 6 lw 1594 1006 m 3 Y s 1594 1020 m 3 Y s 3 lw 1594 1014 m21 6 lw 1599 1014 m 3 Y s 1599 1029 m 3 Y s 3 lw 1599 1023 m21 6 lw 1604 992 m 3 Y s 1604 1006 m 3 Y s 3 lw 1604 1001 m21 6 lw 1608 997 m 4 Y s 1608 1012 m 3 Y s 3
 lw 1608 1006 m21 6 lw 1613 996 m 3 Y s 1613 1011 m 3 Y s 3 lw 1613 1005 m21 6 lw 1618 994 m 3 Y s 1618 1009 m 3 Y s 3 lw 1618 1003 m21 6 lw 1622 992 m 3 Y s 1622 1006 m 3 Y s 3 lw 1622 1000 m21 6 lw 1627 998 m 3 Y s 1627 1013 m 3 Y s 3 lw 1627 1007
 m21 6 lw 1632 991 m 4 Y s 1632 1006 m 3 Y s 3 lw 1632 1000 m21 6 lw 1637 986 m 4 Y s 1637 1001 m 3 Y s 3 lw 1637 995 m21 6 lw 1641 991 m 3 Y s 1641 1006 m 3 Y s 3 lw 1641 1000 m21 6 lw 1646 1002 m 4 Y s 1646 1017 m 4 Y s 3 lw 1646 1011 m21 6 lw 1651
 989 m 4 Y s 1651 1004 m 3 Y s 3 lw 1651 998 m21 6 lw 1655 964 m 3 Y s 1655 978 m 4 Y s 3 lw 1655 973 m21 6 lw 1660 1004 m 4 Y s 1660 1019 m 4 Y s 3 lw 1660 1013 m21 6 lw 1665 988 m 3 Y s 1665 1003 m 3 Y s 3 lw 1665 997 m21 6 lw 1669 974 m 4 Y s 1669
 989 m 3 Y s 3 lw 1669 983 m21 6 lw 1674 982 m 3 Y s 1674 997 m 3 Y s 3 lw 1674 991 m21 6 lw 1679 979 m 3 Y s 1679 994 m 3 Y s 3 lw 1679 988 m21 6 lw 1684 975 m 4 Y s 1684 990 m 4 Y s 3 lw 1684 985 m21 6 lw 1688 986 m 3 Y s 1688 1001 m 4 Y s 3 lw
 1688 995 m21 6 lw 1693 981 m 4 Y s 1693 996 m 4 Y s 3 lw 1693 990 m21 6 lw 1698 976 m 4 Y s 1698 991 m 4 Y s 3 lw 1698 985 m21 6 lw 1702 974 m 4 Y s 1702 989 m 4 Y s 3 lw 1702 984 m21 6 lw 1707 984 m 4 Y s 1707 999 m 4 Y s 3 lw 1707 993 m21 6 lw
 1712 983 m 4 Y s 1712 999 m 4 Y s 3 lw 1712 993 m21 6 lw 1717 980 m 4 Y s 1717 995 m 4 Y s 3 lw 1717 990 m21 6 lw 1721 967 m 4 Y s 1721 982 m 4 Y s 3 lw 1721 976 m21 6 lw 1726 969 m 5 Y s 1726 985 m 4 Y s 3 lw 1726 979 m21 6 lw 1731 984 m 4 Y s 1731
 999 m 5 Y s 3 lw 1731 994 m21 6 lw 1735 978 m 4 Y s 1735 993 m 5 Y s 3 lw 1735 988 m21 6 lw 1740 966 m 4 Y s 1740 982 m 4 Y s 3 lw 1740 976 m21 6 lw 1745 997 m 5 Y s 1745 1013 m 5 Y s 3 lw 1745 1007 m21 6 lw 1749 964 m 4 Y s 1749 979 m 5 Y s 3 lw
 1749 974 m21 6 lw 1754 960 m 4 Y s 1754 976 m 4 Y s 3 lw 1754 970 m21 6 lw 1759 963 m 5 Y s 1759 979 m 5 Y s 3 lw 1759 974 m21 6 lw 1764 973 m 4 Y s 1764 989 m 4 Y s 3 lw 1764 983 m21 6 lw 1768 964 m 4 Y s 1768 980 m 4 Y s 3 lw 1768 974 m21 6 lw
 1773 971 m 5 Y s 1773 987 m 5 Y s 3 lw 1773 981 m21 6 lw 1778 942 m 4 Y s 1778 958 m 4 Y s 3 lw 1778 952 m21 6 lw 1782 972 m 5 Y s 1782 988 m 5 Y s 3 lw 1782 982 m21 6 lw 1787 963 m 5 Y s 1787 979 m 5 Y s 3 lw 1787 973 m21 6 lw 1792 943 m 5 Y s 1792
 960 m 4 Y s 3 lw 1792 954 m21 6 lw 1797 970 m 5 Y s 1797 987 m 5 Y s 3 lw 1797 981 m21 6 lw 1801 947 m 5 Y s 1801 964 m 5 Y s 3 lw 1801 958 m21 6 lw 1806 978 m 5 Y s 1806 994 m 6 Y s 3 lw 1806 989 m21 6 lw 1811 964 m 6 Y s 1811 981 m 5 Y s 3 lw 1811
 975 m21 6 lw 1815 967 m 5 Y s 1815 983 m 6 Y s 3 lw 1815 978 m21 6 lw 1820 964 m 5 Y s 1820 980 m 6 Y s 3 lw 1820 975 m21 6 lw 1825 974 m 5 Y s 1825 990 m 6 Y s 3 lw 1825 985 m21 6 lw 1829 962 m 5 Y s 1829 979 m 5 Y s 3 lw 1829 973 m21 6 lw 1834 964
 m 6 Y s 1834 981 m 6 Y s 3 lw 1834 976 m21 6 lw 1839 946 m 5 Y s 1839 962 m 6 Y s 3 lw 1839 957 m21 6 lw 1844 970 m 5 Y s 1844 987 m 5 Y s 3 lw 1844 981 m21 6 lw 1848 965 m 6 Y s 1848 982 m 6 Y s 3 lw 1848 976 m21 6 lw 1853 964 m 6 Y s 1853 981 m 6
 Y s 3 lw 1853 975 m21 6 lw 1858 965 m 6 Y s 1858 983 m 5 Y s 3 lw 1858 977 m21 6 lw 1862 954 m 6 Y s 1862 972 m 5 Y s 3 lw 1862 966 m21 6 lw 1867 977 m 6 Y s 1867 994 m 6 Y s 3 lw 1867 989 m21 6 lw 1872 960 m 6 Y s 1872 977 m 6 Y s 3 lw 1872 971 m21
 6 lw 1877 972 m 6 Y s 1877 989 m 6 Y s 3 lw 1877 983 m21 6 lw 1881 956 m 6 Y s 1881 974 m 6 Y s 3 lw 1881 968 m21 6 lw 1886 963 m 6 Y s 1886 981 m 6 Y s 3 lw 1886 975 m21 6 lw 1891 973 m 6 Y s 1891 991 m 6 Y s 3 lw 1891 985 m21 6 lw 1895 940 m 6 Y s
 1895 957 m 6 Y s 3 lw 1895 952 m21 6 lw 1900 972 m 6 Y s 1900 990 m 6 Y s 3 lw 1900 984 m21 6 lw 1905 965 m 7 Y s 1905 983 m 7 Y s 3 lw 1905 977 m21 6 lw 1909 962 m 6 Y s 1909 980 m 6 Y s 3 lw 1909 974 m21 6 lw 1914 974 m 7 Y s 1914 992 m 7 Y s 3 lw
 1914 987 m21 6 lw 1919 938 m 7 Y s 1919 956 m 7 Y s 3 lw 1919 951 m21 6 lw 1924 943 m 6 Y s 1924 961 m 6 Y s 3 lw 1924 955 m21 6 lw 1928 978 m 7 Y s 1928 996 m 7 Y s 3 lw 1928 991 m21 6 lw 1933 959 m 7 Y s 1933 977 m 7 Y s 3 lw 1933 972 m21 6 lw
 1938 975 m 7 Y s 1938 994 m 7 Y s 3 lw 1938 988 m21 6 lw 1942 949 m 7 Y s 1942 967 m 7 Y s 3 lw 1942 961 m21 6 lw 1947 934 m 7 Y s 1947 952 m 7 Y s 3 lw 1947 947 m21 6 lw 1952 955 m 7 Y s 1952 974 m 7 Y s 3 lw 1952 968 m21 6 lw 1957 930 m 7 Y s 1957
 948 m 7 Y s 3 lw 1957 942 m21 6 lw 1961 966 m 7 Y s 1961 984 m 8 Y s 3 lw 1961 979 m21 6 lw 1966 974 m 7 Y s 1966 992 m 8 Y s 3 lw 1966 987 m21 6 lw 1971 947 m 7 Y s 1971 966 m 7 Y s 3 lw 1971 960 m21 6 lw 1975 969 m 8 Y s 1975 988 m 8 Y s 3 lw 1975
 982 m21 6 lw 1980 957 m 8 Y s 1980 976 m 8 Y s 3 lw 1980 970 m21 6 lw 1985 955 m 8 Y s 1985 974 m 7 Y s 3 lw 1985 968 m21 6 lw 1989 951 m 8 Y s 1989 970 m 8 Y s 3 lw 1989 964 m21 6 lw 1994 964 m 8 Y s 1994 984 m 7 Y s 3 lw 1994 978 m21 6 lw 1999 959
 m 8 Y s 1999 978 m 8 Y s 3 lw 1999 973 m21 6 lw 2004 963 m 8 Y s 2004 982 m 8 Y s 3 lw 2004 977 m21 6 lw 2008 961 m 8 Y s 2008 980 m 8 Y s 3 lw 2008 975 m21 6 lw 2013 939 m 8 Y s 2013 958 m 8 Y s 3 lw 2013 952 m21 6 lw 2018 946 m 8 Y s 2018 966 m 8
 Y s 3 lw 2018 960 m21 6 lw 2022 946 m 8 Y s 2022 966 m 8 Y s 3 lw 2022 960 m21 6 lw 2027 977 m 9 Y s 2027 997 m 9 Y s 3 lw 2027 992 m21 6 lw 2032 961 m 9 Y s 2032 981 m 8 Y s 3 lw 2032 975 m21 6 lw 2036 930 m 8 Y s 2036 949 m 8 Y s 3 lw 2036 943 m21
 6 lw 2041 972 m 9 Y s 2041 992 m 9 Y s 3 lw 2041 987 m21 6 lw 2046 957 m 8 Y s 2046 977 m 8 Y s 3 lw 2046 971 m21 6 lw 2051 956 m 8 Y s 2051 976 m 8 Y s 3 lw 2051 970 m21 6 lw 2055 950 m 9 Y s 2055 970 m 9 Y s 3 lw 2055 965 m21 6 lw 2060 966 m 9 Y s
 2060 986 m 9 Y s 3 lw 2060 980 m21 6 lw 2065 948 m 8 Y s 2065 968 m 9 Y s 3 lw 2065 962 m21 6 lw 2069 939 m 9 Y s 2069 959 m 9 Y s 3 lw 2069 954 m21 6 lw 2074 953 m 9 Y s 2074 973 m 9 Y s 3 lw 2074 968 m21 6 lw 2079 954 m 9 Y s 2079 974 m 9 Y s 3 lw
 2079 968 m21 6 lw 2084 963 m 9 Y s 2084 983 m 9 Y s 3 lw 2084 978 m21 6 lw 2088 950 m 9 Y s 2088 970 m 10 Y s 3 lw 2088 965 m21 6 lw 2093 951 m 10 Y s 2093 972 m 9 Y s 3 lw 2093 966 m21 6 lw 2098 940 m 9 Y s 2098 960 m 10 Y s 3 lw 2098 955 m21 6 lw
 2102 967 m 10 Y s 2102 988 m 10 Y s 3 lw 2102 982 m21 6 lw 2107 968 m 10 Y s 2107 989 m 10 Y s 3 lw 2107 984 m21 6 lw 2112 967 m 10 Y s 2112 988 m 10 Y s 3 lw 2112 983 m21 6 lw 2116 941 m 10 Y s 2116 962 m 10 Y s 3 lw 2116 956 m21 6 lw 2121 959 m 10
 Y s 2121 980 m 10 Y s 3 lw 2121 975 m21 6 lw 2126 956 m 10 Y s 2126 977 m 10 Y s 3 lw 2126 971 m21 6 lw 2131 930 m 9 Y s 2131 951 m 9 Y s 3 lw 2131 945 m21 6 lw 2135 941 m 10 Y s 2135 962 m 10 Y s 3 lw 2135 956 m21 6 lw 2140 973 m 10 Y s 2140 994 m
 11 Y s 3 lw 2140 989 m21 6 lw 2145 961 m 10 Y s 2145 982 m 11 Y s 3 lw 2145 977 m21 6 lw 2149 968 m 10 Y s 2149 989 m 11 Y s 3 lw 2149 984 m21 6 lw 2154 941 m 10 Y s 2154 963 m 10 Y s 3 lw 2154 957 m21 6 lw 2159 969 m 11 Y s 2159 991 m 11 Y s 3 lw
 2159 985 m21 6 lw 2164 948 m 11 Y s 2164 970 m 11 Y s 3 lw 2164 965 m21 6 lw 2168 956 m 11 Y s 2168 978 m 11 Y s 3 lw 2168 973 m21 6 lw 2173 947 m 10 Y s 2173 969 m 10 Y s 3 lw 2173 963 m21 6 lw 2178 973 m 11 Y s 2178 995 m 11 Y s 3 lw 2178 990 m21
 6 lw 2182 982 m 11 Y s 2182 1005 m 11 Y s 3 lw 2182 999 m21 6 lw 2187 959 m 11 Y s 2187 981 m 11 Y s 3 lw 2187 975 m21 6 lw 2192 964 m 11 Y s 2192 987 m 11 Y s 3 lw 2192 981 m21 6 lw 2196 950 m 11 Y s 2196 972 m 11 Y s 3 lw 2196 967 m21 6 lw 2201
 928 m 11 Y s 2201 951 m 11 Y s 3 lw 2201 945 m21 6 lw 2206 938 m 12 Y s 2206 961 m 11 Y s 3 lw 2206 955 m21 6 lw 2211 947 m 11 Y s 2211 970 m 11 Y s 3 lw 2211 964 m21 6 lw 2215 940 m 12 Y s 2215 963 m 12 Y s 3 lw 2215 957 m21 6 lw 2220 959 m 12 Y s
 2220 982 m 12 Y s 3 lw 2220 977 m21 6 lw black 340 223 m 1882 X s
 gsave  2268 2234 0 0 C 1923.86 58.2559 t 0 r /Helvetica findfont 83.8316 sf 0 0 m (Q [GeV]) show NC gr  340 279 m -56 Y s 387 251 m -28 Y s 434 251 m -28 Y s 481 251 m -28 Y s 528 279 m -56 Y s 575 251 m -28 Y s 622 251 m -28 Y s 670 251 m -28 Y s
 717 279 m -56 Y s 764 251 m -28 Y s 811 251 m -28 Y s 858 251 m -28 Y s 905 279 m -56 Y s 952 251 m -28 Y s 999 251 m -28 Y s 1046 251 m -28 Y s 1093 279 m -56 Y s 1140 251 m -28 Y s 1187 251 m -28 Y s 1234 251 m -28 Y s 1281 279 m -56 Y s 1328 251
 m -28 Y s 1375 251 m -28 Y s 1422 251 m -28 Y s 1469 279 m -56 Y s 1517 251 m -28 Y s 1564 251 m -28 Y s 1611 251 m -28 Y s 1658 279 m -56 Y s 1705 251 m -28 Y s 1752 251 m -28 Y s 1799 251 m -28 Y s 1846 279 m -56 Y s 1893 251 m -28 Y s 1940 251 m
 -28 Y s 1987 251 m -28 Y s 2034 279 m -56 Y s 2081 251 m -28 Y s 2128 251 m -28 Y s 2175 251 m -28 Y s 2222 279 m -56 Y s
 gsave  2268 2234 0 0 C 322.539 159.138 t 0 r /Helvetica findfont 62.5185 sf 0 0 m (0) show NC gr 
 gsave  2268 2234 0 0 C 484.518 159.138 t 0 r /Helvetica findfont 62.5185 sf 0 0 m (0.2) show NC gr 
 gsave  2268 2234 0 0 C 673.495 159.138 t 0 r /Helvetica findfont 62.5185 sf 0 0 m (0.4) show NC gr 
 gsave  2268 2234 0 0 C 861.05 159.138 t 0 r /Helvetica findfont 62.5185 sf 0 0 m (0.6) show NC gr 
 gsave  2268 2234 0 0 C 1050.03 159.138 t 0 r /Helvetica findfont 62.5185 sf 0 0 m (0.8) show NC gr 
 gsave  2268 2234 0 0 C 1268.84 159.138 t 0 r /Helvetica findfont 62.5185 sf 0 0 m (1) show NC gr 
 gsave  2268 2234 0 0 C 1426.56 159.138 t 0 r /Helvetica findfont 62.5185 sf 0 0 m (1.2) show NC gr 
 gsave  2268 2234 0 0 C 1614.11 159.138 t 0 r /Helvetica findfont 62.5185 sf 0 0 m (1.4) show NC gr 
 gsave  2268 2234 0 0 C 1803.09 159.138 t 0 r /Helvetica findfont 62.5185 sf 0 0 m (1.6) show NC gr 
 gsave  2268 2234 0 0 C 1990.65 159.138 t 0 r /Helvetica findfont 62.5185 sf 0 0 m (1.8) show NC gr 
 gsave  2268 2234 0 0 C 2205.2 159.138 t 0 r /Helvetica findfont 62.5185 sf 0 0 m (2) show NC gr  340 223 m 1966 Y s
 gsave  2268 2234 0 0 C 147.771 1547.33 t 90 r /Helvetica findfont 83.8316 sf 0 0 m (\(Q\) / \(0.005 GeV\)) show NC gr 
 gsave  2268 2234 0 0 C 174.768 1518.92 t 90 r /Helvetica findfont 55.4141 sf 0 0 m (2) show NC gr 
 gsave  2268 2234 0 0 C 147.771 1437.93 t 90 r /Helvetica findfont 83.8316 sf 0 0 m ( C) show NC gr  400 402 m -60 X s 370 491 m -30 X s 370 581 m -30 X s 370 670 m -30 X s 400 759 m -60 X s 370 849 m -30 X s 370 938 m -30 X s 370 1027 m -30 X s 400
 1117 m -60 X s 370 1206 m -30 X s 370 1295 m -30 X s 370 1385 m -30 X s 400 1474 m -60 X s 370 1564 m -30 X s 370 1653 m -30 X s 370 1742 m -30 X s 400 1832 m -60 X s 370 1921 m -30 X s 370 2010 m -30 X s 370 2100 m -30 X s 400 2189 m -60 X s 400
 402 m -60 X s 370 313 m -30 X s 370 223 m -30 X s
 gsave  2268 2234 0 0 C 242.97 379.374 t 0 r /Helvetica findfont 62.5185 sf 0 0 m (0.6) show NC gr 
 gsave  2268 2234 0 0 C 242.97 737.434 t 0 r /Helvetica findfont 62.5185 sf 0 0 m (0.8) show NC gr 
 gsave  2268 2234 0 0 C 305.488 1092.65 t 0 r /Helvetica findfont 62.5185 sf 0 0 m (1) show NC gr 
 gsave  2268 2234 0 0 C 242.97 1450.71 t 0 r /Helvetica findfont 62.5185 sf 0 0 m (1.2) show NC gr 
 gsave  2268 2234 0 0 C 242.97 1808.77 t 0 r /Helvetica findfont 62.5185 sf 0 0 m (1.4) show NC gr 
 gsave  2268 2234 0 0 C 242.97 2166.83 t 0 r /Helvetica findfont 62.5185 sf 0 0 m (1.6) show NC gr 
 gsave  2268 2234 0 0 C 906.518 670.653 t 0 r /Helvetica-Bold findfont 72.4646 sf 0 0 m (MC PIONS) show NC gr 
 gsave  2268 2234 0 0 C 906.518 558.404 t 0 r /Helvetica-Bold findfont 72.4646 sf 0 0 m (ref. sample: EVENT MIX) show NC gr 
 gsave  2268 2234 0 0 C 906.518 447.576 t 0 r /Helvetica-Bold findfont 72.4646 sf 0 0 m (VELO tracks multiplicity: < 10) show NC gr 
 gr  gr showpage
end
%%EOF
