%!PS-Adobe-2.0 EPSF-2.0
%%BoundingBox:  0 0 567 558
%%Title: ./RD_pion_0c65_h3115_2_h3401_2.eps: RD_pion_0c65_h3115_2_h3401_2
%%Creator: ROOT Version 6.06/02
%%CreationDate: Wed Feb  1 16:20:58 2017
%%DocumentNeededResources: ProcSet (FontSetInit)
%%EndComments
%%BeginProlog
80 dict begin
/s {stroke} def /l {lineto} def /m {moveto} def /t {translate} def
/r {rotate} def /rl {roll}  def /R {repeat} def
/d {rlineto} def /rm {rmoveto} def /gr {grestore} def /f {eofill} def
/c {setrgbcolor} def /black {0 setgray} def /sd {setdash} def
/cl {closepath} def /sf {scalefont setfont} def /lw {setlinewidth} def
/box {m dup 0 exch d exch 0 d 0 exch neg d cl} def
/NC{systemdict begin initclip end}def/C{NC box clip newpath}def
/bl {box s} def /bf {gsave box gsave f grestore 1 lw [] 0 sd s grestore} def /Y { 0 exch d} def /X { 0 d} def 
/K {{pop pop 0 moveto} exch kshow} bind def
/ita {/ang 15 def gsave [1 0 ang dup sin exch cos div 1 0 0] concat} def 
/mp {newpath /y exch def /x exch def} def
/side {[w .77 mul w .23 mul] .385 w mul sd w 0 l currentpoint t -144 r} def
/mr {mp x y w2 0 360 arc} def /m24 {mr s} def /m20 {mr f} def
/mb {mp x y w2 add m w2 neg 0 d 0 w neg d w 0 d 0 w d cl} def
/mt {mp x y w2 add m w2 neg w neg d w 0 d cl} def
/m21 {mb f} def /m25 {mb s} def /m22 {mt f} def /m26{mt s} def
/m23 {mp x y w2 sub m w2 w d w neg 0 d cl f} def
/m27 {mp x y w2 add m w3 neg w2 neg d w3 w2 neg d w3 w2 d cl s} def
/m28 {mp x w2 sub y w2 sub w3 add m w3 0 d  0 w3 neg d w3 0 d 0 w3 d w3 0 d  0 w3 d w3 neg 0 d 0 w3 d w3 neg 0 d 0 w3 neg d w3 neg 0 d cl s } def
/m29 {mp gsave x w2 sub y w2 add w3 sub m currentpoint t 4 {side} repeat cl fill gr} def
/m30 {mp gsave x w2 sub y w2 add w3 sub m currentpoint t 4 {side} repeat cl s gr} def
/m31 {mp x y w2 sub m 0 w d x w2 sub y m w 0 d x w2 sub y w2 add m w w neg d x w2 sub y w2 sub m w w d s} def
/m32 {mp x y w2 sub m w2 w d w neg 0 d cl s} def
/m33 {mp x y w2 add m w3 neg w2 neg d w3 w2 neg d w3 w2 d cl f} def
/m34 {mp x w2 sub y w2 sub w3 add m w3 0 d  0 w3 neg d w3 0 d 0 w3 d w3 0 d  0 w3 d w3 neg 0 d 0 w3 d w3 neg 0 d 0 w3 neg d w3 neg 0 d cl f } def
/m2 {mp x y w2 sub m 0 w d x w2 sub y m w 0 d s} def
/m5 {mp x w2 sub y w2 sub m w w d x w2 sub y w2 add m w w neg d s} def
%%IncludeResource: ProcSet (FontSetInit)
%%IncludeResource: font Times-Roman
%%IncludeResource: font Times-Italic
%%IncludeResource: font Times-Bold
%%IncludeResource: font Times-BoldItalic
%%IncludeResource: font Helvetica
%%IncludeResource: font Helvetica-Oblique
%%IncludeResource: font Helvetica-Bold
%%IncludeResource: font Helvetica-BoldOblique
%%IncludeResource: font Courier
%%IncludeResource: font Courier-Oblique
%%IncludeResource: font Courier-Bold
%%IncludeResource: font Courier-BoldOblique
%%IncludeResource: font Symbol
%%IncludeResource: font ZapfDingbats
/reEncode {exch findfont dup length dict begin {1 index /FID eq  {pop pop} {def} ifelse } forall /Encoding exch def currentdict end dup /FontName get exch definefont pop } def [/Times-Bold /Times-Italic /Times-BoldItalic /Helvetica /Helvetica-Oblique
 /Helvetica-Bold /Helvetica-BoldOblique /Courier /Courier-Oblique /Courier-Bold /Courier-BoldOblique /Times-Roman /AvantGarde-Book /AvantGarde-BookOblique /AvantGarde-Demi /AvantGarde-DemiOblique /Bookman-Demi /Bookman-DemiItalic /Bookman-Light
 /Bookman-LightItalic /Helvetica-Narrow /Helvetica-Narrow-Bold /Helvetica-Narrow-BoldOblique /Helvetica-Narrow-Oblique /NewCenturySchlbk-Roman /NewCenturySchlbk-Bold /NewCenturySchlbk-BoldItalic /NewCenturySchlbk-Italic /Palatino-Bold
 /Palatino-BoldItalic /Palatino-Italic /Palatino-Roman ] {ISOLatin1Encoding reEncode } forall
%%EndProlog
%%BeginSetup
%%EndSetup
newpath  gsave  .25 .25 scale  gsave  0 0 t black[  ] 0 sd 6 lw 1 1 1 c 2268 2234 0 0 bf black 3 lw 1 1 1 c 1882 1966 340 223 bf black 1882 1966 340 223 bl 1 1 1 c 1882 1966 340 223 bf black 1882 1966 340 223 bl 0 0 1 c 6 lw 1 1 1 c 0 0 1 c 390 1003
 m 11 Y s 390 1025 m 11 Y s 3 lw /w 14 def /w2 {w 2 div} def /w3 {w 3 div} def 390 1020 m21 6 lw 394 1008 m 10 Y s 394 1029 m 9 Y s 3 lw 394 1023 m21 6 lw 399 1059 m 8 Y s 399 1079 m 8 Y s 3 lw 399 1073 m21 6 lw 404 1040 m 8 Y s 404 1059 m 8 Y s 3 lw
 404 1054 m21 6 lw 408 1065 m 7 Y s 408 1083 m 7 Y s 3 lw 408 1077 m21 6 lw 413 1068 m 6 Y s 413 1086 m 6 Y s 3 lw 413 1080 m21 6 lw 418 1077 m 6 Y s 418 1094 m 6 Y s 3 lw 418 1089 m21 6 lw 423 1085 m 5 Y s 423 1101 m 5 Y s 3 lw 423 1095 m21 6 lw 427
 1084 m 5 Y s 427 1100 m 5 Y s 3 lw 427 1094 m21 6 lw 432 1078 m 4 Y s 432 1094 m 4 Y s 3 lw 432 1088 m21 6 lw 437 1107 m 4 Y s 437 1122 m 4 Y s 3 lw 437 1116 m21 6 lw 441 1117 m 4 Y s 441 1132 m 4 Y s 3 lw 441 1126 m21 6 lw 446 1114 m 3 Y s 446 1129
 m 3 Y s 3 lw 446 1123 m21 6 lw 451 1119 m 3 Y s 451 1134 m 3 Y s 3 lw 451 1128 m21 6 lw 455 1131 m 3 Y s 455 1146 m 2 Y s 3 lw 455 1140 m21 6 lw 460 1113 m 2 Y s 460 1127 m 2 Y s 3 lw 460 1121 m21 6 lw 465 1128 m 2 Y s 465 1142 m 2 Y s 3 lw 465 1136
 m21 6 lw 470 1138 m 2 Y s 470 1151 m 3 Y s 3 lw 470 1146 m21 6 lw 474 1144 m 2 Y s 474 1158 m 2 Y s 3 lw 474 1152 m21 6 lw 479 1126 m 2 Y s 479 1140 m 1 Y s 3 lw 479 1134 m21 6 lw 484 1135 m 2 Y s 484 1148 m 2 Y s 3 lw 484 1143 m21 6 lw 488 1137 m 2
 Y s 488 1150 m 2 Y s 3 lw 488 1145 m21 6 lw 493 1144 m 1 Y s 493 1156 m 2 Y s 3 lw 493 1151 m21 6 lw 498 1152 m 2 Y s 498 1165 m 1 Y s 3 lw 498 1159 m21 6 lw 502 1165 m 1 Y s 502 1178 m 1 Y s 3 lw 502 1172 m21 6 lw 507 1171 m 2 Y s 507 1184 m 1 Y s
 3 lw 507 1178 m21 6 lw 512 1153 m 1 Y s 512 1165 m 1 Y s 3 lw 512 1160 m21 6 lw 517 1167 m 1 Y s 517 1180 m s 3 lw 517 1174 m21 6 lw 521 1169 m 1 Y s 521 1181 m 1 Y s 3 lw 521 1175 m21 6 lw 526 1164 m s 526 1176 m s 3 lw 526 1170 m21 6 lw 531 1179 m
 s 531 1191 m s 3 lw 531 1185 m21 6 lw 535 1168 m 1 Y s 535 1180 m 1 Y s 3 lw 535 1175 m21 6 lw 540 1173 m s 540 1185 m s 3 lw 540 1179 m21 6 lw 545 1169 m s 545 1180 m 1 Y s 3 lw 545 1175 m21 6 lw 550 1186 m s 550 1197 m 1 Y s 3 lw 550 1192 m21 6 lw
 554 1181 m 1 Y s 554 1193 m s 3 lw 554 1187 m21 6 lw 559 1188 m s 559 1200 m s 3 lw 559 1194 m21 6 lw 564 1179 m s 564 1190 m s 3 lw 564 1185 m21 6 lw 568 1187 m s 568 1199 m s 3 lw 568 1193 m21 6 lw 573 1194 m s 573 1206 m s 3 lw 573 1200 m21 6 lw
 3 lw 578 1197 m21 6 lw 3 lw 582 1200 m21 6 lw 3 lw 587 1209 m21 6 lw 3 lw 592 1197 m21 6 lw 3 lw 597 1195 m21 6 lw 3 lw 601 1202 m21 6 lw 3 lw 606 1203 m21 6 lw 3 lw 611 1211 m21 6 lw 3 lw 615 1195 m21 6 lw 3 lw 620 1197 m21 6 lw 3 lw 625 1187 m21 6
 lw 3 lw 630 1184 m21 6 lw 3 lw 634 1186 m21 6 lw 3 lw 639 1182 m21 6 lw 3 lw 644 1186 m21 6 lw 3 lw 648 1185 m21 6 lw 3 lw 653 1184 m21 6 lw 3 lw 658 1185 m21 6 lw 3 lw 662 1192 m21 6 lw 3 lw 667 1177 m21 6 lw 3 lw 672 1186 m21 6 lw 3 lw 677 1195
 m21 6 lw 3 lw 681 1191 m21 6 lw 3 lw 686 1199 m21 6 lw 3 lw 691 1190 m21 6 lw 3 lw 695 1194 m21 6 lw 3 lw 700 1189 m21 6 lw 3 lw 705 1196 m21 6 lw 3 lw 710 1193 m21 6 lw 3 lw 714 1194 m21 6 lw 3 lw 719 1196 m21 6 lw 3 lw 724 1202 m21 6 lw 3 lw 728
 1205 m21 6 lw 3 lw 733 1207 m21 6 lw 3 lw 738 1193 m21 6 lw 3 lw 742 1199 m21 6 lw 3 lw 747 1207 m21 6 lw 3 lw 752 1193 m21 6 lw 3 lw 757 1189 m21 6 lw 3 lw 761 1186 m21 6 lw 3 lw 766 1189 m21 6 lw 3 lw 771 1197 m21 6 lw 3 lw 775 1188 m21 6 lw 3 lw
 780 1183 m21 6 lw 3 lw 785 1179 m21 6 lw 3 lw 790 1181 m21 6 lw 3 lw 794 1173 m21 6 lw 3 lw 799 1180 m21 6 lw 3 lw 804 1174 m21 6 lw 3 lw 808 1177 m21 6 lw 3 lw 813 1176 m21 6 lw 3 lw 818 1159 m21 6 lw 3 lw 822 1164 m21 6 lw 3 lw 827 1174 m21 6 lw 3
 lw 832 1163 m21 6 lw 3 lw 837 1161 m21 6 lw 3 lw 841 1160 m21 6 lw 3 lw 846 1153 m21 6 lw 3 lw 851 1162 m21 6 lw 3 lw 855 1156 m21 6 lw 3 lw 860 1152 m21 6 lw 3 lw 865 1159 m21 6 lw 3 lw 870 1154 m21 6 lw 3 lw 874 1155 m21 6 lw 3 lw 879 1145 m21 6
 lw 3 lw 884 1145 m21 6 lw 3 lw 888 1154 m21 6 lw 3 lw 893 1152 m21 6 lw 3 lw 898 1150 m21 6 lw 3 lw 902 1154 m21 6 lw 3 lw 907 1148 m21 6 lw 3 lw 912 1148 m21 6 lw 3 lw 917 1146 m21 6 lw 3 lw 921 1151 m21 6 lw 3 lw 926 1171 m21 6 lw 3 lw 931 1160
 m21 6 lw 3 lw 935 1161 m21 6 lw 3 lw 940 1158 m21 6 lw 3 lw 945 1162 m21 6 lw 3 lw 950 1170 m21 6 lw 3 lw 954 1164 m21 6 lw 3 lw 959 1176 m21 6 lw 3 lw 964 1180 m21 6 lw 3 lw 968 1180 m21 6 lw 3 lw 973 1178 m21 6 lw 3 lw 978 1181 m21 6 lw 3 lw 982
 1177 m21 6 lw 3 lw 987 1177 m21 6 lw 3 lw 992 1182 m21 6 lw 3 lw 997 1186 m21 6 lw 3 lw 1001 1181 m21 6 lw 3 lw 1006 1181 m21 6 lw 3 lw 1011 1175 m21 6 lw 3 lw 1015 1180 m21 6 lw 3 lw 1020 1175 m21 6 lw 3 lw 1025 1177 m21 6 lw 3 lw 1030 1169 m21 6
 lw 3 lw 1034 1156 m21 6 lw 3 lw 1039 1158 m21 6 lw 3 lw 1044 1152 m21 6 lw 3 lw 1048 1148 m21 6 lw 3 lw 1053 1132 m21 6 lw 3 lw 1058 1137 m21 6 lw 3 lw 1062 1128 m21 6 lw 3 lw 1067 1123 m21 6 lw 3 lw 1072 1116 m21 6 lw 3 lw 1077 1106 m21 6 lw 3 lw
 1081 1111 m21 6 lw 3 lw 1086 1114 m21 6 lw 3 lw 1091 1105 m21 6 lw 3 lw 1095 1096 m21 6 lw 3 lw 1100 1103 m21 6 lw 3 lw 1105 1096 m21 6 lw 3 lw 1110 1084 m21 6 lw 3 lw 1114 1090 m21 6 lw 3 lw 1119 1078 m21 6 lw 3 lw 1124 1084 m21 6 lw 3 lw 1128 1084
 m21 6 lw 3 lw 1133 1086 m21 6 lw 3 lw 1138 1083 m21 6 lw 3 lw 1142 1089 m21 6 lw 3 lw 1147 1081 m21 6 lw 3 lw 1152 1080 m21 6 lw 3 lw 1157 1078 m21 6 lw 3 lw 1161 1077 m21 6 lw 3 lw 1166 1076 m21 6 lw 3 lw 1171 1079 m21 6 lw 3 lw 1175 1081 m21 6 lw
 3 lw 1180 1077 m21 6 lw 3 lw 1185 1073 m21 6 lw 3 lw 1190 1076 m21 6 lw 3 lw 1194 1080 m21 6 lw 3 lw 1199 1078 m21 6 lw 3 lw 1204 1086 m21 6 lw 3 lw 1208 1087 m21 6 lw 3 lw 1213 1084 m21 6 lw 3 lw 1218 1091 m21 6 lw 3 lw 1222 1084 m21 6 lw 3 lw 1227
 1085 m21 6 lw 3 lw 1232 1079 m21 6 lw 3 lw 1237 1078 m21 6 lw 3 lw 1241 1069 m21 6 lw 3 lw 1246 1067 m21 6 lw 3 lw 1251 1061 m21 6 lw 3 lw 1255 1064 m21 6 lw 3 lw 1260 1062 m21 6 lw 3 lw 1265 1061 m21 6 lw 3 lw 1269 1059 m21 6 lw 3 lw 1274 1056 m21
 6 lw 3 lw 1279 1062 m21 6 lw 3 lw 1284 1042 m21 6 lw 3 lw 1288 1039 m21 6 lw 3 lw 1293 1046 m21 6 lw 3 lw 1298 1045 m21 6 lw 3 lw 1302 1040 m21 6 lw 3 lw 1307 1048 m21 6 lw 3 lw 1312 1046 m21 6 lw 3 lw 1317 1045 m21 6 lw 3 lw 1321 1049 m21 6 lw 3 lw
 1326 1044 m21 6 lw 3 lw 1331 1035 m21 6 lw 3 lw 1335 1050 m21 6 lw 3 lw 1340 1044 m21 6 lw 3 lw 1345 1045 m21 6 lw 3 lw 1349 1047 m21 6 lw 3 lw 1354 1045 m21 6 lw 3 lw 1359 1042 m21 6 lw 3 lw 1364 1041 m21 6 lw 3 lw 1368 1051 m21 6 lw 3 lw 1373 1042
 m21 6 lw 3 lw 1378 1042 m21 6 lw 3 lw 1382 1048 m21 6 lw 3 lw 1387 1051 m21 6 lw 3 lw 1392 1053 m21 6 lw 3 lw 1397 1033 m21 6 lw 3 lw 1401 1044 m21 6 lw 3 lw 1406 1039 m21 6 lw 3 lw 1411 1047 m21 6 lw 3 lw 1415 1041 m21 6 lw 3 lw 1420 1037 m21 6 lw
 3 lw 1425 1036 m21 6 lw 3 lw 1429 1059 m21 6 lw 1434 1050 m s 1434 1061 m s 3 lw 1434 1055 m21 6 lw 1439 1045 m s 1439 1056 m s 3 lw 1439 1050 m21 6 lw 1444 1040 m s 1444 1051 m s 3 lw 1444 1046 m21 6 lw 1448 1036 m s 1448 1047 m s 3 lw 1448 1042
 m21 6 lw 1453 1037 m s 1453 1048 m s 3 lw 1453 1043 m21 6 lw 1458 1056 m s 1458 1068 m s 3 lw 1458 1062 m21 6 lw 1462 1051 m s 1462 1062 m s 3 lw 1462 1057 m21 6 lw 1467 1043 m s 1467 1054 m s 3 lw 1467 1048 m21 6 lw 1472 1043 m 1 Y s 1472 1055 m s
 3 lw 1472 1049 m21 6 lw 1477 1050 m s 1477 1062 m s 3 lw 1477 1056 m21 6 lw 1481 1043 m s 1481 1054 m 1 Y s 3 lw 1481 1049 m21 6 lw 1486 1053 m s 1486 1064 m 1 Y s 3 lw 1486 1059 m21 6 lw 1491 1052 m 1 Y s 1491 1064 m s 3 lw 1491 1058 m21 6 lw 1495
 1035 m s 1495 1047 m s 3 lw 1495 1041 m21 6 lw 1500 1037 m 1 Y s 1500 1049 m s 3 lw 1500 1043 m21 6 lw 1505 1042 m 1 Y s 1505 1054 m s 3 lw 1505 1048 m21 6 lw 1509 1038 m s 1509 1050 m s 3 lw 1509 1044 m21 6 lw 1514 1035 m s 1514 1046 m 1 Y s 3 lw
 1514 1041 m21 6 lw 1519 1042 m s 1519 1054 m s 3 lw 1519 1048 m21 6 lw 1524 1041 m s 1524 1052 m 1 Y s 3 lw 1524 1047 m21 6 lw 1528 1043 m 1 Y s 1528 1055 m s 3 lw 1528 1049 m21 6 lw 1533 1028 m s 1533 1040 m s 3 lw 1533 1034 m21 6 lw 1538 1047 m 1
 Y s 1538 1059 m 1 Y s 3 lw 1538 1053 m21 6 lw 1542 1030 m 1 Y s 1542 1042 m 1 Y s 3 lw 1542 1037 m21 6 lw 1547 1037 m 1 Y s 1547 1049 m 1 Y s 3 lw 1547 1044 m21 6 lw 1552 1036 m 1 Y s 1552 1048 m 1 Y s 3 lw 1552 1042 m21 6 lw 1557 1036 m s 1557 1048
 m s 3 lw 1557 1042 m21 6 lw 1561 1037 m s 1561 1049 m s 3 lw 1561 1043 m21 6 lw 1566 1042 m s 1566 1054 m s 3 lw 1566 1048 m21 6 lw 1571 1035 m 1 Y s 1571 1048 m s 3 lw 1571 1042 m21 6 lw 1575 1022 m 1 Y s 1575 1034 m 1 Y s 3 lw 1575 1029 m21 6 lw
 1580 1023 m 1 Y s 1580 1035 m 1 Y s 3 lw 1580 1030 m21 6 lw 1585 1036 m 1 Y s 1585 1048 m 1 Y s 3 lw 1585 1043 m21 6 lw 1589 1018 m 1 Y s 1589 1030 m 1 Y s 3 lw 1589 1025 m21 6 lw 1594 1034 m 1 Y s 1594 1046 m 1 Y s 3 lw 1594 1040 m21 6 lw 1599 1030
 m s 1599 1042 m 1 Y s 3 lw 1599 1036 m21 6 lw 1604 1024 m 1 Y s 1604 1036 m 1 Y s 3 lw 1604 1031 m21 6 lw 1608 1028 m 1 Y s 1608 1040 m 1 Y s 3 lw 1608 1035 m21 6 lw 1613 1033 m 1 Y s 1613 1045 m 1 Y s 3 lw 1613 1040 m21 6 lw 1618 1026 m 1 Y s 1618
 1038 m 1 Y s 3 lw 1618 1032 m21 6 lw 1622 1022 m 1 Y s 1622 1035 m 1 Y s 3 lw 1622 1029 m21 6 lw 1627 1032 m 1 Y s 1627 1044 m 1 Y s 3 lw 1627 1038 m21 6 lw 1632 1036 m 2 Y s 1632 1049 m 1 Y s 3 lw 1632 1043 m21 6 lw 1637 1027 m 1 Y s 1637 1040 m 1
 Y s 3 lw 1637 1034 m21 6 lw 1641 1026 m 1 Y s 1641 1039 m 1 Y s 3 lw 1641 1033 m21 6 lw 1646 1018 m 2 Y s 1646 1031 m 1 Y s 3 lw 1646 1025 m21 6 lw 1651 1021 m 1 Y s 1651 1033 m 1 Y s 3 lw 1651 1028 m21 6 lw 1655 1025 m 1 Y s 1655 1037 m 2 Y s 3 lw
 1655 1032 m21 6 lw 1660 1034 m 1 Y s 1660 1046 m 2 Y s 3 lw 1660 1041 m21 6 lw 1665 1016 m 2 Y s 1665 1029 m 1 Y s 3 lw 1665 1023 m21 6 lw 1669 1016 m 2 Y s 1669 1029 m 1 Y s 3 lw 1669 1023 m21 6 lw 1674 1023 m 1 Y s 1674 1036 m 1 Y s 3 lw 1674 1030
 m21 6 lw 1679 1033 m 1 Y s 1679 1046 m 1 Y s 3 lw 1679 1040 m21 6 lw 1684 1035 m 2 Y s 1684 1048 m 2 Y s 3 lw 1684 1043 m21 6 lw 1688 1031 m 1 Y s 1688 1043 m 2 Y s 3 lw 1688 1038 m21 6 lw 1693 1014 m 1 Y s 1693 1027 m 1 Y s 3 lw 1693 1021 m21 6 lw
 1698 1037 m 1 Y s 1698 1050 m 1 Y s 3 lw 1698 1044 m21 6 lw 1702 1032 m 1 Y s 1702 1045 m 1 Y s 3 lw 1702 1039 m21 6 lw 1707 1033 m 2 Y s 1707 1046 m 2 Y s 3 lw 1707 1040 m21 6 lw 1712 1016 m 1 Y s 1712 1029 m 1 Y s 3 lw 1712 1023 m21 6 lw 1717 1029
 m 1 Y s 1717 1042 m 1 Y s 3 lw 1717 1036 m21 6 lw 1721 1017 m 1 Y s 1721 1030 m 2 Y s 3 lw 1721 1024 m21 6 lw 1726 1012 m 2 Y s 1726 1025 m 2 Y s 3 lw 1726 1019 m21 6 lw 1731 1020 m 2 Y s 1731 1033 m 2 Y s 3 lw 1731 1028 m21 6 lw 1735 1036 m 2 Y s
 1735 1049 m 2 Y s 3 lw 1735 1043 m21 6 lw 1740 1013 m 2 Y s 1740 1026 m 2 Y s 3 lw 1740 1020 m21 6 lw 1745 1031 m 2 Y s 1745 1044 m 2 Y s 3 lw 1745 1039 m21 6 lw 1749 1036 m 2 Y s 1749 1049 m 2 Y s 3 lw 1749 1043 m21 6 lw 1754 1022 m 2 Y s 1754 1035
 m 2 Y s 3 lw 1754 1030 m21 6 lw 1759 1020 m 2 Y s 1759 1033 m 2 Y s 3 lw 1759 1028 m21 6 lw 1764 1020 m 2 Y s 1764 1033 m 2 Y s 3 lw 1764 1027 m21 6 lw 1768 1021 m 2 Y s 1768 1035 m 2 Y s 3 lw 1768 1029 m21 6 lw 1773 1021 m 2 Y s 1773 1034 m 2 Y s 3
 lw 1773 1029 m21 6 lw 1778 1016 m 2 Y s 1778 1029 m 2 Y s 3 lw 1778 1024 m21 6 lw 1782 1020 m 2 Y s 1782 1033 m 2 Y s 3 lw 1782 1027 m21 6 lw 1787 1006 m 2 Y s 1787 1019 m 2 Y s 3 lw 1787 1013 m21 6 lw 1792 1034 m 2 Y s 1792 1047 m 3 Y s 3 lw 1792
 1042 m21 6 lw 1797 1019 m 2 Y s 1797 1032 m 2 Y s 3 lw 1797 1027 m21 6 lw 1801 1025 m 2 Y s 1801 1038 m 3 Y s 3 lw 1801 1033 m21 6 lw 1806 1031 m 3 Y s 1806 1045 m 2 Y s 3 lw 1806 1039 m21 6 lw 1811 1038 m 3 Y s 1811 1052 m 3 Y s 3 lw 1811 1046 m21
 6 lw 1815 1018 m 2 Y s 1815 1031 m 3 Y s 3 lw 1815 1026 m21 6 lw 1820 1029 m 2 Y s 1820 1043 m 2 Y s 3 lw 1820 1037 m21 6 lw 1825 1028 m 3 Y s 1825 1042 m 3 Y s 3 lw 1825 1036 m21 6 lw 1829 1017 m 2 Y s 1829 1031 m 2 Y s 3 lw 1829 1025 m21 6 lw 1834
 1027 m 3 Y s 1834 1041 m 3 Y s 3 lw 1834 1035 m21 6 lw 1839 1030 m 2 Y s 1839 1044 m 2 Y s 3 lw 1839 1038 m21 6 lw 1844 1035 m 3 Y s 1844 1049 m 3 Y s 3 lw 1844 1044 m21 6 lw 1848 1027 m 2 Y s 1848 1041 m 2 Y s 3 lw 1848 1035 m21 6 lw 1853 1030 m 3
 Y s 1853 1044 m 3 Y s 3 lw 1853 1038 m21 6 lw 1858 1027 m 3 Y s 1858 1041 m 3 Y s 3 lw 1858 1036 m21 6 lw 1862 1019 m 3 Y s 1862 1034 m 2 Y s 3 lw 1862 1028 m21 6 lw 1867 1039 m 3 Y s 1867 1054 m 3 Y s 3 lw 1867 1048 m21 6 lw 1872 1014 m 2 Y s 1872
 1028 m 3 Y s 3 lw 1872 1022 m21 6 lw 1877 1028 m 3 Y s 1877 1043 m 3 Y s 3 lw 1877 1037 m21 6 lw 1881 1031 m 3 Y s 1881 1046 m 3 Y s 3 lw 1881 1040 m21 6 lw 1886 1013 m 3 Y s 1886 1028 m 2 Y s 3 lw 1886 1022 m21 6 lw 1891 1038 m 3 Y s 1891 1053 m 3
 Y s 3 lw 1891 1047 m21 6 lw 1895 1023 m 3 Y s 1895 1038 m 3 Y s 3 lw 1895 1032 m21 6 lw 1900 1006 m 3 Y s 1900 1021 m 3 Y s 3 lw 1900 1015 m21 6 lw 1905 1016 m 3 Y s 1905 1030 m 3 Y s 3 lw 1905 1024 m21 6 lw 1909 1024 m 3 Y s 1909 1038 m 3 Y s 3 lw
 1909 1032 m21 6 lw 1914 1018 m 4 Y s 1914 1033 m 3 Y s 3 lw 1914 1027 m21 6 lw 1919 1032 m 3 Y s 1919 1047 m 3 Y s 3 lw 1919 1041 m21 6 lw 1924 1021 m 4 Y s 1924 1036 m 3 Y s 3 lw 1924 1030 m21 6 lw 1928 1037 m 3 Y s 1928 1052 m 3 Y s 3 lw 1928 1046
 m21 6 lw 1933 1043 m 4 Y s 1933 1058 m 4 Y s 3 lw 1933 1052 m21 6 lw 1938 1015 m 4 Y s 1938 1030 m 3 Y s 3 lw 1938 1024 m21 6 lw 1942 1056 m 3 Y s 1942 1071 m 3 Y s 3 lw 1942 1065 m21 6 lw 1947 1033 m 3 Y s 1947 1048 m 3 Y s 3 lw 1947 1042 m21 6 lw
 1952 1025 m 3 Y s 1952 1040 m 3 Y s 3 lw 1952 1034 m21 6 lw 1957 1011 m 4 Y s 1957 1026 m 4 Y s 3 lw 1957 1021 m21 6 lw 1961 1022 m 4 Y s 1961 1037 m 4 Y s 3 lw 1961 1031 m21 6 lw 1966 1024 m 3 Y s 1966 1039 m 4 Y s 3 lw 1966 1033 m21 6 lw 1971 1018
 m 3 Y s 1971 1033 m 4 Y s 3 lw 1971 1027 m21 6 lw 1975 1031 m 4 Y s 1975 1047 m 3 Y s 3 lw 1975 1041 m21 6 lw 1980 1035 m 4 Y s 1980 1050 m 4 Y s 3 lw 1980 1044 m21 6 lw 1985 1019 m 4 Y s 1985 1034 m 4 Y s 3 lw 1985 1029 m21 6 lw 1989 1032 m 4 Y s
 1989 1048 m 4 Y s 3 lw 1989 1042 m21 6 lw 1994 1043 m 4 Y s 1994 1059 m 4 Y s 3 lw 1994 1053 m21 6 lw 1999 1035 m 4 Y s 1999 1050 m 4 Y s 3 lw 1999 1044 m21 6 lw 2004 1023 m 4 Y s 2004 1038 m 4 Y s 3 lw 2004 1032 m21 6 lw 2008 1026 m 4 Y s 2008 1041
 m 4 Y s 3 lw 2008 1035 m21 6 lw 2013 1013 m 4 Y s 2013 1028 m 4 Y s 3 lw 2013 1023 m21 6 lw 2018 1009 m 4 Y s 2018 1024 m 4 Y s 3 lw 2018 1018 m21 6 lw 2022 1030 m 4 Y s 2022 1046 m 4 Y s 3 lw 2022 1040 m21 6 lw 2027 1019 m 4 Y s 2027 1035 m 4 Y s 3
 lw 2027 1029 m21 6 lw 2032 1047 m 4 Y s 2032 1063 m 4 Y s 3 lw 2032 1057 m21 6 lw 2036 1040 m 4 Y s 2036 1056 m 4 Y s 3 lw 2036 1050 m21 6 lw 2041 1025 m 4 Y s 2041 1041 m 4 Y s 3 lw 2041 1035 m21 6 lw 2046 1036 m 5 Y s 2046 1052 m 5 Y s 3 lw 2046
 1047 m21 6 lw 2051 1033 m 5 Y s 2051 1049 m 5 Y s 3 lw 2051 1043 m21 6 lw 2055 1004 m 5 Y s 2055 1020 m 4 Y s 3 lw 2055 1014 m21 6 lw 2060 1017 m 5 Y s 2060 1033 m 5 Y s 3 lw 2060 1027 m21 6 lw 2065 1019 m 5 Y s 2065 1035 m 5 Y s 3 lw 2065 1029 m21
 6 lw 2069 1035 m 4 Y s 2069 1051 m 5 Y s 3 lw 2069 1045 m21 6 lw 2074 1039 m 5 Y s 2074 1056 m 4 Y s 3 lw 2074 1050 m21 6 lw 2079 1031 m 5 Y s 2079 1048 m 4 Y s 3 lw 2079 1042 m21 6 lw 2084 1031 m 5 Y s 2084 1048 m 5 Y s 3 lw 2084 1042 m21 6 lw 2088
 1038 m 5 Y s 2088 1055 m 5 Y s 3 lw 2088 1049 m21 6 lw 2093 1018 m 5 Y s 2093 1034 m 5 Y s 3 lw 2093 1028 m21 6 lw 2098 1025 m 5 Y s 2098 1042 m 5 Y s 3 lw 2098 1036 m21 6 lw 2102 1022 m 5 Y s 2102 1038 m 5 Y s 3 lw 2102 1032 m21 6 lw 2107 1046 m 5
 Y s 2107 1063 m 5 Y s 3 lw 2107 1057 m21 6 lw 2112 1043 m 6 Y s 2112 1060 m 5 Y s 3 lw 2112 1054 m21 6 lw 2116 1042 m 5 Y s 2116 1059 m 5 Y s 3 lw 2116 1053 m21 6 lw 2121 1040 m 6 Y s 2121 1057 m 5 Y s 3 lw 2121 1051 m21 6 lw 2126 1037 m 5 Y s 2126
 1053 m 6 Y s 3 lw 2126 1048 m21 6 lw 2131 1012 m 5 Y s 2131 1029 m 5 Y s 3 lw 2131 1023 m21 6 lw 2135 1027 m 5 Y s 2135 1044 m 5 Y s 3 lw 2135 1038 m21 6 lw 2140 1035 m 5 Y s 2140 1052 m 5 Y s 3 lw 2140 1046 m21 6 lw 2145 1014 m 5 Y s 2145 1031 m 5
 Y s 3 lw 2145 1025 m21 6 lw 2149 1035 m 6 Y s 2149 1052 m 6 Y s 3 lw 2149 1046 m21 6 lw 2154 1030 m 6 Y s 2154 1047 m 6 Y s 3 lw 2154 1041 m21 6 lw 2159 1040 m 6 Y s 2159 1057 m 6 Y s 3 lw 2159 1052 m21 6 lw 2164 1048 m 6 Y s 2164 1066 m 5 Y s 3 lw
 2164 1060 m21 6 lw 2168 1017 m 6 Y s 2168 1034 m 6 Y s 3 lw 2168 1029 m21 6 lw 2173 1031 m 6 Y s 2173 1049 m 5 Y s 3 lw 2173 1043 m21 6 lw 2178 1042 m 6 Y s 2178 1059 m 6 Y s 3 lw 2178 1054 m21 6 lw 2182 1024 m 6 Y s 2182 1042 m 6 Y s 3 lw 2182 1036
 m21 6 lw 2187 1041 m 6 Y s 2187 1058 m 7 Y s 3 lw 2187 1053 m21 6 lw 2192 1020 m 6 Y s 2192 1037 m 6 Y s 3 lw 2192 1032 m21 6 lw 2196 1026 m 6 Y s 2196 1043 m 7 Y s 3 lw 2196 1038 m21 6 lw 2201 1053 m 6 Y s 2201 1071 m 6 Y s 3 lw 2201 1065 m21 6 lw
 2206 1042 m 6 Y s 2206 1059 m 7 Y s 3 lw 2206 1054 m21 6 lw 2211 1056 m 7 Y s 2211 1074 m 7 Y s 3 lw 2211 1068 m21 6 lw 2215 1037 m 6 Y s 2215 1055 m 6 Y s 3 lw 2215 1049 m21 6 lw 2220 1058 m 7 Y s 2220 1076 m 7 Y s 3 lw 2220 1070 m21 6 lw black 340
 223 m 1882 X s
 gsave  2268 2234 0 0 C 1923.86 58.2559 t 0 r /Helvetica findfont 83.8316 sf 0 0 m (Q [GeV]) show NC gr  340 279 m -56 Y s 387 251 m -28 Y s 434 251 m -28 Y s 481 251 m -28 Y s 528 279 m -56 Y s 575 251 m -28 Y s 622 251 m -28 Y s 670 251 m -28 Y s
 717 279 m -56 Y s 764 251 m -28 Y s 811 251 m -28 Y s 858 251 m -28 Y s 905 279 m -56 Y s 952 251 m -28 Y s 999 251 m -28 Y s 1046 251 m -28 Y s 1093 279 m -56 Y s 1140 251 m -28 Y s 1187 251 m -28 Y s 1234 251 m -28 Y s 1281 279 m -56 Y s 1328 251
 m -28 Y s 1375 251 m -28 Y s 1422 251 m -28 Y s 1469 279 m -56 Y s 1517 251 m -28 Y s 1564 251 m -28 Y s 1611 251 m -28 Y s 1658 279 m -56 Y s 1705 251 m -28 Y s 1752 251 m -28 Y s 1799 251 m -28 Y s 1846 279 m -56 Y s 1893 251 m -28 Y s 1940 251 m
 -28 Y s 1987 251 m -28 Y s 2034 279 m -56 Y s 2081 251 m -28 Y s 2128 251 m -28 Y s 2175 251 m -28 Y s 2222 279 m -56 Y s
 gsave  2268 2234 0 0 C 322.539 159.138 t 0 r /Helvetica findfont 62.5185 sf 0 0 m (0) show NC gr 
 gsave  2268 2234 0 0 C 484.518 159.138 t 0 r /Helvetica findfont 62.5185 sf 0 0 m (0.2) show NC gr 
 gsave  2268 2234 0 0 C 673.495 159.138 t 0 r /Helvetica findfont 62.5185 sf 0 0 m (0.4) show NC gr 
 gsave  2268 2234 0 0 C 861.05 159.138 t 0 r /Helvetica findfont 62.5185 sf 0 0 m (0.6) show NC gr 
 gsave  2268 2234 0 0 C 1050.03 159.138 t 0 r /Helvetica findfont 62.5185 sf 0 0 m (0.8) show NC gr 
 gsave  2268 2234 0 0 C 1268.84 159.138 t 0 r /Helvetica findfont 62.5185 sf 0 0 m (1) show NC gr 
 gsave  2268 2234 0 0 C 1426.56 159.138 t 0 r /Helvetica findfont 62.5185 sf 0 0 m (1.2) show NC gr 
 gsave  2268 2234 0 0 C 1614.11 159.138 t 0 r /Helvetica findfont 62.5185 sf 0 0 m (1.4) show NC gr 
 gsave  2268 2234 0 0 C 1803.09 159.138 t 0 r /Helvetica findfont 62.5185 sf 0 0 m (1.6) show NC gr 
 gsave  2268 2234 0 0 C 1990.65 159.138 t 0 r /Helvetica findfont 62.5185 sf 0 0 m (1.8) show NC gr 
 gsave  2268 2234 0 0 C 2205.2 159.138 t 0 r /Helvetica findfont 62.5185 sf 0 0 m (2) show NC gr  340 223 m 1966 Y s
 gsave  2268 2234 0 0 C 147.771 1547.33 t 90 r /Helvetica findfont 83.8316 sf 0 0 m (\(Q\) / \(0.005 GeV\)) show NC gr 
 gsave  2268 2234 0 0 C 174.768 1518.92 t 90 r /Helvetica findfont 55.4141 sf 0 0 m (2) show NC gr 
 gsave  2268 2234 0 0 C 147.771 1437.93 t 90 r /Helvetica findfont 83.8316 sf 0 0 m ( C) show NC gr  400 402 m -60 X s 370 491 m -30 X s 370 581 m -30 X s 370 670 m -30 X s 400 759 m -60 X s 370 849 m -30 X s 370 938 m -30 X s 370 1027 m -30 X s 400
 1117 m -60 X s 370 1206 m -30 X s 370 1295 m -30 X s 370 1385 m -30 X s 400 1474 m -60 X s 370 1564 m -30 X s 370 1653 m -30 X s 370 1742 m -30 X s 400 1832 m -60 X s 370 1921 m -30 X s 370 2010 m -30 X s 370 2100 m -30 X s 400 2189 m -60 X s 400
 402 m -60 X s 370 313 m -30 X s 370 223 m -30 X s
 gsave  2268 2234 0 0 C 242.97 379.374 t 0 r /Helvetica findfont 62.5185 sf 0 0 m (0.6) show NC gr 
 gsave  2268 2234 0 0 C 242.97 737.434 t 0 r /Helvetica findfont 62.5185 sf 0 0 m (0.8) show NC gr 
 gsave  2268 2234 0 0 C 305.488 1092.65 t 0 r /Helvetica findfont 62.5185 sf 0 0 m (1) show NC gr 
 gsave  2268 2234 0 0 C 242.97 1450.71 t 0 r /Helvetica findfont 62.5185 sf 0 0 m (1.2) show NC gr 
 gsave  2268 2234 0 0 C 242.97 1808.77 t 0 r /Helvetica findfont 62.5185 sf 0 0 m (1.4) show NC gr 
 gsave  2268 2234 0 0 C 242.97 2166.83 t 0 r /Helvetica findfont 62.5185 sf 0 0 m (1.6) show NC gr 
 gsave  2268 2234 0 0 C 906.518 670.653 t 0 r /Helvetica-Bold findfont 72.4646 sf 0 0 m (RD PIONS) show NC gr 
 gsave  2268 2234 0 0 C 906.518 558.404 t 0 r /Helvetica-Bold findfont 72.4646 sf 0 0 m (ref. sample: EVENT MIX) show NC gr 
 gsave  2268 2234 0 0 C 906.518 447.576 t 0 r /Helvetica-Bold findfont 72.4646 sf 0 0 m (VELO tracks multiplicity: 11 \255 20) show NC gr 
 gr  gr showpage
end
%%EOF
