%!PS-Adobe-2.0 EPSF-2.0
%%BoundingBox:  0 0 567 558
%%Title: ./MC_pion_0c65_h3001_3_h3401_3.eps: MC_pion_0c65_h3001_3_h3401_3
%%Creator: ROOT Version 6.06/02
%%CreationDate: Wed Feb  1 16:20:58 2017
%%DocumentNeededResources: ProcSet (FontSetInit)
%%EndComments
%%BeginProlog
80 dict begin
/s {stroke} def /l {lineto} def /m {moveto} def /t {translate} def
/r {rotate} def /rl {roll}  def /R {repeat} def
/d {rlineto} def /rm {rmoveto} def /gr {grestore} def /f {eofill} def
/c {setrgbcolor} def /black {0 setgray} def /sd {setdash} def
/cl {closepath} def /sf {scalefont setfont} def /lw {setlinewidth} def
/box {m dup 0 exch d exch 0 d 0 exch neg d cl} def
/NC{systemdict begin initclip end}def/C{NC box clip newpath}def
/bl {box s} def /bf {gsave box gsave f grestore 1 lw [] 0 sd s grestore} def /Y { 0 exch d} def /X { 0 d} def 
/K {{pop pop 0 moveto} exch kshow} bind def
/ita {/ang 15 def gsave [1 0 ang dup sin exch cos div 1 0 0] concat} def 
/mp {newpath /y exch def /x exch def} def
/side {[w .77 mul w .23 mul] .385 w mul sd w 0 l currentpoint t -144 r} def
/mr {mp x y w2 0 360 arc} def /m24 {mr s} def /m20 {mr f} def
/mb {mp x y w2 add m w2 neg 0 d 0 w neg d w 0 d 0 w d cl} def
/mt {mp x y w2 add m w2 neg w neg d w 0 d cl} def
/m21 {mb f} def /m25 {mb s} def /m22 {mt f} def /m26{mt s} def
/m23 {mp x y w2 sub m w2 w d w neg 0 d cl f} def
/m27 {mp x y w2 add m w3 neg w2 neg d w3 w2 neg d w3 w2 d cl s} def
/m28 {mp x w2 sub y w2 sub w3 add m w3 0 d  0 w3 neg d w3 0 d 0 w3 d w3 0 d  0 w3 d w3 neg 0 d 0 w3 d w3 neg 0 d 0 w3 neg d w3 neg 0 d cl s } def
/m29 {mp gsave x w2 sub y w2 add w3 sub m currentpoint t 4 {side} repeat cl fill gr} def
/m30 {mp gsave x w2 sub y w2 add w3 sub m currentpoint t 4 {side} repeat cl s gr} def
/m31 {mp x y w2 sub m 0 w d x w2 sub y m w 0 d x w2 sub y w2 add m w w neg d x w2 sub y w2 sub m w w d s} def
/m32 {mp x y w2 sub m w2 w d w neg 0 d cl s} def
/m33 {mp x y w2 add m w3 neg w2 neg d w3 w2 neg d w3 w2 d cl f} def
/m34 {mp x w2 sub y w2 sub w3 add m w3 0 d  0 w3 neg d w3 0 d 0 w3 d w3 0 d  0 w3 d w3 neg 0 d 0 w3 d w3 neg 0 d 0 w3 neg d w3 neg 0 d cl f } def
/m2 {mp x y w2 sub m 0 w d x w2 sub y m w 0 d s} def
/m5 {mp x w2 sub y w2 sub m w w d x w2 sub y w2 add m w w neg d s} def
%%IncludeResource: ProcSet (FontSetInit)
%%IncludeResource: font Times-Roman
%%IncludeResource: font Times-Italic
%%IncludeResource: font Times-Bold
%%IncludeResource: font Times-BoldItalic
%%IncludeResource: font Helvetica
%%IncludeResource: font Helvetica-Oblique
%%IncludeResource: font Helvetica-Bold
%%IncludeResource: font Helvetica-BoldOblique
%%IncludeResource: font Courier
%%IncludeResource: font Courier-Oblique
%%IncludeResource: font Courier-Bold
%%IncludeResource: font Courier-BoldOblique
%%IncludeResource: font Symbol
%%IncludeResource: font ZapfDingbats
/reEncode {exch findfont dup length dict begin {1 index /FID eq  {pop pop} {def} ifelse } forall /Encoding exch def currentdict end dup /FontName get exch definefont pop } def [/Times-Bold /Times-Italic /Times-BoldItalic /Helvetica /Helvetica-Oblique
 /Helvetica-Bold /Helvetica-BoldOblique /Courier /Courier-Oblique /Courier-Bold /Courier-BoldOblique /Times-Roman /AvantGarde-Book /AvantGarde-BookOblique /AvantGarde-Demi /AvantGarde-DemiOblique /Bookman-Demi /Bookman-DemiItalic /Bookman-Light
 /Bookman-LightItalic /Helvetica-Narrow /Helvetica-Narrow-Bold /Helvetica-Narrow-BoldOblique /Helvetica-Narrow-Oblique /NewCenturySchlbk-Roman /NewCenturySchlbk-Bold /NewCenturySchlbk-BoldItalic /NewCenturySchlbk-Italic /Palatino-Bold
 /Palatino-BoldItalic /Palatino-Italic /Palatino-Roman ] {ISOLatin1Encoding reEncode } forall
%%EndProlog
%%BeginSetup
%%EndSetup
newpath  gsave  .25 .25 scale  gsave  0 0 t black[  ] 0 sd 6 lw 1 1 1 c 2268 2234 0 0 bf black 3 lw 1 1 1 c 1882 1966 340 223 bf black 1882 1966 340 223 bl 1 1 1 c 1882 1966 340 223 bf black 1882 1966 340 223 bl 0 0 1 c 6 lw 1 1 1 c 0 0 1 c 390 1139
 m 15 Y s 390 1165 m 15 Y s 3 lw /w 14 def /w2 {w 2 div} def /w3 {w 3 div} def 390 1159 m21 6 lw 394 1137 m 12 Y s 394 1161 m 12 Y s 3 lw 394 1155 m21 6 lw 399 1103 m 11 Y s 399 1126 m 10 Y s 3 lw 399 1120 m21 6 lw 404 1197 m 11 Y s 404 1219 m 11 Y s
 3 lw 404 1214 m21 6 lw 408 1153 m 9 Y s 408 1173 m 10 Y s 3 lw 408 1168 m21 6 lw 413 1141 m 8 Y s 413 1161 m 8 Y s 3 lw 413 1155 m21 6 lw 418 1153 m 8 Y s 418 1172 m 8 Y s 3 lw 418 1166 m21 6 lw 423 1169 m 7 Y s 423 1187 m 8 Y s 3 lw 423 1182 m21 6
 lw 427 1180 m 6 Y s 427 1198 m 7 Y s 3 lw 427 1192 m21 6 lw 432 1201 m 6 Y s 432 1218 m 7 Y s 3 lw 432 1213 m21 6 lw 437 1166 m 6 Y s 437 1183 m 6 Y s 3 lw 437 1178 m21 6 lw 441 1178 m 6 Y s 441 1195 m 5 Y s 3 lw 441 1189 m21 6 lw 446 1188 m 5 Y s
 446 1204 m 5 Y s 3 lw 446 1198 m21 6 lw 451 1187 m 5 Y s 451 1203 m 5 Y s 3 lw 451 1198 m21 6 lw 455 1183 m 4 Y s 455 1198 m 5 Y s 3 lw 455 1193 m21 6 lw 460 1185 m 4 Y s 460 1200 m 4 Y s 3 lw 460 1194 m21 6 lw 465 1207 m 3 Y s 465 1222 m 4 Y s 3 lw
 465 1216 m21 6 lw 470 1187 m 3 Y s 470 1201 m 4 Y s 3 lw 470 1196 m21 6 lw 474 1194 m 3 Y s 474 1208 m 3 Y s 3 lw 474 1202 m21 6 lw 479 1205 m 3 Y s 479 1220 m 3 Y s 3 lw 479 1214 m21 6 lw 484 1206 m 3 Y s 484 1221 m 2 Y s 3 lw 484 1215 m21 6 lw 488
 1216 m 3 Y s 488 1230 m 3 Y s 3 lw 488 1224 m21 6 lw 493 1197 m 2 Y s 493 1211 m 2 Y s 3 lw 493 1205 m21 6 lw 498 1191 m 2 Y s 498 1204 m 3 Y s 3 lw 498 1199 m21 6 lw 502 1212 m 3 Y s 502 1226 m 2 Y s 3 lw 502 1220 m21 6 lw 507 1196 m 2 Y s 507 1210
 m 2 Y s 3 lw 507 1204 m21 6 lw 512 1194 m 2 Y s 512 1207 m 2 Y s 3 lw 512 1201 m21 6 lw 517 1192 m 1 Y s 517 1205 m 2 Y s 3 lw 517 1199 m21 6 lw 521 1196 m 2 Y s 521 1209 m 2 Y s 3 lw 521 1203 m21 6 lw 526 1203 m 2 Y s 526 1216 m 2 Y s 3 lw 526 1211
 m21 6 lw 531 1206 m 1 Y s 531 1219 m 1 Y s 3 lw 531 1213 m21 6 lw 535 1199 m 2 Y s 535 1212 m 1 Y s 3 lw 535 1206 m21 6 lw 540 1196 m 1 Y s 540 1208 m 1 Y s 3 lw 540 1203 m21 6 lw 545 1187 m 1 Y s 545 1199 m 2 Y s 3 lw 545 1194 m21 6 lw 550 1184 m 1
 Y s 550 1197 m 1 Y s 3 lw 550 1191 m21 6 lw 554 1187 m 1 Y s 554 1199 m 1 Y s 3 lw 554 1193 m21 6 lw 559 1186 m 1 Y s 559 1199 m 1 Y s 3 lw 559 1193 m21 6 lw 564 1192 m s 564 1204 m 1 Y s 3 lw 564 1198 m21 6 lw 568 1204 m 1 Y s 568 1216 m 1 Y s 3 lw
 568 1211 m21 6 lw 573 1192 m 1 Y s 573 1205 m s 3 lw 573 1199 m21 6 lw 578 1186 m s 578 1198 m s 3 lw 578 1192 m21 6 lw 582 1193 m 1 Y s 582 1205 m 1 Y s 3 lw 582 1199 m21 6 lw 587 1189 m s 587 1200 m 1 Y s 3 lw 587 1195 m21 6 lw 592 1187 m 1 Y s
 592 1199 m 1 Y s 3 lw 592 1194 m21 6 lw 597 1196 m s 597 1208 m s 3 lw 597 1202 m21 6 lw 601 1177 m 1 Y s 601 1189 m s 3 lw 601 1183 m21 6 lw 606 1191 m 1 Y s 606 1203 m s 3 lw 606 1197 m21 6 lw 611 1189 m s 611 1200 m s 3 lw 611 1194 m21 6 lw 615
 1185 m 1 Y s 615 1197 m s 3 lw 615 1191 m21 6 lw 620 1172 m s 620 1184 m s 3 lw 620 1178 m21 6 lw 625 1182 m s 625 1194 m s 3 lw 625 1188 m21 6 lw 3 lw 630 1177 m21 6 lw 3 lw 634 1194 m21 6 lw 3 lw 639 1194 m21 6 lw 3 lw 644 1192 m21 6 lw 3 lw 648
 1175 m21 6 lw 3 lw 653 1172 m21 6 lw 3 lw 658 1175 m21 6 lw 3 lw 662 1182 m21 6 lw 3 lw 667 1182 m21 6 lw 3 lw 672 1177 m21 6 lw 3 lw 677 1167 m21 6 lw 3 lw 681 1172 m21 6 lw 3 lw 686 1182 m21 6 lw 3 lw 691 1178 m21 6 lw 3 lw 695 1169 m21 6 lw 3 lw
 700 1174 m21 6 lw 3 lw 705 1169 m21 6 lw 3 lw 710 1173 m21 6 lw 3 lw 714 1170 m21 6 lw 3 lw 719 1167 m21 6 lw 3 lw 724 1162 m21 6 lw 3 lw 728 1165 m21 6 lw 3 lw 733 1165 m21 6 lw 3 lw 738 1171 m21 6 lw 3 lw 742 1162 m21 6 lw 3 lw 747 1163 m21 6 lw 3
 lw 752 1154 m21 6 lw 3 lw 757 1163 m21 6 lw 3 lw 761 1150 m21 6 lw 3 lw 766 1160 m21 6 lw 3 lw 771 1166 m21 6 lw 3 lw 775 1158 m21 6 lw 3 lw 780 1164 m21 6 lw 3 lw 785 1157 m21 6 lw 3 lw 790 1148 m21 6 lw 3 lw 794 1151 m21 6 lw 3 lw 799 1147 m21 6
 lw 3 lw 804 1149 m21 6 lw 3 lw 808 1154 m21 6 lw 3 lw 813 1158 m21 6 lw 3 lw 818 1153 m21 6 lw 3 lw 822 1149 m21 6 lw 3 lw 827 1149 m21 6 lw 3 lw 832 1156 m21 6 lw 3 lw 837 1144 m21 6 lw 3 lw 841 1146 m21 6 lw 3 lw 846 1140 m21 6 lw 3 lw 851 1139
 m21 6 lw 3 lw 855 1138 m21 6 lw 3 lw 860 1144 m21 6 lw 3 lw 865 1144 m21 6 lw 3 lw 870 1140 m21 6 lw 3 lw 874 1137 m21 6 lw 3 lw 879 1144 m21 6 lw 3 lw 884 1148 m21 6 lw 3 lw 888 1143 m21 6 lw 3 lw 893 1134 m21 6 lw 3 lw 898 1133 m21 6 lw 3 lw 902
 1127 m21 6 lw 3 lw 907 1146 m21 6 lw 3 lw 912 1132 m21 6 lw 3 lw 917 1127 m21 6 lw 3 lw 921 1132 m21 6 lw 3 lw 926 1133 m21 6 lw 3 lw 931 1127 m21 6 lw 3 lw 935 1132 m21 6 lw 3 lw 940 1134 m21 6 lw 3 lw 945 1127 m21 6 lw 3 lw 950 1120 m21 6 lw 3 lw
 954 1127 m21 6 lw 3 lw 959 1126 m21 6 lw 3 lw 964 1120 m21 6 lw 3 lw 968 1124 m21 6 lw 3 lw 973 1117 m21 6 lw 3 lw 978 1124 m21 6 lw 3 lw 982 1118 m21 6 lw 3 lw 987 1116 m21 6 lw 3 lw 992 1123 m21 6 lw 3 lw 997 1121 m21 6 lw 3 lw 1001 1118 m21 6 lw
 3 lw 1006 1116 m21 6 lw 3 lw 1011 1118 m21 6 lw 3 lw 1015 1120 m21 6 lw 3 lw 1020 1112 m21 6 lw 3 lw 1025 1118 m21 6 lw 3 lw 1030 1113 m21 6 lw 3 lw 1034 1111 m21 6 lw 3 lw 1039 1117 m21 6 lw 3 lw 1044 1118 m21 6 lw 3 lw 1048 1112 m21 6 lw 3 lw 1053
 1119 m21 6 lw 3 lw 1058 1108 m21 6 lw 3 lw 1062 1106 m21 6 lw 3 lw 1067 1105 m21 6 lw 3 lw 1072 1108 m21 6 lw 3 lw 1077 1102 m21 6 lw 3 lw 1081 1104 m21 6 lw 3 lw 1086 1112 m21 6 lw 3 lw 1091 1103 m21 6 lw 3 lw 1095 1109 m21 6 lw 3 lw 1100 1114 m21
 6 lw 3 lw 1105 1103 m21 6 lw 3 lw 1110 1108 m21 6 lw 3 lw 1114 1105 m21 6 lw 3 lw 1119 1101 m21 6 lw 3 lw 1124 1100 m21 6 lw 3 lw 1128 1102 m21 6 lw 3 lw 1133 1109 m21 6 lw 3 lw 1138 1097 m21 6 lw 3 lw 1142 1102 m21 6 lw 3 lw 1147 1095 m21 6 lw 3 lw
 1152 1103 m21 6 lw 3 lw 1157 1095 m21 6 lw 3 lw 1161 1092 m21 6 lw 3 lw 1166 1092 m21 6 lw 3 lw 1171 1104 m21 6 lw 3 lw 1175 1086 m21 6 lw 3 lw 1180 1097 m21 6 lw 3 lw 1185 1096 m21 6 lw 3 lw 1190 1087 m21 6 lw 3 lw 1194 1078 m21 6 lw 3 lw 1199 1091
 m21 6 lw 3 lw 1204 1087 m21 6 lw 3 lw 1208 1095 m21 6 lw 3 lw 1213 1090 m21 6 lw 3 lw 1218 1083 m21 6 lw 3 lw 1222 1088 m21 6 lw 3 lw 1227 1084 m21 6 lw 3 lw 1232 1098 m21 6 lw 3 lw 1237 1083 m21 6 lw 3 lw 1241 1099 m21 6 lw 3 lw 1246 1088 m21 6 lw
 3 lw 1251 1089 m21 6 lw 3 lw 1255 1086 m21 6 lw 3 lw 1260 1083 m21 6 lw 3 lw 1265 1078 m21 6 lw 3 lw 1269 1079 m21 6 lw 3 lw 1274 1086 m21 6 lw 3 lw 1279 1090 m21 6 lw 3 lw 1284 1080 m21 6 lw 3 lw 1288 1080 m21 6 lw 3 lw 1293 1089 m21 6 lw 3 lw 1298
 1087 m21 6 lw 3 lw 1302 1080 m21 6 lw 3 lw 1307 1088 m21 6 lw 3 lw 1312 1082 m21 6 lw 3 lw 1317 1077 m21 6 lw 3 lw 1321 1069 m21 6 lw 3 lw 1326 1080 m21 6 lw 3 lw 1331 1087 m21 6 lw 3 lw 1335 1078 m21 6 lw 3 lw 1340 1080 m21 6 lw 3 lw 1345 1079 m21
 6 lw 3 lw 1349 1072 m21 6 lw 3 lw 1354 1076 m21 6 lw 3 lw 1359 1088 m21 6 lw 3 lw 1364 1066 m21 6 lw 3 lw 1368 1082 m21 6 lw 3 lw 1373 1086 m21 6 lw 3 lw 1378 1073 m21 6 lw 3 lw 1382 1080 m21 6 lw 3 lw 1387 1075 m21 6 lw 3 lw 1392 1078 m21 6 lw 3 lw
 1397 1076 m21 6 lw 3 lw 1401 1062 m21 6 lw 3 lw 1406 1083 m21 6 lw 3 lw 1411 1076 m21 6 lw 3 lw 1415 1080 m21 6 lw 3 lw 1420 1077 m21 6 lw 3 lw 1425 1075 m21 6 lw 1429 1072 m s 1429 1084 m s 3 lw 1429 1078 m21 6 lw 1434 1067 m s 1434 1079 m s 3 lw
 1434 1073 m21 6 lw 1439 1068 m s 1439 1079 m 1 Y s 3 lw 1439 1074 m21 6 lw 1444 1074 m s 1444 1086 m s 3 lw 1444 1080 m21 6 lw 1448 1059 m s 1448 1070 m s 3 lw 1448 1065 m21 6 lw 1453 1072 m s 1453 1084 m s 3 lw 1453 1078 m21 6 lw 1458 1060 m s 1458
 1072 m s 3 lw 1458 1066 m21 6 lw 1462 1066 m s 1462 1077 m s 3 lw 1462 1072 m21 6 lw 1467 1070 m s 1467 1082 m s 3 lw 1467 1076 m21 6 lw 1472 1069 m s 1472 1081 m s 3 lw 1472 1075 m21 6 lw 1477 1073 m 1 Y s 1477 1085 m s 3 lw 1477 1079 m21 6 lw 1481
 1069 m s 1481 1080 m 1 Y s 3 lw 1481 1075 m21 6 lw 1486 1068 m 1 Y s 1486 1080 m s 3 lw 1486 1074 m21 6 lw 1491 1063 m s 1491 1074 m 1 Y s 3 lw 1491 1069 m21 6 lw 1495 1074 m 1 Y s 1495 1086 m s 3 lw 1495 1080 m21 6 lw 1500 1071 m 1 Y s 1500 1083 m
 1 Y s 3 lw 1500 1078 m21 6 lw 1505 1066 m s 1505 1077 m 1 Y s 3 lw 1505 1072 m21 6 lw 1509 1070 m 1 Y s 1509 1082 m 1 Y s 3 lw 1509 1077 m21 6 lw 1514 1070 m s 1514 1082 m s 3 lw 1514 1076 m21 6 lw 1519 1060 m s 1519 1072 m s 3 lw 1519 1066 m21 6 lw
 1524 1063 m 1 Y s 1524 1075 m s 3 lw 1524 1069 m21 6 lw 1528 1058 m s 1528 1069 m 1 Y s 3 lw 1528 1064 m21 6 lw 1533 1069 m s 1533 1081 m s 3 lw 1533 1075 m21 6 lw 1538 1064 m s 1538 1076 m s 3 lw 1538 1070 m21 6 lw 1542 1058 m s 1542 1070 m s 3 lw
 1542 1064 m21 6 lw 1547 1067 m 1 Y s 1547 1079 m 1 Y s 3 lw 1547 1074 m21 6 lw 1552 1069 m 1 Y s 1552 1081 m s 3 lw 1552 1075 m21 6 lw 1557 1071 m s 1557 1083 m s 3 lw 1557 1077 m21 6 lw 1561 1066 m 1 Y s 1561 1078 m 1 Y s 3 lw 1561 1072 m21 6 lw
 1566 1078 m s 1566 1090 m s 3 lw 1566 1084 m21 6 lw 1571 1064 m 1 Y s 1571 1076 m 1 Y s 3 lw 1571 1070 m21 6 lw 1575 1063 m 1 Y s 1575 1075 m 1 Y s 3 lw 1575 1069 m21 6 lw 1580 1069 m 1 Y s 1580 1081 m 1 Y s 3 lw 1580 1075 m21 6 lw 1585 1072 m 1 Y s
 1585 1084 m 1 Y s 3 lw 1585 1078 m21 6 lw 1589 1067 m 1 Y s 1589 1079 m 1 Y s 3 lw 1589 1073 m21 6 lw 1594 1071 m 1 Y s 1594 1083 m 1 Y s 3 lw 1594 1078 m21 6 lw 1599 1063 m 1 Y s 1599 1075 m 1 Y s 3 lw 1599 1069 m21 6 lw 1604 1071 m 1 Y s 1604 1083
 m 1 Y s 3 lw 1604 1077 m21 6 lw 1608 1073 m 1 Y s 1608 1086 m 1 Y s 3 lw 1608 1080 m21 6 lw 1613 1065 m 1 Y s 1613 1078 m 1 Y s 3 lw 1613 1072 m21 6 lw 1618 1073 m 1 Y s 1618 1085 m 1 Y s 3 lw 1618 1079 m21 6 lw 1622 1066 m 1 Y s 1622 1079 m 1 Y s 3
 lw 1622 1073 m21 6 lw 1627 1073 m 1 Y s 1627 1086 m 1 Y s 3 lw 1627 1080 m21 6 lw 1632 1067 m 2 Y s 1632 1080 m 1 Y s 3 lw 1632 1074 m21 6 lw 1637 1063 m 1 Y s 1637 1076 m 1 Y s 3 lw 1637 1070 m21 6 lw 1641 1074 m 1 Y s 1641 1086 m 1 Y s 3 lw 1641
 1080 m21 6 lw 1646 1058 m 1 Y s 1646 1071 m 1 Y s 3 lw 1646 1065 m21 6 lw 1651 1076 m 1 Y s 1651 1089 m 1 Y s 3 lw 1651 1083 m21 6 lw 1655 1061 m 2 Y s 1655 1074 m 1 Y s 3 lw 1655 1068 m21 6 lw 1660 1059 m 1 Y s 1660 1072 m 1 Y s 3 lw 1660 1066 m21
 6 lw 1665 1065 m 1 Y s 1665 1078 m 1 Y s 3 lw 1665 1072 m21 6 lw 1669 1066 m 2 Y s 1669 1079 m 1 Y s 3 lw 1669 1073 m21 6 lw 1674 1059 m 1 Y s 1674 1072 m 1 Y s 3 lw 1674 1066 m21 6 lw 1679 1064 m 1 Y s 1679 1077 m 1 Y s 3 lw 1679 1071 m21 6 lw 1684
 1062 m 1 Y s 1684 1075 m 1 Y s 3 lw 1684 1069 m21 6 lw 1688 1077 m 2 Y s 1688 1090 m 2 Y s 3 lw 1688 1084 m21 6 lw 1693 1063 m 1 Y s 1693 1076 m 1 Y s 3 lw 1693 1070 m21 6 lw 1698 1076 m 1 Y s 1698 1088 m 2 Y s 3 lw 1698 1083 m21 6 lw 1702 1068 m 1
 Y s 1702 1081 m 1 Y s 3 lw 1702 1075 m21 6 lw 1707 1070 m 2 Y s 1707 1083 m 2 Y s 3 lw 1707 1077 m21 6 lw 1712 1076 m 2 Y s 1712 1089 m 2 Y s 3 lw 1712 1084 m21 6 lw 1717 1069 m 1 Y s 1717 1082 m 1 Y s 3 lw 1717 1076 m21 6 lw 1721 1062 m 1 Y s 1721
 1075 m 1 Y s 3 lw 1721 1069 m21 6 lw 1726 1063 m 1 Y s 1726 1076 m 1 Y s 3 lw 1726 1070 m21 6 lw 1731 1073 m 1 Y s 1731 1086 m 1 Y s 3 lw 1731 1080 m21 6 lw 1735 1082 m 2 Y s 1735 1095 m 2 Y s 3 lw 1735 1089 m21 6 lw 1740 1069 m 2 Y s 1740 1082 m 2
 Y s 3 lw 1740 1076 m21 6 lw 1745 1066 m 2 Y s 1745 1080 m 1 Y s 3 lw 1745 1074 m21 6 lw 1749 1059 m 2 Y s 1749 1072 m 2 Y s 3 lw 1749 1066 m21 6 lw 1754 1076 m 2 Y s 1754 1089 m 2 Y s 3 lw 1754 1084 m21 6 lw 1759 1079 m 2 Y s 1759 1092 m 2 Y s 3 lw
 1759 1086 m21 6 lw 1764 1061 m 2 Y s 1764 1075 m 1 Y s 3 lw 1764 1069 m21 6 lw 1768 1083 m 1 Y s 1768 1096 m 2 Y s 3 lw 1768 1090 m21 6 lw 1773 1064 m 1 Y s 1773 1077 m 2 Y s 3 lw 1773 1071 m21 6 lw 1778 1083 m 2 Y s 1778 1096 m 2 Y s 3 lw 1778 1090
 m21 6 lw 1782 1069 m 2 Y s 1782 1082 m 2 Y s 3 lw 1782 1077 m21 6 lw 1787 1067 m 2 Y s 1787 1080 m 2 Y s 3 lw 1787 1074 m21 6 lw 1792 1062 m 2 Y s 1792 1075 m 2 Y s 3 lw 1792 1069 m21 6 lw 1797 1061 m 2 Y s 1797 1075 m 2 Y s 3 lw 1797 1069 m21 6 lw
 1801 1085 m 2 Y s 1801 1099 m 2 Y s 3 lw 1801 1093 m21 6 lw 1806 1066 m 2 Y s 1806 1080 m 2 Y s 3 lw 1806 1074 m21 6 lw 1811 1063 m 2 Y s 1811 1077 m 2 Y s 3 lw 1811 1071 m21 6 lw 1815 1070 m 2 Y s 1815 1084 m 2 Y s 3 lw 1815 1078 m21 6 lw 1820 1070
 m 2 Y s 1820 1084 m 2 Y s 3 lw 1820 1078 m21 6 lw 1825 1068 m 2 Y s 1825 1082 m 2 Y s 3 lw 1825 1076 m21 6 lw 1829 1079 m 2 Y s 1829 1093 m 2 Y s 3 lw 1829 1087 m21 6 lw 1834 1074 m 2 Y s 1834 1087 m 3 Y s 3 lw 1834 1082 m21 6 lw 1839 1066 m 2 Y s
 1839 1080 m 2 Y s 3 lw 1839 1074 m21 6 lw 1844 1059 m 3 Y s 1844 1073 m 2 Y s 3 lw 1844 1067 m21 6 lw 1848 1063 m 3 Y s 1848 1077 m 2 Y s 3 lw 1848 1071 m21 6 lw 1853 1078 m 2 Y s 1853 1091 m 3 Y s 3 lw 1853 1086 m21 6 lw 1858 1081 m 3 Y s 1858 1095
 m 3 Y s 3 lw 1858 1089 m21 6 lw 1862 1077 m 2 Y s 1862 1091 m 2 Y s 3 lw 1862 1085 m21 6 lw 1867 1066 m 3 Y s 1867 1080 m 3 Y s 3 lw 1867 1074 m21 6 lw 1872 1076 m 3 Y s 1872 1090 m 3 Y s 3 lw 1872 1084 m21 6 lw 1877 1088 m 2 Y s 1877 1102 m 3 Y s 3
 lw 1877 1096 m21 6 lw 1881 1072 m 3 Y s 1881 1086 m 3 Y s 3 lw 1881 1081 m21 6 lw 1886 1062 m 3 Y s 1886 1076 m 3 Y s 3 lw 1886 1071 m21 6 lw 1891 1069 m 3 Y s 1891 1083 m 3 Y s 3 lw 1891 1077 m21 6 lw 1895 1071 m 3 Y s 1895 1085 m 3 Y s 3 lw 1895
 1079 m21 6 lw 1900 1075 m 3 Y s 1900 1089 m 3 Y s 3 lw 1900 1083 m21 6 lw 1905 1083 m 3 Y s 1905 1097 m 3 Y s 3 lw 1905 1091 m21 6 lw 1909 1075 m 3 Y s 1909 1089 m 3 Y s 3 lw 1909 1083 m21 6 lw 1914 1061 m 3 Y s 1914 1075 m 3 Y s 3 lw 1914 1069 m21
 6 lw 1919 1067 m 3 Y s 1919 1082 m 3 Y s 3 lw 1919 1076 m21 6 lw 1924 1069 m 3 Y s 1924 1083 m 3 Y s 3 lw 1924 1078 m21 6 lw 1928 1073 m 3 Y s 1928 1088 m 3 Y s 3 lw 1928 1082 m21 6 lw 1933 1070 m 3 Y s 1933 1085 m 3 Y s 3 lw 1933 1079 m21 6 lw 1938
 1067 m 3 Y s 1938 1082 m 3 Y s 3 lw 1938 1076 m21 6 lw 1942 1070 m 3 Y s 1942 1084 m 3 Y s 3 lw 1942 1079 m21 6 lw 1947 1080 m 3 Y s 1947 1094 m 4 Y s 3 lw 1947 1089 m21 6 lw 1952 1086 m 3 Y s 1952 1100 m 3 Y s 3 lw 1952 1095 m21 6 lw 1957 1082 m 3
 Y s 1957 1096 m 4 Y s 3 lw 1957 1091 m21 6 lw 1961 1072 m 3 Y s 1961 1087 m 3 Y s 3 lw 1961 1081 m21 6 lw 1966 1083 m 4 Y s 1966 1098 m 3 Y s 3 lw 1966 1092 m21 6 lw 1971 1075 m 4 Y s 1971 1090 m 4 Y s 3 lw 1971 1084 m21 6 lw 1975 1079 m 3 Y s 1975
 1094 m 3 Y s 3 lw 1975 1088 m21 6 lw 1980 1078 m 4 Y s 1980 1093 m 3 Y s 3 lw 1980 1087 m21 6 lw 1985 1067 m 3 Y s 1985 1082 m 3 Y s 3 lw 1985 1076 m21 6 lw 1989 1051 m 3 Y s 1989 1065 m 4 Y s 3 lw 1989 1060 m21 6 lw 1994 1075 m 3 Y s 1994 1090 m 3
 Y s 3 lw 1994 1084 m21 6 lw 1999 1076 m 4 Y s 1999 1091 m 4 Y s 3 lw 1999 1086 m21 6 lw 2004 1050 m 3 Y s 2004 1065 m 3 Y s 3 lw 2004 1059 m21 6 lw 2008 1070 m 3 Y s 2008 1085 m 3 Y s 3 lw 2008 1079 m21 6 lw 2013 1073 m 4 Y s 2013 1088 m 4 Y s 3 lw
 2013 1082 m21 6 lw 2018 1076 m 4 Y s 2018 1091 m 4 Y s 3 lw 2018 1085 m21 6 lw 2022 1077 m 4 Y s 2022 1092 m 4 Y s 3 lw 2022 1087 m21 6 lw 2027 1084 m 4 Y s 2027 1099 m 4 Y s 3 lw 2027 1093 m21 6 lw 2032 1084 m 4 Y s 2032 1099 m 4 Y s 3 lw 2032 1093
 m21 6 lw 2036 1076 m 4 Y s 2036 1091 m 4 Y s 3 lw 2036 1086 m21 6 lw 2041 1090 m 4 Y s 2041 1106 m 4 Y s 3 lw 2041 1100 m21 6 lw 2046 1065 m 4 Y s 2046 1080 m 4 Y s 3 lw 2046 1074 m21 6 lw 2051 1066 m 4 Y s 2051 1082 m 3 Y s 3 lw 2051 1076 m21 6 lw
 2055 1066 m 4 Y s 2055 1081 m 4 Y s 3 lw 2055 1076 m21 6 lw 2060 1075 m 4 Y s 2060 1090 m 5 Y s 3 lw 2060 1085 m21 6 lw 2065 1075 m 4 Y s 2065 1091 m 4 Y s 3 lw 2065 1085 m21 6 lw 2069 1077 m 4 Y s 2069 1092 m 5 Y s 3 lw 2069 1087 m21 6 lw 2074 1079
 m 4 Y s 2074 1094 m 5 Y s 3 lw 2074 1089 m21 6 lw 2079 1080 m 5 Y s 2079 1096 m 4 Y s 3 lw 2079 1090 m21 6 lw 2084 1102 m 4 Y s 2084 1118 m 4 Y s 3 lw 2084 1112 m21 6 lw 2088 1074 m 5 Y s 2088 1090 m 4 Y s 3 lw 2088 1084 m21 6 lw 2093 1077 m 5 Y s
 2093 1093 m 5 Y s 3 lw 2093 1088 m21 6 lw 2098 1077 m 4 Y s 2098 1093 m 4 Y s 3 lw 2098 1087 m21 6 lw 2102 1077 m 4 Y s 2102 1092 m 5 Y s 3 lw 2102 1087 m21 6 lw 2107 1070 m 5 Y s 2107 1086 m 4 Y s 3 lw 2107 1080 m21 6 lw 2112 1086 m 5 Y s 2112 1102
 m 5 Y s 3 lw 2112 1096 m21 6 lw 2116 1090 m 5 Y s 2116 1107 m 4 Y s 3 lw 2116 1101 m21 6 lw 2121 1086 m 4 Y s 2121 1102 m 4 Y s 3 lw 2121 1096 m21 6 lw 2126 1065 m 5 Y s 2126 1081 m 5 Y s 3 lw 2126 1076 m21 6 lw 2131 1087 m 5 Y s 2131 1103 m 5 Y s 3
 lw 2131 1097 m21 6 lw 2135 1075 m 5 Y s 2135 1091 m 5 Y s 3 lw 2135 1086 m21 6 lw 2140 1074 m 4 Y s 2140 1090 m 5 Y s 3 lw 2140 1084 m21 6 lw 2145 1098 m 6 Y s 2145 1115 m 5 Y s 3 lw 2145 1109 m21 6 lw 2149 1094 m 5 Y s 2149 1110 m 5 Y s 3 lw 2149
 1105 m21 6 lw 2154 1081 m 5 Y s 2154 1097 m 5 Y s 3 lw 2154 1092 m21 6 lw 2159 1096 m 5 Y s 2159 1112 m 5 Y s 3 lw 2159 1106 m21 6 lw 2164 1100 m 5 Y s 2164 1116 m 5 Y s 3 lw 2164 1110 m21 6 lw 2168 1084 m 5 Y s 2168 1101 m 5 Y s 3 lw 2168 1095 m21
 6 lw 2173 1080 m 5 Y s 2173 1097 m 5 Y s 3 lw 2173 1091 m21 6 lw 2178 1070 m 5 Y s 2178 1087 m 5 Y s 3 lw 2178 1081 m21 6 lw 2182 1086 m 5 Y s 2182 1102 m 6 Y s 3 lw 2182 1097 m21 6 lw 2187 1066 m 5 Y s 2187 1082 m 5 Y s 3 lw 2187 1077 m21 6 lw 2192
 1080 m 5 Y s 2192 1097 m 5 Y s 3 lw 2192 1091 m21 6 lw 2196 1104 m 6 Y s 2196 1121 m 6 Y s 3 lw 2196 1115 m21 6 lw 2201 1075 m 5 Y s 2201 1091 m 6 Y s 3 lw 2201 1086 m21 6 lw 2206 1070 m 5 Y s 2206 1086 m 6 Y s 3 lw 2206 1081 m21 6 lw 2211 1080 m 6
 Y s 2211 1097 m 6 Y s 3 lw 2211 1091 m21 6 lw 2215 1083 m 6 Y s 2215 1100 m 6 Y s 3 lw 2215 1095 m21 6 lw 2220 1085 m 6 Y s 2220 1102 m 6 Y s 3 lw 2220 1097 m21 6 lw black 340 223 m 1882 X s
 gsave  2268 2234 0 0 C 1923.86 58.2559 t 0 r /Helvetica findfont 83.8316 sf 0 0 m (Q [GeV]) show NC gr  340 279 m -56 Y s 387 251 m -28 Y s 434 251 m -28 Y s 481 251 m -28 Y s 528 279 m -56 Y s 575 251 m -28 Y s 622 251 m -28 Y s 670 251 m -28 Y s
 717 279 m -56 Y s 764 251 m -28 Y s 811 251 m -28 Y s 858 251 m -28 Y s 905 279 m -56 Y s 952 251 m -28 Y s 999 251 m -28 Y s 1046 251 m -28 Y s 1093 279 m -56 Y s 1140 251 m -28 Y s 1187 251 m -28 Y s 1234 251 m -28 Y s 1281 279 m -56 Y s 1328 251
 m -28 Y s 1375 251 m -28 Y s 1422 251 m -28 Y s 1469 279 m -56 Y s 1517 251 m -28 Y s 1564 251 m -28 Y s 1611 251 m -28 Y s 1658 279 m -56 Y s 1705 251 m -28 Y s 1752 251 m -28 Y s 1799 251 m -28 Y s 1846 279 m -56 Y s 1893 251 m -28 Y s 1940 251 m
 -28 Y s 1987 251 m -28 Y s 2034 279 m -56 Y s 2081 251 m -28 Y s 2128 251 m -28 Y s 2175 251 m -28 Y s 2222 279 m -56 Y s
 gsave  2268 2234 0 0 C 322.539 159.138 t 0 r /Helvetica findfont 62.5185 sf 0 0 m (0) show NC gr 
 gsave  2268 2234 0 0 C 484.518 159.138 t 0 r /Helvetica findfont 62.5185 sf 0 0 m (0.2) show NC gr 
 gsave  2268 2234 0 0 C 673.495 159.138 t 0 r /Helvetica findfont 62.5185 sf 0 0 m (0.4) show NC gr 
 gsave  2268 2234 0 0 C 861.05 159.138 t 0 r /Helvetica findfont 62.5185 sf 0 0 m (0.6) show NC gr 
 gsave  2268 2234 0 0 C 1050.03 159.138 t 0 r /Helvetica findfont 62.5185 sf 0 0 m (0.8) show NC gr 
 gsave  2268 2234 0 0 C 1268.84 159.138 t 0 r /Helvetica findfont 62.5185 sf 0 0 m (1) show NC gr 
 gsave  2268 2234 0 0 C 1426.56 159.138 t 0 r /Helvetica findfont 62.5185 sf 0 0 m (1.2) show NC gr 
 gsave  2268 2234 0 0 C 1614.11 159.138 t 0 r /Helvetica findfont 62.5185 sf 0 0 m (1.4) show NC gr 
 gsave  2268 2234 0 0 C 1803.09 159.138 t 0 r /Helvetica findfont 62.5185 sf 0 0 m (1.6) show NC gr 
 gsave  2268 2234 0 0 C 1990.65 159.138 t 0 r /Helvetica findfont 62.5185 sf 0 0 m (1.8) show NC gr 
 gsave  2268 2234 0 0 C 2205.2 159.138 t 0 r /Helvetica findfont 62.5185 sf 0 0 m (2) show NC gr  340 223 m 1966 Y s
 gsave  2268 2234 0 0 C 147.771 1547.33 t 90 r /Helvetica findfont 83.8316 sf 0 0 m (\(Q\) / \(0.005 GeV\)) show NC gr 
 gsave  2268 2234 0 0 C 174.768 1518.92 t 90 r /Helvetica findfont 55.4141 sf 0 0 m (2) show NC gr 
 gsave  2268 2234 0 0 C 147.771 1437.93 t 90 r /Helvetica findfont 83.8316 sf 0 0 m ( C) show NC gr  400 402 m -60 X s 370 491 m -30 X s 370 581 m -30 X s 370 670 m -30 X s 400 759 m -60 X s 370 849 m -30 X s 370 938 m -30 X s 370 1027 m -30 X s 400
 1117 m -60 X s 370 1206 m -30 X s 370 1295 m -30 X s 370 1385 m -30 X s 400 1474 m -60 X s 370 1564 m -30 X s 370 1653 m -30 X s 370 1742 m -30 X s 400 1832 m -60 X s 370 1921 m -30 X s 370 2010 m -30 X s 370 2100 m -30 X s 400 2189 m -60 X s 400
 402 m -60 X s 370 313 m -30 X s 370 223 m -30 X s
 gsave  2268 2234 0 0 C 242.97 379.374 t 0 r /Helvetica findfont 62.5185 sf 0 0 m (0.6) show NC gr 
 gsave  2268 2234 0 0 C 242.97 737.434 t 0 r /Helvetica findfont 62.5185 sf 0 0 m (0.8) show NC gr 
 gsave  2268 2234 0 0 C 305.488 1092.65 t 0 r /Helvetica findfont 62.5185 sf 0 0 m (1) show NC gr 
 gsave  2268 2234 0 0 C 242.97 1450.71 t 0 r /Helvetica findfont 62.5185 sf 0 0 m (1.2) show NC gr 
 gsave  2268 2234 0 0 C 242.97 1808.77 t 0 r /Helvetica findfont 62.5185 sf 0 0 m (1.4) show NC gr 
 gsave  2268 2234 0 0 C 242.97 2166.83 t 0 r /Helvetica findfont 62.5185 sf 0 0 m (1.6) show NC gr 
 gsave  2268 2234 0 0 C 906.518 670.653 t 0 r /Helvetica-Bold findfont 72.4646 sf 0 0 m (MC PIONS) show NC gr 
 gsave  2268 2234 0 0 C 906.518 558.404 t 0 r /Helvetica-Bold findfont 72.4646 sf 0 0 m (ref. sample: EVENT MIX) show NC gr 
 gsave  2268 2234 0 0 C 906.518 447.576 t 0 r /Helvetica-Bold findfont 72.4646 sf 0 0 m (VELO tracks multiplicity: 21 \255 60) show NC gr 
 gr  gr showpage
end
%%EOF
