%!PS-Adobe-2.0 EPSF-2.0
%%BoundingBox:  0 0 567 558
%%Title: ./RD_pion_0c65_h3001_1_h3401_1.eps: RD_pion_0c65_h3001_1_h3401_1
%%Creator: ROOT Version 6.06/02
%%CreationDate: Wed Feb  1 16:20:57 2017
%%DocumentNeededResources: ProcSet (FontSetInit)
%%EndComments
%%BeginProlog
80 dict begin
/s {stroke} def /l {lineto} def /m {moveto} def /t {translate} def
/r {rotate} def /rl {roll}  def /R {repeat} def
/d {rlineto} def /rm {rmoveto} def /gr {grestore} def /f {eofill} def
/c {setrgbcolor} def /black {0 setgray} def /sd {setdash} def
/cl {closepath} def /sf {scalefont setfont} def /lw {setlinewidth} def
/box {m dup 0 exch d exch 0 d 0 exch neg d cl} def
/NC{systemdict begin initclip end}def/C{NC box clip newpath}def
/bl {box s} def /bf {gsave box gsave f grestore 1 lw [] 0 sd s grestore} def /Y { 0 exch d} def /X { 0 d} def 
/K {{pop pop 0 moveto} exch kshow} bind def
/ita {/ang 15 def gsave [1 0 ang dup sin exch cos div 1 0 0] concat} def 
/mp {newpath /y exch def /x exch def} def
/side {[w .77 mul w .23 mul] .385 w mul sd w 0 l currentpoint t -144 r} def
/mr {mp x y w2 0 360 arc} def /m24 {mr s} def /m20 {mr f} def
/mb {mp x y w2 add m w2 neg 0 d 0 w neg d w 0 d 0 w d cl} def
/mt {mp x y w2 add m w2 neg w neg d w 0 d cl} def
/m21 {mb f} def /m25 {mb s} def /m22 {mt f} def /m26{mt s} def
/m23 {mp x y w2 sub m w2 w d w neg 0 d cl f} def
/m27 {mp x y w2 add m w3 neg w2 neg d w3 w2 neg d w3 w2 d cl s} def
/m28 {mp x w2 sub y w2 sub w3 add m w3 0 d  0 w3 neg d w3 0 d 0 w3 d w3 0 d  0 w3 d w3 neg 0 d 0 w3 d w3 neg 0 d 0 w3 neg d w3 neg 0 d cl s } def
/m29 {mp gsave x w2 sub y w2 add w3 sub m currentpoint t 4 {side} repeat cl fill gr} def
/m30 {mp gsave x w2 sub y w2 add w3 sub m currentpoint t 4 {side} repeat cl s gr} def
/m31 {mp x y w2 sub m 0 w d x w2 sub y m w 0 d x w2 sub y w2 add m w w neg d x w2 sub y w2 sub m w w d s} def
/m32 {mp x y w2 sub m w2 w d w neg 0 d cl s} def
/m33 {mp x y w2 add m w3 neg w2 neg d w3 w2 neg d w3 w2 d cl f} def
/m34 {mp x w2 sub y w2 sub w3 add m w3 0 d  0 w3 neg d w3 0 d 0 w3 d w3 0 d  0 w3 d w3 neg 0 d 0 w3 d w3 neg 0 d 0 w3 neg d w3 neg 0 d cl f } def
/m2 {mp x y w2 sub m 0 w d x w2 sub y m w 0 d s} def
/m5 {mp x w2 sub y w2 sub m w w d x w2 sub y w2 add m w w neg d s} def
%%IncludeResource: ProcSet (FontSetInit)
%%IncludeResource: font Times-Roman
%%IncludeResource: font Times-Italic
%%IncludeResource: font Times-Bold
%%IncludeResource: font Times-BoldItalic
%%IncludeResource: font Helvetica
%%IncludeResource: font Helvetica-Oblique
%%IncludeResource: font Helvetica-Bold
%%IncludeResource: font Helvetica-BoldOblique
%%IncludeResource: font Courier
%%IncludeResource: font Courier-Oblique
%%IncludeResource: font Courier-Bold
%%IncludeResource: font Courier-BoldOblique
%%IncludeResource: font Symbol
%%IncludeResource: font ZapfDingbats
/reEncode {exch findfont dup length dict begin {1 index /FID eq  {pop pop} {def} ifelse } forall /Encoding exch def currentdict end dup /FontName get exch definefont pop } def [/Times-Bold /Times-Italic /Times-BoldItalic /Helvetica /Helvetica-Oblique
 /Helvetica-Bold /Helvetica-BoldOblique /Courier /Courier-Oblique /Courier-Bold /Courier-BoldOblique /Times-Roman /AvantGarde-Book /AvantGarde-BookOblique /AvantGarde-Demi /AvantGarde-DemiOblique /Bookman-Demi /Bookman-DemiItalic /Bookman-Light
 /Bookman-LightItalic /Helvetica-Narrow /Helvetica-Narrow-Bold /Helvetica-Narrow-BoldOblique /Helvetica-Narrow-Oblique /NewCenturySchlbk-Roman /NewCenturySchlbk-Bold /NewCenturySchlbk-BoldItalic /NewCenturySchlbk-Italic /Palatino-Bold
 /Palatino-BoldItalic /Palatino-Italic /Palatino-Roman ] {ISOLatin1Encoding reEncode } forall
%%EndProlog
%%BeginSetup
%%EndSetup
newpath  gsave  .25 .25 scale  gsave  0 0 t black[  ] 0 sd 6 lw 1 1 1 c 2268 2234 0 0 bf black 3 lw 1 1 1 c 1882 1966 340 223 bf black 1882 1966 340 223 bl 1 1 1 c 1882 1966 340 223 bf black 1882 1966 340 223 bl 0 0 1 c 6 lw 1 1 1 c 0 0 1 c 390 1812
 m 25 Y s 390 1848 m 25 Y s 3 lw /w 14 def /w2 {w 2 div} def /w3 {w 3 div} def 390 1843 m21 6 lw 394 1846 m 23 Y s 394 1880 m 23 Y s 3 lw 394 1875 m21 6 lw 399 1768 m 20 Y s 399 1799 m 20 Y s 3 lw 399 1793 m21 6 lw 404 1750 m 18 Y s 404 1780 m 18 Y s
 3 lw 404 1774 m21 6 lw 408 1741 m 17 Y s 408 1769 m 17 Y s 3 lw 408 1764 m21 6 lw 413 1737 m 15 Y s 413 1763 m 16 Y s 3 lw 413 1758 m21 6 lw 418 1724 m 14 Y s 418 1749 m 14 Y s 3 lw 418 1744 m21 6 lw 423 1682 m 13 Y s 423 1706 m 13 Y s 3 lw 423 1700
 m21 6 lw 427 1686 m 12 Y s 427 1709 m 12 Y s 3 lw 427 1703 m21 6 lw 432 1646 m 11 Y s 432 1669 m 11 Y s 3 lw 432 1663 m21 6 lw 437 1646 m 10 Y s 437 1668 m 10 Y s 3 lw 437 1662 m21 6 lw 441 1635 m 10 Y s 441 1656 m 10 Y s 3 lw 441 1650 m21 6 lw 446
 1636 m 9 Y s 446 1657 m 9 Y s 3 lw 446 1651 m21 6 lw 451 1606 m 9 Y s 451 1627 m 8 Y s 3 lw 451 1621 m21 6 lw 455 1581 m 8 Y s 455 1600 m 9 Y s 3 lw 455 1595 m21 6 lw 460 1564 m 7 Y s 460 1583 m 8 Y s 3 lw 460 1577 m21 6 lw 465 1532 m 7 Y s 465 1551
 m 7 Y s 3 lw 465 1545 m21 6 lw 470 1548 m 7 Y s 470 1566 m 7 Y s 3 lw 470 1560 m21 6 lw 474 1550 m 7 Y s 474 1568 m 7 Y s 3 lw 474 1562 m21 6 lw 479 1515 m 6 Y s 479 1532 m 7 Y s 3 lw 479 1527 m21 6 lw 484 1502 m 6 Y s 484 1519 m 6 Y s 3 lw 484 1514
 m21 6 lw 488 1508 m 5 Y s 488 1525 m 6 Y s 3 lw 488 1519 m21 6 lw 493 1486 m 6 Y s 493 1503 m 6 Y s 3 lw 493 1498 m21 6 lw 498 1467 m 6 Y s 498 1484 m 5 Y s 3 lw 498 1478 m21 6 lw 502 1450 m 5 Y s 502 1466 m 5 Y s 3 lw 502 1461 m21 6 lw 507 1464 m 5
 Y s 507 1480 m 5 Y s 3 lw 507 1475 m21 6 lw 512 1437 m 5 Y s 512 1453 m 5 Y s 3 lw 512 1447 m21 6 lw 517 1414 m 5 Y s 517 1430 m 4 Y s 3 lw 517 1424 m21 6 lw 521 1423 m 4 Y s 521 1439 m 4 Y s 3 lw 521 1433 m21 6 lw 526 1395 m 4 Y s 526 1411 m 4 Y s
 3 lw 526 1405 m21 6 lw 531 1413 m 4 Y s 531 1429 m 4 Y s 3 lw 531 1423 m21 6 lw 535 1381 m 3 Y s 535 1396 m 3 Y s 3 lw 535 1390 m21 6 lw 540 1391 m 4 Y s 540 1406 m 4 Y s 3 lw 540 1401 m21 6 lw 545 1375 m 4 Y s 545 1390 m 3 Y s 3 lw 545 1384 m21 6
 lw 550 1368 m 3 Y s 550 1382 m 4 Y s 3 lw 550 1377 m21 6 lw 554 1353 m 3 Y s 554 1368 m 3 Y s 3 lw 554 1362 m21 6 lw 559 1334 m 3 Y s 559 1348 m 3 Y s 3 lw 559 1343 m21 6 lw 564 1347 m 3 Y s 564 1362 m 3 Y s 3 lw 564 1356 m21 6 lw 568 1324 m 3 Y s
 568 1338 m 3 Y s 3 lw 568 1332 m21 6 lw 573 1320 m 3 Y s 573 1334 m 3 Y s 3 lw 573 1328 m21 6 lw 578 1329 m 2 Y s 578 1343 m 2 Y s 3 lw 578 1337 m21 6 lw 582 1313 m 3 Y s 582 1327 m 3 Y s 3 lw 582 1322 m21 6 lw 587 1309 m 2 Y s 587 1323 m 2 Y s 3 lw
 587 1317 m21 6 lw 592 1294 m 2 Y s 592 1308 m 2 Y s 3 lw 592 1302 m21 6 lw 597 1292 m 2 Y s 597 1306 m 2 Y s 3 lw 597 1300 m21 6 lw 601 1288 m 2 Y s 601 1302 m 2 Y s 3 lw 601 1296 m21 6 lw 606 1281 m 2 Y s 606 1294 m 2 Y s 3 lw 606 1289 m21 6 lw 611
 1257 m 2 Y s 611 1271 m 2 Y s 3 lw 611 1265 m21 6 lw 615 1262 m 2 Y s 615 1275 m 2 Y s 3 lw 615 1269 m21 6 lw 620 1265 m 2 Y s 620 1279 m 1 Y s 3 lw 620 1273 m21 6 lw 625 1257 m 2 Y s 625 1270 m 2 Y s 3 lw 625 1265 m21 6 lw 630 1249 m 1 Y s 630 1262
 m 1 Y s 3 lw 630 1256 m21 6 lw 634 1242 m 2 Y s 634 1255 m 2 Y s 3 lw 634 1249 m21 6 lw 639 1231 m 1 Y s 639 1244 m 1 Y s 3 lw 639 1238 m21 6 lw 644 1238 m 2 Y s 644 1251 m 2 Y s 3 lw 644 1246 m21 6 lw 648 1230 m 2 Y s 648 1243 m 1 Y s 3 lw 648 1237
 m21 6 lw 653 1231 m 1 Y s 653 1244 m 1 Y s 3 lw 653 1238 m21 6 lw 658 1213 m 2 Y s 658 1226 m 1 Y s 3 lw 658 1220 m21 6 lw 662 1218 m 1 Y s 662 1231 m 1 Y s 3 lw 662 1225 m21 6 lw 667 1223 m 1 Y s 667 1236 m 1 Y s 3 lw 667 1230 m21 6 lw 672 1206 m 1
 Y s 672 1219 m 1 Y s 3 lw 672 1213 m21 6 lw 677 1201 m 1 Y s 677 1214 m 1 Y s 3 lw 677 1208 m21 6 lw 681 1191 m 1 Y s 681 1203 m 1 Y s 3 lw 681 1198 m21 6 lw 686 1191 m 1 Y s 686 1203 m 1 Y s 3 lw 686 1198 m21 6 lw 691 1190 m 1 Y s 691 1203 m 1 Y s
 3 lw 691 1197 m21 6 lw 695 1195 m 1 Y s 695 1207 m 1 Y s 3 lw 695 1201 m21 6 lw 700 1188 m 1 Y s 700 1200 m 1 Y s 3 lw 700 1195 m21 6 lw 705 1190 m 1 Y s 705 1202 m 1 Y s 3 lw 705 1197 m21 6 lw 710 1165 m 1 Y s 710 1178 m s 3 lw 710 1172 m21 6 lw
 714 1159 m 1 Y s 714 1171 m 1 Y s 3 lw 714 1166 m21 6 lw 719 1158 m 1 Y s 719 1170 m 1 Y s 3 lw 719 1164 m21 6 lw 724 1178 m s 724 1190 m s 3 lw 724 1184 m21 6 lw 728 1164 m s 728 1176 m s 3 lw 728 1170 m21 6 lw 733 1151 m 1 Y s 733 1163 m 1 Y s 3
 lw 733 1157 m21 6 lw 738 1153 m s 738 1165 m s 3 lw 738 1159 m21 6 lw 742 1150 m s 742 1162 m s 3 lw 742 1156 m21 6 lw 747 1141 m 1 Y s 747 1153 m 1 Y s 3 lw 747 1148 m21 6 lw 752 1133 m s 752 1145 m s 3 lw 752 1139 m21 6 lw 757 1143 m 1 Y s 757
 1155 m 1 Y s 3 lw 757 1150 m21 6 lw 761 1141 m s 761 1153 m s 3 lw 761 1147 m21 6 lw 766 1126 m s 766 1138 m s 3 lw 766 1132 m21 6 lw 771 1131 m 1 Y s 771 1143 m 1 Y s 3 lw 771 1137 m21 6 lw 775 1132 m s 775 1144 m s 3 lw 775 1138 m21 6 lw 780 1125
 m 1 Y s 780 1137 m s 3 lw 780 1131 m21 6 lw 785 1117 m s 785 1128 m 1 Y s 3 lw 785 1123 m21 6 lw 790 1122 m s 790 1134 m s 3 lw 790 1128 m21 6 lw 794 1126 m 1 Y s 794 1138 m s 3 lw 794 1132 m21 6 lw 799 1121 m 1 Y s 799 1133 m s 3 lw 799 1127 m21 6
 lw 804 1108 m s 804 1120 m s 3 lw 804 1114 m21 6 lw 808 1109 m s 808 1121 m s 3 lw 808 1115 m21 6 lw 813 1102 m s 813 1114 m s 3 lw 813 1108 m21 6 lw 818 1113 m s 818 1125 m s 3 lw 818 1119 m21 6 lw 822 1098 m s 822 1109 m s 3 lw 822 1103 m21 6 lw
 827 1104 m 1 Y s 827 1116 m s 3 lw 827 1110 m21 6 lw 832 1103 m s 832 1115 m s 3 lw 832 1109 m21 6 lw 837 1096 m s 837 1108 m s 3 lw 837 1102 m21 6 lw 841 1099 m s 841 1111 m s 3 lw 841 1105 m21 6 lw 846 1111 m s 846 1122 m 1 Y s 3 lw 846 1117 m21 6
 lw 851 1099 m s 851 1110 m s 3 lw 851 1104 m21 6 lw 855 1088 m 1 Y s 855 1100 m s 3 lw 855 1094 m21 6 lw 860 1083 m s 860 1095 m s 3 lw 860 1089 m21 6 lw 865 1093 m s 865 1105 m s 3 lw 865 1099 m21 6 lw 870 1086 m s 870 1098 m s 3 lw 870 1092 m21 6
 lw 874 1086 m 1 Y s 874 1098 m s 3 lw 874 1092 m21 6 lw 879 1081 m 1 Y s 879 1093 m s 3 lw 879 1087 m21 6 lw 884 1088 m 1 Y s 884 1100 m s 3 lw 884 1094 m21 6 lw 888 1081 m s 888 1092 m 1 Y s 3 lw 888 1087 m21 6 lw 893 1075 m s 893 1086 m s 3 lw 893
 1081 m21 6 lw 898 1076 m s 898 1087 m 1 Y s 3 lw 898 1082 m21 6 lw 902 1077 m s 902 1089 m s 3 lw 902 1083 m21 6 lw 907 1065 m s 907 1077 m s 3 lw 907 1071 m21 6 lw 912 1069 m s 912 1080 m s 3 lw 912 1074 m21 6 lw 917 1070 m 1 Y s 917 1082 m s 3 lw
 917 1076 m21 6 lw 921 1064 m s 921 1075 m s 3 lw 921 1069 m21 6 lw 926 1073 m s 926 1084 m s 3 lw 926 1079 m21 6 lw 931 1061 m 1 Y s 931 1073 m s 3 lw 931 1067 m21 6 lw 935 1063 m s 935 1075 m s 3 lw 935 1069 m21 6 lw 940 1065 m s 940 1076 m 1 Y s 3
 lw 940 1071 m21 6 lw 945 1066 m s 945 1077 m s 3 lw 945 1072 m21 6 lw 950 1058 m s 950 1070 m s 3 lw 950 1064 m21 6 lw 954 1053 m s 954 1064 m 1 Y s 3 lw 954 1059 m21 6 lw 959 1061 m s 959 1073 m s 3 lw 959 1067 m21 6 lw 964 1049 m s 964 1061 m s 3
 lw 964 1055 m21 6 lw 968 1050 m s 968 1061 m 1 Y s 3 lw 968 1056 m21 6 lw 973 1049 m 1 Y s 973 1061 m s 3 lw 973 1055 m21 6 lw 978 1056 m s 978 1068 m s 3 lw 978 1062 m21 6 lw 982 1052 m s 982 1063 m 1 Y s 3 lw 982 1058 m21 6 lw 987 1042 m s 987
 1053 m 1 Y s 3 lw 987 1048 m21 6 lw 992 1046 m s 992 1058 m s 3 lw 992 1052 m21 6 lw 997 1045 m 1 Y s 997 1057 m s 3 lw 997 1051 m21 6 lw 1001 1049 m s 1001 1061 m s 3 lw 1001 1055 m21 6 lw 1006 1030 m s 1006 1041 m 1 Y s 3 lw 1006 1036 m21 6 lw
 1011 1031 m 1 Y s 1011 1043 m s 3 lw 1011 1037 m21 6 lw 1015 1034 m s 1015 1046 m s 3 lw 1015 1040 m21 6 lw 1020 1045 m 1 Y s 1020 1057 m s 3 lw 1020 1051 m21 6 lw 1025 1044 m s 1025 1056 m s 3 lw 1025 1050 m21 6 lw 1030 1042 m s 1030 1053 m 1 Y s 3
 lw 1030 1048 m21 6 lw 1034 1039 m 1 Y s 1034 1051 m 1 Y s 3 lw 1034 1045 m21 6 lw 1039 1051 m s 1039 1063 m s 3 lw 1039 1057 m21 6 lw 1044 1043 m 1 Y s 1044 1055 m s 3 lw 1044 1049 m21 6 lw 1048 1030 m 1 Y s 1048 1042 m 1 Y s 3 lw 1048 1036 m21 6 lw
 1053 1036 m s 1053 1047 m 1 Y s 3 lw 1053 1042 m21 6 lw 1058 1044 m s 1058 1055 m 1 Y s 3 lw 1058 1050 m21 6 lw 1062 1042 m 1 Y s 1062 1054 m 1 Y s 3 lw 1062 1048 m21 6 lw 1067 1028 m 1 Y s 1067 1040 m 1 Y s 3 lw 1067 1034 m21 6 lw 1072 1026 m s
 1072 1037 m 1 Y s 3 lw 1072 1032 m21 6 lw 1077 1019 m s 1077 1031 m s 3 lw 1077 1025 m21 6 lw 1081 1027 m 1 Y s 1081 1039 m 1 Y s 3 lw 1081 1033 m21 6 lw 1086 1029 m 1 Y s 1086 1041 m 1 Y s 3 lw 1086 1036 m21 6 lw 1091 1025 m 1 Y s 1091 1037 m 1 Y s
 3 lw 1091 1031 m21 6 lw 1095 1032 m 1 Y s 1095 1044 m 1 Y s 3 lw 1095 1039 m21 6 lw 1100 1030 m s 1100 1042 m s 3 lw 1100 1036 m21 6 lw 1105 1022 m 1 Y s 1105 1034 m 1 Y s 3 lw 1105 1028 m21 6 lw 1110 1016 m 1 Y s 1110 1028 m 1 Y s 3 lw 1110 1023
 m21 6 lw 1114 1021 m 1 Y s 1114 1033 m 1 Y s 3 lw 1114 1028 m21 6 lw 1119 1022 m 1 Y s 1119 1035 m s 3 lw 1119 1029 m21 6 lw 1124 1033 m 1 Y s 1124 1045 m 1 Y s 3 lw 1124 1039 m21 6 lw 1128 1023 m 1 Y s 1128 1036 m s 3 lw 1128 1030 m21 6 lw 1133
 1029 m 1 Y s 1133 1041 m 1 Y s 3 lw 1133 1035 m21 6 lw 1138 1034 m 1 Y s 1138 1047 m 1 Y s 3 lw 1138 1041 m21 6 lw 1142 1009 m 1 Y s 1142 1021 m 1 Y s 3 lw 1142 1015 m21 6 lw 1147 1018 m s 1147 1030 m 1 Y s 3 lw 1147 1024 m21 6 lw 1152 1030 m 1 Y s
 1152 1042 m 1 Y s 3 lw 1152 1036 m21 6 lw 1157 1015 m 1 Y s 1157 1027 m 1 Y s 3 lw 1157 1022 m21 6 lw 1161 1021 m 1 Y s 1161 1034 m 1 Y s 3 lw 1161 1028 m21 6 lw 1166 1022 m 1 Y s 1166 1035 m 1 Y s 3 lw 1166 1029 m21 6 lw 1171 1025 m 1 Y s 1171 1038
 m 1 Y s 3 lw 1171 1032 m21 6 lw 1175 1020 m 1 Y s 1175 1032 m 1 Y s 3 lw 1175 1026 m21 6 lw 1180 1014 m 1 Y s 1180 1027 m 1 Y s 3 lw 1180 1021 m21 6 lw 1185 1030 m 1 Y s 1185 1043 m 1 Y s 3 lw 1185 1037 m21 6 lw 1190 1023 m 1 Y s 1190 1035 m 2 Y s 3
 lw 1190 1030 m21 6 lw 1194 1029 m 1 Y s 1194 1042 m 1 Y s 3 lw 1194 1036 m21 6 lw 1199 1019 m 1 Y s 1199 1031 m 1 Y s 3 lw 1199 1025 m21 6 lw 1204 1020 m 1 Y s 1204 1033 m 1 Y s 3 lw 1204 1027 m21 6 lw 1208 1019 m 1 Y s 1208 1032 m 1 Y s 3 lw 1208
 1026 m21 6 lw 1213 1013 m 1 Y s 1213 1026 m 1 Y s 3 lw 1213 1020 m21 6 lw 1218 1023 m 1 Y s 1218 1035 m 2 Y s 3 lw 1218 1030 m21 6 lw 1222 1011 m 2 Y s 1222 1024 m 1 Y s 3 lw 1222 1018 m21 6 lw 1227 1024 m 1 Y s 1227 1037 m 1 Y s 3 lw 1227 1031 m21
 6 lw 1232 1016 m 1 Y s 1232 1029 m 1 Y s 3 lw 1232 1023 m21 6 lw 1237 1027 m 2 Y s 1237 1040 m 2 Y s 3 lw 1237 1035 m21 6 lw 1241 1020 m 1 Y s 1241 1032 m 2 Y s 3 lw 1241 1027 m21 6 lw 1246 997 m 2 Y s 1246 1010 m 2 Y s 3 lw 1246 1004 m21 6 lw 1251
 1014 m 2 Y s 1251 1027 m 2 Y s 3 lw 1251 1022 m21 6 lw 1255 1016 m 2 Y s 1255 1029 m 1 Y s 3 lw 1255 1023 m21 6 lw 1260 1032 m 1 Y s 1260 1045 m 1 Y s 3 lw 1260 1039 m21 6 lw 1265 1020 m 2 Y s 1265 1033 m 2 Y s 3 lw 1265 1028 m21 6 lw 1269 1004 m 2
 Y s 1269 1017 m 2 Y s 3 lw 1269 1012 m21 6 lw 1274 1018 m 2 Y s 1274 1031 m 2 Y s 3 lw 1274 1025 m21 6 lw 1279 1021 m 1 Y s 1279 1034 m 1 Y s 3 lw 1279 1028 m21 6 lw 1284 1005 m 2 Y s 1284 1018 m 2 Y s 3 lw 1284 1012 m21 6 lw 1288 1013 m 2 Y s 1288
 1026 m 2 Y s 3 lw 1288 1021 m21 6 lw 1293 1023 m 2 Y s 1293 1036 m 2 Y s 3 lw 1293 1031 m21 6 lw 1298 1012 m 2 Y s 1298 1025 m 2 Y s 3 lw 1298 1019 m21 6 lw 1302 1027 m 2 Y s 1302 1041 m 1 Y s 3 lw 1302 1035 m21 6 lw 1307 1010 m 2 Y s 1307 1024 m 1
 Y s 3 lw 1307 1018 m21 6 lw 1312 1025 m 2 Y s 1312 1039 m 2 Y s 3 lw 1312 1033 m21 6 lw 1317 1025 m 2 Y s 1317 1038 m 2 Y s 3 lw 1317 1032 m21 6 lw 1321 1007 m 2 Y s 1321 1021 m 2 Y s 3 lw 1321 1015 m21 6 lw 1326 1012 m 2 Y s 1326 1025 m 2 Y s 3 lw
 1326 1019 m21 6 lw 1331 1007 m 2 Y s 1331 1020 m 2 Y s 3 lw 1331 1015 m21 6 lw 1335 1012 m 2 Y s 1335 1026 m 2 Y s 3 lw 1335 1020 m21 6 lw 1340 1010 m 2 Y s 1340 1023 m 3 Y s 3 lw 1340 1018 m21 6 lw 1345 1008 m 2 Y s 1345 1022 m 2 Y s 3 lw 1345 1016
 m21 6 lw 1349 1014 m 2 Y s 1349 1028 m 2 Y s 3 lw 1349 1022 m21 6 lw 1354 1019 m 2 Y s 1354 1033 m 2 Y s 3 lw 1354 1027 m21 6 lw 1359 1020 m 3 Y s 1359 1034 m 2 Y s 3 lw 1359 1028 m21 6 lw 1364 1023 m 2 Y s 1364 1037 m 2 Y s 3 lw 1364 1031 m21 6 lw
 1368 1012 m 3 Y s 1368 1026 m 3 Y s 3 lw 1368 1020 m21 6 lw 1373 1016 m 3 Y s 1373 1030 m 2 Y s 3 lw 1373 1024 m21 6 lw 1378 1016 m 2 Y s 1378 1030 m 2 Y s 3 lw 1378 1024 m21 6 lw 1382 1025 m 2 Y s 1382 1039 m 2 Y s 3 lw 1382 1033 m21 6 lw 1387 1018
 m 2 Y s 1387 1032 m 2 Y s 3 lw 1387 1026 m21 6 lw 1392 1014 m 3 Y s 1392 1028 m 3 Y s 3 lw 1392 1022 m21 6 lw 1397 1019 m 2 Y s 1397 1033 m 2 Y s 3 lw 1397 1027 m21 6 lw 1401 1019 m 3 Y s 1401 1034 m 2 Y s 3 lw 1401 1028 m21 6 lw 1406 1010 m 3 Y s
 1406 1024 m 3 Y s 3 lw 1406 1018 m21 6 lw 1411 1019 m 3 Y s 1411 1034 m 3 Y s 3 lw 1411 1028 m21 6 lw 1415 1001 m 3 Y s 1415 1016 m 2 Y s 3 lw 1415 1010 m21 6 lw 1420 1024 m 3 Y s 1420 1039 m 3 Y s 3 lw 1420 1033 m21 6 lw 1425 1028 m 3 Y s 1425 1042
 m 3 Y s 3 lw 1425 1036 m21 6 lw 1429 1035 m 3 Y s 1429 1050 m 3 Y s 3 lw 1429 1044 m21 6 lw 1434 1013 m 4 Y s 1434 1028 m 3 Y s 3 lw 1434 1022 m21 6 lw 1439 1025 m 3 Y s 1439 1040 m 3 Y s 3 lw 1439 1034 m21 6 lw 1444 1029 m 4 Y s 1444 1044 m 3 Y s 3
 lw 1444 1038 m21 6 lw 1448 1015 m 3 Y s 1448 1029 m 3 Y s 3 lw 1448 1024 m21 6 lw 1453 1013 m 3 Y s 1453 1027 m 3 Y s 3 lw 1453 1022 m21 6 lw 1458 1044 m 3 Y s 1458 1059 m 3 Y s 3 lw 1458 1053 m21 6 lw 1462 1018 m 3 Y s 1462 1032 m 4 Y s 3 lw 1462
 1027 m21 6 lw 1467 1024 m 3 Y s 1467 1038 m 4 Y s 3 lw 1467 1033 m21 6 lw 1472 1028 m 3 Y s 1472 1043 m 3 Y s 3 lw 1472 1037 m21 6 lw 1477 1022 m 3 Y s 1477 1037 m 3 Y s 3 lw 1477 1031 m21 6 lw 1481 1033 m 4 Y s 1481 1048 m 4 Y s 3 lw 1481 1043 m21
 6 lw 1486 1020 m 3 Y s 1486 1035 m 3 Y s 3 lw 1486 1029 m21 6 lw 1491 1018 m 4 Y s 1491 1033 m 4 Y s 3 lw 1491 1028 m21 6 lw 1495 1021 m 4 Y s 1495 1036 m 4 Y s 3 lw 1495 1031 m21 6 lw 1500 1020 m 3 Y s 1500 1035 m 4 Y s 3 lw 1500 1029 m21 6 lw 1505
 1042 m 4 Y s 1505 1057 m 4 Y s 3 lw 1505 1051 m21 6 lw 1509 1031 m 4 Y s 1509 1046 m 4 Y s 3 lw 1509 1040 m21 6 lw 1514 1037 m 4 Y s 1514 1052 m 4 Y s 3 lw 1514 1047 m21 6 lw 1519 1037 m 4 Y s 1519 1052 m 4 Y s 3 lw 1519 1047 m21 6 lw 1524 1039 m 4
 Y s 1524 1054 m 4 Y s 3 lw 1524 1048 m21 6 lw 1528 1038 m 4 Y s 1528 1054 m 4 Y s 3 lw 1528 1048 m21 6 lw 1533 1038 m 4 Y s 1533 1054 m 4 Y s 3 lw 1533 1048 m21 6 lw 1538 1016 m 4 Y s 1538 1031 m 4 Y s 3 lw 1538 1026 m21 6 lw 1542 1036 m 4 Y s 1542
 1051 m 5 Y s 3 lw 1542 1046 m21 6 lw 1547 1026 m 4 Y s 1547 1041 m 5 Y s 3 lw 1547 1036 m21 6 lw 1552 1030 m 5 Y s 1552 1046 m 4 Y s 3 lw 1552 1040 m21 6 lw 1557 1050 m 5 Y s 1557 1066 m 5 Y s 3 lw 1557 1061 m21 6 lw 1561 1046 m 4 Y s 1561 1061 m 5
 Y s 3 lw 1561 1056 m21 6 lw 1566 1033 m 5 Y s 1566 1049 m 5 Y s 3 lw 1566 1044 m21 6 lw 1571 1044 m 5 Y s 1571 1060 m 5 Y s 3 lw 1571 1055 m21 6 lw 1575 1050 m 5 Y s 1575 1066 m 5 Y s 3 lw 1575 1060 m21 6 lw 1580 1063 m 5 Y s 1580 1079 m 5 Y s 3 lw
 1580 1074 m21 6 lw 1585 1058 m 5 Y s 1585 1074 m 5 Y s 3 lw 1585 1068 m21 6 lw 1589 1041 m 5 Y s 1589 1057 m 5 Y s 3 lw 1589 1051 m21 6 lw 1594 1063 m 5 Y s 1594 1079 m 5 Y s 3 lw 1594 1074 m21 6 lw 1599 1059 m 6 Y s 1599 1076 m 5 Y s 3 lw 1599 1070
 m21 6 lw 1604 1044 m 5 Y s 1604 1060 m 5 Y s 3 lw 1604 1054 m21 6 lw 1608 1047 m 5 Y s 1608 1063 m 5 Y s 3 lw 1608 1057 m21 6 lw 1613 1045 m 5 Y s 1613 1062 m 5 Y s 3 lw 1613 1056 m21 6 lw 1618 1047 m 5 Y s 1618 1063 m 6 Y s 3 lw 1618 1058 m21 6 lw
 1622 1044 m 5 Y s 1622 1061 m 5 Y s 3 lw 1622 1055 m21 6 lw 1627 1044 m 5 Y s 1627 1061 m 5 Y s 3 lw 1627 1055 m21 6 lw 1632 1055 m 5 Y s 1632 1071 m 6 Y s 3 lw 1632 1066 m21 6 lw 1637 1058 m 6 Y s 1637 1075 m 6 Y s 3 lw 1637 1070 m21 6 lw 1641 1048
 m 6 Y s 1641 1065 m 6 Y s 3 lw 1641 1059 m21 6 lw 1646 1062 m 6 Y s 1646 1079 m 6 Y s 3 lw 1646 1074 m21 6 lw 1651 1060 m 5 Y s 1651 1077 m 6 Y s 3 lw 1651 1071 m21 6 lw 1655 1048 m 6 Y s 1655 1065 m 6 Y s 3 lw 1655 1060 m21 6 lw 1660 1067 m 6 Y s
 1660 1084 m 6 Y s 3 lw 1660 1079 m21 6 lw 1665 1063 m 6 Y s 1665 1081 m 6 Y s 3 lw 1665 1075 m21 6 lw 1669 1058 m 6 Y s 1669 1075 m 6 Y s 3 lw 1669 1070 m21 6 lw 1674 1048 m 6 Y s 1674 1066 m 6 Y s 3 lw 1674 1060 m21 6 lw 1679 1066 m 6 Y s 1679 1083
 m 6 Y s 3 lw 1679 1078 m21 6 lw 1684 1061 m 6 Y s 1684 1078 m 6 Y s 3 lw 1684 1072 m21 6 lw 1688 1053 m 6 Y s 1688 1071 m 6 Y s 3 lw 1688 1065 m21 6 lw 1693 1074 m 7 Y s 1693 1092 m 6 Y s 3 lw 1693 1086 m21 6 lw 1698 1052 m 6 Y s 1698 1070 m 6 Y s 3
 lw 1698 1064 m21 6 lw 1702 1073 m 7 Y s 1702 1091 m 7 Y s 3 lw 1702 1085 m21 6 lw 1707 1066 m 6 Y s 1707 1084 m 6 Y s 3 lw 1707 1078 m21 6 lw 1712 1071 m 7 Y s 1712 1089 m 7 Y s 3 lw 1712 1084 m21 6 lw 1717 1058 m 7 Y s 1717 1076 m 7 Y s 3 lw 1717
 1071 m21 6 lw 1721 1068 m 7 Y s 1721 1086 m 7 Y s 3 lw 1721 1080 m21 6 lw 1726 1064 m 6 Y s 1726 1082 m 7 Y s 3 lw 1726 1076 m21 6 lw 1731 1070 m 7 Y s 1731 1088 m 7 Y s 3 lw 1731 1082 m21 6 lw 1735 1068 m 7 Y s 1735 1086 m 7 Y s 3 lw 1735 1080 m21
 6 lw 1740 1078 m 7 Y s 1740 1097 m 7 Y s 3 lw 1740 1091 m21 6 lw 1745 1095 m 7 Y s 1745 1113 m 7 Y s 3 lw 1745 1107 m21 6 lw 1749 1074 m 7 Y s 1749 1093 m 7 Y s 3 lw 1749 1087 m21 6 lw 1754 1075 m 7 Y s 1754 1093 m 7 Y s 3 lw 1754 1087 m21 6 lw 1759
 1099 m 7 Y s 1759 1118 m 7 Y s 3 lw 1759 1112 m21 6 lw 1764 1081 m 8 Y s 1764 1100 m 7 Y s 3 lw 1764 1094 m21 6 lw 1768 1083 m 7 Y s 1768 1101 m 8 Y s 3 lw 1768 1096 m21 6 lw 1773 1077 m 8 Y s 1773 1096 m 8 Y s 3 lw 1773 1090 m21 6 lw 1778 1067 m 8
 Y s 1778 1086 m 8 Y s 3 lw 1778 1080 m21 6 lw 1782 1091 m 8 Y s 1782 1110 m 8 Y s 3 lw 1782 1105 m21 6 lw 1787 1071 m 8 Y s 1787 1090 m 8 Y s 3 lw 1787 1084 m21 6 lw 1792 1076 m 8 Y s 1792 1096 m 7 Y s 3 lw 1792 1090 m21 6 lw 1797 1114 m 8 Y s 1797
 1134 m 8 Y s 3 lw 1797 1128 m21 6 lw 1801 1099 m 8 Y s 1801 1118 m 8 Y s 3 lw 1801 1112 m21 6 lw 1806 1105 m 8 Y s 1806 1124 m 8 Y s 3 lw 1806 1119 m21 6 lw 1811 1062 m 8 Y s 1811 1081 m 8 Y s 3 lw 1811 1075 m21 6 lw 1815 1091 m 8 Y s 1815 1110 m 9
 Y s 3 lw 1815 1105 m21 6 lw 1820 1076 m 8 Y s 1820 1095 m 9 Y s 3 lw 1820 1090 m21 6 lw 1825 1096 m 8 Y s 1825 1116 m 8 Y s 3 lw 1825 1110 m21 6 lw 1829 1091 m 8 Y s 1829 1111 m 8 Y s 3 lw 1829 1105 m21 6 lw 1834 1069 m 8 Y s 1834 1089 m 8 Y s 3 lw
 1834 1083 m21 6 lw 1839 1081 m 9 Y s 1839 1101 m 9 Y s 3 lw 1839 1096 m21 6 lw 1844 1092 m 8 Y s 1844 1112 m 9 Y s 3 lw 1844 1106 m21 6 lw 1848 1084 m 9 Y s 1848 1104 m 9 Y s 3 lw 1848 1099 m21 6 lw 1853 1102 m 9 Y s 1853 1123 m 9 Y s 3 lw 1853 1117
 m21 6 lw 1858 1058 m 9 Y s 1858 1079 m 8 Y s 3 lw 1858 1073 m21 6 lw 1862 1094 m 9 Y s 1862 1114 m 10 Y s 3 lw 1862 1109 m21 6 lw 1867 1094 m 9 Y s 1867 1114 m 10 Y s 3 lw 1867 1109 m21 6 lw 1872 1112 m 9 Y s 1872 1133 m 9 Y s 3 lw 1872 1127 m21 6
 lw 1877 1088 m 10 Y s 1877 1109 m 9 Y s 3 lw 1877 1103 m21 6 lw 1881 1104 m 10 Y s 1881 1125 m 10 Y s 3 lw 1881 1119 m21 6 lw 1886 1092 m 10 Y s 1886 1113 m 9 Y s 3 lw 1886 1107 m21 6 lw 1891 1101 m 10 Y s 1891 1122 m 10 Y s 3 lw 1891 1116 m21 6 lw
 1895 1096 m 10 Y s 1895 1117 m 10 Y s 3 lw 1895 1111 m21 6 lw 1900 1124 m 10 Y s 1900 1146 m 10 Y s 3 lw 1900 1140 m21 6 lw 1905 1107 m 10 Y s 1905 1128 m 10 Y s 3 lw 1905 1123 m21 6 lw 1909 1105 m 10 Y s 1909 1126 m 10 Y s 3 lw 1909 1121 m21 6 lw
 1914 1075 m 10 Y s 1914 1096 m 10 Y s 3 lw 1914 1091 m21 6 lw 1919 1115 m 11 Y s 1919 1137 m 10 Y s 3 lw 1919 1131 m21 6 lw 1924 1123 m 10 Y s 1924 1144 m 11 Y s 3 lw 1924 1139 m21 6 lw 1928 1105 m 11 Y s 1928 1127 m 10 Y s 3 lw 1928 1121 m21 6 lw
 1933 1079 m 10 Y s 1933 1100 m 11 Y s 3 lw 1933 1095 m21 6 lw 1938 1094 m 10 Y s 1938 1116 m 10 Y s 3 lw 1938 1110 m21 6 lw 1942 1118 m 11 Y s 1942 1140 m 11 Y s 3 lw 1942 1134 m21 6 lw 1947 1111 m 11 Y s 1947 1134 m 10 Y s 3 lw 1947 1128 m21 6 lw
 1952 1113 m 11 Y s 1952 1136 m 10 Y s 3 lw 1952 1130 m21 6 lw 1957 1116 m 11 Y s 1957 1139 m 11 Y s 3 lw 1957 1133 m21 6 lw 1961 1138 m 11 Y s 1961 1161 m 11 Y s 3 lw 1961 1155 m21 6 lw 1966 1097 m 11 Y s 1966 1119 m 11 Y s 3 lw 1966 1114 m21 6 lw
 1971 1140 m 11 Y s 1971 1163 m 11 Y s 3 lw 1971 1157 m21 6 lw 1975 1111 m 11 Y s 1975 1134 m 11 Y s 3 lw 1975 1128 m21 6 lw 1980 1119 m 11 Y s 1980 1142 m 11 Y s 3 lw 1980 1136 m21 6 lw 1985 1115 m 12 Y s 1985 1138 m 12 Y s 3 lw 1985 1132 m21 6 lw
 1989 1087 m 11 Y s 1989 1109 m 12 Y s 3 lw 1989 1104 m21 6 lw 1994 1133 m 12 Y s 1994 1156 m 12 Y s 3 lw 1994 1150 m21 6 lw 1999 1091 m 12 Y s 1999 1114 m 11 Y s 3 lw 1999 1108 m21 6 lw 2004 1145 m 12 Y s 2004 1169 m 12 Y s 3 lw 2004 1163 m21 6 lw
 2008 1119 m 12 Y s 2008 1143 m 12 Y s 3 lw 2008 1137 m21 6 lw 2013 1131 m 12 Y s 2013 1155 m 12 Y s 3 lw 2013 1149 m21 6 lw 2018 1111 m 12 Y s 2018 1134 m 12 Y s 3 lw 2018 1128 m21 6 lw 2022 1132 m 12 Y s 2022 1156 m 12 Y s 3 lw 2022 1150 m21 6 lw
 2027 1137 m 12 Y s 2027 1160 m 13 Y s 3 lw 2027 1155 m21 6 lw 2032 1168 m 13 Y s 2032 1192 m 13 Y s 3 lw 2032 1186 m21 6 lw 2036 1134 m 12 Y s 2036 1158 m 12 Y s 3 lw 2036 1152 m21 6 lw 2041 1148 m 13 Y s 2041 1172 m 13 Y s 3 lw 2041 1167 m21 6 lw
 2046 1137 m 13 Y s 2046 1162 m 13 Y s 3 lw 2046 1156 m21 6 lw 2051 1132 m 13 Y s 2051 1157 m 13 Y s 3 lw 2051 1151 m21 6 lw 2055 1114 m 13 Y s 2055 1138 m 13 Y s 3 lw 2055 1133 m21 6 lw 2060 1134 m 13 Y s 2060 1159 m 13 Y s 3 lw 2060 1153 m21 6 lw
 2065 1122 m 13 Y s 2065 1147 m 13 Y s 3 lw 2065 1141 m21 6 lw 2069 1150 m 14 Y s 2069 1175 m 14 Y s 3 lw 2069 1169 m21 6 lw 2074 1118 m 13 Y s 2074 1142 m 14 Y s 3 lw 2074 1137 m21 6 lw 2079 1138 m 14 Y s 2079 1163 m 14 Y s 3 lw 2079 1157 m21 6 lw
 2084 1119 m 14 Y s 2084 1144 m 14 Y s 3 lw 2084 1139 m21 6 lw 2088 1130 m 13 Y s 2088 1155 m 13 Y s 3 lw 2088 1149 m21 6 lw 2093 1112 m 14 Y s 2093 1137 m 14 Y s 3 lw 2093 1132 m21 6 lw 2098 1126 m 14 Y s 2098 1151 m 14 Y s 3 lw 2098 1146 m21 6 lw
 2102 1136 m 14 Y s 2102 1162 m 14 Y s 3 lw 2102 1156 m21 6 lw 2107 1150 m 14 Y s 2107 1176 m 14 Y s 3 lw 2107 1170 m21 6 lw 2112 1133 m 14 Y s 2112 1158 m 15 Y s 3 lw 2112 1153 m21 6 lw 2116 1126 m 15 Y s 2116 1152 m 14 Y s 3 lw 2116 1146 m21 6 lw
 2121 1135 m 14 Y s 2121 1161 m 14 Y s 3 lw 2121 1155 m21 6 lw 2126 1152 m 14 Y s 2126 1178 m 15 Y s 3 lw 2126 1172 m21 6 lw 2131 1149 m 15 Y s 2131 1175 m 15 Y s 3 lw 2131 1170 m21 6 lw 2135 1149 m 15 Y s 2135 1175 m 15 Y s 3 lw 2135 1170 m21 6 lw
 2140 1123 m 14 Y s 2140 1149 m 14 Y s 3 lw 2140 1143 m21 6 lw 2145 1127 m 15 Y s 2145 1153 m 15 Y s 3 lw 2145 1148 m21 6 lw 2149 1177 m 15 Y s 2149 1204 m 15 Y s 3 lw 2149 1198 m21 6 lw 2154 1111 m 16 Y s 2154 1138 m 15 Y s 3 lw 2154 1132 m21 6 lw
 2159 1129 m 15 Y s 2159 1155 m 16 Y s 3 lw 2159 1150 m21 6 lw 2164 1104 m 15 Y s 2164 1130 m 16 Y s 3 lw 2164 1125 m21 6 lw 2168 1163 m 16 Y s 2168 1190 m 16 Y s 3 lw 2168 1184 m21 6 lw 2173 1153 m 16 Y s 2173 1180 m 16 Y s 3 lw 2173 1175 m21 6 lw
 2178 1139 m 16 Y s 2178 1167 m 16 Y s 3 lw 2178 1161 m21 6 lw 2182 1151 m 16 Y s 2182 1178 m 16 Y s 3 lw 2182 1172 m21 6 lw 2187 1150 m 16 Y s 2187 1177 m 16 Y s 3 lw 2187 1172 m21 6 lw 2192 1101 m 16 Y s 2192 1128 m 16 Y s 3 lw 2192 1122 m21 6 lw
 2196 1133 m 16 Y s 2196 1160 m 17 Y s 3 lw 2196 1155 m21 6 lw 2201 1171 m 17 Y s 2201 1199 m 17 Y s 3 lw 2201 1193 m21 6 lw 2206 1166 m 17 Y s 2206 1194 m 17 Y s 3 lw 2206 1188 m21 6 lw 2211 1155 m 17 Y s 2211 1183 m 17 Y s 3 lw 2211 1178 m21 6 lw
 2215 1150 m 17 Y s 2215 1178 m 17 Y s 3 lw 2215 1172 m21 6 lw 2220 1133 m 17 Y s 2220 1161 m 17 Y s 3 lw 2220 1156 m21 6 lw black 340 223 m 1882 X s
 gsave  2268 2234 0 0 C 1923.86 58.2559 t 0 r /Helvetica findfont 83.8316 sf 0 0 m (Q [GeV]) show NC gr  340 279 m -56 Y s 387 251 m -28 Y s 434 251 m -28 Y s 481 251 m -28 Y s 528 279 m -56 Y s 575 251 m -28 Y s 622 251 m -28 Y s 670 251 m -28 Y s
 717 279 m -56 Y s 764 251 m -28 Y s 811 251 m -28 Y s 858 251 m -28 Y s 905 279 m -56 Y s 952 251 m -28 Y s 999 251 m -28 Y s 1046 251 m -28 Y s 1093 279 m -56 Y s 1140 251 m -28 Y s 1187 251 m -28 Y s 1234 251 m -28 Y s 1281 279 m -56 Y s 1328 251
 m -28 Y s 1375 251 m -28 Y s 1422 251 m -28 Y s 1469 279 m -56 Y s 1517 251 m -28 Y s 1564 251 m -28 Y s 1611 251 m -28 Y s 1658 279 m -56 Y s 1705 251 m -28 Y s 1752 251 m -28 Y s 1799 251 m -28 Y s 1846 279 m -56 Y s 1893 251 m -28 Y s 1940 251 m
 -28 Y s 1987 251 m -28 Y s 2034 279 m -56 Y s 2081 251 m -28 Y s 2128 251 m -28 Y s 2175 251 m -28 Y s 2222 279 m -56 Y s
 gsave  2268 2234 0 0 C 322.539 159.138 t 0 r /Helvetica findfont 62.5185 sf 0 0 m (0) show NC gr 
 gsave  2268 2234 0 0 C 484.518 159.138 t 0 r /Helvetica findfont 62.5185 sf 0 0 m (0.2) show NC gr 
 gsave  2268 2234 0 0 C 673.495 159.138 t 0 r /Helvetica findfont 62.5185 sf 0 0 m (0.4) show NC gr 
 gsave  2268 2234 0 0 C 861.05 159.138 t 0 r /Helvetica findfont 62.5185 sf 0 0 m (0.6) show NC gr 
 gsave  2268 2234 0 0 C 1050.03 159.138 t 0 r /Helvetica findfont 62.5185 sf 0 0 m (0.8) show NC gr 
 gsave  2268 2234 0 0 C 1268.84 159.138 t 0 r /Helvetica findfont 62.5185 sf 0 0 m (1) show NC gr 
 gsave  2268 2234 0 0 C 1426.56 159.138 t 0 r /Helvetica findfont 62.5185 sf 0 0 m (1.2) show NC gr 
 gsave  2268 2234 0 0 C 1614.11 159.138 t 0 r /Helvetica findfont 62.5185 sf 0 0 m (1.4) show NC gr 
 gsave  2268 2234 0 0 C 1803.09 159.138 t 0 r /Helvetica findfont 62.5185 sf 0 0 m (1.6) show NC gr 
 gsave  2268 2234 0 0 C 1990.65 159.138 t 0 r /Helvetica findfont 62.5185 sf 0 0 m (1.8) show NC gr 
 gsave  2268 2234 0 0 C 2205.2 159.138 t 0 r /Helvetica findfont 62.5185 sf 0 0 m (2) show NC gr  340 223 m 1966 Y s
 gsave  2268 2234 0 0 C 147.771 1547.33 t 90 r /Helvetica findfont 83.8316 sf 0 0 m (\(Q\) / \(0.005 GeV\)) show NC gr 
 gsave  2268 2234 0 0 C 174.768 1518.92 t 90 r /Helvetica findfont 55.4141 sf 0 0 m (2) show NC gr 
 gsave  2268 2234 0 0 C 147.771 1437.93 t 90 r /Helvetica findfont 83.8316 sf 0 0 m ( C) show NC gr  400 402 m -60 X s 370 491 m -30 X s 370 581 m -30 X s 370 670 m -30 X s 400 759 m -60 X s 370 849 m -30 X s 370 938 m -30 X s 370 1027 m -30 X s 400
 1117 m -60 X s 370 1206 m -30 X s 370 1295 m -30 X s 370 1385 m -30 X s 400 1474 m -60 X s 370 1564 m -30 X s 370 1653 m -30 X s 370 1742 m -30 X s 400 1832 m -60 X s 370 1921 m -30 X s 370 2010 m -30 X s 370 2100 m -30 X s 400 2189 m -60 X s 400
 402 m -60 X s 370 313 m -30 X s 370 223 m -30 X s
 gsave  2268 2234 0 0 C 242.97 379.374 t 0 r /Helvetica findfont 62.5185 sf 0 0 m (0.6) show NC gr 
 gsave  2268 2234 0 0 C 242.97 737.434 t 0 r /Helvetica findfont 62.5185 sf 0 0 m (0.8) show NC gr 
 gsave  2268 2234 0 0 C 305.488 1092.65 t 0 r /Helvetica findfont 62.5185 sf 0 0 m (1) show NC gr 
 gsave  2268 2234 0 0 C 242.97 1450.71 t 0 r /Helvetica findfont 62.5185 sf 0 0 m (1.2) show NC gr 
 gsave  2268 2234 0 0 C 242.97 1808.77 t 0 r /Helvetica findfont 62.5185 sf 0 0 m (1.4) show NC gr 
 gsave  2268 2234 0 0 C 242.97 2166.83 t 0 r /Helvetica findfont 62.5185 sf 0 0 m (1.6) show NC gr 
 gsave  2268 2234 0 0 C 906.518 670.653 t 0 r /Helvetica-Bold findfont 72.4646 sf 0 0 m (RD PIONS) show NC gr 
 gsave  2268 2234 0 0 C 906.518 558.404 t 0 r /Helvetica-Bold findfont 72.4646 sf 0 0 m (ref. sample: EVENT MIX) show NC gr 
 gsave  2268 2234 0 0 C 906.518 447.576 t 0 r /Helvetica-Bold findfont 72.4646 sf 0 0 m (VELO tracks multiplicity: < 10) show NC gr 
 gr  gr showpage
end
%%EOF
