%!PS-Adobe-2.0 EPSF-2.0
%%BoundingBox:  0 0 567 558
%%Title: ./MC_pion_0c65_h3001_1_h3401_1.eps: MC_pion_0c65_h3001_1_h3401_1
%%Creator: ROOT Version 6.06/02
%%CreationDate: Wed Feb  1 16:20:57 2017
%%DocumentNeededResources: ProcSet (FontSetInit)
%%EndComments
%%BeginProlog
80 dict begin
/s {stroke} def /l {lineto} def /m {moveto} def /t {translate} def
/r {rotate} def /rl {roll}  def /R {repeat} def
/d {rlineto} def /rm {rmoveto} def /gr {grestore} def /f {eofill} def
/c {setrgbcolor} def /black {0 setgray} def /sd {setdash} def
/cl {closepath} def /sf {scalefont setfont} def /lw {setlinewidth} def
/box {m dup 0 exch d exch 0 d 0 exch neg d cl} def
/NC{systemdict begin initclip end}def/C{NC box clip newpath}def
/bl {box s} def /bf {gsave box gsave f grestore 1 lw [] 0 sd s grestore} def /Y { 0 exch d} def /X { 0 d} def 
/K {{pop pop 0 moveto} exch kshow} bind def
/ita {/ang 15 def gsave [1 0 ang dup sin exch cos div 1 0 0] concat} def 
/mp {newpath /y exch def /x exch def} def
/side {[w .77 mul w .23 mul] .385 w mul sd w 0 l currentpoint t -144 r} def
/mr {mp x y w2 0 360 arc} def /m24 {mr s} def /m20 {mr f} def
/mb {mp x y w2 add m w2 neg 0 d 0 w neg d w 0 d 0 w d cl} def
/mt {mp x y w2 add m w2 neg w neg d w 0 d cl} def
/m21 {mb f} def /m25 {mb s} def /m22 {mt f} def /m26{mt s} def
/m23 {mp x y w2 sub m w2 w d w neg 0 d cl f} def
/m27 {mp x y w2 add m w3 neg w2 neg d w3 w2 neg d w3 w2 d cl s} def
/m28 {mp x w2 sub y w2 sub w3 add m w3 0 d  0 w3 neg d w3 0 d 0 w3 d w3 0 d  0 w3 d w3 neg 0 d 0 w3 d w3 neg 0 d 0 w3 neg d w3 neg 0 d cl s } def
/m29 {mp gsave x w2 sub y w2 add w3 sub m currentpoint t 4 {side} repeat cl fill gr} def
/m30 {mp gsave x w2 sub y w2 add w3 sub m currentpoint t 4 {side} repeat cl s gr} def
/m31 {mp x y w2 sub m 0 w d x w2 sub y m w 0 d x w2 sub y w2 add m w w neg d x w2 sub y w2 sub m w w d s} def
/m32 {mp x y w2 sub m w2 w d w neg 0 d cl s} def
/m33 {mp x y w2 add m w3 neg w2 neg d w3 w2 neg d w3 w2 d cl f} def
/m34 {mp x w2 sub y w2 sub w3 add m w3 0 d  0 w3 neg d w3 0 d 0 w3 d w3 0 d  0 w3 d w3 neg 0 d 0 w3 d w3 neg 0 d 0 w3 neg d w3 neg 0 d cl f } def
/m2 {mp x y w2 sub m 0 w d x w2 sub y m w 0 d s} def
/m5 {mp x w2 sub y w2 sub m w w d x w2 sub y w2 add m w w neg d s} def
%%IncludeResource: ProcSet (FontSetInit)
%%IncludeResource: font Times-Roman
%%IncludeResource: font Times-Italic
%%IncludeResource: font Times-Bold
%%IncludeResource: font Times-BoldItalic
%%IncludeResource: font Helvetica
%%IncludeResource: font Helvetica-Oblique
%%IncludeResource: font Helvetica-Bold
%%IncludeResource: font Helvetica-BoldOblique
%%IncludeResource: font Courier
%%IncludeResource: font Courier-Oblique
%%IncludeResource: font Courier-Bold
%%IncludeResource: font Courier-BoldOblique
%%IncludeResource: font Symbol
%%IncludeResource: font ZapfDingbats
/reEncode {exch findfont dup length dict begin {1 index /FID eq  {pop pop} {def} ifelse } forall /Encoding exch def currentdict end dup /FontName get exch definefont pop } def [/Times-Bold /Times-Italic /Times-BoldItalic /Helvetica /Helvetica-Oblique
 /Helvetica-Bold /Helvetica-BoldOblique /Courier /Courier-Oblique /Courier-Bold /Courier-BoldOblique /Times-Roman /AvantGarde-Book /AvantGarde-BookOblique /AvantGarde-Demi /AvantGarde-DemiOblique /Bookman-Demi /Bookman-DemiItalic /Bookman-Light
 /Bookman-LightItalic /Helvetica-Narrow /Helvetica-Narrow-Bold /Helvetica-Narrow-BoldOblique /Helvetica-Narrow-Oblique /NewCenturySchlbk-Roman /NewCenturySchlbk-Bold /NewCenturySchlbk-BoldItalic /NewCenturySchlbk-Italic /Palatino-Bold
 /Palatino-BoldItalic /Palatino-Italic /Palatino-Roman ] {ISOLatin1Encoding reEncode } forall
%%EndProlog
%%BeginSetup
%%EndSetup
newpath  gsave  .25 .25 scale  gsave  0 0 t black[  ] 0 sd 6 lw 1 1 1 c 2268 2234 0 0 bf black 3 lw 1 1 1 c 1882 1966 340 223 bf black 1882 1966 340 223 bl 1 1 1 c 1882 1966 340 223 bf black 1882 1966 340 223 bl 0 0 1 c 6 lw 1 1 1 c 0 0 1 c 390 1094
 m 15 Y s 390 1120 m 14 Y s 3 lw /w 14 def /w2 {w 2 div} def /w3 {w 3 div} def 390 1114 m21 6 lw 394 1124 m 13 Y s 394 1149 m 13 Y s 3 lw 394 1143 m21 6 lw 399 1109 m 12 Y s 399 1132 m 12 Y s 3 lw 399 1127 m21 6 lw 404 1142 m 11 Y s 404 1164 m 11 Y s
 3 lw 404 1158 m21 6 lw 408 1138 m 10 Y s 408 1159 m 10 Y s 3 lw 408 1154 m21 6 lw 413 1140 m 9 Y s 413 1160 m 9 Y s 3 lw 413 1155 m21 6 lw 418 1186 m 8 Y s 418 1205 m 9 Y s 3 lw 418 1200 m21 6 lw 423 1161 m 7 Y s 423 1180 m 7 Y s 3 lw 423 1174 m21 6
 lw 427 1160 m 7 Y s 427 1179 m 7 Y s 3 lw 427 1173 m21 6 lw 432 1153 m 6 Y s 432 1170 m 7 Y s 3 lw 432 1165 m21 6 lw 437 1186 m 6 Y s 437 1203 m 6 Y s 3 lw 437 1197 m21 6 lw 441 1185 m 6 Y s 441 1202 m 6 Y s 3 lw 441 1196 m21 6 lw 446 1175 m 5 Y s
 446 1191 m 5 Y s 3 lw 446 1186 m21 6 lw 451 1188 m 5 Y s 451 1204 m 5 Y s 3 lw 451 1199 m21 6 lw 455 1167 m 4 Y s 455 1183 m 4 Y s 3 lw 455 1177 m21 6 lw 460 1179 m 5 Y s 460 1195 m 4 Y s 3 lw 460 1189 m21 6 lw 465 1170 m 4 Y s 465 1186 m 4 Y s 3 lw
 465 1180 m21 6 lw 470 1197 m 4 Y s 470 1212 m 4 Y s 3 lw 470 1207 m21 6 lw 474 1178 m 3 Y s 474 1193 m 3 Y s 3 lw 474 1187 m21 6 lw 479 1193 m 3 Y s 479 1207 m 4 Y s 3 lw 479 1202 m21 6 lw 484 1196 m 3 Y s 484 1211 m 3 Y s 3 lw 484 1205 m21 6 lw 488
 1178 m 3 Y s 488 1193 m 3 Y s 3 lw 488 1187 m21 6 lw 493 1174 m 3 Y s 493 1188 m 3 Y s 3 lw 493 1182 m21 6 lw 498 1191 m 3 Y s 498 1205 m 3 Y s 3 lw 498 1200 m21 6 lw 502 1199 m 3 Y s 502 1213 m 3 Y s 3 lw 502 1207 m21 6 lw 507 1188 m 3 Y s 507 1202
 m 2 Y s 3 lw 507 1196 m21 6 lw 512 1190 m 3 Y s 512 1204 m 2 Y s 3 lw 512 1198 m21 6 lw 517 1180 m 2 Y s 517 1193 m 2 Y s 3 lw 517 1187 m21 6 lw 521 1178 m 2 Y s 521 1192 m 2 Y s 3 lw 521 1186 m21 6 lw 526 1187 m 2 Y s 526 1200 m 2 Y s 3 lw 526 1194
 m21 6 lw 531 1191 m 2 Y s 531 1205 m 1 Y s 3 lw 531 1199 m21 6 lw 535 1193 m 2 Y s 535 1206 m 2 Y s 3 lw 535 1200 m21 6 lw 540 1168 m 2 Y s 540 1181 m 2 Y s 3 lw 540 1175 m21 6 lw 545 1170 m 2 Y s 545 1183 m 2 Y s 3 lw 545 1177 m21 6 lw 550 1173 m 1
 Y s 550 1186 m 1 Y s 3 lw 550 1180 m21 6 lw 554 1183 m 1 Y s 554 1196 m 1 Y s 3 lw 554 1190 m21 6 lw 559 1188 m 1 Y s 559 1200 m 2 Y s 3 lw 559 1195 m21 6 lw 564 1181 m 1 Y s 564 1194 m 1 Y s 3 lw 564 1188 m21 6 lw 568 1191 m 1 Y s 568 1203 m 1 Y s
 3 lw 568 1198 m21 6 lw 573 1196 m 1 Y s 573 1209 m 1 Y s 3 lw 573 1203 m21 6 lw 578 1186 m 2 Y s 578 1199 m 1 Y s 3 lw 578 1193 m21 6 lw 582 1189 m 1 Y s 582 1202 m 1 Y s 3 lw 582 1196 m21 6 lw 587 1167 m 1 Y s 587 1180 m 1 Y s 3 lw 587 1174 m21 6
 lw 592 1173 m 1 Y s 592 1185 m 1 Y s 3 lw 592 1179 m21 6 lw 597 1178 m s 597 1190 m 1 Y s 3 lw 597 1184 m21 6 lw 601 1182 m 1 Y s 601 1194 m 1 Y s 3 lw 601 1188 m21 6 lw 606 1182 m 1 Y s 606 1194 m 1 Y s 3 lw 606 1189 m21 6 lw 611 1177 m 1 Y s 611
 1189 m 1 Y s 3 lw 611 1183 m21 6 lw 615 1168 m 1 Y s 615 1180 m 1 Y s 3 lw 615 1175 m21 6 lw 620 1175 m 1 Y s 620 1187 m 1 Y s 3 lw 620 1181 m21 6 lw 625 1180 m s 625 1192 m s 3 lw 625 1186 m21 6 lw 630 1172 m s 630 1184 m s 3 lw 630 1178 m21 6 lw
 634 1180 m s 634 1191 m 1 Y s 3 lw 634 1186 m21 6 lw 639 1172 m s 639 1184 m s 3 lw 639 1178 m21 6 lw 644 1170 m s 644 1181 m 1 Y s 3 lw 644 1176 m21 6 lw 648 1168 m 1 Y s 648 1180 m s 3 lw 648 1174 m21 6 lw 653 1172 m 1 Y s 653 1184 m s 3 lw 653
 1178 m21 6 lw 658 1165 m s 658 1176 m 1 Y s 3 lw 658 1171 m21 6 lw 662 1169 m s 662 1180 m s 3 lw 662 1174 m21 6 lw 667 1167 m s 667 1178 m s 3 lw 667 1172 m21 6 lw 672 1166 m s 672 1178 m s 3 lw 672 1172 m21 6 lw 677 1169 m s 677 1180 m s 3 lw 677
 1175 m21 6 lw 3 lw 681 1174 m21 6 lw 3 lw 686 1169 m21 6 lw 3 lw 691 1171 m21 6 lw 3 lw 695 1154 m21 6 lw 3 lw 700 1163 m21 6 lw 3 lw 705 1160 m21 6 lw 3 lw 710 1156 m21 6 lw 3 lw 714 1155 m21 6 lw 3 lw 719 1161 m21 6 lw 3 lw 724 1152 m21 6 lw 3 lw
 728 1164 m21 6 lw 3 lw 733 1147 m21 6 lw 3 lw 738 1161 m21 6 lw 3 lw 742 1157 m21 6 lw 3 lw 747 1157 m21 6 lw 3 lw 752 1148 m21 6 lw 3 lw 757 1161 m21 6 lw 3 lw 761 1156 m21 6 lw 3 lw 766 1161 m21 6 lw 3 lw 771 1155 m21 6 lw 3 lw 775 1155 m21 6 lw 3
 lw 780 1143 m21 6 lw 3 lw 785 1145 m21 6 lw 3 lw 790 1149 m21 6 lw 3 lw 794 1152 m21 6 lw 3 lw 799 1145 m21 6 lw 3 lw 804 1142 m21 6 lw 3 lw 808 1141 m21 6 lw 3 lw 813 1146 m21 6 lw 3 lw 818 1133 m21 6 lw 3 lw 822 1143 m21 6 lw 3 lw 827 1147 m21 6
 lw 3 lw 832 1148 m21 6 lw 3 lw 837 1140 m21 6 lw 3 lw 841 1126 m21 6 lw 3 lw 846 1140 m21 6 lw 3 lw 851 1143 m21 6 lw 3 lw 855 1142 m21 6 lw 3 lw 860 1141 m21 6 lw 3 lw 865 1144 m21 6 lw 3 lw 870 1133 m21 6 lw 3 lw 874 1135 m21 6 lw 3 lw 879 1139
 m21 6 lw 3 lw 884 1131 m21 6 lw 3 lw 888 1140 m21 6 lw 3 lw 893 1147 m21 6 lw 3 lw 898 1123 m21 6 lw 3 lw 902 1143 m21 6 lw 3 lw 907 1128 m21 6 lw 3 lw 912 1126 m21 6 lw 3 lw 917 1122 m21 6 lw 3 lw 921 1136 m21 6 lw 3 lw 926 1122 m21 6 lw 3 lw 931
 1119 m21 6 lw 3 lw 935 1128 m21 6 lw 3 lw 940 1135 m21 6 lw 3 lw 945 1118 m21 6 lw 3 lw 950 1130 m21 6 lw 3 lw 954 1124 m21 6 lw 3 lw 959 1122 m21 6 lw 3 lw 964 1123 m21 6 lw 3 lw 968 1124 m21 6 lw 3 lw 973 1125 m21 6 lw 3 lw 978 1113 m21 6 lw 3 lw
 982 1131 m21 6 lw 3 lw 987 1122 m21 6 lw 3 lw 992 1113 m21 6 lw 3 lw 997 1113 m21 6 lw 3 lw 1001 1120 m21 6 lw 3 lw 1006 1108 m21 6 lw 3 lw 1011 1116 m21 6 lw 3 lw 1015 1111 m21 6 lw 3 lw 1020 1114 m21 6 lw 3 lw 1025 1124 m21 6 lw 3 lw 1030 1120 m21
 6 lw 3 lw 1034 1107 m21 6 lw 3 lw 1039 1109 m21 6 lw 3 lw 1044 1116 m21 6 lw 3 lw 1048 1109 m21 6 lw 3 lw 1053 1111 m21 6 lw 3 lw 1058 1107 m21 6 lw 3 lw 1062 1105 m21 6 lw 3 lw 1067 1100 m21 6 lw 3 lw 1072 1105 m21 6 lw 3 lw 1077 1113 m21 6 lw 3 lw
 1081 1108 m21 6 lw 3 lw 1086 1099 m21 6 lw 3 lw 1091 1104 m21 6 lw 3 lw 1095 1099 m21 6 lw 3 lw 1100 1092 m21 6 lw 3 lw 1105 1090 m21 6 lw 3 lw 1110 1103 m21 6 lw 3 lw 1114 1093 m21 6 lw 3 lw 1119 1096 m21 6 lw 3 lw 1124 1095 m21 6 lw 1128 1093 m s
 1128 1104 m s 3 lw 1128 1098 m21 6 lw 1133 1095 m s 1133 1106 m s 3 lw 1133 1100 m21 6 lw 1138 1088 m s 1138 1100 m s 3 lw 1138 1094 m21 6 lw 1142 1091 m s 1142 1103 m s 3 lw 1142 1097 m21 6 lw 1147 1078 m s 1147 1089 m 1 Y s 3 lw 1147 1084 m21 6 lw
 1152 1078 m s 1152 1089 m s 3 lw 1152 1084 m21 6 lw 1157 1083 m s 1157 1095 m s 3 lw 1157 1089 m21 6 lw 1161 1088 m s 1161 1100 m s 3 lw 1161 1094 m21 6 lw 1166 1088 m s 1166 1100 m s 3 lw 1166 1094 m21 6 lw 1171 1081 m s 1171 1093 m s 3 lw 1171
 1087 m21 6 lw 1175 1085 m s 1175 1096 m s 3 lw 1175 1091 m21 6 lw 1180 1083 m s 1180 1094 m 1 Y s 3 lw 1180 1089 m21 6 lw 1185 1076 m s 1185 1087 m 1 Y s 3 lw 1185 1082 m21 6 lw 1190 1081 m s 1190 1093 m s 3 lw 1190 1087 m21 6 lw 1194 1083 m 1 Y s
 1194 1095 m s 3 lw 1194 1089 m21 6 lw 1199 1075 m 1 Y s 1199 1087 m s 3 lw 1199 1081 m21 6 lw 1204 1081 m 1 Y s 1204 1093 m s 3 lw 1204 1087 m21 6 lw 1208 1073 m 1 Y s 1208 1085 m s 3 lw 1208 1079 m21 6 lw 1213 1090 m 1 Y s 1213 1102 m s 3 lw 1213
 1096 m21 6 lw 1218 1078 m s 1218 1090 m s 3 lw 1218 1084 m21 6 lw 1222 1067 m 1 Y s 1222 1079 m s 3 lw 1222 1073 m21 6 lw 1227 1066 m s 1227 1078 m s 3 lw 1227 1072 m21 6 lw 1232 1069 m 1 Y s 1232 1081 m 1 Y s 3 lw 1232 1075 m21 6 lw 1237 1075 m 1 Y
 s 1237 1087 m 1 Y s 3 lw 1237 1081 m21 6 lw 1241 1063 m s 1241 1074 m 1 Y s 3 lw 1241 1069 m21 6 lw 1246 1077 m s 1246 1089 m s 3 lw 1246 1083 m21 6 lw 1251 1073 m s 1251 1085 m s 3 lw 1251 1079 m21 6 lw 1255 1056 m 1 Y s 1255 1068 m 1 Y s 3 lw 1255
 1063 m21 6 lw 1260 1077 m 1 Y s 1260 1089 m 1 Y s 3 lw 1260 1083 m21 6 lw 1265 1073 m s 1265 1085 m s 3 lw 1265 1079 m21 6 lw 1269 1073 m s 1269 1085 m 1 Y s 3 lw 1269 1079 m21 6 lw 1274 1074 m 1 Y s 1274 1086 m 1 Y s 3 lw 1274 1081 m21 6 lw 1279
 1059 m 1 Y s 1279 1071 m 1 Y s 3 lw 1279 1065 m21 6 lw 1284 1064 m 1 Y s 1284 1077 m 1 Y s 3 lw 1284 1071 m21 6 lw 1288 1052 m s 1288 1064 m 1 Y s 3 lw 1288 1058 m21 6 lw 1293 1062 m s 1293 1074 m 1 Y s 3 lw 1293 1068 m21 6 lw 1298 1070 m 1 Y s 1298
 1082 m 1 Y s 3 lw 1298 1077 m21 6 lw 1302 1059 m 1 Y s 1302 1071 m 1 Y s 3 lw 1302 1066 m21 6 lw 1307 1067 m 1 Y s 1307 1079 m 1 Y s 3 lw 1307 1074 m21 6 lw 1312 1052 m 1 Y s 1312 1064 m 1 Y s 3 lw 1312 1059 m21 6 lw 1317 1054 m 1 Y s 1317 1067 m 1
 Y s 3 lw 1317 1061 m21 6 lw 1321 1072 m 1 Y s 1321 1085 m 1 Y s 3 lw 1321 1079 m21 6 lw 1326 1062 m 1 Y s 1326 1074 m 2 Y s 3 lw 1326 1069 m21 6 lw 1331 1068 m 1 Y s 1331 1080 m 1 Y s 3 lw 1331 1075 m21 6 lw 1335 1068 m 1 Y s 1335 1081 m 1 Y s 3 lw
 1335 1075 m21 6 lw 1340 1066 m 2 Y s 1340 1079 m 1 Y s 3 lw 1340 1073 m21 6 lw 1345 1064 m 1 Y s 1345 1077 m 1 Y s 3 lw 1345 1071 m21 6 lw 1349 1053 m 1 Y s 1349 1065 m 2 Y s 3 lw 1349 1060 m21 6 lw 1354 1051 m 1 Y s 1354 1063 m 2 Y s 3 lw 1354 1058
 m21 6 lw 1359 1053 m 2 Y s 1359 1066 m 1 Y s 3 lw 1359 1060 m21 6 lw 1364 1054 m 2 Y s 1364 1067 m 2 Y s 3 lw 1364 1061 m21 6 lw 1368 1060 m 2 Y s 1368 1073 m 2 Y s 3 lw 1368 1067 m21 6 lw 1373 1071 m 2 Y s 1373 1084 m 1 Y s 3 lw 1373 1078 m21 6 lw
 1378 1047 m 1 Y s 1378 1059 m 2 Y s 3 lw 1378 1054 m21 6 lw 1382 1046 m 2 Y s 1382 1059 m 2 Y s 3 lw 1382 1054 m21 6 lw 1387 1061 m 2 Y s 1387 1074 m 2 Y s 3 lw 1387 1069 m21 6 lw 1392 1058 m 1 Y s 1392 1070 m 2 Y s 3 lw 1392 1065 m21 6 lw 1397 1059
 m 2 Y s 1397 1073 m 1 Y s 3 lw 1397 1067 m21 6 lw 1401 1048 m 1 Y s 1401 1061 m 1 Y s 3 lw 1401 1055 m21 6 lw 1406 1039 m 1 Y s 1406 1052 m 1 Y s 3 lw 1406 1046 m21 6 lw 1411 1058 m 2 Y s 1411 1071 m 2 Y s 3 lw 1411 1065 m21 6 lw 1415 1048 m 2 Y s
 1415 1061 m 2 Y s 3 lw 1415 1055 m21 6 lw 1420 1054 m 2 Y s 1420 1068 m 1 Y s 3 lw 1420 1062 m21 6 lw 1425 1052 m 1 Y s 1425 1065 m 2 Y s 3 lw 1425 1059 m21 6 lw 1429 1044 m 2 Y s 1429 1057 m 2 Y s 3 lw 1429 1052 m21 6 lw 1434 1055 m 2 Y s 1434 1069
 m 2 Y s 3 lw 1434 1063 m21 6 lw 1439 1056 m 2 Y s 1439 1070 m 2 Y s 3 lw 1439 1064 m21 6 lw 1444 1058 m 2 Y s 1444 1071 m 2 Y s 3 lw 1444 1066 m21 6 lw 1448 1048 m 2 Y s 1448 1061 m 2 Y s 3 lw 1448 1055 m21 6 lw 1453 1051 m 2 Y s 1453 1065 m 2 Y s 3
 lw 1453 1059 m21 6 lw 1458 1056 m 2 Y s 1458 1070 m 2 Y s 3 lw 1458 1064 m21 6 lw 1462 1043 m 2 Y s 1462 1057 m 2 Y s 3 lw 1462 1051 m21 6 lw 1467 1033 m 2 Y s 1467 1046 m 2 Y s 3 lw 1467 1041 m21 6 lw 1472 1047 m 2 Y s 1472 1060 m 2 Y s 3 lw 1472
 1055 m21 6 lw 1477 1048 m 3 Y s 1477 1062 m 2 Y s 3 lw 1477 1056 m21 6 lw 1481 1047 m 3 Y s 1481 1061 m 3 Y s 3 lw 1481 1055 m21 6 lw 1486 1042 m 3 Y s 1486 1056 m 3 Y s 3 lw 1486 1051 m21 6 lw 1491 1029 m 2 Y s 1491 1043 m 2 Y s 3 lw 1491 1037 m21
 6 lw 1495 1046 m 3 Y s 1495 1060 m 3 Y s 3 lw 1495 1055 m21 6 lw 1500 1052 m 3 Y s 1500 1066 m 3 Y s 3 lw 1500 1061 m21 6 lw 1505 1047 m 2 Y s 1505 1061 m 2 Y s 3 lw 1505 1055 m21 6 lw 1509 1052 m 2 Y s 1509 1066 m 2 Y s 3 lw 1509 1060 m21 6 lw 1514
 1054 m 3 Y s 1514 1068 m 3 Y s 3 lw 1514 1063 m21 6 lw 1519 1045 m 3 Y s 1519 1059 m 3 Y s 3 lw 1519 1053 m21 6 lw 1524 1054 m 2 Y s 1524 1068 m 3 Y s 3 lw 1524 1062 m21 6 lw 1528 1056 m 3 Y s 1528 1071 m 3 Y s 3 lw 1528 1065 m21 6 lw 1533 1058 m 3
 Y s 1533 1072 m 3 Y s 3 lw 1533 1067 m21 6 lw 1538 1040 m 3 Y s 1538 1054 m 3 Y s 3 lw 1538 1048 m21 6 lw 1542 1042 m 3 Y s 1542 1056 m 3 Y s 3 lw 1542 1050 m21 6 lw 1547 1043 m 3 Y s 1547 1058 m 3 Y s 3 lw 1547 1052 m21 6 lw 1552 1054 m 3 Y s 1552
 1068 m 3 Y s 3 lw 1552 1063 m21 6 lw 1557 1038 m 3 Y s 1557 1052 m 4 Y s 3 lw 1557 1047 m21 6 lw 1561 1038 m 3 Y s 1561 1052 m 3 Y s 3 lw 1561 1047 m21 6 lw 1566 1053 m 3 Y s 1566 1067 m 4 Y s 3 lw 1566 1062 m21 6 lw 1571 1054 m 3 Y s 1571 1068 m 3
 Y s 3 lw 1571 1063 m21 6 lw 1575 1053 m 4 Y s 1575 1068 m 3 Y s 3 lw 1575 1062 m21 6 lw 1580 1051 m 4 Y s 1580 1066 m 3 Y s 3 lw 1580 1060 m21 6 lw 1585 1053 m 3 Y s 1585 1067 m 4 Y s 3 lw 1585 1062 m21 6 lw 1589 1053 m 3 Y s 1589 1068 m 3 Y s 3 lw
 1589 1062 m21 6 lw 1594 1034 m 4 Y s 1594 1049 m 3 Y s 3 lw 1594 1043 m21 6 lw 1599 1049 m 3 Y s 1599 1064 m 3 Y s 3 lw 1599 1058 m21 6 lw 1604 1040 m 4 Y s 1604 1055 m 4 Y s 3 lw 1604 1050 m21 6 lw 1608 1041 m 4 Y s 1608 1056 m 4 Y s 3 lw 1608 1050
 m21 6 lw 1613 1058 m 4 Y s 1613 1073 m 4 Y s 3 lw 1613 1067 m21 6 lw 1618 1036 m 3 Y s 1618 1051 m 3 Y s 3 lw 1618 1045 m21 6 lw 1622 1037 m 4 Y s 1622 1052 m 4 Y s 3 lw 1622 1047 m21 6 lw 1627 1050 m 4 Y s 1627 1065 m 4 Y s 3 lw 1627 1059 m21 6 lw
 1632 1031 m 4 Y s 1632 1046 m 4 Y s 3 lw 1632 1040 m21 6 lw 1637 1047 m 4 Y s 1637 1062 m 4 Y s 3 lw 1637 1057 m21 6 lw 1641 1031 m 4 Y s 1641 1046 m 4 Y s 3 lw 1641 1041 m21 6 lw 1646 1061 m 4 Y s 1646 1077 m 4 Y s 3 lw 1646 1071 m21 6 lw 1651 1045
 m 4 Y s 1651 1060 m 4 Y s 3 lw 1651 1054 m21 6 lw 1655 1044 m 4 Y s 1655 1059 m 4 Y s 3 lw 1655 1053 m21 6 lw 1660 1060 m 5 Y s 1660 1076 m 4 Y s 3 lw 1660 1070 m21 6 lw 1665 1045 m 4 Y s 1665 1060 m 5 Y s 3 lw 1665 1055 m21 6 lw 1669 1061 m 4 Y s
 1669 1077 m 4 Y s 3 lw 1669 1071 m21 6 lw 1674 1051 m 5 Y s 1674 1067 m 4 Y s 3 lw 1674 1061 m21 6 lw 1679 1034 m 5 Y s 1679 1050 m 4 Y s 3 lw 1679 1044 m21 6 lw 1684 1020 m 4 Y s 1684 1035 m 5 Y s 3 lw 1684 1030 m21 6 lw 1688 1044 m 4 Y s 1688 1060
 m 4 Y s 3 lw 1688 1054 m21 6 lw 1693 1059 m 5 Y s 1693 1075 m 5 Y s 3 lw 1693 1070 m21 6 lw 1698 1057 m 5 Y s 1698 1073 m 5 Y s 3 lw 1698 1068 m21 6 lw 1702 1050 m 5 Y s 1702 1066 m 5 Y s 3 lw 1702 1060 m21 6 lw 1707 1052 m 5 Y s 1707 1068 m 5 Y s 3
 lw 1707 1062 m21 6 lw 1712 1038 m 5 Y s 1712 1055 m 4 Y s 3 lw 1712 1049 m21 6 lw 1717 1048 m 5 Y s 1717 1064 m 5 Y s 3 lw 1717 1059 m21 6 lw 1721 1047 m 5 Y s 1721 1063 m 5 Y s 3 lw 1721 1058 m21 6 lw 1726 1052 m 5 Y s 1726 1068 m 5 Y s 3 lw 1726
 1063 m21 6 lw 1731 1046 m 5 Y s 1731 1063 m 5 Y s 3 lw 1731 1057 m21 6 lw 1735 1046 m 5 Y s 1735 1062 m 5 Y s 3 lw 1735 1057 m21 6 lw 1740 1037 m 5 Y s 1740 1054 m 5 Y s 3 lw 1740 1048 m21 6 lw 1745 1067 m 6 Y s 1745 1084 m 6 Y s 3 lw 1745 1079 m21
 6 lw 1749 1038 m 5 Y s 1749 1055 m 5 Y s 3 lw 1749 1049 m21 6 lw 1754 1049 m 5 Y s 1754 1066 m 5 Y s 3 lw 1754 1060 m21 6 lw 1759 1046 m 5 Y s 1759 1062 m 6 Y s 3 lw 1759 1057 m21 6 lw 1764 1044 m 6 Y s 1764 1061 m 6 Y s 3 lw 1764 1055 m21 6 lw 1768
 1037 m 5 Y s 1768 1054 m 5 Y s 3 lw 1768 1048 m21 6 lw 1773 1053 m 6 Y s 1773 1070 m 6 Y s 3 lw 1773 1064 m21 6 lw 1778 1026 m 5 Y s 1778 1043 m 5 Y s 3 lw 1778 1037 m21 6 lw 1782 1037 m 6 Y s 1782 1055 m 5 Y s 3 lw 1782 1049 m21 6 lw 1787 1042 m 5
 Y s 1787 1059 m 6 Y s 3 lw 1787 1053 m21 6 lw 1792 1040 m 6 Y s 1792 1057 m 6 Y s 3 lw 1792 1052 m21 6 lw 1797 1049 m 6 Y s 1797 1066 m 6 Y s 3 lw 1797 1061 m21 6 lw 1801 1048 m 6 Y s 1801 1066 m 6 Y s 3 lw 1801 1060 m21 6 lw 1806 1033 m 6 Y s 1806
 1050 m 6 Y s 3 lw 1806 1045 m21 6 lw 1811 1060 m 6 Y s 1811 1078 m 6 Y s 3 lw 1811 1072 m21 6 lw 1815 1064 m 7 Y s 1815 1082 m 6 Y s 3 lw 1815 1076 m21 6 lw 1820 1051 m 6 Y s 1820 1069 m 6 Y s 3 lw 1820 1063 m21 6 lw 1825 1067 m 7 Y s 1825 1085 m 7
 Y s 3 lw 1825 1079 m21 6 lw 1829 1064 m 6 Y s 1829 1082 m 6 Y s 3 lw 1829 1076 m21 6 lw 1834 1057 m 7 Y s 1834 1075 m 6 Y s 3 lw 1834 1069 m21 6 lw 1839 1041 m 7 Y s 1839 1059 m 7 Y s 3 lw 1839 1053 m21 6 lw 1844 1063 m 7 Y s 1844 1081 m 7 Y s 3 lw
 1844 1076 m21 6 lw 1848 1046 m 7 Y s 1848 1064 m 7 Y s 3 lw 1848 1059 m21 6 lw 1853 1046 m 7 Y s 1853 1064 m 7 Y s 3 lw 1853 1059 m21 6 lw 1858 1069 m 7 Y s 1858 1087 m 7 Y s 3 lw 1858 1081 m21 6 lw 1862 1055 m 7 Y s 1862 1074 m 7 Y s 3 lw 1862 1068
 m21 6 lw 1867 1076 m 7 Y s 1867 1094 m 7 Y s 3 lw 1867 1089 m21 6 lw 1872 1053 m 7 Y s 1872 1072 m 7 Y s 3 lw 1872 1066 m21 6 lw 1877 1069 m 7 Y s 1877 1087 m 7 Y s 3 lw 1877 1081 m21 6 lw 1881 1059 m 7 Y s 1881 1077 m 8 Y s 3 lw 1881 1072 m21 6 lw
 1886 1062 m 8 Y s 1886 1081 m 7 Y s 3 lw 1886 1075 m21 6 lw 1891 1068 m 7 Y s 1891 1087 m 7 Y s 3 lw 1891 1081 m21 6 lw 1895 1055 m 7 Y s 1895 1074 m 7 Y s 3 lw 1895 1068 m21 6 lw 1900 1064 m 7 Y s 1900 1083 m 7 Y s 3 lw 1900 1077 m21 6 lw 1905 1077
 m 7 Y s 1905 1096 m 8 Y s 3 lw 1905 1090 m21 6 lw 1909 1063 m 8 Y s 1909 1082 m 8 Y s 3 lw 1909 1076 m21 6 lw 1914 1056 m 8 Y s 1914 1075 m 8 Y s 3 lw 1914 1069 m21 6 lw 1919 1058 m 7 Y s 1919 1077 m 8 Y s 3 lw 1919 1071 m21 6 lw 1924 1050 m 8 Y s
 1924 1069 m 8 Y s 3 lw 1924 1063 m21 6 lw 1928 1054 m 8 Y s 1928 1073 m 8 Y s 3 lw 1928 1068 m21 6 lw 1933 1038 m 8 Y s 1933 1057 m 8 Y s 3 lw 1933 1052 m21 6 lw 1938 1065 m 8 Y s 1938 1085 m 8 Y s 3 lw 1938 1079 m21 6 lw 1942 1065 m 8 Y s 1942 1085
 m 8 Y s 3 lw 1942 1079 m21 6 lw 1947 1035 m 8 Y s 1947 1054 m 8 Y s 3 lw 1947 1049 m21 6 lw 1952 1051 m 8 Y s 1952 1071 m 8 Y s 3 lw 1952 1065 m21 6 lw 1957 1049 m 9 Y s 1957 1069 m 8 Y s 3 lw 1957 1063 m21 6 lw 1961 1053 m 8 Y s 1961 1073 m 8 Y s 3
 lw 1961 1067 m21 6 lw 1966 1055 m 9 Y s 1966 1075 m 9 Y s 3 lw 1966 1070 m21 6 lw 1971 1057 m 9 Y s 1971 1077 m 9 Y s 3 lw 1971 1072 m21 6 lw 1975 1063 m 8 Y s 1975 1083 m 9 Y s 3 lw 1975 1077 m21 6 lw 1980 1054 m 8 Y s 1980 1074 m 9 Y s 3 lw 1980
 1068 m21 6 lw 1985 1045 m 8 Y s 1985 1065 m 9 Y s 3 lw 1985 1059 m21 6 lw 1989 1044 m 9 Y s 1989 1064 m 9 Y s 3 lw 1989 1059 m21 6 lw 1994 1072 m 9 Y s 1994 1093 m 9 Y s 3 lw 1994 1087 m21 6 lw 1999 1061 m 9 Y s 1999 1082 m 9 Y s 3 lw 1999 1076 m21
 6 lw 2004 1051 m 9 Y s 2004 1072 m 9 Y s 3 lw 2004 1066 m21 6 lw 2008 1046 m 10 Y s 2008 1067 m 9 Y s 3 lw 2008 1061 m21 6 lw 2013 1040 m 9 Y s 2013 1060 m 9 Y s 3 lw 2013 1054 m21 6 lw 2018 1052 m 10 Y s 2018 1073 m 9 Y s 3 lw 2018 1067 m21 6 lw
 2022 1068 m 10 Y s 2022 1089 m 10 Y s 3 lw 2022 1084 m21 6 lw 2027 1078 m 10 Y s 2027 1099 m 10 Y s 3 lw 2027 1093 m21 6 lw 2032 1067 m 10 Y s 2032 1088 m 10 Y s 3 lw 2032 1082 m21 6 lw 2036 1039 m 10 Y s 2036 1060 m 10 Y s 3 lw 2036 1055 m21 6 lw
 2041 1064 m 9 Y s 2041 1085 m 10 Y s 3 lw 2041 1079 m21 6 lw 2046 1078 m 10 Y s 2046 1099 m 10 Y s 3 lw 2046 1093 m21 6 lw 2051 1065 m 10 Y s 2051 1086 m 10 Y s 3 lw 2051 1080 m21 6 lw 2055 1056 m 10 Y s 2055 1078 m 10 Y s 3 lw 2055 1072 m21 6 lw
 2060 1083 m 11 Y s 2060 1105 m 11 Y s 3 lw 2060 1099 m21 6 lw 2065 1060 m 10 Y s 2065 1081 m 10 Y s 3 lw 2065 1076 m21 6 lw 2069 1072 m 10 Y s 2069 1094 m 10 Y s 3 lw 2069 1088 m21 6 lw 2074 1053 m 11 Y s 2074 1075 m 10 Y s 3 lw 2074 1069 m21 6 lw
 2079 1057 m 11 Y s 2079 1079 m 11 Y s 3 lw 2079 1073 m21 6 lw 2084 1081 m 11 Y s 2084 1103 m 11 Y s 3 lw 2084 1098 m21 6 lw 2088 1063 m 11 Y s 2088 1085 m 11 Y s 3 lw 2088 1079 m21 6 lw 2093 1077 m 11 Y s 2093 1100 m 11 Y s 3 lw 2093 1094 m21 6 lw
 2098 1085 m 11 Y s 2098 1107 m 11 Y s 3 lw 2098 1101 m21 6 lw 2102 1065 m 11 Y s 2102 1087 m 11 Y s 3 lw 2102 1082 m21 6 lw 2107 1068 m 11 Y s 2107 1090 m 12 Y s 3 lw 2107 1085 m21 6 lw 2112 1089 m 11 Y s 2112 1111 m 12 Y s 3 lw 2112 1106 m21 6 lw
 2116 1080 m 11 Y s 2116 1103 m 11 Y s 3 lw 2116 1097 m21 6 lw 2121 1067 m 12 Y s 2121 1090 m 11 Y s 3 lw 2121 1084 m21 6 lw 2126 1038 m 12 Y s 2126 1061 m 11 Y s 3 lw 2126 1055 m21 6 lw 2131 1070 m 12 Y s 2131 1093 m 12 Y s 3 lw 2131 1087 m21 6 lw
 2135 1097 m 11 Y s 2135 1120 m 12 Y s 3 lw 2135 1114 m21 6 lw 2140 1098 m 12 Y s 2140 1122 m 12 Y s 3 lw 2140 1116 m21 6 lw 2145 1062 m 11 Y s 2145 1085 m 12 Y s 3 lw 2145 1079 m21 6 lw 2149 1054 m 11 Y s 2149 1077 m 12 Y s 3 lw 2149 1071 m21 6 lw
 2154 1088 m 12 Y s 2154 1112 m 12 Y s 3 lw 2154 1106 m21 6 lw 2159 1071 m 12 Y s 2159 1094 m 13 Y s 3 lw 2159 1089 m21 6 lw 2164 1079 m 12 Y s 2164 1102 m 12 Y s 3 lw 2164 1096 m21 6 lw 2168 1114 m 13 Y s 2168 1139 m 12 Y s 3 lw 2168 1133 m21 6 lw
 2173 1080 m 13 Y s 2173 1104 m 13 Y s 3 lw 2173 1098 m21 6 lw 2178 1072 m 13 Y s 2178 1096 m 13 Y s 3 lw 2178 1090 m21 6 lw 2182 1069 m 13 Y s 2182 1093 m 13 Y s 3 lw 2182 1088 m21 6 lw 2187 1084 m 13 Y s 2187 1109 m 12 Y s 3 lw 2187 1103 m21 6 lw
 2192 1096 m 13 Y s 2192 1120 m 13 Y s 3 lw 2192 1115 m21 6 lw 2196 1074 m 13 Y s 2196 1098 m 13 Y s 3 lw 2196 1093 m21 6 lw 2201 1059 m 13 Y s 2201 1083 m 13 Y s 3 lw 2201 1078 m21 6 lw 2206 1088 m 14 Y s 2206 1113 m 13 Y s 3 lw 2206 1107 m21 6 lw
 2211 1092 m 14 Y s 2211 1117 m 13 Y s 3 lw 2211 1111 m21 6 lw 2215 1054 m 13 Y s 2215 1078 m 13 Y s 3 lw 2215 1072 m21 6 lw 2220 1061 m 13 Y s 2220 1086 m 13 Y s 3 lw 2220 1080 m21 6 lw black 340 223 m 1882 X s
 gsave  2268 2234 0 0 C 1923.86 58.2559 t 0 r /Helvetica findfont 83.8316 sf 0 0 m (Q [GeV]) show NC gr  340 279 m -56 Y s 387 251 m -28 Y s 434 251 m -28 Y s 481 251 m -28 Y s 528 279 m -56 Y s 575 251 m -28 Y s 622 251 m -28 Y s 670 251 m -28 Y s
 717 279 m -56 Y s 764 251 m -28 Y s 811 251 m -28 Y s 858 251 m -28 Y s 905 279 m -56 Y s 952 251 m -28 Y s 999 251 m -28 Y s 1046 251 m -28 Y s 1093 279 m -56 Y s 1140 251 m -28 Y s 1187 251 m -28 Y s 1234 251 m -28 Y s 1281 279 m -56 Y s 1328 251
 m -28 Y s 1375 251 m -28 Y s 1422 251 m -28 Y s 1469 279 m -56 Y s 1517 251 m -28 Y s 1564 251 m -28 Y s 1611 251 m -28 Y s 1658 279 m -56 Y s 1705 251 m -28 Y s 1752 251 m -28 Y s 1799 251 m -28 Y s 1846 279 m -56 Y s 1893 251 m -28 Y s 1940 251 m
 -28 Y s 1987 251 m -28 Y s 2034 279 m -56 Y s 2081 251 m -28 Y s 2128 251 m -28 Y s 2175 251 m -28 Y s 2222 279 m -56 Y s
 gsave  2268 2234 0 0 C 322.539 159.138 t 0 r /Helvetica findfont 62.5185 sf 0 0 m (0) show NC gr 
 gsave  2268 2234 0 0 C 484.518 159.138 t 0 r /Helvetica findfont 62.5185 sf 0 0 m (0.2) show NC gr 
 gsave  2268 2234 0 0 C 673.495 159.138 t 0 r /Helvetica findfont 62.5185 sf 0 0 m (0.4) show NC gr 
 gsave  2268 2234 0 0 C 861.05 159.138 t 0 r /Helvetica findfont 62.5185 sf 0 0 m (0.6) show NC gr 
 gsave  2268 2234 0 0 C 1050.03 159.138 t 0 r /Helvetica findfont 62.5185 sf 0 0 m (0.8) show NC gr 
 gsave  2268 2234 0 0 C 1268.84 159.138 t 0 r /Helvetica findfont 62.5185 sf 0 0 m (1) show NC gr 
 gsave  2268 2234 0 0 C 1426.56 159.138 t 0 r /Helvetica findfont 62.5185 sf 0 0 m (1.2) show NC gr 
 gsave  2268 2234 0 0 C 1614.11 159.138 t 0 r /Helvetica findfont 62.5185 sf 0 0 m (1.4) show NC gr 
 gsave  2268 2234 0 0 C 1803.09 159.138 t 0 r /Helvetica findfont 62.5185 sf 0 0 m (1.6) show NC gr 
 gsave  2268 2234 0 0 C 1990.65 159.138 t 0 r /Helvetica findfont 62.5185 sf 0 0 m (1.8) show NC gr 
 gsave  2268 2234 0 0 C 2205.2 159.138 t 0 r /Helvetica findfont 62.5185 sf 0 0 m (2) show NC gr  340 223 m 1966 Y s
 gsave  2268 2234 0 0 C 147.771 1547.33 t 90 r /Helvetica findfont 83.8316 sf 0 0 m (\(Q\) / \(0.005 GeV\)) show NC gr 
 gsave  2268 2234 0 0 C 174.768 1518.92 t 90 r /Helvetica findfont 55.4141 sf 0 0 m (2) show NC gr 
 gsave  2268 2234 0 0 C 147.771 1437.93 t 90 r /Helvetica findfont 83.8316 sf 0 0 m ( C) show NC gr  400 402 m -60 X s 370 491 m -30 X s 370 581 m -30 X s 370 670 m -30 X s 400 759 m -60 X s 370 849 m -30 X s 370 938 m -30 X s 370 1027 m -30 X s 400
 1117 m -60 X s 370 1206 m -30 X s 370 1295 m -30 X s 370 1385 m -30 X s 400 1474 m -60 X s 370 1564 m -30 X s 370 1653 m -30 X s 370 1742 m -30 X s 400 1832 m -60 X s 370 1921 m -30 X s 370 2010 m -30 X s 370 2100 m -30 X s 400 2189 m -60 X s 400
 402 m -60 X s 370 313 m -30 X s 370 223 m -30 X s
 gsave  2268 2234 0 0 C 242.97 379.374 t 0 r /Helvetica findfont 62.5185 sf 0 0 m (0.6) show NC gr 
 gsave  2268 2234 0 0 C 242.97 737.434 t 0 r /Helvetica findfont 62.5185 sf 0 0 m (0.8) show NC gr 
 gsave  2268 2234 0 0 C 305.488 1092.65 t 0 r /Helvetica findfont 62.5185 sf 0 0 m (1) show NC gr 
 gsave  2268 2234 0 0 C 242.97 1450.71 t 0 r /Helvetica findfont 62.5185 sf 0 0 m (1.2) show NC gr 
 gsave  2268 2234 0 0 C 242.97 1808.77 t 0 r /Helvetica findfont 62.5185 sf 0 0 m (1.4) show NC gr 
 gsave  2268 2234 0 0 C 242.97 2166.83 t 0 r /Helvetica findfont 62.5185 sf 0 0 m (1.6) show NC gr 
 gsave  2268 2234 0 0 C 906.518 670.653 t 0 r /Helvetica-Bold findfont 72.4646 sf 0 0 m (MC PIONS) show NC gr 
 gsave  2268 2234 0 0 C 906.518 558.404 t 0 r /Helvetica-Bold findfont 72.4646 sf 0 0 m (ref. sample: EVENT MIX) show NC gr 
 gsave  2268 2234 0 0 C 906.518 447.576 t 0 r /Helvetica-Bold findfont 72.4646 sf 0 0 m (VELO tracks multiplicity: < 10) show NC gr 
 gr  gr showpage
end
%%EOF
