%!PS-Adobe-2.0 EPSF-2.0
%%BoundingBox:  0 0 567 558
%%Title: ./RD_pion_0c65_h3001_2_h3401_2_compare.eps: RD_pion_0c65_h3001_2_h3401_2_compare
%%Creator: ROOT Version 6.06/02
%%CreationDate: Fri Jan 27 15:03:35 2017
%%DocumentNeededResources: ProcSet (FontSetInit)
%%EndComments
%%BeginProlog
80 dict begin
/s {stroke} def /l {lineto} def /m {moveto} def /t {translate} def
/r {rotate} def /rl {roll}  def /R {repeat} def
/d {rlineto} def /rm {rmoveto} def /gr {grestore} def /f {eofill} def
/c {setrgbcolor} def /black {0 setgray} def /sd {setdash} def
/cl {closepath} def /sf {scalefont setfont} def /lw {setlinewidth} def
/box {m dup 0 exch d exch 0 d 0 exch neg d cl} def
/NC{systemdict begin initclip end}def/C{NC box clip newpath}def
/bl {box s} def /bf {gsave box gsave f grestore 1 lw [] 0 sd s grestore} def /Y { 0 exch d} def /X { 0 d} def 
/K {{pop pop 0 moveto} exch kshow} bind def
/ita {/ang 15 def gsave [1 0 ang dup sin exch cos div 1 0 0] concat} def 
/mp {newpath /y exch def /x exch def} def
/side {[w .77 mul w .23 mul] .385 w mul sd w 0 l currentpoint t -144 r} def
/mr {mp x y w2 0 360 arc} def /m24 {mr s} def /m20 {mr f} def
/mb {mp x y w2 add m w2 neg 0 d 0 w neg d w 0 d 0 w d cl} def
/mt {mp x y w2 add m w2 neg w neg d w 0 d cl} def
/m21 {mb f} def /m25 {mb s} def /m22 {mt f} def /m26{mt s} def
/m23 {mp x y w2 sub m w2 w d w neg 0 d cl f} def
/m27 {mp x y w2 add m w3 neg w2 neg d w3 w2 neg d w3 w2 d cl s} def
/m28 {mp x w2 sub y w2 sub w3 add m w3 0 d  0 w3 neg d w3 0 d 0 w3 d w3 0 d  0 w3 d w3 neg 0 d 0 w3 d w3 neg 0 d 0 w3 neg d w3 neg 0 d cl s } def
/m29 {mp gsave x w2 sub y w2 add w3 sub m currentpoint t 4 {side} repeat cl fill gr} def
/m30 {mp gsave x w2 sub y w2 add w3 sub m currentpoint t 4 {side} repeat cl s gr} def
/m31 {mp x y w2 sub m 0 w d x w2 sub y m w 0 d x w2 sub y w2 add m w w neg d x w2 sub y w2 sub m w w d s} def
/m32 {mp x y w2 sub m w2 w d w neg 0 d cl s} def
/m33 {mp x y w2 add m w3 neg w2 neg d w3 w2 neg d w3 w2 d cl f} def
/m34 {mp x w2 sub y w2 sub w3 add m w3 0 d  0 w3 neg d w3 0 d 0 w3 d w3 0 d  0 w3 d w3 neg 0 d 0 w3 d w3 neg 0 d 0 w3 neg d w3 neg 0 d cl f } def
/m2 {mp x y w2 sub m 0 w d x w2 sub y m w 0 d s} def
/m5 {mp x w2 sub y w2 sub m w w d x w2 sub y w2 add m w w neg d s} def
%%IncludeResource: ProcSet (FontSetInit)
%%IncludeResource: font Times-Roman
%%IncludeResource: font Times-Italic
%%IncludeResource: font Times-Bold
%%IncludeResource: font Times-BoldItalic
%%IncludeResource: font Helvetica
%%IncludeResource: font Helvetica-Oblique
%%IncludeResource: font Helvetica-Bold
%%IncludeResource: font Helvetica-BoldOblique
%%IncludeResource: font Courier
%%IncludeResource: font Courier-Oblique
%%IncludeResource: font Courier-Bold
%%IncludeResource: font Courier-BoldOblique
%%IncludeResource: font Symbol
%%IncludeResource: font ZapfDingbats
/reEncode {exch findfont dup length dict begin {1 index /FID eq  {pop pop} {def} ifelse } forall /Encoding exch def currentdict end dup /FontName get exch definefont pop } def [/Times-Bold /Times-Italic /Times-BoldItalic /Helvetica /Helvetica-Oblique
 /Helvetica-Bold /Helvetica-BoldOblique /Courier /Courier-Oblique /Courier-Bold /Courier-BoldOblique /Times-Roman /AvantGarde-Book /AvantGarde-BookOblique /AvantGarde-Demi /AvantGarde-DemiOblique /Bookman-Demi /Bookman-DemiItalic /Bookman-Light
 /Bookman-LightItalic /Helvetica-Narrow /Helvetica-Narrow-Bold /Helvetica-Narrow-BoldOblique /Helvetica-Narrow-Oblique /NewCenturySchlbk-Roman /NewCenturySchlbk-Bold /NewCenturySchlbk-BoldItalic /NewCenturySchlbk-Italic /Palatino-Bold
 /Palatino-BoldItalic /Palatino-Italic /Palatino-Roman ] {ISOLatin1Encoding reEncode } forall
%%EndProlog
%%BeginSetup
%%EndSetup
newpath  gsave  .25 .25 scale  gsave  0 0 t black[  ] 0 sd 6 lw 1 1 1 c 2268 2234 0 0 bf black 3 lw 1 1 1 c 1882 1966 340 223 bf black 1882 1966 340 223 bl 1 1 1 c 1882 1966 340 223 bf black 1882 1966 340 223 bl 0 0 1 c 6 lw 1 1 1 c 0 0 1 c 368 1759
 m 10 Y s 368 1786 m 9 Y s 3 lw /w 19 def /w2 {w 2 div} def /w3 {w 3 div} def 368 1777 m21 6 lw 3 lw 406 1223 m21 6 lw 3 lw 425 1148 m21 6 lw 3 lw 444 1098 m21 6 lw 3 lw 463 1050 m21 6 lw 3 lw 481 1018 m21 6 lw 3 lw 500 987 m21 6 lw 3 lw 519 961 m21
 6 lw 3 lw 538 942 m21 6 lw 3 lw 557 927 m21 6 lw 3 lw 575 907 m21 6 lw 3 lw 594 894 m21 6 lw 3 lw 613 882 m21 6 lw 3 lw 632 873 m21 6 lw 3 lw 651 860 m21 6 lw 3 lw 670 855 m21 6 lw 3 lw 688 847 m21 6 lw 3 lw 707 835 m21 6 lw 3 lw 726 831 m21 6 lw 3
 lw 745 826 m21 6 lw 3 lw 764 819 m21 6 lw 3 lw 782 815 m21 6 lw 3 lw 801 807 m21 6 lw 3 lw 820 804 m21 6 lw 3 lw 839 800 m21 6 lw 3 lw 858 797 m21 6 lw 3 lw 877 793 m21 6 lw 3 lw 895 792 m21 6 lw 3 lw 914 787 m21 6 lw 3 lw 933 782 m21 6 lw 3 lw 952
 781 m21 6 lw 3 lw 971 778 m21 6 lw 3 lw 990 775 m21 6 lw 3 lw 1008 773 m21 6 lw 3 lw 1027 770 m21 6 lw 3 lw 1046 767 m21 6 lw 3 lw 1065 766 m21 6 lw 3 lw 1084 765 m21 6 lw 3 lw 1102 766 m21 6 lw 3 lw 1121 765 m21 6 lw 3 lw 1140 761 m21 6 lw 3 lw
 1159 763 m21 6 lw 3 lw 1178 761 m21 6 lw 3 lw 1197 760 m21 6 lw 3 lw 1215 758 m21 6 lw 3 lw 1234 759 m21 6 lw 3 lw 1253 759 m21 6 lw 3 lw 1272 759 m21 6 lw 3 lw 1291 759 m21 6 lw 3 lw 1309 757 m21 6 lw 3 lw 1328 759 m21 6 lw 3 lw 1347 758 m21 6 lw 3
 lw 1366 760 m21 6 lw 3 lw 1385 760 m21 6 lw 3 lw 1404 759 m21 6 lw 3 lw 1422 760 m21 6 lw 3 lw 1441 762 m21 6 lw 3 lw 1460 760 m21 6 lw 3 lw 1479 764 m21 6 lw 3 lw 1498 762 m21 6 lw 3 lw 1517 763 m21 6 lw 3 lw 1535 764 m21 6 lw 3 lw 1554 763 m21 6
 lw 3 lw 1573 764 m21 6 lw 3 lw 1592 767 m21 6 lw 3 lw 1611 767 m21 6 lw 3 lw 1629 770 m21 6 lw 3 lw 1648 767 m21 6 lw 3 lw 1667 769 m21 6 lw 3 lw 1686 770 m21 6 lw 3 lw 1705 772 m21 6 lw 3 lw 1724 775 m21 6 lw 3 lw 1742 782 m21 6 lw 3 lw 1761 774
 m21 6 lw 3 lw 1780 774 m21 6 lw 3 lw 1799 777 m21 6 lw 3 lw 1818 776 m21 6 lw 3 lw 1837 781 m21 6 lw 3 lw 1855 776 m21 6 lw 3 lw 1874 780 m21 6 lw 3 lw 1893 785 m21 6 lw 3 lw 1912 783 m21 6 lw 3 lw 1931 789 m21 6 lw 3 lw 1949 784 m21 6 lw 3 lw 1968
 788 m21 6 lw 3 lw 1987 787 m21 6 lw 3 lw 2006 786 m21 6 lw 3 lw 2025 790 m21 6 lw 3 lw 2044 793 m21 6 lw 3 lw 2062 788 m21 6 lw 3 lw 2081 793 m21 6 lw 3 lw 2100 798 m21 6 lw 3 lw 2119 799 m21 6 lw 3 lw 2138 792 m21 6 lw 3 lw 2156 796 m21 6 lw 3 lw
 2175 792 m21 6 lw 3 lw 2194 800 m21 6 lw 3 lw 2213 797 m21 6 lw black 340 223 m 1882 X s
 gsave  2268 2234 0 0 C 1923.86 58.2559 t 0 r /Helvetica findfont 83.8316 sf 0 0 m (Q [GeV]) show NC gr  340 279 m -56 Y s 387 251 m -28 Y s 434 251 m -28 Y s 481 251 m -28 Y s 528 279 m -56 Y s 575 251 m -28 Y s 622 251 m -28 Y s 670 251 m -28 Y s
 717 279 m -56 Y s 764 251 m -28 Y s 811 251 m -28 Y s 858 251 m -28 Y s 905 279 m -56 Y s 952 251 m -28 Y s 999 251 m -28 Y s 1046 251 m -28 Y s 1093 279 m -56 Y s 1140 251 m -28 Y s 1187 251 m -28 Y s 1234 251 m -28 Y s 1281 279 m -56 Y s 1328 251
 m -28 Y s 1375 251 m -28 Y s 1422 251 m -28 Y s 1469 279 m -56 Y s 1517 251 m -28 Y s 1564 251 m -28 Y s 1611 251 m -28 Y s 1658 279 m -56 Y s 1705 251 m -28 Y s 1752 251 m -28 Y s 1799 251 m -28 Y s 1846 279 m -56 Y s 1893 251 m -28 Y s 1940 251 m
 -28 Y s 1987 251 m -28 Y s 2034 279 m -56 Y s 2081 251 m -28 Y s 2128 251 m -28 Y s 2175 251 m -28 Y s 2222 279 m -56 Y s
 gsave  2268 2234 0 0 C 322.539 159.138 t 0 r /Helvetica findfont 62.5185 sf 0 0 m (0) show NC gr 
 gsave  2268 2234 0 0 C 484.518 159.138 t 0 r /Helvetica findfont 62.5185 sf 0 0 m (0.2) show NC gr 
 gsave  2268 2234 0 0 C 673.495 159.138 t 0 r /Helvetica findfont 62.5185 sf 0 0 m (0.4) show NC gr 
 gsave  2268 2234 0 0 C 861.05 159.138 t 0 r /Helvetica findfont 62.5185 sf 0 0 m (0.6) show NC gr 
 gsave  2268 2234 0 0 C 1050.03 159.138 t 0 r /Helvetica findfont 62.5185 sf 0 0 m (0.8) show NC gr 
 gsave  2268 2234 0 0 C 1268.84 159.138 t 0 r /Helvetica findfont 62.5185 sf 0 0 m (1) show NC gr 
 gsave  2268 2234 0 0 C 1426.56 159.138 t 0 r /Helvetica findfont 62.5185 sf 0 0 m (1.2) show NC gr 
 gsave  2268 2234 0 0 C 1614.11 159.138 t 0 r /Helvetica findfont 62.5185 sf 0 0 m (1.4) show NC gr 
 gsave  2268 2234 0 0 C 1803.09 159.138 t 0 r /Helvetica findfont 62.5185 sf 0 0 m (1.6) show NC gr 
 gsave  2268 2234 0 0 C 1990.65 159.138 t 0 r /Helvetica findfont 62.5185 sf 0 0 m (1.8) show NC gr 
 gsave  2268 2234 0 0 C 2205.2 159.138 t 0 r /Helvetica findfont 62.5185 sf 0 0 m (2) show NC gr  340 223 m 1966 Y s
 gsave  2268 2234 0 0 C 147.771 1594.22 t 90 r /Helvetica findfont 83.8316 sf 0 0 m (\(Q\) / \(0.02 GeV\)) show NC gr 
 gsave  2268 2234 0 0 C 174.768 1565.8 t 90 r /Helvetica findfont 55.4141 sf 0 0 m (2) show NC gr 
 gsave  2268 2234 0 0 C 147.771 1484.81 t 90 r /Helvetica findfont 83.8316 sf 0 0 m ( C) show NC gr  400 339 m -60 X s 370 397 m -30 X s 370 455 m -30 X s 370 512 m -30 X s 400 570 m -60 X s 370 628 m -30 X s 370 686 m -30 X s 370 744 m -30 X s 400
 801 m -60 X s 370 859 m -30 X s 370 917 m -30 X s 370 975 m -30 X s 400 1033 m -60 X s 370 1091 m -30 X s 370 1148 m -30 X s 370 1206 m -30 X s 400 1264 m -60 X s 370 1322 m -30 X s 370 1380 m -30 X s 370 1437 m -30 X s 400 1495 m -60 X s 370 1553 m
 -30 X s 370 1611 m -30 X s 370 1669 m -30 X s 400 1726 m -60 X s 370 1784 m -30 X s 370 1842 m -30 X s 370 1900 m -30 X s 400 1958 m -60 X s 370 2016 m -30 X s 370 2073 m -30 X s 370 2131 m -30 X s 400 2189 m -60 X s 400 339 m -60 X s 370 281 m -30
 X s 370 223 m -30 X s
 gsave  2268 2234 0 0 C 242.97 316.855 t 0 r /Helvetica findfont 62.5185 sf 0 0 m (0.6) show NC gr 
 gsave  2268 2234 0 0 C 242.97 548.458 t 0 r /Helvetica findfont 62.5185 sf 0 0 m (0.8) show NC gr 
 gsave  2268 2234 0 0 C 305.488 778.639 t 0 r /Helvetica findfont 62.5185 sf 0 0 m (1) show NC gr 
 gsave  2268 2234 0 0 C 242.97 1008.82 t 0 r /Helvetica findfont 62.5185 sf 0 0 m (1.2) show NC gr 
 gsave  2268 2234 0 0 C 242.97 1240.42 t 0 r /Helvetica findfont 62.5185 sf 0 0 m (1.4) show NC gr 
 gsave  2268 2234 0 0 C 242.97 1473.45 t 0 r /Helvetica findfont 62.5185 sf 0 0 m (1.6) show NC gr 
 gsave  2268 2234 0 0 C 242.97 1705.05 t 0 r /Helvetica findfont 62.5185 sf 0 0 m (1.8) show NC gr 
 gsave  2268 2234 0 0 C 295.542 1933.81 t 0 r /Helvetica findfont 62.5185 sf 0 0 m (2) show NC gr 
 gsave  2268 2234 0 0 C 242.97 2165.41 t 0 r /Helvetica findfont 62.5185 sf 0 0 m (2.2) show NC gr  1 0 0 c 1 1 1 c 1 0 0 c 368 1253 m 5 Y s 368 1275 m 5 Y s 3 lw 368 1266 m21 6 lw 3 lw 406 1186 m21 6 lw 3 lw 425 1138 m21 6 lw 3 lw 444 1092 m21 6 lw
 3 lw 463 1052 m21 6 lw 3 lw 481 1012 m21 6 lw 3 lw 500 989 m21 6 lw 3 lw 519 964 m21 6 lw 3 lw 538 942 m21 6 lw 3 lw 557 927 m21 6 lw 3 lw 575 909 m21 6 lw 3 lw 594 896 m21 6 lw 3 lw 613 884 m21 6 lw 3 lw 632 873 m21 6 lw 3 lw 651 859 m21 6 lw 3 lw
 670 854 m21 6 lw 3 lw 688 847 m21 6 lw 3 lw 707 836 m21 6 lw 3 lw 726 833 m21 6 lw 3 lw 745 828 m21 6 lw 3 lw 764 822 m21 6 lw 3 lw 782 814 m21 6 lw 3 lw 801 808 m21 6 lw 3 lw 820 805 m21 6 lw 3 lw 839 800 m21 6 lw 3 lw 858 797 m21 6 lw 3 lw 877 793
 m21 6 lw 3 lw 895 792 m21 6 lw 3 lw 914 783 m21 6 lw 3 lw 933 785 m21 6 lw 3 lw 952 779 m21 6 lw 3 lw 971 779 m21 6 lw 3 lw 990 775 m21 6 lw 3 lw 1008 774 m21 6 lw 3 lw 1027 772 m21 6 lw 3 lw 1046 772 m21 6 lw 3 lw 1065 768 m21 6 lw 3 lw 1084 767
 m21 6 lw 3 lw 1102 767 m21 6 lw 3 lw 1121 766 m21 6 lw 3 lw 1140 766 m21 6 lw 3 lw 1159 763 m21 6 lw 3 lw 1178 763 m21 6 lw 3 lw 1197 762 m21 6 lw 3 lw 1215 761 m21 6 lw 3 lw 1234 758 m21 6 lw 3 lw 1253 759 m21 6 lw 3 lw 1272 762 m21 6 lw 3 lw 1291
 756 m21 6 lw 3 lw 1309 757 m21 6 lw 3 lw 1328 758 m21 6 lw 3 lw 1347 759 m21 6 lw 3 lw 1366 759 m21 6 lw 3 lw 1385 762 m21 6 lw 3 lw 1404 758 m21 6 lw 3 lw 1422 760 m21 6 lw 3 lw 1441 764 m21 6 lw 3 lw 1460 762 m21 6 lw 3 lw 1479 763 m21 6 lw 3 lw
 1498 763 m21 6 lw 3 lw 1517 762 m21 6 lw 3 lw 1535 764 m21 6 lw 3 lw 1554 766 m21 6 lw 3 lw 1573 764 m21 6 lw 3 lw 1592 767 m21 6 lw 3 lw 1611 767 m21 6 lw 3 lw 1629 770 m21 6 lw 3 lw 1648 767 m21 6 lw 3 lw 1667 768 m21 6 lw 3 lw 1686 772 m21 6 lw 3
 lw 1705 775 m21 6 lw 3 lw 1724 773 m21 6 lw 3 lw 1742 782 m21 6 lw 3 lw 1761 771 m21 6 lw 3 lw 1780 776 m21 6 lw 3 lw 1799 776 m21 6 lw 3 lw 1818 779 m21 6 lw 3 lw 1837 784 m21 6 lw 3 lw 1855 779 m21 6 lw 3 lw 1874 782 m21 6 lw 3 lw 1893 781 m21 6
 lw 3 lw 1912 779 m21 6 lw 3 lw 1931 787 m21 6 lw 3 lw 1949 787 m21 6 lw 3 lw 1968 785 m21 6 lw 3 lw 1987 792 m21 6 lw 3 lw 2006 779 m21 6 lw 3 lw 2025 789 m21 6 lw 3 lw 2044 793 m21 6 lw 3 lw 2062 788 m21 6 lw 3 lw 2081 795 m21 6 lw 3 lw 2100 796
 m21 6 lw 3 lw 2119 801 m21 6 lw 3 lw 2138 786 m21 6 lw 3 lw 2156 802 m21 6 lw 3 lw 2175 792 m21 6 lw 3 lw 2194 800 m21 6 lw 3 lw 2213 802 m21 6 lw black 1 1 1 c 680 447 1474 1675 bf black 1474 1675 m 680 X s 2154 1675 m 447 Y s 2154 2122 m -680 X s
 1474 2122 m -447 Y s
 gsave  2268 2234 0 0 C 1490.5 2029.01 t 0 r /Helvetica findfont 49.7306 sf 0 0 m (shared VELO cut) show NC gr 
 gsave  2268 2234 0 0 C 1643.95 1881.24 t 0 r /Helvetica findfont 49.7306 sf 0 0 m (before) show NC gr  0 0 1 c 1559 1854 m 89 Y s 3 lw 1559 1899 m21 6 lw black
 gsave  2268 2234 0 0 C 1643.95 1732.05 t 0 r /Helvetica findfont 49.7306 sf 0 0 m (after) show NC gr  1 0 0 c 1559 1705 m 89 Y s 3 lw 1559 1750 m21 6 lw black
 gsave  2268 2234 0 0 C 906.518 670.653 t 0 r /Helvetica-Bold findfont 72.4646 sf 0 0 m (RD PIONS) show NC gr 
 gsave  2268 2234 0 0 C 906.518 558.404 t 0 r /Helvetica-Bold findfont 72.4646 sf 0 0 m (ref. sample: EVENT MIX) show NC gr 
 gsave  2268 2234 0 0 C 906.518 447.576 t 0 r /Helvetica-Bold findfont 72.4646 sf 0 0 m (VELO tracks multiplicity: 11 \255 20) show NC gr 
 gr  gr showpage
end
%%EOF
