%!PS-Adobe-2.0 EPSF-2.0
%%BoundingBox:  0 0 567 558
%%Title: ./RD_pion_0c65_h2501_like_3_scatter.eps: RD_pion_0c65_h2501_like_3_scatter
%%Creator: ROOT Version 6.06/02
%%CreationDate: Wed Dec  7 17:40:49 2016
%%DocumentNeededResources: ProcSet (FontSetInit)
%%EndComments
%%BeginProlog
80 dict begin
/s {stroke} def /l {lineto} def /m {moveto} def /t {translate} def
/r {rotate} def /rl {roll}  def /R {repeat} def
/d {rlineto} def /rm {rmoveto} def /gr {grestore} def /f {eofill} def
/c {setrgbcolor} def /black {0 setgray} def /sd {setdash} def
/cl {closepath} def /sf {scalefont setfont} def /lw {setlinewidth} def
/box {m dup 0 exch d exch 0 d 0 exch neg d cl} def
/NC{systemdict begin initclip end}def/C{NC box clip newpath}def
/bl {box s} def /bf {gsave box gsave f grestore 1 lw [] 0 sd s grestore} def /Y { 0 exch d} def /X { 0 d} def 
/K {{pop pop 0 moveto} exch kshow} bind def
/ita {/ang 15 def gsave [1 0 ang dup sin exch cos div 1 0 0] concat} def 
/mp {newpath /y exch def /x exch def} def
/side {[w .77 mul w .23 mul] .385 w mul sd w 0 l currentpoint t -144 r} def
/mr {mp x y w2 0 360 arc} def /m24 {mr s} def /m20 {mr f} def
/mb {mp x y w2 add m w2 neg 0 d 0 w neg d w 0 d 0 w d cl} def
/mt {mp x y w2 add m w2 neg w neg d w 0 d cl} def
/m21 {mb f} def /m25 {mb s} def /m22 {mt f} def /m26{mt s} def
/m23 {mp x y w2 sub m w2 w d w neg 0 d cl f} def
/m27 {mp x y w2 add m w3 neg w2 neg d w3 w2 neg d w3 w2 d cl s} def
/m28 {mp x w2 sub y w2 sub w3 add m w3 0 d  0 w3 neg d w3 0 d 0 w3 d w3 0 d  0 w3 d w3 neg 0 d 0 w3 d w3 neg 0 d 0 w3 neg d w3 neg 0 d cl s } def
/m29 {mp gsave x w2 sub y w2 add w3 sub m currentpoint t 4 {side} repeat cl fill gr} def
/m30 {mp gsave x w2 sub y w2 add w3 sub m currentpoint t 4 {side} repeat cl s gr} def
/m31 {mp x y w2 sub m 0 w d x w2 sub y m w 0 d x w2 sub y w2 add m w w neg d x w2 sub y w2 sub m w w d s} def
/m32 {mp x y w2 sub m w2 w d w neg 0 d cl s} def
/m33 {mp x y w2 add m w3 neg w2 neg d w3 w2 neg d w3 w2 d cl f} def
/m34 {mp x w2 sub y w2 sub w3 add m w3 0 d  0 w3 neg d w3 0 d 0 w3 d w3 0 d  0 w3 d w3 neg 0 d 0 w3 d w3 neg 0 d 0 w3 neg d w3 neg 0 d cl f } def
/m2 {mp x y w2 sub m 0 w d x w2 sub y m w 0 d s} def
/m5 {mp x w2 sub y w2 sub m w w d x w2 sub y w2 add m w w neg d s} def
%%IncludeResource: ProcSet (FontSetInit)
%%IncludeResource: font Times-Roman
%%IncludeResource: font Times-Italic
%%IncludeResource: font Times-Bold
%%IncludeResource: font Times-BoldItalic
%%IncludeResource: font Helvetica
%%IncludeResource: font Helvetica-Oblique
%%IncludeResource: font Helvetica-Bold
%%IncludeResource: font Helvetica-BoldOblique
%%IncludeResource: font Courier
%%IncludeResource: font Courier-Oblique
%%IncludeResource: font Courier-Bold
%%IncludeResource: font Courier-BoldOblique
%%IncludeResource: font Symbol
%%IncludeResource: font ZapfDingbats
/reEncode {exch findfont dup length dict begin {1 index /FID eq  {pop pop} {def} ifelse } forall /Encoding exch def currentdict end dup /FontName get exch definefont pop } def [/Times-Bold /Times-Italic /Times-BoldItalic /Helvetica /Helvetica-Oblique
 /Helvetica-Bold /Helvetica-BoldOblique /Courier /Courier-Oblique /Courier-Bold /Courier-BoldOblique /Times-Roman /AvantGarde-Book /AvantGarde-BookOblique /AvantGarde-Demi /AvantGarde-DemiOblique /Bookman-Demi /Bookman-DemiItalic /Bookman-Light
 /Bookman-LightItalic /Helvetica-Narrow /Helvetica-Narrow-Bold /Helvetica-Narrow-BoldOblique /Helvetica-Narrow-Oblique /NewCenturySchlbk-Roman /NewCenturySchlbk-Bold /NewCenturySchlbk-BoldItalic /NewCenturySchlbk-Italic /Palatino-Bold
 /Palatino-BoldItalic /Palatino-Italic /Palatino-Roman ] {ISOLatin1Encoding reEncode } forall
%%EndProlog
%%BeginSetup
%%EndSetup
newpath  gsave  .25 .25 scale  gsave  0 0 t black[  ] 0 sd 6 lw 1 1 1 c 2268 2234 0 0 bf black 3 lw 1 1 1 c 1678 1653 295 290 bf black 1678 1653 295 290 bl 1 1 1 c 0.521951 0.00487805 0 c 42 42 295 290 bf 0.557805 0.0195122 0 c 42 42 337 290 bf
 0.581707 0.0292683 0 c 42 42 379 290 bf 0.617561 0.0439024 0 c 42 42 421 290 bf 0.653415 0.0585366 0 c 42 42 463 290 bf 0.689268 0.0731707 0 c 42 42 505 290 bf 0.737073 0.0926829 0 c 41 42 547 290 bf 0.772927 0.107317 0 c 42 42 588 290 bf 0.820732
 0.126829 0 c 42 42 630 290 bf 0.856585 0.141463 0 c 42 42 672 290 bf 0.90439 0.160976 0 c 42 42 714 290 bf 0.952195 0.180488 0 c 42 42 756 290 bf 0.988049 0.195122 0 c 42 42 798 290 bf 0.99339 0.240678 0.00610169 c 42 42 840 290 bf 0.98678 0.281356
 0.0122034 c 42 42 882 290 bf 0.977966 0.335593 0.020339 c 42 42 924 290 bf 0.969153 0.38983 0.0284746 c 42 42 966 290 bf 0.960339 0.444068 0.0366102 c 42 42 1008 290 bf 0.951525 0.498305 0.0447458 c 42 42 1050 290 bf 0.940508 0.566102 0.0549153 c 42
 42 1092 290 bf 0.927288 0.647458 0.0671186 c 42 42 1134 290 bf 0.916271 0.715254 0.0772881 c 42 42 1176 290 bf 0.903051 0.79661 0.0894915 c 42 42 1218 290 bf 0.892034 0.864407 0.099661 c 42 42 1260 290 bf 0.878814 0.945763 0.111864 c 42 42 1302 290
 bf 0.844783 0.994493 0.145507 c 42 42 1344 290 bf 0.76913 0.977971 0.222029 c 42 42 1386 290 bf 0.68087 0.958696 0.311304 c 41 42 1428 290 bf 0.605217 0.942174 0.387826 c 42 42 1469 290 bf 0.516957 0.922899 0.477101 c 42 42 1511 290 bf 0.416087
 0.90087 0.57913 c 42 42 1553 290 bf 0.302609 0.876087 0.693913 c 42 42 1595 290 bf 0.176522 0.848551 0.821449 c 42 42 1637 290 bf 0.0252174 0.815507 0.974493 c 42 42 1679 290 bf 0 0.687558 0.92593 c 42 42 1721 290 bf 0 0.499186 0.811977 c 42 42 1763
 290 bf 0 0.094186 0.566977 c 42 42 1805 290 bf 0.557805 0.0195122 0 c 42 41 295 332 bf 0.569756 0.0243902 0 c 42 41 337 332 bf 0.593659 0.0341463 0 c 42 41 379 332 bf 0.629512 0.0487805 0 c 42 41 421 332 bf 0.665366 0.0634146 0 c 42 41 463 332 bf
 0.701219 0.0780488 0 c 42 41 505 332 bf 0.737073 0.0926829 0 c 41 41 547 332 bf 0.784878 0.112195 0 c 42 41 588 332 bf 0.820732 0.126829 0 c 42 41 630 332 bf 0.868537 0.146341 0 c 42 41 672 332 bf 0.90439 0.160976 0 c 42 41 714 332 bf 0.952195
 0.180488 0 c 42 41 756 332 bf 0.988049 0.195122 0 c 42 41 798 332 bf 0.99339 0.240678 0.00610169 c 42 41 840 332 bf 0.98678 0.281356 0.0122034 c 42 41 882 332 bf 0.977966 0.335593 0.020339 c 42 41 924 332 bf 0.969153 0.38983 0.0284746 c 42 41 966
 332 bf 0.960339 0.444068 0.0366102 c 42 41 1008 332 bf 0.951525 0.498305 0.0447458 c 42 41 1050 332 bf 0.940508 0.566102 0.0549153 c 42 41 1092 332 bf 0.927288 0.647458 0.0671186 c 42 41 1134 332 bf 0.916271 0.715254 0.0772881 c 42 41 1176 332 bf
 0.903051 0.79661 0.0894915 c 42 41 1218 332 bf 0.889831 0.877966 0.101695 c 42 41 1260 332 bf 0.878814 0.945763 0.111864 c 42 41 1302 332 bf 0.844783 0.994493 0.145507 c 42 41 1344 332 bf 0.76913 0.977971 0.222029 c 42 41 1386 332 bf 0.68087
 0.958696 0.311304 c 41 41 1428 332 bf 0.605217 0.942174 0.387826 c 42 41 1469 332 bf 0.504348 0.920145 0.489855 c 42 41 1511 332 bf 0.416087 0.90087 0.57913 c 42 41 1553 332 bf 0.302609 0.876087 0.693913 c 42 41 1595 332 bf 0.176522 0.848551
 0.821449 c 42 41 1637 332 bf 0.0126087 0.812754 0.987246 c 42 41 1679 332 bf 0 0.715814 0.943023 c 42 41 1721 332 bf 0 0.53686 0.834767 c 42 41 1763 332 bf 0 0 0.51 c 42 41 1805 332 bf 0.581707 0.0292683 0 c 42 41 295 373 bf 0.593659 0.0341463 0 c
 42 41 337 373 bf 0.60561 0.0390244 0 c 42 41 379 373 bf 0.641463 0.0536585 0 c 42 41 421 373 bf 0.665366 0.0634146 0 c 42 41 463 373 bf 0.713171 0.0829268 0 c 42 41 505 373 bf 0.749024 0.097561 0 c 41 41 547 373 bf 0.784878 0.112195 0 c 42 41 588
 373 bf 0.832683 0.131707 0 c 42 41 630 373 bf 0.868537 0.146341 0 c 42 41 672 373 bf 0.916341 0.165854 0 c 42 41 714 373 bf 0.952195 0.180488 0 c 42 41 756 373 bf 1 0.2 0 c 42 41 798 373 bf 0.99339 0.240678 0.00610169 c 42 41 840 373 bf 0.984576
 0.294915 0.0142373 c 42 41 882 373 bf 0.977966 0.335593 0.020339 c 42 41 924 373 bf 0.969153 0.38983 0.0284746 c 42 41 966 373 bf 0.960339 0.444068 0.0366102 c 42 41 1008 373 bf 0.951525 0.498305 0.0447458 c 42 41 1050 373 bf 0.940508 0.566102
 0.0549153 c 42 41 1092 373 bf 0.927288 0.647458 0.0671186 c 42 41 1134 373 bf 0.914068 0.728814 0.079322 c 42 41 1176 373 bf 0.903051 0.79661 0.0894915 c 42 41 1218 373 bf 0.889831 0.877966 0.101695 c 42 41 1260 373 bf 0.87661 0.959322 0.113898 c 42
 41 1302 373 bf 0.844783 0.994493 0.145507 c 42 41 1344 373 bf 0.756522 0.975217 0.234783 c 42 41 1386 373 bf 0.68087 0.958696 0.311304 c 41 41 1428 373 bf 0.592609 0.93942 0.40058 c 42 41 1469 373 bf 0.504348 0.920145 0.489855 c 42 41 1511 373 bf
 0.403478 0.898116 0.591884 c 42 41 1553 373 bf 0.29 0.873333 0.706667 c 42 41 1595 373 bf 0.176522 0.848551 0.821449 c 42 41 1637 373 bf 0.0252174 0.815507 0.974493 c 42 41 1679 373 bf 0 0.706395 0.937326 c 42 41 1721 373 bf 0 0.527442 0.82907 c 42
 41 1763 373 bf 0 0.235465 0.652442 c 42 41 1805 373 bf 0.60561 0.0390244 0 c 42 42 295 414 bf 0.617561 0.0439024 0 c 42 42 337 414 bf 0.641463 0.0536585 0 c 42 42 379 414 bf 0.665366 0.0634146 0 c 42 42 421 414 bf 0.689268 0.0731707 0 c 42 42 463
 414 bf 0.725122 0.0878049 0 c 42 42 505 414 bf 0.760976 0.102439 0 c 41 42 547 414 bf 0.796829 0.117073 0 c 42 42 588 414 bf 0.844634 0.136585 0 c 42 42 630 414 bf 0.880488 0.15122 0 c 42 42 672 414 bf 0.916341 0.165854 0 c 42 42 714 414 bf 0.964146
 0.185366 0 c 42 42 756 414 bf 1 0.2 0 c 42 42 798 414 bf 0.991186 0.254237 0.00813559 c 42 42 840 414 bf 0.984576 0.294915 0.0142373 c 42 42 882 414 bf 0.975763 0.349153 0.0223729 c 42 42 924 414 bf 0.969153 0.38983 0.0284746 c 42 42 966 414 bf
 0.958136 0.457627 0.0386441 c 42 42 1008 414 bf 0.949322 0.511864 0.0467797 c 42 42 1050 414 bf 0.938305 0.579661 0.0569492 c 42 42 1092 414 bf 0.925085 0.661017 0.0691525 c 42 42 1134 414 bf 0.914068 0.728814 0.079322 c 42 42 1176 414 bf 0.900847
 0.81017 0.0915254 c 42 42 1218 414 bf 0.887627 0.891525 0.103729 c 42 42 1260 414 bf 0.87661 0.959322 0.113898 c 42 42 1302 414 bf 0.832174 0.991739 0.158261 c 42 42 1344 414 bf 0.756522 0.975217 0.234783 c 42 42 1386 414 bf 0.668261 0.955942
 0.324058 c 41 42 1428 414 bf 0.592609 0.93942 0.40058 c 42 42 1469 414 bf 0.491739 0.917391 0.502609 c 42 42 1511 414 bf 0.403478 0.898116 0.591884 c 42 42 1553 414 bf 0.29 0.873333 0.706667 c 42 42 1595 414 bf 0.163913 0.845797 0.834203 c 42 42
 1637 414 bf 0.0252174 0.815507 0.974493 c 42 42 1679 414 bf 0 0.687558 0.92593 c 42 42 1721 414 bf 0 0.480349 0.800581 c 42 42 1763 414 bf 0 0.141279 0.595465 c 42 42 1805 414 bf 0.653415 0.0585366 0 c 42 41 295 456 bf 42 41 337 456 bf 0.677317
 0.0682927 0 c 42 41 379 456 bf 0.689268 0.0731707 0 c 42 41 421 456 bf 0.713171 0.0829268 0 c 42 41 463 456 bf 0.749024 0.097561 0 c 42 41 505 456 bf 0.784878 0.112195 0 c 41 41 547 456 bf 0.820732 0.126829 0 c 42 41 588 456 bf 0.856585 0.141463 0 c
 42 41 630 456 bf 0.892439 0.156098 0 c 42 41 672 456 bf 0.928293 0.170732 0 c 42 41 714 456 bf 0.976098 0.190244 0 c 42 41 756 456 bf 0.997797 0.213559 0.0020339 c 42 41 798 456 bf 0.991186 0.254237 0.00813559 c 42 41 840 456 bf 0.982373 0.308475
 0.0162712 c 42 41 882 456 bf 0.975763 0.349153 0.0223729 c 42 41 924 456 bf 0.966949 0.40339 0.0305085 c 42 41 966 456 bf 0.958136 0.457627 0.0386441 c 42 41 1008 456 bf 0.949322 0.511864 0.0467797 c 42 41 1050 456 bf 0.936102 0.59322 0.0589831 c 42
 41 1092 456 bf 0.922881 0.674576 0.0711864 c 42 41 1134 456 bf 0.911864 0.742373 0.0813559 c 42 41 1176 456 bf 0.898644 0.823729 0.0935593 c 42 41 1218 456 bf 0.887627 0.891525 0.103729 c 42 41 1260 456 bf 0.874407 0.972881 0.115932 c 42 41 1302 456
 bf 0.819565 0.988985 0.171014 c 42 41 1344 456 bf 0.743913 0.972464 0.247536 c 42 41 1386 456 bf 0.668261 0.955942 0.324058 c 41 41 1428 456 bf 0.58 0.936667 0.413333 c 42 41 1469 456 bf 0.491739 0.917391 0.502609 c 42 41 1511 456 bf 0.378261
 0.892609 0.617391 c 42 41 1553 456 bf 0.277391 0.87058 0.71942 c 42 41 1595 456 bf 0.138696 0.84029 0.85971 c 42 41 1637 456 bf 0 0.81 1 c 42 41 1679 456 bf 0 0.67814 0.920233 c 42 41 1721 456 bf 0 0.47093 0.794884 c 42 41 1763 456 bf 0 0.141279
 0.595465 c 42 41 1805 456 bf 0.689268 0.0731707 0 c 42 41 295 497 bf 0.701219 0.0780488 0 c 42 41 337 497 bf 0.713171 0.0829268 0 c 42 41 379 497 bf 0.725122 0.0878049 0 c 42 41 421 497 bf 0.749024 0.097561 0 c 42 41 463 497 bf 0.772927 0.107317 0 c
 42 41 505 497 bf 0.80878 0.121951 0 c 41 41 547 497 bf 0.832683 0.131707 0 c 42 41 588 497 bf 0.868537 0.146341 0 c 42 41 630 497 bf 0.90439 0.160976 0 c 42 41 672 497 bf 0.940244 0.17561 0 c 42 41 714 497 bf 0.988049 0.195122 0 c 42 41 756 497 bf
 0.995593 0.227119 0.0040678 c 42 41 798 497 bf 0.988983 0.267797 0.0101695 c 42 41 840 497 bf 0.980169 0.322034 0.0183051 c 42 41 882 497 bf 0.973559 0.362712 0.0244068 c 42 41 924 497 bf 0.964746 0.416949 0.0325424 c 42 41 966 497 bf 0.955932
 0.471186 0.040678 c 42 41 1008 497 bf 0.944915 0.538983 0.0508475 c 42 41 1050 497 bf 0.933898 0.60678 0.061017 c 42 41 1092 497 bf 0.920678 0.688136 0.0732203 c 42 41 1134 497 bf 0.909661 0.755932 0.0833898 c 42 41 1176 497 bf 0.896441 0.837288
 0.0955932 c 42 41 1218 497 bf 0.885424 0.905085 0.105763 c 42 41 1260 497 bf 0.872203 0.986441 0.117966 c 42 41 1302 497 bf 0.806957 0.986232 0.183768 c 42 41 1344 497 bf 0.731304 0.96971 0.26029 c 42 41 1386 497 bf 0.655652 0.953188 0.336812 c 41
 41 1428 497 bf 0.567391 0.933913 0.426087 c 42 41 1469 497 bf 0.47913 0.914638 0.515362 c 42 41 1511 497 bf 0.378261 0.892609 0.617391 c 42 41 1553 497 bf 0.264783 0.867826 0.732174 c 42 41 1595 497 bf 0.126087 0.837536 0.872464 c 42 41 1637 497 bf
 0 0.800581 0.994302 c 42 41 1679 497 bf 0 0.649884 0.90314 c 42 41 1721 497 bf 0 0.442674 0.777791 c 42 41 1763 497 bf 0 0 0.51 c 42 41 1805 497 bf 0.725122 0.0878049 0 c 42 42 295 538 bf 0.737073 0.0926829 0 c 42 42 337 538 bf 0.749024 0.097561 0 c
 42 42 379 538 bf 0.760976 0.102439 0 c 42 42 421 538 bf 0.772927 0.107317 0 c 42 42 463 538 bf 0.796829 0.117073 0 c 42 42 505 538 bf 0.832683 0.131707 0 c 41 42 547 538 bf 0.856585 0.141463 0 c 42 42 588 538 bf 0.892439 0.156098 0 c 42 42 630 538
 bf 0.928293 0.170732 0 c 42 42 672 538 bf 0.964146 0.185366 0 c 42 42 714 538 bf 1 0.2 0 c 42 42 756 538 bf 0.99339 0.240678 0.00610169 c 42 42 798 538 bf 0.98678 0.281356 0.0122034 c 42 42 840 538 bf 0.977966 0.335593 0.020339 c 42 42 882 538 bf
 0.971356 0.376271 0.0264407 c 42 42 924 538 bf 0.962542 0.430508 0.0345763 c 42 42 966 538 bf 0.953729 0.484746 0.0427119 c 42 42 1008 538 bf 0.942712 0.552542 0.0528814 c 42 42 1050 538 bf 0.929492 0.633898 0.0650847 c 42 42 1092 538 bf 0.918475
 0.701695 0.0752542 c 42 42 1134 538 bf 0.907458 0.769492 0.0854237 c 42 42 1176 538 bf 0.894237 0.850847 0.0976271 c 42 42 1218 538 bf 0.88322 0.918644 0.107797 c 42 42 1260 538 bf 0.87 1 0.12 c 42 42 1302 538 bf 0.794348 0.983478 0.196522 c 42 42
 1344 538 bf 0.718696 0.966956 0.273043 c 42 42 1386 538 bf 0.643043 0.950435 0.349565 c 41 42 1428 538 bf 0.554783 0.931159 0.438841 c 42 42 1469 538 bf 0.453913 0.90913 0.54087 c 42 42 1511 538 bf 0.365652 0.889855 0.630145 c 42 42 1553 538 bf
 0.252174 0.865072 0.744928 c 42 42 1595 538 bf 0.126087 0.837536 0.872464 c 42 42 1637 538 bf 0 0.772326 0.977209 c 42 42 1679 538 bf 0 0.621628 0.886047 c 42 42 1721 538 bf 0 0.386163 0.743605 c 42 42 1763 538 bf 0.772927 0.107317 0 c 42 41 295 580
 bf 42 41 337 580 bf 0.784878 0.112195 0 c 42 41 379 580 bf 0.796829 0.117073 0 c 42 41 421 580 bf 0.80878 0.121951 0 c 42 41 463 580 bf 0.832683 0.131707 0 c 42 41 505 580 bf 0.856585 0.141463 0 c 41 41 547 580 bf 0.880488 0.15122 0 c 42 41 588 580
 bf 0.916341 0.165854 0 c 42 41 630 580 bf 0.952195 0.180488 0 c 42 41 672 580 bf 0.976098 0.190244 0 c 42 41 714 580 bf 0.997797 0.213559 0.0020339 c 42 41 756 580 bf 0.991186 0.254237 0.00813559 c 42 41 798 580 bf 0.982373 0.308475 0.0162712 c 42
 41 840 580 bf 0.975763 0.349153 0.0223729 c 42 41 882 580 bf 0.966949 0.40339 0.0305085 c 42 41 924 580 bf 0.960339 0.444068 0.0366102 c 42 41 966 580 bf 0.949322 0.511864 0.0467797 c 42 41 1008 580 bf 0.938305 0.579661 0.0569492 c 42 41 1050 580 bf
 0.927288 0.647458 0.0671186 c 42 41 1092 580 bf 0.916271 0.715254 0.0772881 c 42 41 1134 580 bf 0.903051 0.79661 0.0894915 c 42 41 1176 580 bf 0.892034 0.864407 0.099661 c 42 41 1218 580 bf 0.878814 0.945763 0.111864 c 42 41 1260 580 bf 0.857391
 0.997246 0.132754 c 42 41 1302 580 bf 0.781739 0.980725 0.209275 c 42 41 1344 580 bf 0.706087 0.964203 0.285797 c 42 41 1386 580 bf 0.617826 0.944928 0.375072 c 41 41 1428 580 bf 0.542174 0.928406 0.451594 c 42 41 1469 580 bf 0.441304 0.906377
 0.553623 c 42 41 1511 580 bf 0.340435 0.884348 0.655652 c 42 41 1553 580 bf 0.226957 0.859565 0.770435 c 42 41 1595 580 bf 0.0882609 0.829275 0.910725 c 42 41 1637 580 bf 0 0.772326 0.977209 c 42 41 1679 580 bf 0 0.621628 0.886047 c 42 41 1721 580
 bf 0 0.291977 0.686628 c 42 41 1763 580 bf 0.80878 0.121951 0 c 42 41 295 621 bf 42 41 337 621 bf 0.820732 0.126829 0 c 42 41 379 621 bf 0.832683 0.131707 0 c 42 41 421 621 bf 0.844634 0.136585 0 c 42 41 463 621 bf 0.868537 0.146341 0 c 42 41 505
 621 bf 0.880488 0.15122 0 c 41 41 547 621 bf 0.916341 0.165854 0 c 42 41 588 621 bf 0.940244 0.17561 0 c 42 41 630 621 bf 0.976098 0.190244 0 c 42 41 672 621 bf 1 0.2 0 c 42 41 714 621 bf 0.99339 0.240678 0.00610169 c 42 41 756 621 bf 0.98678
 0.281356 0.0122034 c 42 41 798 621 bf 0.980169 0.322034 0.0183051 c 42 41 840 621 bf 0.971356 0.376271 0.0264407 c 42 41 882 621 bf 0.964746 0.416949 0.0325424 c 42 41 924 621 bf 0.955932 0.471186 0.040678 c 42 41 966 621 bf 0.944915 0.538983
 0.0508475 c 42 41 1008 621 bf 0.933898 0.60678 0.061017 c 42 41 1050 621 bf 0.922881 0.674576 0.0711864 c 42 41 1092 621 bf 0.911864 0.742373 0.0813559 c 42 41 1134 621 bf 0.900847 0.81017 0.0915254 c 42 41 1176 621 bf 0.887627 0.891525 0.103729 c
 42 41 1218 621 bf 0.87661 0.959322 0.113898 c 42 41 1260 621 bf 0.832174 0.991739 0.158261 c 42 41 1302 621 bf 0.756522 0.975217 0.234783 c 42 41 1344 621 bf 0.68087 0.958696 0.311304 c 42 41 1386 621 bf 0.605217 0.942174 0.387826 c 41 41 1428 621
 bf 0.516957 0.922899 0.477101 c 42 41 1469 621 bf 0.428696 0.903623 0.566377 c 42 41 1511 621 bf 0.327826 0.881594 0.668406 c 42 41 1553 621 bf 0.18913 0.851304 0.808696 c 42 41 1595 621 bf 0.0630435 0.823768 0.936232 c 42 41 1637 621 bf 0 0.734651
 0.954419 c 42 41 1679 621 bf 0 0.555698 0.846163 c 42 41 1721 621 bf 0 0.263721 0.669535 c 42 41 1763 621 bf 0.844634 0.136585 0 c 42 42 295 662 bf 0.856585 0.141463 0 c 42 42 337 662 bf 42 42 379 662 bf 0.868537 0.146341 0 c 42 42 421 662 bf
 0.880488 0.15122 0 c 42 42 463 662 bf 0.892439 0.156098 0 c 42 42 505 662 bf 0.916341 0.165854 0 c 41 42 547 662 bf 0.940244 0.17561 0 c 42 42 588 662 bf 0.964146 0.185366 0 c 42 42 630 662 bf 1 0.2 0 c 42 42 672 662 bf 0.995593 0.227119 0.0040678 c
 42 42 714 662 bf 0.988983 0.267797 0.0101695 c 42 42 756 662 bf 0.982373 0.308475 0.0162712 c 42 42 798 662 bf 0.975763 0.349153 0.0223729 c 42 42 840 662 bf 0.969153 0.38983 0.0284746 c 42 42 882 662 bf 0.960339 0.444068 0.0366102 c 42 42 924 662
 bf 0.951525 0.498305 0.0447458 c 42 42 966 662 bf 0.940508 0.566102 0.0549153 c 42 42 1008 662 bf 0.929492 0.633898 0.0650847 c 42 42 1050 662 bf 0.918475 0.701695 0.0752542 c 42 42 1092 662 bf 0.907458 0.769492 0.0854237 c 42 42 1134 662 bf
 0.896441 0.837288 0.0955932 c 42 42 1176 662 bf 0.88322 0.918644 0.107797 c 42 42 1218 662 bf 0.872203 0.986441 0.117966 c 42 42 1260 662 bf 0.806957 0.986232 0.183768 c 42 42 1302 662 bf 0.743913 0.972464 0.247536 c 42 42 1344 662 bf 0.668261
 0.955942 0.324058 c 42 42 1386 662 bf 0.58 0.936667 0.413333 c 41 42 1428 662 bf 0.491739 0.917391 0.502609 c 42 42 1469 662 bf 0.39087 0.895362 0.604638 c 42 42 1511 662 bf 0.29 0.873333 0.706667 c 42 42 1553 662 bf 0.176522 0.848551 0.821449 c 42
 42 1595 662 bf 0.0378261 0.818261 0.961739 c 42 42 1637 662 bf 0 0.706395 0.937326 c 42 42 1679 662 bf 0 0.480349 0.800581 c 42 42 1721 662 bf 0 0.188372 0.623953 c 42 42 1763 662 bf 0.880488 0.15122 0 c 42 41 295 704 bf 0.892439 0.156098 0 c 42 41
 337 704 bf 42 41 379 704 bf 0.90439 0.160976 0 c 42 41 421 704 bf 0.916341 0.165854 0 c 42 41 463 704 bf 0.928293 0.170732 0 c 42 41 505 704 bf 0.952195 0.180488 0 c 41 41 547 704 bf 0.964146 0.185366 0 c 42 41 588 704 bf 1 0.2 0 c 42 41 630 704 bf
 0.995593 0.227119 0.0040678 c 42 41 672 704 bf 0.991186 0.254237 0.00813559 c 42 41 714 704 bf 0.984576 0.294915 0.0142373 c 42 41 756 704 bf 0.977966 0.335593 0.020339 c 42 41 798 704 bf 0.971356 0.376271 0.0264407 c 42 41 840 704 bf 0.962542
 0.430508 0.0345763 c 42 41 882 704 bf 0.955932 0.471186 0.040678 c 42 41 924 704 bf 0.944915 0.538983 0.0508475 c 42 41 966 704 bf 0.933898 0.60678 0.061017 c 42 41 1008 704 bf 0.925085 0.661017 0.0691525 c 42 41 1050 704 bf 0.914068 0.728814
 0.079322 c 42 41 1092 704 bf 0.903051 0.79661 0.0894915 c 42 41 1134 704 bf 0.892034 0.864407 0.099661 c 42 41 1176 704 bf 0.878814 0.945763 0.111864 c 42 41 1218 704 bf 0.857391 0.997246 0.132754 c 42 41 1260 704 bf 0.781739 0.980725 0.209275 c 42
 41 1302 704 bf 0.718696 0.966956 0.273043 c 42 41 1344 704 bf 0.643043 0.950435 0.349565 c 42 41 1386 704 bf 0.554783 0.931159 0.438841 c 41 41 1428 704 bf 0.466522 0.911884 0.528116 c 42 41 1469 704 bf 0.378261 0.892609 0.617391 c 42 41 1511 704 bf
 0.264783 0.867826 0.732174 c 42 41 1553 704 bf 0.138696 0.84029 0.85971 c 42 41 1595 704 bf 0 0.800581 0.994302 c 42 41 1637 704 bf 0 0.649884 0.90314 c 42 41 1679 704 bf 0 0.461512 0.789186 c 42 41 1721 704 bf 0.916341 0.165854 0 c 42 41 295 745 bf
 0.928293 0.170732 0 c 42 41 337 745 bf 42 41 379 745 bf 0.940244 0.17561 0 c 42 41 421 745 bf 42 41 463 745 bf 0.964146 0.185366 0 c 42 41 505 745 bf 0.976098 0.190244 0 c 41 41 547 745 bf 1 0.2 0 c 42 41 588 745 bf 0.995593 0.227119 0.0040678 c 42
 41 630 745 bf 0.991186 0.254237 0.00813559 c 42 41 672 745 bf 0.984576 0.294915 0.0142373 c 42 41 714 745 bf 0.980169 0.322034 0.0183051 c 42 41 756 745 bf 0.973559 0.362712 0.0244068 c 42 41 798 745 bf 0.964746 0.416949 0.0325424 c 42 41 840 745 bf
 0.958136 0.457627 0.0386441 c 42 41 882 745 bf 0.949322 0.511864 0.0467797 c 42 41 924 745 bf 0.938305 0.579661 0.0569492 c 42 41 966 745 bf 0.929492 0.633898 0.0650847 c 42 41 1008 745 bf 0.918475 0.701695 0.0752542 c 42 41 1050 745 bf 0.907458
 0.769492 0.0854237 c 42 41 1092 745 bf 0.896441 0.837288 0.0955932 c 42 41 1134 745 bf 0.885424 0.905085 0.105763 c 42 41 1176 745 bf 0.874407 0.972881 0.115932 c 42 41 1218 745 bf 0.832174 0.991739 0.158261 c 42 41 1260 745 bf 0.756522 0.975217
 0.234783 c 42 41 1302 745 bf 0.693478 0.961449 0.298551 c 42 41 1344 745 bf 0.617826 0.944928 0.375072 c 42 41 1386 745 bf 0.529565 0.925652 0.464348 c 41 41 1428 745 bf 0.441304 0.906377 0.553623 c 42 41 1469 745 bf 0.340435 0.884348 0.655652 c 42
 41 1511 745 bf 0.226957 0.859565 0.770435 c 42 41 1553 745 bf 0.10087 0.832029 0.897971 c 42 41 1595 745 bf 0 0.772326 0.977209 c 42 41 1637 745 bf 0 0.621628 0.886047 c 42 41 1679 745 bf 0 0.320233 0.703721 c 42 41 1721 745 bf 0.952195 0.180488 0 c
 42 42 295 786 bf 0.964146 0.185366 0 c 42 42 337 786 bf 42 42 379 786 bf 0.976098 0.190244 0 c 42 42 421 786 bf 42 42 463 786 bf 1 0.2 0 c 42 42 505 786 bf 0.997797 0.213559 0.0020339 c 41 42 547 786 bf 0.99339 0.240678 0.00610169 c 42 42 588 786 bf
 0.988983 0.267797 0.0101695 c 42 42 630 786 bf 0.984576 0.294915 0.0142373 c 42 42 672 786 bf 0.980169 0.322034 0.0183051 c 42 42 714 786 bf 0.973559 0.362712 0.0244068 c 42 42 756 786 bf 0.966949 0.40339 0.0305085 c 42 42 798 786 bf 0.960339
 0.444068 0.0366102 c 42 42 840 786 bf 0.951525 0.498305 0.0447458 c 42 42 882 786 bf 0.942712 0.552542 0.0528814 c 42 42 924 786 bf 0.931695 0.620339 0.0630508 c 42 42 966 786 bf 0.922881 0.674576 0.0711864 c 42 42 1008 786 bf 0.911864 0.742373
 0.0813559 c 42 42 1050 786 bf 0.903051 0.79661 0.0894915 c 42 42 1092 786 bf 0.892034 0.864407 0.099661 c 42 42 1134 786 bf 0.881017 0.932203 0.109831 c 42 42 1176 786 bf 0.87 1 0.12 c 42 42 1218 786 bf 0.794348 0.983478 0.196522 c 42 42 1260 786 bf
 0.731304 0.96971 0.26029 c 42 42 1302 786 bf 0.655652 0.953188 0.336812 c 42 42 1344 786 bf 0.58 0.936667 0.413333 c 42 42 1386 786 bf 0.491739 0.917391 0.502609 c 41 42 1428 786 bf 0.403478 0.898116 0.591884 c 42 42 1469 786 bf 0.302609 0.876087
 0.693913 c 42 42 1511 786 bf 0.18913 0.851304 0.808696 c 42 42 1553 786 bf 0.0504348 0.821014 0.948986 c 42 42 1595 786 bf 0 0.725233 0.948721 c 42 42 1637 786 bf 0 0.527442 0.82907 c 42 42 1679 786 bf 0 0.141279 0.595465 c 42 42 1721 786 bf
 0.988049 0.195122 0 c 42 41 295 828 bf 1 0.2 0 c 42 41 337 828 bf 42 41 379 828 bf 0.997797 0.213559 0.0020339 c 42 41 421 828 bf 42 41 463 828 bf 0.99339 0.240678 0.00610169 c 42 41 505 828 bf 0.991186 0.254237 0.00813559 c 41 41 547 828 bf 0.98678
 0.281356 0.0122034 c 42 41 588 828 bf 0.982373 0.308475 0.0162712 c 42 41 630 828 bf 0.977966 0.335593 0.020339 c 42 41 672 828 bf 0.973559 0.362712 0.0244068 c 42 41 714 828 bf 0.966949 0.40339 0.0305085 c 42 41 756 828 bf 0.960339 0.444068
 0.0366102 c 42 41 798 828 bf 0.951525 0.498305 0.0447458 c 42 41 840 828 bf 0.942712 0.552542 0.0528814 c 42 41 882 828 bf 0.933898 0.60678 0.061017 c 42 41 924 828 bf 0.925085 0.661017 0.0691525 c 42 41 966 828 bf 0.916271 0.715254 0.0772881 c 42
 41 1008 828 bf 0.905254 0.783051 0.0874576 c 42 41 1050 828 bf 0.896441 0.837288 0.0955932 c 42 41 1092 828 bf 0.885424 0.905085 0.105763 c 42 41 1134 828 bf 0.874407 0.972881 0.115932 c 42 41 1176 828 bf 0.832174 0.991739 0.158261 c 42 41 1218 828
 bf 0.76913 0.977971 0.222029 c 42 41 1260 828 bf 0.706087 0.964203 0.285797 c 42 41 1302 828 bf 0.630435 0.947681 0.362319 c 42 41 1344 828 bf 0.554783 0.931159 0.438841 c 42 41 1386 828 bf 0.466522 0.911884 0.528116 c 41 41 1428 828 bf 0.378261
 0.892609 0.617391 c 42 41 1469 828 bf 0.264783 0.867826 0.732174 c 42 41 1511 828 bf 0.138696 0.84029 0.85971 c 42 41 1553 828 bf 0 0.81 1 c 42 41 1595 828 bf 0 0.67814 0.920233 c 42 41 1637 828 bf 0 0.461512 0.789186 c 42 41 1679 828 bf 0 0 0.51 c
 42 41 1721 828 bf 0.99339 0.240678 0.00610169 c 42 41 295 869 bf 42 41 337 869 bf 42 41 379 869 bf 0.991186 0.254237 0.00813559 c 42 41 421 869 bf 0.988983 0.267797 0.0101695 c 42 41 463 869 bf 0.98678 0.281356 0.0122034 c 42 41 505 869 bf 0.984576
 0.294915 0.0142373 c 41 41 547 869 bf 0.980169 0.322034 0.0183051 c 42 41 588 869 bf 0.975763 0.349153 0.0223729 c 42 41 630 869 bf 0.971356 0.376271 0.0264407 c 42 41 672 869 bf 0.964746 0.416949 0.0325424 c 42 41 714 869 bf 0.960339 0.444068
 0.0366102 c 42 41 756 869 bf 0.951525 0.498305 0.0447458 c 42 41 798 869 bf 0.944915 0.538983 0.0508475 c 42 41 840 869 bf 0.936102 0.59322 0.0589831 c 42 41 882 869 bf 0.927288 0.647458 0.0671186 c 42 41 924 869 bf 0.918475 0.701695 0.0752542 c 42
 41 966 869 bf 0.909661 0.755932 0.0833898 c 42 41 1008 869 bf 0.898644 0.823729 0.0935593 c 42 41 1050 869 bf 0.889831 0.877966 0.101695 c 42 41 1092 869 bf 0.878814 0.945763 0.111864 c 42 41 1134 869 bf 0.87 1 0.12 c 42 41 1176 869 bf 0.806957
 0.986232 0.183768 c 42 41 1218 869 bf 0.731304 0.96971 0.26029 c 42 41 1260 869 bf 0.668261 0.955942 0.324058 c 42 41 1302 869 bf 0.592609 0.93942 0.40058 c 42 41 1344 869 bf 0.516957 0.922899 0.477101 c 42 41 1386 869 bf 0.428696 0.903623 0.566377
 c 41 41 1428 869 bf 0.340435 0.884348 0.655652 c 42 41 1469 869 bf 0.214348 0.856812 0.783188 c 42 41 1511 869 bf 0.0882609 0.829275 0.910725 c 42 41 1553 869 bf 0 0.772326 0.977209 c 42 41 1595 869 bf 0 0.583953 0.863256 c 42 41 1637 869 bf 0
 0.329651 0.709419 c 42 41 1679 869 bf 0.98678 0.281356 0.0122034 c 42 42 295 910 bf 42 42 337 910 bf 0.984576 0.294915 0.0142373 c 42 42 379 910 bf 42 42 421 910 bf 0.982373 0.308475 0.0162712 c 42 42 463 910 bf 0.980169 0.322034 0.0183051 c 42 42
 505 910 bf 0.975763 0.349153 0.0223729 c 41 42 547 910 bf 0.973559 0.362712 0.0244068 c 42 42 588 910 bf 0.969153 0.38983 0.0284746 c 42 42 630 910 bf 0.962542 0.430508 0.0345763 c 42 42 672 910 bf 0.958136 0.457627 0.0386441 c 42 42 714 910 bf
 0.951525 0.498305 0.0447458 c 42 42 756 910 bf 0.942712 0.552542 0.0528814 c 42 42 798 910 bf 0.936102 0.59322 0.0589831 c 42 42 840 910 bf 0.927288 0.647458 0.0671186 c 42 42 882 910 bf 0.918475 0.701695 0.0752542 c 42 42 924 910 bf 0.911864
 0.742373 0.0813559 c 42 42 966 910 bf 0.903051 0.79661 0.0894915 c 42 42 1008 910 bf 0.892034 0.864407 0.099661 c 42 42 1050 910 bf 0.88322 0.918644 0.107797 c 42 42 1092 910 bf 0.872203 0.986441 0.117966 c 42 42 1134 910 bf 0.832174 0.991739
 0.158261 c 42 42 1176 910 bf 0.76913 0.977971 0.222029 c 42 42 1218 910 bf 0.706087 0.964203 0.285797 c 42 42 1260 910 bf 0.630435 0.947681 0.362319 c 42 42 1302 910 bf 0.554783 0.931159 0.438841 c 42 42 1344 910 bf 0.466522 0.911884 0.528116 c 42
 42 1386 910 bf 0.39087 0.895362 0.604638 c 41 42 1428 910 bf 0.302609 0.876087 0.693913 c 42 42 1469 910 bf 0.176522 0.848551 0.821449 c 42 42 1511 910 bf 0.0378261 0.818261 0.961739 c 42 42 1553 910 bf 0 0.715814 0.943023 c 42 42 1595 910 bf 0
 0.499186 0.811977 c 42 42 1637 910 bf 0 0.094186 0.566977 c 42 42 1679 910 bf 0.977966 0.335593 0.020339 c 42 41 295 952 bf 42 41 337 952 bf 0.975763 0.349153 0.0223729 c 42 41 379 952 bf 42 41 421 952 bf 0.973559 0.362712 0.0244068 c 42 41 463 952
 bf 0.971356 0.376271 0.0264407 c 42 41 505 952 bf 0.969153 0.38983 0.0284746 c 41 41 547 952 bf 0.964746 0.416949 0.0325424 c 42 41 588 952 bf 0.960339 0.444068 0.0366102 c 42 41 630 952 bf 0.955932 0.471186 0.040678 c 42 41 672 952 bf 0.949322
 0.511864 0.0467797 c 42 41 714 952 bf 0.942712 0.552542 0.0528814 c 42 41 756 952 bf 0.933898 0.60678 0.061017 c 42 41 798 952 bf 0.927288 0.647458 0.0671186 c 42 41 840 952 bf 0.918475 0.701695 0.0752542 c 42 41 882 952 bf 0.911864 0.742373
 0.0813559 c 42 41 924 952 bf 0.903051 0.79661 0.0894915 c 42 41 966 952 bf 0.894237 0.850847 0.0976271 c 42 41 1008 952 bf 0.885424 0.905085 0.105763 c 42 41 1050 952 bf 0.87661 0.959322 0.113898 c 42 41 1092 952 bf 0.844783 0.994493 0.145507 c 42
 41 1134 952 bf 0.794348 0.983478 0.196522 c 42 41 1176 952 bf 0.731304 0.96971 0.26029 c 42 41 1218 952 bf 0.668261 0.955942 0.324058 c 42 41 1260 952 bf 0.592609 0.93942 0.40058 c 42 41 1302 952 bf 0.516957 0.922899 0.477101 c 42 41 1344 952 bf
 0.428696 0.903623 0.566377 c 42 41 1386 952 bf 0.340435 0.884348 0.655652 c 41 41 1428 952 bf 0.239565 0.862319 0.757681 c 42 41 1469 952 bf 0.113478 0.834783 0.885217 c 42 41 1511 952 bf 0 0.772326 0.977209 c 42 41 1553 952 bf 0 0.612209 0.880349 c
 42 41 1595 952 bf 0 0.367326 0.732209 c 42 41 1637 952 bf 0.969153 0.38983 0.0284746 c 42 41 295 993 bf 42 41 337 993 bf 0.966949 0.40339 0.0305085 c 42 41 379 993 bf 42 41 421 993 bf 0.964746 0.416949 0.0325424 c 42 41 463 993 bf 0.962542 0.430508
 0.0345763 c 42 41 505 993 bf 0.958136 0.457627 0.0386441 c 41 41 547 993 bf 0.955932 0.471186 0.040678 c 42 41 588 993 bf 0.951525 0.498305 0.0447458 c 42 41 630 993 bf 0.944915 0.538983 0.0508475 c 42 41 672 993 bf 0.938305 0.579661 0.0569492 c 42
 41 714 993 bf 0.931695 0.620339 0.0630508 c 42 41 756 993 bf 0.925085 0.661017 0.0691525 c 42 41 798 993 bf 0.918475 0.701695 0.0752542 c 42 41 840 993 bf 0.911864 0.742373 0.0813559 c 42 41 882 993 bf 0.903051 0.79661 0.0894915 c 42 41 924 993 bf
 0.894237 0.850847 0.0976271 c 42 41 966 993 bf 0.887627 0.891525 0.103729 c 42 41 1008 993 bf 0.878814 0.945763 0.111864 c 42 41 1050 993 bf 0.857391 0.997246 0.132754 c 42 41 1092 993 bf 0.806957 0.986232 0.183768 c 42 41 1134 993 bf 0.756522
 0.975217 0.234783 c 42 41 1176 993 bf 0.68087 0.958696 0.311304 c 42 41 1218 993 bf 0.617826 0.944928 0.375072 c 42 41 1260 993 bf 0.542174 0.928406 0.451594 c 42 41 1302 993 bf 0.466522 0.911884 0.528116 c 42 41 1344 993 bf 0.39087 0.895362
 0.604638 c 42 41 1386 993 bf 0.29 0.873333 0.706667 c 41 41 1428 993 bf 0.176522 0.848551 0.821449 c 42 41 1469 993 bf 0.0504348 0.821014 0.948986 c 42 41 1511 993 bf 0 0.74407 0.960116 c 42 41 1553 993 bf 0 0.53686 0.834767 c 42 41 1595 993 bf
 0.958136 0.457627 0.0386441 c 42 41 295 1034 bf 42 41 337 1034 bf 42 41 379 1034 bf 0.955932 0.471186 0.040678 c 42 41 421 1034 bf 0.953729 0.484746 0.0427119 c 42 41 463 1034 bf 0.951525 0.498305 0.0447458 c 42 41 505 1034 bf 0.949322 0.511864
 0.0467797 c 41 41 547 1034 bf 0.944915 0.538983 0.0508475 c 42 41 588 1034 bf 0.940508 0.566102 0.0549153 c 42 41 630 1034 bf 0.933898 0.60678 0.061017 c 42 41 672 1034 bf 0.929492 0.633898 0.0650847 c 42 41 714 1034 bf 0.922881 0.674576 0.0711864 c
 42 41 756 1034 bf 0.916271 0.715254 0.0772881 c 42 41 798 1034 bf 0.909661 0.755932 0.0833898 c 42 41 840 1034 bf 0.903051 0.79661 0.0894915 c 42 41 882 1034 bf 0.894237 0.850847 0.0976271 c 42 41 924 1034 bf 0.887627 0.891525 0.103729 c 42 41 966
 1034 bf 0.878814 0.945763 0.111864 c 42 41 1008 1034 bf 0.87 1 0.12 c 42 41 1050 1034 bf 0.819565 0.988985 0.171014 c 42 41 1092 1034 bf 0.76913 0.977971 0.222029 c 42 41 1134 1034 bf 0.706087 0.964203 0.285797 c 42 41 1176 1034 bf 0.643043 0.950435
 0.349565 c 42 41 1218 1034 bf 0.567391 0.933913 0.426087 c 42 41 1260 1034 bf 0.504348 0.920145 0.489855 c 42 41 1302 1034 bf 0.428696 0.903623 0.566377 c 42 41 1344 1034 bf 0.327826 0.881594 0.668406 c 42 41 1386 1034 bf 0.226957 0.859565 0.770435
 c 41 41 1428 1034 bf 0.113478 0.834783 0.885217 c 42 41 1469 1034 bf 0 0.772326 0.977209 c 42 41 1511 1034 bf 0 0.612209 0.880349 c 42 41 1553 1034 bf 0 0.405 0.755 c 42 41 1595 1034 bf 0.947119 0.525424 0.0488136 c 42 42 295 1075 bf 42 42 337 1075
 bf 0.944915 0.538983 0.0508475 c 42 42 379 1075 bf 42 42 421 1075 bf 0.942712 0.552542 0.0528814 c 42 42 463 1075 bf 0.940508 0.566102 0.0549153 c 42 42 505 1075 bf 0.936102 0.59322 0.0589831 c 41 42 547 1075 bf 0.933898 0.60678 0.061017 c 42 42 588
 1075 bf 0.929492 0.633898 0.0650847 c 42 42 630 1075 bf 0.925085 0.661017 0.0691525 c 42 42 672 1075 bf 0.918475 0.701695 0.0752542 c 42 42 714 1075 bf 0.914068 0.728814 0.079322 c 42 42 756 1075 bf 0.907458 0.769492 0.0854237 c 42 42 798 1075 bf
 0.900847 0.81017 0.0915254 c 42 42 840 1075 bf 0.894237 0.850847 0.0976271 c 42 42 882 1075 bf 0.887627 0.891525 0.103729 c 42 42 924 1075 bf 0.878814 0.945763 0.111864 c 42 42 966 1075 bf 0.872203 0.986441 0.117966 c 42 42 1008 1075 bf 0.832174
 0.991739 0.158261 c 42 42 1050 1075 bf 0.781739 0.980725 0.209275 c 42 42 1092 1075 bf 0.718696 0.966956 0.273043 c 42 42 1134 1075 bf 0.655652 0.953188 0.336812 c 42 42 1176 1075 bf 0.592609 0.93942 0.40058 c 42 42 1218 1075 bf 0.529565 0.925652
 0.464348 c 42 42 1260 1075 bf 0.453913 0.90913 0.54087 c 42 42 1302 1075 bf 0.365652 0.889855 0.630145 c 42 42 1344 1075 bf 0.277391 0.87058 0.71942 c 42 42 1386 1075 bf 0.163913 0.845797 0.834203 c 41 42 1428 1075 bf 0.0252174 0.815507 0.974493 c
 42 42 1469 1075 bf 0 0.706395 0.937326 c 42 42 1511 1075 bf 0 0.508605 0.817674 c 42 42 1553 1075 bf 0 0 0.51 c 42 42 1595 1075 bf 0.936102 0.59322 0.0589831 c 42 41 295 1117 bf 42 41 337 1117 bf 0.933898 0.60678 0.061017 c 42 41 379 1117 bf 42 41
 421 1117 bf 0.931695 0.620339 0.0630508 c 42 41 463 1117 bf 0.929492 0.633898 0.0650847 c 42 41 505 1117 bf 0.925085 0.661017 0.0691525 c 41 41 547 1117 bf 0.922881 0.674576 0.0711864 c 42 41 588 1117 bf 0.918475 0.701695 0.0752542 c 42 41 630 1117
 bf 0.914068 0.728814 0.079322 c 42 41 672 1117 bf 0.909661 0.755932 0.0833898 c 42 41 714 1117 bf 0.903051 0.79661 0.0894915 c 42 41 756 1117 bf 0.898644 0.823729 0.0935593 c 42 41 798 1117 bf 0.892034 0.864407 0.099661 c 42 41 840 1117 bf 0.885424
 0.905085 0.105763 c 42 41 882 1117 bf 0.878814 0.945763 0.111864 c 42 41 924 1117 bf 0.87 1 0.12 c 42 41 966 1117 bf 0.832174 0.991739 0.158261 c 42 41 1008 1117 bf 0.781739 0.980725 0.209275 c 42 41 1050 1117 bf 0.731304 0.96971 0.26029 c 42 41
 1092 1117 bf 0.668261 0.955942 0.324058 c 42 41 1134 1117 bf 0.605217 0.942174 0.387826 c 42 41 1176 1117 bf 0.542174 0.928406 0.451594 c 42 41 1218 1117 bf 0.466522 0.911884 0.528116 c 42 41 1260 1117 bf 0.39087 0.895362 0.604638 c 42 41 1302 1117
 bf 0.315217 0.878841 0.681159 c 42 41 1344 1117 bf 0.214348 0.856812 0.783188 c 42 41 1386 1117 bf 0.0882609 0.829275 0.910725 c 41 41 1428 1117 bf 0 0.74407 0.960116 c 42 41 1469 1117 bf 0 0.612209 0.880349 c 42 41 1511 1117 bf 0 0.094186 0.566977
 c 42 41 1553 1117 bf 0.925085 0.661017 0.0691525 c 42 41 295 1158 bf 42 41 337 1158 bf 0.922881 0.674576 0.0711864 c 42 41 379 1158 bf 0.920678 0.688136 0.0732203 c 42 41 421 1158 bf 42 41 463 1158 bf 0.918475 0.701695 0.0752542 c 42 41 505 1158 bf
 0.914068 0.728814 0.079322 c 41 41 547 1158 bf 0.911864 0.742373 0.0813559 c 42 41 588 1158 bf 0.907458 0.769492 0.0854237 c 42 41 630 1158 bf 0.903051 0.79661 0.0894915 c 42 41 672 1158 bf 0.898644 0.823729 0.0935593 c 42 41 714 1158 bf 0.894237
 0.850847 0.0976271 c 42 41 756 1158 bf 0.889831 0.877966 0.101695 c 42 41 798 1158 bf 0.88322 0.918644 0.107797 c 42 41 840 1158 bf 0.87661 0.959322 0.113898 c 42 41 882 1158 bf 0.857391 0.997246 0.132754 c 42 41 924 1158 bf 0.819565 0.988985
 0.171014 c 42 41 966 1158 bf 0.76913 0.977971 0.222029 c 42 41 1008 1158 bf 0.731304 0.96971 0.26029 c 42 41 1050 1158 bf 0.68087 0.958696 0.311304 c 42 41 1092 1158 bf 0.617826 0.944928 0.375072 c 42 41 1134 1158 bf 0.554783 0.931159 0.438841 c 42
 41 1176 1158 bf 0.491739 0.917391 0.502609 c 42 41 1218 1158 bf 0.416087 0.90087 0.57913 c 42 41 1260 1158 bf 0.340435 0.884348 0.655652 c 42 41 1302 1158 bf 0.239565 0.862319 0.757681 c 42 41 1344 1158 bf 0.126087 0.837536 0.872464 c 42 41 1386
 1158 bf 0 0.791163 0.988605 c 41 41 1428 1158 bf 0 0.631047 0.891744 c 42 41 1469 1158 bf 0 0.386163 0.743605 c 42 41 1511 1158 bf 0.914068 0.728814 0.079322 c 42 42 295 1199 bf 0.911864 0.742373 0.0813559 c 42 42 337 1199 bf 42 42 379 1199 bf 42 42
 421 1199 bf 0.909661 0.755932 0.0833898 c 42 42 463 1199 bf 0.907458 0.769492 0.0854237 c 42 42 505 1199 bf 0.905254 0.783051 0.0874576 c 41 42 547 1199 bf 0.900847 0.81017 0.0915254 c 42 42 588 1199 bf 0.898644 0.823729 0.0935593 c 42 42 630 1199
 bf 0.894237 0.850847 0.0976271 c 42 42 672 1199 bf 0.889831 0.877966 0.101695 c 42 42 714 1199 bf 0.88322 0.918644 0.107797 c 42 42 756 1199 bf 0.878814 0.945763 0.111864 c 42 42 798 1199 bf 0.872203 0.986441 0.117966 c 42 42 840 1199 bf 0.844783
 0.994493 0.145507 c 42 42 882 1199 bf 0.806957 0.986232 0.183768 c 42 42 924 1199 bf 0.76913 0.977971 0.222029 c 42 42 966 1199 bf 0.718696 0.966956 0.273043 c 42 42 1008 1199 bf 0.668261 0.955942 0.324058 c 42 42 1050 1199 bf 0.617826 0.944928
 0.375072 c 42 42 1092 1199 bf 0.567391 0.933913 0.426087 c 42 42 1134 1199 bf 0.491739 0.917391 0.502609 c 42 42 1176 1199 bf 0.428696 0.903623 0.566377 c 42 42 1218 1199 bf 0.340435 0.884348 0.655652 c 42 42 1260 1199 bf 0.264783 0.867826 0.732174
 c 42 42 1302 1199 bf 0.151304 0.843044 0.846957 c 42 42 1344 1199 bf 0.0252174 0.815507 0.974493 c 42 42 1386 1199 bf 0 0.696977 0.931628 c 41 42 1428 1199 bf 0 0.489767 0.806279 c 42 42 1469 1199 bf 0 0 0.51 c 42 42 1511 1199 bf 0.903051 0.79661
 0.0894915 c 42 41 295 1241 bf 42 41 337 1241 bf 0.900847 0.81017 0.0915254 c 42 41 379 1241 bf 42 41 421 1241 bf 0.898644 0.823729 0.0935593 c 42 41 463 1241 bf 0.896441 0.837288 0.0955932 c 42 41 505 1241 bf 0.894237 0.850847 0.0976271 c 41 41 547
 1241 bf 0.889831 0.877966 0.101695 c 42 41 588 1241 bf 0.887627 0.891525 0.103729 c 42 41 630 1241 bf 0.88322 0.918644 0.107797 c 42 41 672 1241 bf 0.878814 0.945763 0.111864 c 42 41 714 1241 bf 0.874407 0.972881 0.115932 c 42 41 756 1241 bf 0.87 1
 0.12 c 42 41 798 1241 bf 0.832174 0.991739 0.158261 c 42 41 840 1241 bf 0.794348 0.983478 0.196522 c 42 41 882 1241 bf 0.756522 0.975217 0.234783 c 42 41 924 1241 bf 0.706087 0.964203 0.285797 c 42 41 966 1241 bf 0.668261 0.955942 0.324058 c 42 41
 1008 1241 bf 0.617826 0.944928 0.375072 c 42 41 1050 1241 bf 0.554783 0.931159 0.438841 c 42 41 1092 1241 bf 0.491739 0.917391 0.502609 c 42 41 1134 1241 bf 0.428696 0.903623 0.566377 c 42 41 1176 1241 bf 0.353043 0.887101 0.642899 c 42 41 1218 1241
 bf 0.277391 0.87058 0.71942 c 42 41 1260 1241 bf 0.163913 0.845797 0.834203 c 42 41 1302 1241 bf 0.0630435 0.823768 0.936232 c 42 41 1344 1241 bf 0 0.734651 0.954419 c 42 41 1386 1241 bf 0 0.480349 0.800581 c 41 41 1428 1241 bf 0.892034 0.864407
 0.099661 c 42 41 295 1282 bf 42 41 337 1282 bf 0.889831 0.877966 0.101695 c 42 41 379 1282 bf 42 41 421 1282 bf 0.887627 0.891525 0.103729 c 42 41 463 1282 bf 0.885424 0.905085 0.105763 c 42 41 505 1282 bf 0.88322 0.918644 0.107797 c 41 41 547 1282
 bf 0.881017 0.932203 0.109831 c 42 41 588 1282 bf 0.87661 0.959322 0.113898 c 42 41 630 1282 bf 0.872203 0.986441 0.117966 c 42 41 672 1282 bf 0.857391 0.997246 0.132754 c 42 41 714 1282 bf 0.832174 0.991739 0.158261 c 42 41 756 1282 bf 0.806957
 0.986232 0.183768 c 42 41 798 1282 bf 0.76913 0.977971 0.222029 c 42 41 840 1282 bf 0.731304 0.96971 0.26029 c 42 41 882 1282 bf 0.693478 0.961449 0.298551 c 42 41 924 1282 bf 0.655652 0.953188 0.336812 c 42 41 966 1282 bf 0.605217 0.942174 0.387826
 c 42 41 1008 1282 bf 0.554783 0.931159 0.438841 c 42 41 1050 1282 bf 0.491739 0.917391 0.502609 c 42 41 1092 1282 bf 0.428696 0.903623 0.566377 c 42 41 1134 1282 bf 0.353043 0.887101 0.642899 c 42 41 1176 1282 bf 0.277391 0.87058 0.71942 c 42 41
 1218 1282 bf 0.18913 0.851304 0.808696 c 42 41 1260 1282 bf 0.0756522 0.826522 0.923478 c 42 41 1302 1282 bf 0 0.762907 0.971512 c 42 41 1344 1282 bf 0 0.565116 0.85186 c 42 41 1386 1282 bf 0 0.188372 0.623953 c 41 41 1428 1282 bf 0.881017 0.932203
 0.109831 c 42 42 295 1323 bf 42 42 337 1323 bf 0.878814 0.945763 0.111864 c 42 42 379 1323 bf 42 42 421 1323 bf 0.87661 0.959322 0.113898 c 42 42 463 1323 bf 0.874407 0.972881 0.115932 c 42 42 505 1323 bf 0.872203 0.986441 0.117966 c 41 42 547 1323
 bf 0.87 1 0.12 c 42 42 588 1323 bf 0.844783 0.994493 0.145507 c 42 42 630 1323 bf 0.819565 0.988985 0.171014 c 42 42 672 1323 bf 0.794348 0.983478 0.196522 c 42 42 714 1323 bf 0.76913 0.977971 0.222029 c 42 42 756 1323 bf 0.743913 0.972464 0.247536
 c 42 42 798 1323 bf 0.706087 0.964203 0.285797 c 42 42 840 1323 bf 0.668261 0.955942 0.324058 c 42 42 882 1323 bf 0.630435 0.947681 0.362319 c 42 42 924 1323 bf 0.58 0.936667 0.413333 c 42 42 966 1323 bf 0.529565 0.925652 0.464348 c 42 42 1008 1323
 bf 0.47913 0.914638 0.515362 c 42 42 1050 1323 bf 0.416087 0.90087 0.57913 c 42 42 1092 1323 bf 0.353043 0.887101 0.642899 c 42 42 1134 1323 bf 0.277391 0.87058 0.71942 c 42 42 1176 1323 bf 0.18913 0.851304 0.808696 c 42 42 1218 1323 bf 0.0756522
 0.826522 0.923478 c 42 42 1260 1323 bf 0 0.753488 0.965814 c 42 42 1302 1323 bf 0 0.612209 0.880349 c 42 42 1344 1323 bf 0 0.263721 0.669535 c 42 42 1386 1323 bf 0.87 1 0.12 c 42 41 295 1365 bf 42 41 337 1365 bf 0.857391 0.997246 0.132754 c 42 41
 379 1365 bf 0.844783 0.994493 0.145507 c 42 41 421 1365 bf 42 41 463 1365 bf 0.832174 0.991739 0.158261 c 42 41 505 1365 bf 0.819565 0.988985 0.171014 c 41 41 547 1365 bf 0.806957 0.986232 0.183768 c 42 41 588 1365 bf 0.781739 0.980725 0.209275 c 42
 41 630 1365 bf 0.756522 0.975217 0.234783 c 42 41 672 1365 bf 0.731304 0.96971 0.26029 c 42 41 714 1365 bf 0.706087 0.964203 0.285797 c 42 41 756 1365 bf 0.68087 0.958696 0.311304 c 42 41 798 1365 bf 0.643043 0.950435 0.349565 c 42 41 840 1365 bf
 0.605217 0.942174 0.387826 c 42 41 882 1365 bf 0.567391 0.933913 0.426087 c 42 41 924 1365 bf 0.504348 0.920145 0.489855 c 42 41 966 1365 bf 0.466522 0.911884 0.528116 c 42 41 1008 1365 bf 0.403478 0.898116 0.591884 c 42 41 1050 1365 bf 0.340435
 0.884348 0.655652 c 42 41 1092 1365 bf 0.264783 0.867826 0.732174 c 42 41 1134 1365 bf 0.176522 0.848551 0.821449 c 42 41 1176 1365 bf 0.0756522 0.826522 0.923478 c 42 41 1218 1365 bf 0 0.74407 0.960116 c 42 41 1260 1365 bf 0 0.574535 0.857558 c 42
 41 1302 1365 bf 0 0.188372 0.623953 c 42 41 1344 1365 bf 0.794348 0.983478 0.196522 c 42 41 295 1406 bf 42 41 337 1406 bf 42 41 379 1406 bf 0.781739 0.980725 0.209275 c 42 41 421 1406 bf 0.76913 0.977971 0.222029 c 42 41 463 1406 bf 0.756522
 0.975217 0.234783 c 42 41 505 1406 bf 0.743913 0.972464 0.247536 c 41 41 547 1406 bf 0.731304 0.96971 0.26029 c 42 41 588 1406 bf 0.706087 0.964203 0.285797 c 42 41 630 1406 bf 0.693478 0.961449 0.298551 c 42 41 672 1406 bf 0.668261 0.955942
 0.324058 c 42 41 714 1406 bf 0.630435 0.947681 0.362319 c 42 41 756 1406 bf 0.605217 0.942174 0.387826 c 42 41 798 1406 bf 0.567391 0.933913 0.426087 c 42 41 840 1406 bf 0.529565 0.925652 0.464348 c 42 41 882 1406 bf 0.47913 0.914638 0.515362 c 42
 41 924 1406 bf 0.441304 0.906377 0.553623 c 42 41 966 1406 bf 0.378261 0.892609 0.617391 c 42 41 1008 1406 bf 0.315217 0.878841 0.681159 c 42 41 1050 1406 bf 0.239565 0.862319 0.757681 c 42 41 1092 1406 bf 0.138696 0.84029 0.85971 c 42 41 1134 1406
 bf 0.0630435 0.823768 0.936232 c 42 41 1176 1406 bf 0 0.734651 0.954419 c 42 41 1218 1406 bf 0 0.574535 0.857558 c 42 41 1260 1406 bf 0 0.188372 0.623953 c 42 41 1302 1406 bf 0.731304 0.96971 0.26029 c 42 42 295 1447 bf 0.718696 0.966956 0.273043 c
 42 42 337 1447 bf 42 42 379 1447 bf 0.706087 0.964203 0.285797 c 42 42 421 1447 bf 42 42 463 1447 bf 0.693478 0.961449 0.298551 c 42 42 505 1447 bf 0.668261 0.955942 0.324058 c 41 42 547 1447 bf 0.655652 0.953188 0.336812 c 42 42 588 1447 bf
 0.630435 0.947681 0.362319 c 42 42 630 1447 bf 0.605217 0.942174 0.387826 c 42 42 672 1447 bf 0.58 0.936667 0.413333 c 42 42 714 1447 bf 0.554783 0.931159 0.438841 c 42 42 756 1447 bf 0.516957 0.922899 0.477101 c 42 42 798 1447 bf 0.491739 0.917391
 0.502609 c 42 42 840 1447 bf 0.441304 0.906377 0.553623 c 42 42 882 1447 bf 0.39087 0.895362 0.604638 c 42 42 924 1447 bf 0.340435 0.884348 0.655652 c 42 42 966 1447 bf 0.277391 0.87058 0.71942 c 42 42 1008 1447 bf 0.214348 0.856812 0.783188 c 42 42
 1050 1447 bf 0.113478 0.834783 0.885217 c 42 42 1092 1447 bf 0.0126087 0.812754 0.987246 c 42 42 1134 1447 bf 0 0.715814 0.943023 c 42 42 1176 1447 bf 0 0.555698 0.846163 c 42 42 1218 1447 bf 0 0.141279 0.595465 c 42 42 1260 1447 bf 0.655652
 0.953188 0.336812 c 42 41 295 1489 bf 0.643043 0.950435 0.349565 c 42 41 337 1489 bf 42 41 379 1489 bf 0.630435 0.947681 0.362319 c 42 41 421 1489 bf 0.617826 0.944928 0.375072 c 42 41 463 1489 bf 0.605217 0.942174 0.387826 c 42 41 505 1489 bf
 0.592609 0.93942 0.40058 c 41 41 547 1489 bf 0.567391 0.933913 0.426087 c 42 41 588 1489 bf 0.554783 0.931159 0.438841 c 42 41 630 1489 bf 0.529565 0.925652 0.464348 c 42 41 672 1489 bf 0.504348 0.920145 0.489855 c 42 41 714 1489 bf 0.466522
 0.911884 0.528116 c 42 41 756 1489 bf 0.441304 0.906377 0.553623 c 42 41 798 1489 bf 0.39087 0.895362 0.604638 c 42 41 840 1489 bf 0.353043 0.887101 0.642899 c 42 41 882 1489 bf 0.29 0.873333 0.706667 c 42 41 924 1489 bf 0.239565 0.862319 0.757681 c
 42 41 966 1489 bf 0.176522 0.848551 0.821449 c 42 41 1008 1489 bf 0.0630435 0.823768 0.936232 c 42 41 1050 1489 bf 0 0.781744 0.982907 c 42 41 1092 1489 bf 0 0.659302 0.908837 c 42 41 1134 1489 bf 0 0.47093 0.794884 c 42 41 1176 1489 bf 0 0 0.51 c
 42 41 1218 1489 bf 0.567391 0.933913 0.426087 c 42 41 295 1530 bf 0.554783 0.931159 0.438841 c 42 41 337 1530 bf 42 41 379 1530 bf 0.542174 0.928406 0.451594 c 42 41 421 1530 bf 0.529565 0.925652 0.464348 c 42 41 463 1530 bf 0.516957 0.922899
 0.477101 c 42 41 505 1530 bf 0.504348 0.920145 0.489855 c 41 41 547 1530 bf 0.47913 0.914638 0.515362 c 42 41 588 1530 bf 0.466522 0.911884 0.528116 c 42 41 630 1530 bf 0.428696 0.903623 0.566377 c 42 41 672 1530 bf 0.403478 0.898116 0.591884 c 42
 41 714 1530 bf 0.365652 0.889855 0.630145 c 42 41 756 1530 bf 0.327826 0.881594 0.668406 c 42 41 798 1530 bf 0.302609 0.876087 0.693913 c 42 41 840 1530 bf 0.226957 0.859565 0.770435 c 42 41 882 1530 bf 0.176522 0.848551 0.821449 c 42 41 924 1530 bf
 0.10087 0.832029 0.897971 c 42 41 966 1530 bf 0 0.800581 0.994302 c 42 41 1008 1530 bf 0 0.725233 0.948721 c 42 41 1050 1530 bf 0 0.574535 0.857558 c 42 41 1092 1530 bf 0 0.329651 0.709419 c 42 41 1134 1530 bf 0.466522 0.911884 0.528116 c 42 42 295
 1571 bf 0.453913 0.90913 0.54087 c 42 42 337 1571 bf 42 42 379 1571 bf 0.441304 0.906377 0.553623 c 42 42 421 1571 bf 0.428696 0.903623 0.566377 c 42 42 463 1571 bf 0.416087 0.90087 0.57913 c 42 42 505 1571 bf 0.403478 0.898116 0.591884 c 41 42 547
 1571 bf 0.378261 0.892609 0.617391 c 42 42 588 1571 bf 0.340435 0.884348 0.655652 c 42 42 630 1571 bf 0.327826 0.881594 0.668406 c 42 42 672 1571 bf 0.29 0.873333 0.706667 c 42 42 714 1571 bf 0.264783 0.867826 0.732174 c 42 42 756 1571 bf 0.201739
 0.854058 0.795942 c 42 42 798 1571 bf 0.151304 0.843044 0.846957 c 42 42 840 1571 bf 0.0882609 0.829275 0.910725 c 42 42 882 1571 bf 0.0252174 0.815507 0.974493 c 42 42 924 1571 bf 0 0.734651 0.954419 c 42 42 966 1571 bf 0 0.631047 0.891744 c 42 42
 1008 1571 bf 0 0.414419 0.760698 c 42 42 1050 1571 bf 0.353043 0.887101 0.642899 c 42 41 295 1613 bf 0.340435 0.884348 0.655652 c 42 41 337 1613 bf 0.315217 0.878841 0.681159 c 42 41 379 1613 bf 42 41 421 1613 bf 0.302609 0.876087 0.693913 c 42 41
 463 1613 bf 0.29 0.873333 0.706667 c 42 41 505 1613 bf 0.264783 0.867826 0.732174 c 41 41 547 1613 bf 0.252174 0.865072 0.744928 c 42 41 588 1613 bf 0.226957 0.859565 0.770435 c 42 41 630 1613 bf 0.18913 0.851304 0.808696 c 42 41 672 1613 bf
 0.151304 0.843044 0.846957 c 42 41 714 1613 bf 0.10087 0.832029 0.897971 c 42 41 756 1613 bf 0.0378261 0.818261 0.961739 c 42 41 798 1613 bf 0 0.800581 0.994302 c 42 41 840 1613 bf 0 0.725233 0.948721 c 42 41 882 1613 bf 0 0.631047 0.891744 c 42 41
 924 1613 bf 0 0.527442 0.82907 c 42 41 966 1613 bf 0 0.188372 0.623953 c 42 41 1008 1613 bf 0.176522 0.848551 0.821449 c 42 41 295 1654 bf 0.163913 0.845797 0.834203 c 42 41 337 1654 bf 42 41 379 1654 bf 0.151304 0.843044 0.846957 c 42 41 421 1654
 bf 0.126087 0.837536 0.872464 c 42 41 463 1654 bf 0.113478 0.834783 0.885217 c 42 41 505 1654 bf 0.0756522 0.826522 0.923478 c 41 41 547 1654 bf 0.0630435 0.823768 0.936232 c 42 41 588 1654 bf 0.0126087 0.812754 0.987246 c 42 41 630 1654 bf 0
 0.791163 0.988605 c 42 41 672 1654 bf 0 0.762907 0.971512 c 42 41 714 1654 bf 0 0.706395 0.937326 c 42 41 756 1654 bf 0 0.649884 0.90314 c 42 41 798 1654 bf 0 0.593372 0.868953 c 42 41 840 1654 bf 0 0.414419 0.760698 c 42 41 882 1654 bf 0 0.141279
 0.595465 c 42 41 924 1654 bf 0 0.753488 0.965814 c 42 42 295 1695 bf 0 0.734651 0.954419 c 42 42 337 1695 bf 42 42 379 1695 bf 0 0.725233 0.948721 c 42 42 421 1695 bf 0 0.687558 0.92593 c 42 42 463 1695 bf 0 0.67814 0.920233 c 42 42 505 1695 bf 0
 0.668721 0.914535 c 41 42 547 1695 bf 0 0.631047 0.891744 c 42 42 588 1695 bf 0 0.593372 0.868953 c 42 42 630 1695 bf 0 0.518023 0.823372 c 42 42 672 1695 bf 0 0.499186 0.811977 c 42 42 714 1695 bf 0 0.367326 0.732209 c 42 42 756 1695 bf 0 0.216628
 0.641047 c 42 42 798 1695 bf 0 0.433256 0.772093 c 42 41 295 1737 bf 0 0.386163 0.743605 c 42 41 337 1737 bf 0 0.320233 0.703721 c 42 41 379 1737 bf 0 0.386163 0.743605 c 42 41 421 1737 bf 42 41 463 1737 bf 0 0.320233 0.703721 c 42 41 505 1737 bf 0
 0.188372 0.623953 c 41 41 547 1737 bf 0 0.141279 0.595465 c 42 41 588 1737 bf 0 0.216628 0.641047 c 42 41 630 1737 bf 0 0 0.51 c 42 41 672 1737 bf 42 41 463 1778 bf 102 7 1984 290 bf 0 0.0094186 0.515698 c 102 6 1984 297 bf 0 0.0188372 0.521395 c
 102 7 1984 303 bf 0 0.0282558 0.527093 c 102 6 1984 310 bf 0 0.0376744 0.532791 c 102 7 1984 316 bf 0 0.047093 0.538488 c 102 6 1984 323 bf 0 0.0565116 0.544186 c 102 7 1984 329 bf 0 0.0659302 0.549884 c 102 6 1984 336 bf 0 0.0753488 0.555581 c 102
 7 1984 342 bf 0 0.0847674 0.561279 c 102 6 1984 349 bf 0 0.094186 0.566977 c 102 7 1984 355 bf 0 0.103605 0.572674 c 102 6 1984 362 bf 0 0.113023 0.578372 c 102 7 1984 368 bf 0 0.122442 0.58407 c 102 6 1984 375 bf 0 0.13186 0.589767 c 102 7 1984 381
 bf 0 0.141279 0.595465 c 102 6 1984 388 bf 0 0.150698 0.601163 c 102 7 1984 394 bf 0 0.160116 0.60686 c 102 6 1984 401 bf 0 0.169535 0.612558 c 102 7 1984 407 bf 0 0.178953 0.618256 c 102 6 1984 414 bf 0 0.188372 0.623953 c 102 6 1984 420 bf 0
 0.197791 0.629651 c 102 7 1984 426 bf 0 0.207209 0.635349 c 102 6 1984 433 bf 0 0.216628 0.641047 c 102 7 1984 439 bf 0 0.226047 0.646744 c 102 6 1984 446 bf 0 0.235465 0.652442 c 102 7 1984 452 bf 0 0.244884 0.65814 c 102 6 1984 459 bf 0 0.254302
 0.663837 c 102 7 1984 465 bf 0 0.263721 0.669535 c 102 6 1984 472 bf 0 0.27314 0.675233 c 102 7 1984 478 bf 0 0.282558 0.68093 c 102 6 1984 485 bf 0 0.291977 0.686628 c 102 7 1984 491 bf 0 0.301395 0.692326 c 102 6 1984 498 bf 0 0.310814 0.698023 c
 102 7 1984 504 bf 0 0.320233 0.703721 c 102 6 1984 511 bf 0 0.329651 0.709419 c 102 7 1984 517 bf 0 0.33907 0.715116 c 102 6 1984 524 bf 0 0.348488 0.720814 c 102 7 1984 530 bf 0 0.357907 0.726512 c 102 6 1984 537 bf 0 0.367326 0.732209 c 102 7 1984
 543 bf 0 0.376744 0.737907 c 102 6 1984 550 bf 0 0.386163 0.743605 c 102 7 1984 556 bf 0 0.395581 0.749302 c 102 6 1984 563 bf 0 0.405 0.755 c 102 7 1984 569 bf 0 0.414419 0.760698 c 102 6 1984 576 bf 0 0.423837 0.766395 c 102 7 1984 582 bf 0
 0.433256 0.772093 c 102 6 1984 589 bf 0 0.442674 0.777791 c 102 6 1984 595 bf 0 0.452093 0.783488 c 102 7 1984 601 bf 0 0.461512 0.789186 c 102 6 1984 608 bf 0 0.47093 0.794884 c 102 7 1984 614 bf 0 0.480349 0.800581 c 102 6 1984 621 bf 0 0.489767
 0.806279 c 102 7 1984 627 bf 0 0.499186 0.811977 c 102 6 1984 634 bf 0 0.508605 0.817674 c 102 7 1984 640 bf 0 0.518023 0.823372 c 102 6 1984 647 bf 0 0.527442 0.82907 c 102 7 1984 653 bf 0 0.53686 0.834767 c 102 6 1984 660 bf 0 0.546279 0.840465 c
 102 7 1984 666 bf 0 0.555698 0.846163 c 102 6 1984 673 bf 0 0.565116 0.85186 c 102 7 1984 679 bf 0 0.574535 0.857558 c 102 6 1984 686 bf 0 0.583953 0.863256 c 102 7 1984 692 bf 0 0.593372 0.868953 c 102 6 1984 699 bf 0 0.602791 0.874651 c 102 7 1984
 705 bf 0 0.612209 0.880349 c 102 6 1984 712 bf 0 0.621628 0.886047 c 102 7 1984 718 bf 0 0.631047 0.891744 c 102 6 1984 725 bf 0 0.640465 0.897442 c 102 7 1984 731 bf 0 0.649884 0.90314 c 102 6 1984 738 bf 0 0.659302 0.908837 c 102 7 1984 744 bf 0
 0.668721 0.914535 c 102 6 1984 751 bf 0 0.67814 0.920233 c 102 7 1984 757 bf 0 0.687558 0.92593 c 102 6 1984 764 bf 0 0.696977 0.931628 c 102 7 1984 770 bf 0 0.706395 0.937326 c 102 6 1984 777 bf 0 0.715814 0.943023 c 102 6 1984 783 bf 0 0.725233
 0.948721 c 102 7 1984 789 bf 0 0.734651 0.954419 c 102 6 1984 796 bf 0 0.74407 0.960116 c 102 7 1984 802 bf 0 0.753488 0.965814 c 102 6 1984 809 bf 0 0.762907 0.971512 c 102 7 1984 815 bf 0 0.772326 0.977209 c 102 6 1984 822 bf 0 0.781744 0.982907 c
 102 7 1984 828 bf 0 0.791163 0.988605 c 102 6 1984 835 bf 0 0.800581 0.994302 c 102 7 1984 841 bf 0 0.81 1 c 102 6 1984 848 bf 0.0126087 0.812754 0.987246 c 102 7 1984 854 bf 0.0252174 0.815507 0.974493 c 102 6 1984 861 bf 0.0378261 0.818261
 0.961739 c 102 7 1984 867 bf 0.0504348 0.821014 0.948986 c 102 6 1984 874 bf 0.0630435 0.823768 0.936232 c 102 7 1984 880 bf 0.0756522 0.826522 0.923478 c 102 6 1984 887 bf 0.0882609 0.829275 0.910725 c 102 7 1984 893 bf 0.10087 0.832029 0.897971 c
 102 6 1984 900 bf 0.113478 0.834783 0.885217 c 102 7 1984 906 bf 0.126087 0.837536 0.872464 c 102 6 1984 913 bf 0.138696 0.84029 0.85971 c 102 7 1984 919 bf 0.151304 0.843044 0.846957 c 102 6 1984 926 bf 0.163913 0.845797 0.834203 c 102 7 1984 932
 bf 0.176522 0.848551 0.821449 c 102 6 1984 939 bf 0.18913 0.851304 0.808696 c 102 7 1984 945 bf 0.201739 0.854058 0.795942 c 102 6 1984 952 bf 0.214348 0.856812 0.783188 c 102 6 1984 958 bf 0.226957 0.859565 0.770435 c 102 7 1984 964 bf 0.239565
 0.862319 0.757681 c 102 6 1984 971 bf 0.252174 0.865072 0.744928 c 102 7 1984 977 bf 0.264783 0.867826 0.732174 c 102 6 1984 984 bf 0.277391 0.87058 0.71942 c 102 7 1984 990 bf 0.29 0.873333 0.706667 c 102 6 1984 997 bf 0.302609 0.876087 0.693913 c
 102 7 1984 1003 bf 0.315217 0.878841 0.681159 c 102 6 1984 1010 bf 0.327826 0.881594 0.668406 c 102 7 1984 1016 bf 0.340435 0.884348 0.655652 c 102 6 1984 1023 bf 0.353043 0.887101 0.642899 c 102 7 1984 1029 bf 0.365652 0.889855 0.630145 c 102 6
 1984 1036 bf 0.378261 0.892609 0.617391 c 102 7 1984 1042 bf 0.39087 0.895362 0.604638 c 102 6 1984 1049 bf 0.403478 0.898116 0.591884 c 102 7 1984 1055 bf 0.416087 0.90087 0.57913 c 102 6 1984 1062 bf 0.428696 0.903623 0.566377 c 102 7 1984 1068 bf
 0.441304 0.906377 0.553623 c 102 6 1984 1075 bf 0.453913 0.90913 0.54087 c 102 7 1984 1081 bf 0.466522 0.911884 0.528116 c 102 6 1984 1088 bf 0.47913 0.914638 0.515362 c 102 7 1984 1094 bf 0.491739 0.917391 0.502609 c 102 6 1984 1101 bf 0.504348
 0.920145 0.489855 c 102 7 1984 1107 bf 0.516957 0.922899 0.477101 c 102 6 1984 1114 bf 0.529565 0.925652 0.464348 c 102 7 1984 1120 bf 0.542174 0.928406 0.451594 c 102 6 1984 1127 bf 0.554783 0.931159 0.438841 c 102 6 1984 1133 bf 0.567391 0.933913
 0.426087 c 102 7 1984 1139 bf 0.58 0.936667 0.413333 c 102 6 1984 1146 bf 0.592609 0.93942 0.40058 c 102 7 1984 1152 bf 0.605217 0.942174 0.387826 c 102 6 1984 1159 bf 0.617826 0.944928 0.375072 c 102 7 1984 1165 bf 0.630435 0.947681 0.362319 c 102
 6 1984 1172 bf 0.643043 0.950435 0.349565 c 102 7 1984 1178 bf 0.655652 0.953188 0.336812 c 102 6 1984 1185 bf 0.668261 0.955942 0.324058 c 102 7 1984 1191 bf 0.68087 0.958696 0.311304 c 102 6 1984 1198 bf 0.693478 0.961449 0.298551 c 102 7 1984
 1204 bf 0.706087 0.964203 0.285797 c 102 6 1984 1211 bf 0.718696 0.966956 0.273043 c 102 7 1984 1217 bf 0.731304 0.96971 0.26029 c 102 6 1984 1224 bf 0.743913 0.972464 0.247536 c 102 7 1984 1230 bf 0.756522 0.975217 0.234783 c 102 6 1984 1237 bf
 0.76913 0.977971 0.222029 c 102 7 1984 1243 bf 0.781739 0.980725 0.209275 c 102 6 1984 1250 bf 0.794348 0.983478 0.196522 c 102 7 1984 1256 bf 0.806957 0.986232 0.183768 c 102 6 1984 1263 bf 0.819565 0.988985 0.171014 c 102 7 1984 1269 bf 0.832174
 0.991739 0.158261 c 102 6 1984 1276 bf 0.844783 0.994493 0.145507 c 102 7 1984 1282 bf 0.857391 0.997246 0.132754 c 102 6 1984 1289 bf 0.87 1 0.12 c 102 7 1984 1295 bf 0.872203 0.986441 0.117966 c 102 6 1984 1302 bf 0.874407 0.972881 0.115932 c 102
 7 1984 1308 bf 0.87661 0.959322 0.113898 c 102 6 1984 1315 bf 0.878814 0.945763 0.111864 c 102 6 1984 1321 bf 0.881017 0.932203 0.109831 c 102 7 1984 1327 bf 0.88322 0.918644 0.107797 c 102 6 1984 1334 bf 0.885424 0.905085 0.105763 c 102 7 1984 1340
 bf 0.887627 0.891525 0.103729 c 102 6 1984 1347 bf 0.889831 0.877966 0.101695 c 102 7 1984 1353 bf 0.892034 0.864407 0.099661 c 102 6 1984 1360 bf 0.894237 0.850847 0.0976271 c 102 7 1984 1366 bf 0.896441 0.837288 0.0955932 c 102 6 1984 1373 bf
 0.898644 0.823729 0.0935593 c 102 7 1984 1379 bf 0.900847 0.81017 0.0915254 c 102 6 1984 1386 bf 0.903051 0.79661 0.0894915 c 102 7 1984 1392 bf 0.905254 0.783051 0.0874576 c 102 6 1984 1399 bf 0.907458 0.769492 0.0854237 c 102 7 1984 1405 bf
 0.909661 0.755932 0.0833898 c 102 6 1984 1412 bf 0.911864 0.742373 0.0813559 c 102 7 1984 1418 bf 0.914068 0.728814 0.079322 c 102 6 1984 1425 bf 0.916271 0.715254 0.0772881 c 102 7 1984 1431 bf 0.918475 0.701695 0.0752542 c 102 6 1984 1438 bf
 0.920678 0.688136 0.0732203 c 102 7 1984 1444 bf 0.922881 0.674576 0.0711864 c 102 6 1984 1451 bf 0.925085 0.661017 0.0691525 c 102 7 1984 1457 bf 0.927288 0.647458 0.0671186 c 102 6 1984 1464 bf 0.929492 0.633898 0.0650847 c 102 7 1984 1470 bf
 0.931695 0.620339 0.0630508 c 102 6 1984 1477 bf 0.933898 0.60678 0.061017 c 102 7 1984 1483 bf 0.936102 0.59322 0.0589831 c 102 6 1984 1490 bf 0.938305 0.579661 0.0569492 c 102 6 1984 1496 bf 0.940508 0.566102 0.0549153 c 102 7 1984 1502 bf
 0.942712 0.552542 0.0528814 c 102 6 1984 1509 bf 0.944915 0.538983 0.0508475 c 102 7 1984 1515 bf 0.947119 0.525424 0.0488136 c 102 6 1984 1522 bf 0.949322 0.511864 0.0467797 c 102 7 1984 1528 bf 0.951525 0.498305 0.0447458 c 102 6 1984 1535 bf
 0.953729 0.484746 0.0427119 c 102 7 1984 1541 bf 0.955932 0.471186 0.040678 c 102 6 1984 1548 bf 0.958136 0.457627 0.0386441 c 102 7 1984 1554 bf 0.960339 0.444068 0.0366102 c 102 6 1984 1561 bf 0.962542 0.430508 0.0345763 c 102 7 1984 1567 bf
 0.964746 0.416949 0.0325424 c 102 6 1984 1574 bf 0.966949 0.40339 0.0305085 c 102 7 1984 1580 bf 0.969153 0.38983 0.0284746 c 102 6 1984 1587 bf 0.971356 0.376271 0.0264407 c 102 7 1984 1593 bf 0.973559 0.362712 0.0244068 c 102 6 1984 1600 bf
 0.975763 0.349153 0.0223729 c 102 7 1984 1606 bf 0.977966 0.335593 0.020339 c 102 6 1984 1613 bf 0.980169 0.322034 0.0183051 c 102 7 1984 1619 bf 0.982373 0.308475 0.0162712 c 102 6 1984 1626 bf 0.984576 0.294915 0.0142373 c 102 7 1984 1632 bf
 0.98678 0.281356 0.0122034 c 102 6 1984 1639 bf 0.988983 0.267797 0.0101695 c 102 7 1984 1645 bf 0.991186 0.254237 0.00813559 c 102 6 1984 1652 bf 0.99339 0.240678 0.00610169 c 102 7 1984 1658 bf 0.995593 0.227119 0.0040678 c 102 6 1984 1665 bf
 0.997797 0.213559 0.0020339 c 102 6 1984 1671 bf 1 0.2 0 c 102 7 1984 1677 bf 0.988049 0.195122 0 c 102 6 1984 1684 bf 0.976098 0.190244 0 c 102 7 1984 1690 bf 0.964146 0.185366 0 c 102 6 1984 1697 bf 0.952195 0.180488 0 c 102 7 1984 1703 bf
 0.940244 0.17561 0 c 102 6 1984 1710 bf 0.928293 0.170732 0 c 102 7 1984 1716 bf 0.916341 0.165854 0 c 102 6 1984 1723 bf 0.90439 0.160976 0 c 102 7 1984 1729 bf 0.892439 0.156098 0 c 102 6 1984 1736 bf 0.880488 0.15122 0 c 102 7 1984 1742 bf
 0.868537 0.146341 0 c 102 6 1984 1749 bf 0.856585 0.141463 0 c 102 7 1984 1755 bf 0.844634 0.136585 0 c 102 6 1984 1762 bf 0.832683 0.131707 0 c 102 7 1984 1768 bf 0.820732 0.126829 0 c 102 6 1984 1775 bf 0.80878 0.121951 0 c 102 7 1984 1781 bf
 0.796829 0.117073 0 c 102 6 1984 1788 bf 0.784878 0.112195 0 c 102 7 1984 1794 bf 0.772927 0.107317 0 c 102 6 1984 1801 bf 0.760976 0.102439 0 c 102 7 1984 1807 bf 0.749024 0.097561 0 c 102 6 1984 1814 bf 0.737073 0.0926829 0 c 102 7 1984 1820 bf
 0.725122 0.0878049 0 c 102 6 1984 1827 bf 0.713171 0.0829268 0 c 102 7 1984 1833 bf 0.701219 0.0780488 0 c 102 6 1984 1840 bf 0.689268 0.0731707 0 c 102 6 1984 1846 bf 0.677317 0.0682927 0 c 102 7 1984 1852 bf 0.665366 0.0634146 0 c 102 6 1984 1859
 bf 0.653415 0.0585366 0 c 102 7 1984 1865 bf 0.641463 0.0536585 0 c 102 6 1984 1872 bf 0.629512 0.0487805 0 c 102 7 1984 1878 bf 0.617561 0.0439024 0 c 102 6 1984 1885 bf 0.60561 0.0390244 0 c 102 7 1984 1891 bf 0.593659 0.0341463 0 c 102 6 1984
 1898 bf 0.581707 0.0292683 0 c 102 7 1984 1904 bf 0.569756 0.0243902 0 c 102 6 1984 1911 bf 0.557805 0.0195122 0 c 102 7 1984 1917 bf 0.545854 0.0146341 0 c 102 6 1984 1924 bf 0.533902 0.0097561 0 c 102 7 1984 1930 bf 0.521951 0.00487805 0 c 102 6
 1984 1937 bf black 6 lw 2086 290 m 1653 Y s 2036 290 m 50 X s
 gsave  2268 2234 0 0 C 2111.13 259.111 t 0 r /Helvetica findfont 72.4646 sf 0 0 m (1) show NC gr  2061 355 m 25 X s 2061 393 m 25 X s 2061 420 m 25 X s 2061 441 m 25 X s 2061 458 m 25 X s 2061 473 m 25 X s 2061 485 m 25 X s 2061 496 m 25 X s 2036
 506 m 50 X s
 gsave  2268 2234 0 0 C 2111.13 475.069 t 0 r /Helvetica findfont 72.4646 sf 0 0 m (10) show NC gr  2061 571 m 25 X s 2061 609 m 25 X s 2061 636 m 25 X s 2061 657 m 25 X s 2061 674 m 25 X s 2061 689 m 25 X s 2061 701 m 25 X s 2061 712 m 25 X s 2036
 722 m 50 X s
 gsave  2268 2234 0 0 C 2188.15 721.805 t 0 r /Helvetica findfont 48.3097 sf 0 0 m (2) show NC gr 
 gsave  2268 2234 0 0 C 2110 690.545 t 0 r /Helvetica findfont 72.4646 sf 0 0 m (10) show NC gr  2061 787 m 25 X s 2061 825 m 25 X s 2061 852 m 25 X s 2061 873 m 25 X s 2061 890 m 25 X s 2061 905 m 25 X s 2061 917 m 25 X s 2061 928 m 25 X s 2036 938
 m 50 X s
 gsave  2268 2234 0 0 C 2188.15 939.198 t 0 r /Helvetica findfont 48.3097 sf 0 0 m (3) show NC gr 
 gsave  2268 2234 0 0 C 2110 906.518 t 0 r /Helvetica findfont 72.4646 sf 0 0 m (10) show NC gr  2061 1003 m 25 X s 2061 1041 m 25 X s 2061 1068 m 25 X s 2061 1089 m 25 X s 2061 1106 m 25 X s 2061 1121 m 25 X s 2061 1133 m 25 X s 2061 1144 m 25 X s
 2036 1154 m 50 X s
 gsave  2268 2234 0 0 C 2188.15 1153.75 t 0 r /Helvetica findfont 48.3097 sf 0 0 m (4) show NC gr 
 gsave  2268 2234 0 0 C 2110 1122.49 t 0 r /Helvetica findfont 72.4646 sf 0 0 m (10) show NC gr  2061 1219 m 25 X s 2061 1257 m 25 X s 2061 1284 m 25 X s 2061 1305 m 25 X s 2061 1322 m 25 X s 2061 1337 m 25 X s 2061 1349 m 25 X s 2061 1360 m 25 X s
 2036 1370 m 50 X s
 gsave  2268 2234 0 0 C 2188.15 1371.14 t 0 r /Helvetica findfont 48.3097 sf 0 0 m (5) show NC gr 
 gsave  2268 2234 0 0 C 2110 1338.46 t 0 r /Helvetica findfont 72.4646 sf 0 0 m (10) show NC gr  2061 1435 m 25 X s 2061 1473 m 25 X s 2061 1500 m 25 X s 2061 1521 m 25 X s 2061 1538 m 25 X s 2061 1553 m 25 X s 2061 1565 m 25 X s 2061 1576 m 25 X s
 2036 1586 m 50 X s
 gsave  2268 2234 0 0 C 2188.15 1587.12 t 0 r /Helvetica findfont 48.3097 sf 0 0 m (6) show NC gr 
 gsave  2268 2234 0 0 C 2110 1554.44 t 0 r /Helvetica findfont 72.4646 sf 0 0 m (10) show NC gr  2061 1651 m 25 X s 2061 1689 m 25 X s 2061 1716 m 25 X s 2061 1737 m 25 X s 2061 1754 m 25 X s 2061 1769 m 25 X s 2061 1781 m 25 X s 2061 1792 m 25 X s
 2036 1802 m 50 X s
 gsave  2268 2234 0 0 C 2188.15 1801.67 t 0 r /Helvetica findfont 48.3097 sf 0 0 m (7) show NC gr 
 gsave  2268 2234 0 0 C 2110 1770.41 t 0 r /Helvetica findfont 72.4646 sf 0 0 m (10) show NC gr  2061 1867 m 25 X s 2061 1905 m 25 X s 2061 1932 m 25 X s 1 1 1 c black 295 290 m 1678 X s
 gsave  2268 2234 0 0 C 1949.44 133.562 t 0 r /Helvetica findfont 83.8316 sf 0 0 m (\)) show NC gr 
 gsave  2268 2234 0 0 C 1922.44 98.0404 t 0 r /Helvetica findfont 55.4141 sf 0 0 m (x) show NC gr 
 gsave  2268 2234 0 0 C 1690.84 133.562 t 0 r /Helvetica findfont 83.8316 sf 0 0 m (delta\(t) show NC gr  295 340 m -50 Y s 351 315 m -25 Y s 407 315 m -25 Y s 463 315 m -25 Y s 519 315 m -25 Y s 574 340 m -50 Y s 630 315 m -25 Y s 686 315 m -25 Y s
 742 315 m -25 Y s 798 315 m -25 Y s 854 340 m -50 Y s 910 315 m -25 Y s 966 315 m -25 Y s 1022 315 m -25 Y s 1078 315 m -25 Y s 1134 340 m -50 Y s 1190 315 m -25 Y s 1246 315 m -25 Y s 1302 315 m -25 Y s 1358 315 m -25 Y s 1414 340 m -50 Y s 1469
 315 m -25 Y s 1525 315 m -25 Y s 1581 315 m -25 Y s 1637 315 m -25 Y s 1693 340 m -50 Y s 1749 315 m -25 Y s 1805 315 m -25 Y s 1861 315 m -25 Y s 1917 315 m -25 Y s 1973 340 m -50 Y s 1973 340 m -50 Y s
 gsave  2268 2234 0 0 C 277.071 225.919 t 0 r /Helvetica findfont 62.5185 sf 0 0 m (0) show NC gr 
 gsave  2268 2234 0 0 C 537.091 225.919 t 0 r /Helvetica findfont 62.5185 sf 0 0 m (0.1) show NC gr 
 gsave  2268 2234 0 0 C 811.32 225.919 t 0 r /Helvetica findfont 62.5185 sf 0 0 m (0.2) show NC gr 
 gsave  2268 2234 0 0 C 1091.23 225.919 t 0 r /Helvetica findfont 62.5185 sf 0 0 m (0.3) show NC gr 
 gsave  2268 2234 0 0 C 1369.72 225.919 t 0 r /Helvetica findfont 62.5185 sf 0 0 m (0.4) show NC gr 
 gsave  2268 2234 0 0 C 1649.64 225.919 t 0 r /Helvetica findfont 62.5185 sf 0 0 m (0.5) show NC gr 
 gsave  2268 2234 0 0 C 1929.55 225.919 t 0 r /Helvetica findfont 62.5185 sf 0 0 m (0.6) show NC gr  295 290 m 1653 Y s
 gsave  2268 2234 0 0 C 134.983 1921.02 t 90 r /Helvetica findfont 83.8316 sf 0 0 m (\)) show NC gr 
 gsave  2268 2234 0 0 C 171.926 1894.03 t 90 r /Helvetica findfont 55.4141 sf 0 0 m (y) show NC gr 
 gsave  2268 2234 0 0 C 134.983 1662.42 t 90 r /Helvetica findfont 83.8316 sf 0 0 m (delta\(t) show NC gr  345 290 m -50 X s 320 345 m -25 X s 320 401 m -25 X s 320 456 m -25 X s 320 511 m -25 X s 345 566 m -50 X s 320 621 m -25 X s 320 676 m -25 X s
 320 731 m -25 X s 320 786 m -25 X s 345 841 m -50 X s 320 896 m -25 X s 320 952 m -25 X s 320 1007 m -25 X s 320 1062 m -25 X s 345 1117 m -50 X s 320 1172 m -25 X s 320 1227 m -25 X s 320 1282 m -25 X s 320 1337 m -25 X s 345 1392 m -50 X s 320
 1447 m -25 X s 320 1502 m -25 X s 320 1558 m -25 X s 320 1613 m -25 X s 345 1668 m -50 X s 320 1723 m -25 X s 320 1778 m -25 X s 320 1833 m -25 X s 320 1888 m -25 X s 345 1943 m -50 X s 345 1943 m -50 X s
 gsave  2268 2234 0 0 C 250.074 268.545 t 0 r /Helvetica findfont 62.5185 sf 0 0 m (0) show NC gr 
 gsave  2268 2234 0 0 C 208.869 544.195 t 0 r /Helvetica findfont 62.5185 sf 0 0 m (0.1) show NC gr 
 gsave  2268 2234 0 0 C 197.502 819.845 t 0 r /Helvetica findfont 62.5185 sf 0 0 m (0.2) show NC gr 
 gsave  2268 2234 0 0 C 198.923 1094.07 t 0 r /Helvetica findfont 62.5185 sf 0 0 m (0.3) show NC gr 
 gsave  2268 2234 0 0 C 197.502 1369.72 t 0 r /Helvetica findfont 62.5185 sf 0 0 m (0.4) show NC gr 
 gsave  2268 2234 0 0 C 197.502 1645.37 t 0 r /Helvetica findfont 62.5185 sf 0 0 m (0.5) show NC gr 
 gsave  2268 2234 0 0 C 197.502 1921.02 t 0 r /Helvetica findfont 62.5185 sf 0 0 m (0.6) show NC gr 
 gsave  2268 2234 0 0 C 679.178 2149.78 t 0 r /Helvetica-Bold findfont 72.4646 sf 0 0 m (RD PION \(VELO track mult.: 21 \255 60\)) show NC gr 
 gr  gr showpage
end
%%EOF
