%!PS-Adobe-2.0 EPSF-2.0
%%BoundingBox:  0 0 567 558
%%Title: ./DR_pion_0c65_h3001_3_h3401_3.eps: DR_pion_0c65_h3001_3_h3401_3
%%Creator: ROOT Version 6.06/02
%%CreationDate: Wed Feb  1 16:20:58 2017
%%DocumentNeededResources: ProcSet (FontSetInit)
%%EndComments
%%BeginProlog
80 dict begin
/s {stroke} def /l {lineto} def /m {moveto} def /t {translate} def
/r {rotate} def /rl {roll}  def /R {repeat} def
/d {rlineto} def /rm {rmoveto} def /gr {grestore} def /f {eofill} def
/c {setrgbcolor} def /black {0 setgray} def /sd {setdash} def
/cl {closepath} def /sf {scalefont setfont} def /lw {setlinewidth} def
/box {m dup 0 exch d exch 0 d 0 exch neg d cl} def
/NC{systemdict begin initclip end}def/C{NC box clip newpath}def
/bl {box s} def /bf {gsave box gsave f grestore 1 lw [] 0 sd s grestore} def /Y { 0 exch d} def /X { 0 d} def 
/K {{pop pop 0 moveto} exch kshow} bind def
/ita {/ang 15 def gsave [1 0 ang dup sin exch cos div 1 0 0] concat} def 
/mp {newpath /y exch def /x exch def} def
/side {[w .77 mul w .23 mul] .385 w mul sd w 0 l currentpoint t -144 r} def
/mr {mp x y w2 0 360 arc} def /m24 {mr s} def /m20 {mr f} def
/mb {mp x y w2 add m w2 neg 0 d 0 w neg d w 0 d 0 w d cl} def
/mt {mp x y w2 add m w2 neg w neg d w 0 d cl} def
/m21 {mb f} def /m25 {mb s} def /m22 {mt f} def /m26{mt s} def
/m23 {mp x y w2 sub m w2 w d w neg 0 d cl f} def
/m27 {mp x y w2 add m w3 neg w2 neg d w3 w2 neg d w3 w2 d cl s} def
/m28 {mp x w2 sub y w2 sub w3 add m w3 0 d  0 w3 neg d w3 0 d 0 w3 d w3 0 d  0 w3 d w3 neg 0 d 0 w3 d w3 neg 0 d 0 w3 neg d w3 neg 0 d cl s } def
/m29 {mp gsave x w2 sub y w2 add w3 sub m currentpoint t 4 {side} repeat cl fill gr} def
/m30 {mp gsave x w2 sub y w2 add w3 sub m currentpoint t 4 {side} repeat cl s gr} def
/m31 {mp x y w2 sub m 0 w d x w2 sub y m w 0 d x w2 sub y w2 add m w w neg d x w2 sub y w2 sub m w w d s} def
/m32 {mp x y w2 sub m w2 w d w neg 0 d cl s} def
/m33 {mp x y w2 add m w3 neg w2 neg d w3 w2 neg d w3 w2 d cl f} def
/m34 {mp x w2 sub y w2 sub w3 add m w3 0 d  0 w3 neg d w3 0 d 0 w3 d w3 0 d  0 w3 d w3 neg 0 d 0 w3 d w3 neg 0 d 0 w3 neg d w3 neg 0 d cl f } def
/m2 {mp x y w2 sub m 0 w d x w2 sub y m w 0 d s} def
/m5 {mp x w2 sub y w2 sub m w w d x w2 sub y w2 add m w w neg d s} def
%%IncludeResource: ProcSet (FontSetInit)
%%IncludeResource: font Times-Roman
%%IncludeResource: font Times-Italic
%%IncludeResource: font Times-Bold
%%IncludeResource: font Times-BoldItalic
%%IncludeResource: font Helvetica
%%IncludeResource: font Helvetica-Oblique
%%IncludeResource: font Helvetica-Bold
%%IncludeResource: font Helvetica-BoldOblique
%%IncludeResource: font Courier
%%IncludeResource: font Courier-Oblique
%%IncludeResource: font Courier-Bold
%%IncludeResource: font Courier-BoldOblique
%%IncludeResource: font Symbol
%%IncludeResource: font ZapfDingbats
/reEncode {exch findfont dup length dict begin {1 index /FID eq  {pop pop} {def} ifelse } forall /Encoding exch def currentdict end dup /FontName get exch definefont pop } def [/Times-Bold /Times-Italic /Times-BoldItalic /Helvetica /Helvetica-Oblique
 /Helvetica-Bold /Helvetica-BoldOblique /Courier /Courier-Oblique /Courier-Bold /Courier-BoldOblique /Times-Roman /AvantGarde-Book /AvantGarde-BookOblique /AvantGarde-Demi /AvantGarde-DemiOblique /Bookman-Demi /Bookman-DemiItalic /Bookman-Light
 /Bookman-LightItalic /Helvetica-Narrow /Helvetica-Narrow-Bold /Helvetica-Narrow-BoldOblique /Helvetica-Narrow-Oblique /NewCenturySchlbk-Roman /NewCenturySchlbk-Bold /NewCenturySchlbk-BoldItalic /NewCenturySchlbk-Italic /Palatino-Bold
 /Palatino-BoldItalic /Palatino-Italic /Palatino-Roman ] {ISOLatin1Encoding reEncode } forall
%%EndProlog
%%BeginSetup
%%EndSetup
newpath  gsave  .25 .25 scale  gsave  0 0 t black[  ] 0 sd 6 lw 1 1 1 c 2268 2234 0 0 bf black 3 lw 1 1 1 c 1882 1966 340 223 bf black 1882 1966 340 223 bl 1 1 1 c 1882 1966 340 223 bf black 1882 1966 340 223 bl 0 0 1 c 6 lw 1 1 1 c 0 0 1 c 390 1578
 m 26 Y s 390 1616 m 26 Y s 3 lw /w 14 def /w2 {w 2 div} def /w3 {w 3 div} def 390 1610 m21 6 lw 394 1603 m 25 Y s 394 1639 m 25 Y s 3 lw 394 1634 m21 6 lw 399 1611 m 22 Y s 399 1644 m 22 Y s 3 lw 399 1639 m21 6 lw 404 1466 m 19 Y s 404 1497 m 19 Y s
 3 lw 404 1491 m21 6 lw 408 1521 m 18 Y s 408 1550 m 18 Y s 3 lw 408 1545 m21 6 lw 413 1515 m 16 Y s 413 1542 m 17 Y s 3 lw 413 1537 m21 6 lw 418 1479 m 15 Y s 418 1506 m 15 Y s 3 lw 418 1500 m21 6 lw 423 1427 m 14 Y s 423 1452 m 14 Y s 3 lw 423 1447
 m21 6 lw 427 1420 m 13 Y s 427 1444 m 13 Y s 3 lw 427 1438 m21 6 lw 432 1370 m 11 Y s 432 1392 m 12 Y s 3 lw 432 1387 m21 6 lw 437 1403 m 11 Y s 437 1425 m 11 Y s 3 lw 437 1420 m21 6 lw 441 1367 m 10 Y s 441 1389 m 10 Y s 3 lw 441 1383 m21 6 lw 446
 1335 m 10 Y s 446 1356 m 9 Y s 3 lw 446 1350 m21 6 lw 451 1327 m 9 Y s 451 1347 m 9 Y s 3 lw 451 1342 m21 6 lw 455 1328 m 9 Y s 455 1348 m 8 Y s 3 lw 455 1342 m21 6 lw 460 1299 m 7 Y s 460 1318 m 7 Y s 3 lw 460 1312 m21 6 lw 465 1265 m 8 Y s 465
 1284 m 7 Y s 3 lw 465 1278 m21 6 lw 470 1296 m 7 Y s 470 1315 m 7 Y s 3 lw 470 1309 m21 6 lw 474 1265 m 7 Y s 474 1283 m 6 Y s 3 lw 474 1277 m21 6 lw 479 1246 m 6 Y s 479 1264 m 6 Y s 3 lw 479 1258 m21 6 lw 484 1244 m 6 Y s 484 1261 m 6 Y s 3 lw 484
 1255 m21 6 lw 488 1225 m 6 Y s 488 1242 m 6 Y s 3 lw 488 1237 m21 6 lw 493 1240 m 5 Y s 493 1256 m 6 Y s 3 lw 493 1251 m21 6 lw 498 1233 m 5 Y s 498 1249 m 5 Y s 3 lw 498 1243 m21 6 lw 502 1208 m 5 Y s 502 1224 m 5 Y s 3 lw 502 1219 m21 6 lw 507
 1198 m 5 Y s 507 1214 m 5 Y s 3 lw 507 1209 m21 6 lw 512 1203 m 4 Y s 512 1219 m 4 Y s 3 lw 512 1213 m21 6 lw 517 1202 m 4 Y s 517 1217 m 4 Y s 3 lw 517 1212 m21 6 lw 521 1196 m 4 Y s 521 1211 m 4 Y s 3 lw 521 1206 m21 6 lw 526 1183 m 3 Y s 526 1198
 m 4 Y s 3 lw 526 1192 m21 6 lw 531 1166 m 4 Y s 531 1181 m 4 Y s 3 lw 531 1176 m21 6 lw 535 1176 m 4 Y s 535 1191 m 3 Y s 3 lw 535 1185 m21 6 lw 540 1180 m 3 Y s 540 1195 m 3 Y s 3 lw 540 1189 m21 6 lw 545 1180 m 3 Y s 545 1195 m 3 Y s 3 lw 545 1189
 m21 6 lw 550 1175 m 3 Y s 550 1190 m 3 Y s 3 lw 550 1184 m21 6 lw 554 1171 m 3 Y s 554 1185 m 3 Y s 3 lw 554 1179 m21 6 lw 559 1167 m 3 Y s 559 1181 m 3 Y s 3 lw 559 1175 m21 6 lw 564 1149 m 2 Y s 564 1163 m 3 Y s 3 lw 564 1157 m21 6 lw 568 1139 m 3
 Y s 568 1153 m 2 Y s 3 lw 568 1147 m21 6 lw 573 1157 m 3 Y s 573 1171 m 3 Y s 3 lw 573 1165 m21 6 lw 578 1145 m 2 Y s 578 1159 m 2 Y s 3 lw 578 1153 m21 6 lw 582 1139 m 2 Y s 582 1153 m 2 Y s 3 lw 582 1147 m21 6 lw 587 1133 m 2 Y s 587 1146 m 3 Y s
 3 lw 587 1141 m21 6 lw 592 1141 m 2 Y s 592 1155 m 2 Y s 3 lw 592 1149 m21 6 lw 597 1123 m 2 Y s 597 1137 m 2 Y s 3 lw 597 1131 m21 6 lw 601 1146 m 2 Y s 601 1159 m 2 Y s 3 lw 601 1154 m21 6 lw 606 1120 m 1 Y s 606 1133 m 2 Y s 3 lw 606 1127 m21 6
 lw 611 1129 m 2 Y s 611 1142 m 2 Y s 3 lw 611 1136 m21 6 lw 615 1129 m 2 Y s 615 1142 m 2 Y s 3 lw 615 1136 m21 6 lw 620 1136 m 2 Y s 620 1149 m 2 Y s 3 lw 620 1143 m21 6 lw 625 1121 m 2 Y s 625 1134 m 2 Y s 3 lw 625 1128 m21 6 lw 630 1130 m 1 Y s
 630 1142 m 2 Y s 3 lw 630 1137 m21 6 lw 634 1109 m 2 Y s 634 1122 m 2 Y s 3 lw 634 1117 m21 6 lw 639 1112 m 1 Y s 639 1124 m 2 Y s 3 lw 639 1119 m21 6 lw 644 1115 m 1 Y s 644 1128 m 1 Y s 3 lw 644 1122 m21 6 lw 648 1125 m 2 Y s 648 1138 m 1 Y s 3 lw
 648 1132 m21 6 lw 653 1119 m 1 Y s 653 1132 m 1 Y s 3 lw 653 1126 m21 6 lw 658 1117 m 1 Y s 658 1130 m 1 Y s 3 lw 658 1124 m21 6 lw 662 1103 m 2 Y s 662 1116 m 1 Y s 3 lw 662 1110 m21 6 lw 667 1109 m 1 Y s 667 1121 m 1 Y s 3 lw 667 1116 m21 6 lw 672
 1108 m 1 Y s 672 1120 m 1 Y s 3 lw 672 1114 m21 6 lw 677 1108 m 2 Y s 677 1121 m 1 Y s 3 lw 677 1115 m21 6 lw 681 1106 m 1 Y s 681 1119 m 1 Y s 3 lw 681 1113 m21 6 lw 686 1099 m s 686 1111 m 1 Y s 3 lw 686 1105 m21 6 lw 691 1107 m 1 Y s 691 1119 m 1
 Y s 3 lw 691 1114 m21 6 lw 695 1106 m 1 Y s 695 1119 m s 3 lw 695 1113 m21 6 lw 700 1094 m 1 Y s 700 1106 m 1 Y s 3 lw 700 1101 m21 6 lw 705 1099 m 1 Y s 705 1112 m s 3 lw 705 1106 m21 6 lw 710 1097 m 1 Y s 710 1109 m 1 Y s 3 lw 710 1103 m21 6 lw
 714 1102 m s 714 1114 m s 3 lw 714 1108 m21 6 lw 719 1104 m 1 Y s 719 1116 m 1 Y s 3 lw 719 1111 m21 6 lw 724 1101 m s 724 1113 m s 3 lw 724 1107 m21 6 lw 728 1097 m 1 Y s 728 1109 m 1 Y s 3 lw 728 1104 m21 6 lw 733 1095 m 1 Y s 733 1107 m 1 Y s 3
 lw 733 1101 m21 6 lw 738 1091 m s 738 1103 m s 3 lw 738 1097 m21 6 lw 742 1089 m 1 Y s 742 1101 m 1 Y s 3 lw 742 1096 m21 6 lw 747 1091 m 1 Y s 747 1103 m 1 Y s 3 lw 747 1098 m21 6 lw 752 1106 m 1 Y s 752 1118 m 1 Y s 3 lw 752 1113 m21 6 lw 757 1087
 m 1 Y s 757 1099 m 1 Y s 3 lw 757 1094 m21 6 lw 761 1101 m s 761 1112 m 1 Y s 3 lw 761 1107 m21 6 lw 766 1094 m 1 Y s 766 1106 m 1 Y s 3 lw 766 1100 m21 6 lw 771 1084 m s 771 1095 m 1 Y s 3 lw 771 1090 m21 6 lw 775 1089 m s 775 1101 m s 3 lw 775
 1095 m21 6 lw 780 1084 m s 780 1095 m 1 Y s 3 lw 780 1090 m21 6 lw 785 1089 m s 785 1100 m 1 Y s 3 lw 785 1095 m21 6 lw 790 1097 m 1 Y s 790 1109 m s 3 lw 790 1103 m21 6 lw 794 1093 m 1 Y s 794 1105 m s 3 lw 794 1099 m21 6 lw 799 1089 m 1 Y s 799
 1101 m s 3 lw 799 1095 m21 6 lw 804 1089 m s 804 1100 m 1 Y s 3 lw 804 1095 m21 6 lw 808 1083 m 1 Y s 808 1095 m s 3 lw 808 1089 m21 6 lw 813 1079 m s 813 1091 m s 3 lw 813 1085 m21 6 lw 818 1081 m s 818 1093 m s 3 lw 818 1087 m21 6 lw 822 1086 m 1
 Y s 822 1098 m s 3 lw 822 1092 m21 6 lw 827 1084 m s 827 1095 m s 3 lw 827 1089 m21 6 lw 832 1074 m s 832 1086 m s 3 lw 832 1080 m21 6 lw 837 1088 m 1 Y s 837 1100 m s 3 lw 837 1094 m21 6 lw 841 1081 m s 841 1092 m 1 Y s 3 lw 841 1087 m21 6 lw 846
 1088 m s 846 1099 m s 3 lw 846 1094 m21 6 lw 851 1089 m s 851 1101 m s 3 lw 851 1095 m21 6 lw 855 1084 m 1 Y s 855 1096 m s 3 lw 855 1090 m21 6 lw 860 1084 m s 860 1095 m 1 Y s 3 lw 860 1090 m21 6 lw 865 1069 m s 865 1081 m s 3 lw 865 1075 m21 6 lw
 870 1076 m s 870 1088 m s 3 lw 870 1082 m21 6 lw 874 1092 m s 874 1103 m s 3 lw 874 1098 m21 6 lw 879 1077 m 1 Y s 879 1089 m s 3 lw 879 1083 m21 6 lw 884 1065 m s 884 1077 m s 3 lw 884 1071 m21 6 lw 888 1067 m s 888 1078 m s 3 lw 888 1073 m21 6 lw
 893 1082 m s 893 1094 m s 3 lw 893 1088 m21 6 lw 898 1087 m s 898 1098 m s 3 lw 898 1093 m21 6 lw 902 1082 m s 902 1094 m s 3 lw 902 1088 m21 6 lw 907 1072 m s 907 1084 m s 3 lw 907 1078 m21 6 lw 912 1080 m s 912 1091 m s 3 lw 912 1086 m21 6 lw 917
 1087 m s 917 1098 m 1 Y s 3 lw 917 1093 m21 6 lw 921 1083 m s 921 1094 m 1 Y s 3 lw 921 1089 m21 6 lw 926 1073 m 1 Y s 926 1085 m s 3 lw 926 1079 m21 6 lw 931 1077 m 1 Y s 931 1089 m s 3 lw 931 1083 m21 6 lw 935 1080 m s 935 1091 m s 3 lw 935 1085
 m21 6 lw 940 1080 m 1 Y s 940 1092 m s 3 lw 940 1086 m21 6 lw 945 1083 m s 945 1094 m 1 Y s 3 lw 945 1089 m21 6 lw 950 1086 m s 950 1097 m 1 Y s 3 lw 950 1092 m21 6 lw 954 1080 m s 954 1092 m s 3 lw 954 1086 m21 6 lw 959 1080 m s 959 1091 m 1 Y s 3
 lw 959 1086 m21 6 lw 964 1082 m s 964 1093 m s 3 lw 964 1087 m21 6 lw 968 1083 m s 968 1095 m s 3 lw 968 1089 m21 6 lw 973 1085 m 1 Y s 973 1097 m s 3 lw 973 1091 m21 6 lw 978 1078 m s 978 1089 m 1 Y s 3 lw 978 1084 m21 6 lw 982 1081 m 1 Y s 982
 1093 m s 3 lw 982 1087 m21 6 lw 987 1084 m s 987 1095 m 1 Y s 3 lw 987 1090 m21 6 lw 992 1077 m s 992 1088 m s 3 lw 992 1083 m21 6 lw 997 1081 m s 997 1092 m s 3 lw 997 1086 m21 6 lw 1001 1087 m s 1001 1098 m 1 Y s 3 lw 1001 1093 m21 6 lw 1006 1086
 m s 1006 1097 m 1 Y s 3 lw 1006 1092 m21 6 lw 1011 1076 m 1 Y s 1011 1088 m s 3 lw 1011 1082 m21 6 lw 1015 1076 m s 1015 1087 m 1 Y s 3 lw 1015 1082 m21 6 lw 1020 1082 m s 1020 1093 m s 3 lw 1020 1088 m21 6 lw 1025 1076 m s 1025 1088 m s 3 lw 1025
 1082 m21 6 lw 1030 1078 m s 1030 1089 m 1 Y s 3 lw 1030 1084 m21 6 lw 1034 1082 m s 1034 1094 m s 3 lw 1034 1088 m21 6 lw 1039 1083 m s 1039 1094 m 1 Y s 3 lw 1039 1089 m21 6 lw 1044 1078 m s 1044 1090 m s 3 lw 1044 1084 m21 6 lw 1048 1082 m 1 Y s
 1048 1094 m s 3 lw 1048 1088 m21 6 lw 1053 1081 m 1 Y s 1053 1093 m s 3 lw 1053 1087 m21 6 lw 1058 1078 m 1 Y s 1058 1090 m s 3 lw 1058 1084 m21 6 lw 1062 1092 m s 1062 1104 m s 3 lw 1062 1098 m21 6 lw 1067 1090 m s 1067 1102 m s 3 lw 1067 1096 m21
 6 lw 1072 1085 m s 1072 1097 m s 3 lw 1072 1091 m21 6 lw 1077 1092 m 1 Y s 1077 1104 m 1 Y s 3 lw 1077 1098 m21 6 lw 1081 1087 m 1 Y s 1081 1099 m s 3 lw 1081 1093 m21 6 lw 1086 1077 m s 1086 1089 m s 3 lw 1086 1083 m21 6 lw 1091 1077 m 1 Y s 1091
 1089 m s 3 lw 1091 1083 m21 6 lw 1095 1083 m s 1095 1094 m 1 Y s 3 lw 1095 1089 m21 6 lw 1100 1069 m s 1100 1080 m 1 Y s 3 lw 1100 1075 m21 6 lw 1105 1086 m 1 Y s 1105 1098 m s 3 lw 1105 1092 m21 6 lw 1110 1085 m 1 Y s 1110 1097 m 1 Y s 3 lw 1110
 1091 m21 6 lw 1114 1090 m s 1114 1101 m 1 Y s 3 lw 1114 1096 m21 6 lw 1119 1091 m 1 Y s 1119 1103 m 1 Y s 3 lw 1119 1097 m21 6 lw 1124 1088 m 1 Y s 1124 1100 m 1 Y s 3 lw 1124 1095 m21 6 lw 1128 1078 m 1 Y s 1128 1090 m 1 Y s 3 lw 1128 1085 m21 6 lw
 1133 1071 m s 1133 1083 m s 3 lw 1133 1077 m21 6 lw 1138 1091 m 1 Y s 1138 1103 m 1 Y s 3 lw 1138 1098 m21 6 lw 1142 1082 m s 1142 1094 m s 3 lw 1142 1088 m21 6 lw 1147 1089 m 1 Y s 1147 1101 m 1 Y s 3 lw 1147 1095 m21 6 lw 1152 1086 m 1 Y s 1152
 1098 m 1 Y s 3 lw 1152 1093 m21 6 lw 1157 1097 m 1 Y s 1157 1109 m 1 Y s 3 lw 1157 1103 m21 6 lw 1161 1094 m 1 Y s 1161 1106 m 1 Y s 3 lw 1161 1101 m21 6 lw 1166 1092 m 1 Y s 1166 1104 m 1 Y s 3 lw 1166 1099 m21 6 lw 1171 1089 m s 1171 1101 m s 3 lw
 1171 1095 m21 6 lw 1175 1105 m 1 Y s 1175 1117 m 1 Y s 3 lw 1175 1112 m21 6 lw 1180 1088 m 1 Y s 1180 1100 m 1 Y s 3 lw 1180 1095 m21 6 lw 1185 1091 m 1 Y s 1185 1103 m 1 Y s 3 lw 1185 1097 m21 6 lw 1190 1088 m 1 Y s 1190 1100 m 1 Y s 3 lw 1190 1095
 m21 6 lw 1194 1115 m 1 Y s 1194 1127 m 1 Y s 3 lw 1194 1121 m21 6 lw 1199 1094 m 1 Y s 1199 1106 m 1 Y s 3 lw 1199 1101 m21 6 lw 1204 1098 m 1 Y s 1204 1111 m 1 Y s 3 lw 1204 1105 m21 6 lw 1208 1087 m 1 Y s 1208 1100 m s 3 lw 1208 1094 m21 6 lw 1213
 1103 m 1 Y s 1213 1115 m 1 Y s 3 lw 1213 1109 m21 6 lw 1218 1103 m 1 Y s 1218 1115 m 1 Y s 3 lw 1218 1110 m21 6 lw 1222 1096 m s 1222 1108 m 1 Y s 3 lw 1222 1102 m21 6 lw 1227 1104 m 1 Y s 1227 1116 m 1 Y s 3 lw 1227 1110 m21 6 lw 1232 1089 m 1 Y s
 1232 1102 m 1 Y s 3 lw 1232 1096 m21 6 lw 1237 1103 m 1 Y s 1237 1116 m 1 Y s 3 lw 1237 1110 m21 6 lw 1241 1089 m 1 Y s 1241 1101 m 1 Y s 3 lw 1241 1096 m21 6 lw 1246 1089 m 1 Y s 1246 1102 m 1 Y s 3 lw 1246 1096 m21 6 lw 1251 1093 m 1 Y s 1251 1106
 m 1 Y s 3 lw 1251 1100 m21 6 lw 1255 1102 m 1 Y s 1255 1114 m 1 Y s 3 lw 1255 1109 m21 6 lw 1260 1095 m 1 Y s 1260 1108 m 1 Y s 3 lw 1260 1102 m21 6 lw 1265 1108 m 1 Y s 1265 1121 m 1 Y s 3 lw 1265 1115 m21 6 lw 1269 1105 m 2 Y s 1269 1118 m 1 Y s 3
 lw 1269 1112 m21 6 lw 1274 1095 m 1 Y s 1274 1108 m 1 Y s 3 lw 1274 1102 m21 6 lw 1279 1089 m 1 Y s 1279 1102 m 1 Y s 3 lw 1279 1096 m21 6 lw 1284 1111 m 1 Y s 1284 1123 m 2 Y s 3 lw 1284 1118 m21 6 lw 1288 1111 m 2 Y s 1288 1124 m 1 Y s 3 lw 1288
 1118 m21 6 lw 1293 1097 m 1 Y s 1293 1109 m 2 Y s 3 lw 1293 1104 m21 6 lw 1298 1100 m 2 Y s 1298 1113 m 1 Y s 3 lw 1298 1107 m21 6 lw 1302 1105 m 2 Y s 1302 1118 m 1 Y s 3 lw 1302 1112 m21 6 lw 1307 1102 m 1 Y s 1307 1115 m 1 Y s 3 lw 1307 1109 m21
 6 lw 1312 1103 m 1 Y s 1312 1115 m 2 Y s 3 lw 1312 1110 m21 6 lw 1317 1111 m 2 Y s 1317 1124 m 1 Y s 3 lw 1317 1118 m21 6 lw 1321 1120 m 1 Y s 1321 1133 m 1 Y s 3 lw 1321 1127 m21 6 lw 1326 1111 m 1 Y s 1326 1123 m 2 Y s 3 lw 1326 1118 m21 6 lw 1331
 1098 m 1 Y s 1331 1110 m 2 Y s 3 lw 1331 1105 m21 6 lw 1335 1114 m 2 Y s 1335 1127 m 2 Y s 3 lw 1335 1121 m21 6 lw 1340 1100 m 2 Y s 1340 1113 m 2 Y s 3 lw 1340 1107 m21 6 lw 1345 1109 m 2 Y s 1345 1122 m 2 Y s 3 lw 1345 1117 m21 6 lw 1349 1116 m 2
 Y s 1349 1129 m 2 Y s 3 lw 1349 1124 m21 6 lw 1354 1115 m 2 Y s 1354 1128 m 2 Y s 3 lw 1354 1122 m21 6 lw 1359 1102 m 2 Y s 1359 1115 m 2 Y s 3 lw 1359 1110 m21 6 lw 1364 1127 m 2 Y s 1364 1140 m 2 Y s 3 lw 1364 1134 m21 6 lw 1368 1098 m 1 Y s 1368
 1111 m 1 Y s 3 lw 1368 1105 m21 6 lw 1373 1100 m 2 Y s 1373 1113 m 2 Y s 3 lw 1373 1108 m21 6 lw 1378 1108 m 2 Y s 1378 1122 m 1 Y s 3 lw 1378 1116 m21 6 lw 1382 1109 m 1 Y s 1382 1122 m 1 Y s 3 lw 1382 1116 m21 6 lw 1387 1106 m 2 Y s 1387 1119 m 2
 Y s 3 lw 1387 1113 m21 6 lw 1392 1113 m 1 Y s 1392 1126 m 2 Y s 3 lw 1392 1120 m21 6 lw 1397 1113 m 2 Y s 1397 1126 m 2 Y s 3 lw 1397 1120 m21 6 lw 1401 1127 m 2 Y s 1401 1141 m 2 Y s 3 lw 1401 1135 m21 6 lw 1406 1102 m 2 Y s 1406 1116 m 2 Y s 3 lw
 1406 1110 m21 6 lw 1411 1110 m 2 Y s 1411 1123 m 2 Y s 3 lw 1411 1118 m21 6 lw 1415 1104 m 2 Y s 1415 1117 m 2 Y s 3 lw 1415 1112 m21 6 lw 1420 1115 m 2 Y s 1420 1128 m 2 Y s 3 lw 1420 1123 m21 6 lw 1425 1112 m 2 Y s 1425 1125 m 2 Y s 3 lw 1425 1119
 m21 6 lw 1429 1114 m 2 Y s 1429 1128 m 2 Y s 3 lw 1429 1122 m21 6 lw 1434 1106 m 2 Y s 1434 1119 m 2 Y s 3 lw 1434 1113 m21 6 lw 1439 1113 m 2 Y s 1439 1126 m 3 Y s 3 lw 1439 1121 m21 6 lw 1444 1104 m 2 Y s 1444 1118 m 2 Y s 3 lw 1444 1112 m21 6 lw
 1448 1133 m 2 Y s 1448 1147 m 2 Y s 3 lw 1448 1141 m21 6 lw 1453 1101 m 2 Y s 1453 1114 m 2 Y s 3 lw 1453 1108 m21 6 lw 1458 1127 m 2 Y s 1458 1140 m 3 Y s 3 lw 1458 1135 m21 6 lw 1462 1104 m 2 Y s 1462 1118 m 2 Y s 3 lw 1462 1112 m21 6 lw 1467 1110
 m 2 Y s 1467 1124 m 2 Y s 3 lw 1467 1118 m21 6 lw 1472 1116 m 2 Y s 1472 1130 m 2 Y s 3 lw 1472 1124 m21 6 lw 1477 1110 m 2 Y s 1477 1123 m 3 Y s 3 lw 1477 1118 m21 6 lw 1481 1114 m 2 Y s 1481 1127 m 3 Y s 3 lw 1481 1122 m21 6 lw 1486 1114 m 2 Y s
 1486 1128 m 2 Y s 3 lw 1486 1122 m21 6 lw 1491 1124 m 2 Y s 1491 1138 m 2 Y s 3 lw 1491 1132 m21 6 lw 1495 1112 m 3 Y s 1495 1126 m 3 Y s 3 lw 1495 1120 m21 6 lw 1500 1120 m 3 Y s 1500 1134 m 3 Y s 3 lw 1500 1128 m21 6 lw 1505 1111 m 3 Y s 1505 1125
 m 3 Y s 3 lw 1505 1119 m21 6 lw 1509 1119 m 3 Y s 1509 1133 m 3 Y s 3 lw 1509 1127 m21 6 lw 1514 1110 m 2 Y s 1514 1124 m 2 Y s 3 lw 1514 1118 m21 6 lw 1519 1124 m 3 Y s 1519 1138 m 3 Y s 3 lw 1519 1132 m21 6 lw 1524 1119 m 2 Y s 1524 1133 m 2 Y s 3
 lw 1524 1127 m21 6 lw 1528 1129 m 3 Y s 1528 1143 m 3 Y s 3 lw 1528 1137 m21 6 lw 1533 1116 m 3 Y s 1533 1130 m 3 Y s 3 lw 1533 1124 m21 6 lw 1538 1124 m 3 Y s 1538 1138 m 3 Y s 3 lw 1538 1132 m21 6 lw 1542 1127 m 3 Y s 1542 1141 m 3 Y s 3 lw 1542
 1135 m21 6 lw 1547 1123 m 3 Y s 1547 1137 m 3 Y s 3 lw 1547 1132 m21 6 lw 1552 1117 m 3 Y s 1552 1131 m 3 Y s 3 lw 1552 1126 m21 6 lw 1557 1110 m 3 Y s 1557 1124 m 3 Y s 3 lw 1557 1119 m21 6 lw 1561 1120 m 3 Y s 1561 1135 m 3 Y s 3 lw 1561 1129 m21
 6 lw 1566 1107 m 3 Y s 1566 1122 m 3 Y s 3 lw 1566 1116 m21 6 lw 1571 1128 m 3 Y s 1571 1143 m 3 Y s 3 lw 1571 1137 m21 6 lw 1575 1123 m 3 Y s 1575 1138 m 3 Y s 3 lw 1575 1132 m21 6 lw 1580 1116 m 3 Y s 1580 1131 m 3 Y s 3 lw 1580 1125 m21 6 lw 1585
 1121 m 4 Y s 1585 1136 m 3 Y s 3 lw 1585 1130 m21 6 lw 1589 1123 m 3 Y s 1589 1137 m 3 Y s 3 lw 1589 1132 m21 6 lw 1594 1123 m 3 Y s 1594 1137 m 4 Y s 3 lw 1594 1132 m21 6 lw 1599 1129 m 4 Y s 1599 1144 m 3 Y s 3 lw 1599 1138 m21 6 lw 1604 1105 m 4
 Y s 1604 1120 m 3 Y s 3 lw 1604 1114 m21 6 lw 1608 1120 m 4 Y s 1608 1135 m 3 Y s 3 lw 1608 1129 m21 6 lw 1613 1122 m 4 Y s 1613 1137 m 3 Y s 3 lw 1613 1131 m21 6 lw 1618 1118 m 4 Y s 1618 1133 m 3 Y s 3 lw 1618 1127 m21 6 lw 1622 1111 m 3 Y s 1622
 1125 m 4 Y s 3 lw 1622 1120 m21 6 lw 1627 1112 m 3 Y s 1627 1126 m 4 Y s 3 lw 1627 1121 m21 6 lw 1632 1119 m 3 Y s 1632 1134 m 3 Y s 3 lw 1632 1128 m21 6 lw 1637 1125 m 4 Y s 1637 1140 m 4 Y s 3 lw 1637 1135 m21 6 lw 1641 1121 m 3 Y s 1641 1136 m 3
 Y s 3 lw 1641 1130 m21 6 lw 1646 1136 m 4 Y s 1646 1151 m 4 Y s 3 lw 1646 1146 m21 6 lw 1651 1109 m 4 Y s 1651 1124 m 4 Y s 3 lw 1651 1118 m21 6 lw 1655 1133 m 3 Y s 1655 1148 m 4 Y s 3 lw 1655 1142 m21 6 lw 1660 1132 m 4 Y s 1660 1147 m 4 Y s 3 lw
 1660 1141 m21 6 lw 1665 1124 m 3 Y s 1665 1139 m 4 Y s 3 lw 1665 1133 m21 6 lw 1669 1123 m 4 Y s 1669 1138 m 4 Y s 3 lw 1669 1133 m21 6 lw 1674 1133 m 4 Y s 1674 1148 m 4 Y s 3 lw 1674 1143 m21 6 lw 1679 1136 m 4 Y s 1679 1151 m 4 Y s 3 lw 1679 1145
 m21 6 lw 1684 1121 m 4 Y s 1684 1137 m 4 Y s 3 lw 1684 1131 m21 6 lw 1688 1117 m 4 Y s 1688 1132 m 4 Y s 3 lw 1688 1126 m21 6 lw 1693 1124 m 4 Y s 1693 1139 m 4 Y s 3 lw 1693 1133 m21 6 lw 1698 1110 m 4 Y s 1698 1125 m 4 Y s 3 lw 1698 1119 m21 6 lw
 1702 1116 m 4 Y s 1702 1131 m 4 Y s 3 lw 1702 1125 m21 6 lw 1707 1124 m 4 Y s 1707 1140 m 4 Y s 3 lw 1707 1134 m21 6 lw 1712 1115 m 4 Y s 1712 1130 m 4 Y s 3 lw 1712 1124 m21 6 lw 1717 1113 m 4 Y s 1717 1128 m 5 Y s 3 lw 1717 1123 m21 6 lw 1721 1129
 m 4 Y s 1721 1144 m 4 Y s 3 lw 1721 1138 m21 6 lw 1726 1129 m 4 Y s 1726 1145 m 4 Y s 3 lw 1726 1139 m21 6 lw 1731 1126 m 4 Y s 1731 1142 m 4 Y s 3 lw 1731 1136 m21 6 lw 1735 1108 m 5 Y s 1735 1124 m 4 Y s 3 lw 1735 1118 m21 6 lw 1740 1125 m 4 Y s
 1740 1140 m 5 Y s 3 lw 1740 1135 m21 6 lw 1745 1138 m 5 Y s 1745 1154 m 5 Y s 3 lw 1745 1148 m21 6 lw 1749 1129 m 4 Y s 1749 1144 m 5 Y s 3 lw 1749 1139 m21 6 lw 1754 1117 m 5 Y s 1754 1133 m 5 Y s 3 lw 1754 1127 m21 6 lw 1759 1126 m 4 Y s 1759 1142
 m 4 Y s 3 lw 1759 1136 m21 6 lw 1764 1139 m 5 Y s 1764 1155 m 5 Y s 3 lw 1764 1149 m21 6 lw 1768 1114 m 4 Y s 1768 1130 m 4 Y s 3 lw 1768 1124 m21 6 lw 1773 1136 m 5 Y s 1773 1152 m 5 Y s 3 lw 1773 1147 m21 6 lw 1778 1116 m 5 Y s 1778 1132 m 5 Y s 3
 lw 1778 1127 m21 6 lw 1782 1139 m 5 Y s 1782 1155 m 5 Y s 3 lw 1782 1149 m21 6 lw 1787 1125 m 5 Y s 1787 1141 m 5 Y s 3 lw 1787 1136 m21 6 lw 1792 1135 m 5 Y s 1792 1152 m 5 Y s 3 lw 1792 1146 m21 6 lw 1797 1137 m 5 Y s 1797 1153 m 5 Y s 3 lw 1797
 1147 m21 6 lw 1801 1111 m 4 Y s 1801 1127 m 5 Y s 3 lw 1801 1121 m21 6 lw 1806 1136 m 5 Y s 1806 1152 m 6 Y s 3 lw 1806 1147 m21 6 lw 1811 1122 m 5 Y s 1811 1138 m 5 Y s 3 lw 1811 1132 m21 6 lw 1815 1120 m 5 Y s 1815 1136 m 5 Y s 3 lw 1815 1130 m21
 6 lw 1820 1126 m 5 Y s 1820 1143 m 5 Y s 3 lw 1820 1137 m21 6 lw 1825 1134 m 6 Y s 1825 1151 m 5 Y s 3 lw 1825 1145 m21 6 lw 1829 1124 m 5 Y s 1829 1141 m 5 Y s 3 lw 1829 1135 m21 6 lw 1834 1112 m 6 Y s 1834 1129 m 5 Y s 3 lw 1834 1123 m21 6 lw 1839
 1129 m 5 Y s 1839 1146 m 5 Y s 3 lw 1839 1140 m21 6 lw 1844 1125 m 5 Y s 1844 1141 m 6 Y s 3 lw 1844 1136 m21 6 lw 1848 1147 m 5 Y s 1848 1164 m 5 Y s 3 lw 1848 1158 m21 6 lw 1853 1125 m 6 Y s 1853 1142 m 5 Y s 3 lw 1853 1136 m21 6 lw 1858 1127 m 6
 Y s 1858 1144 m 6 Y s 3 lw 1858 1138 m21 6 lw 1862 1127 m 5 Y s 1862 1143 m 6 Y s 3 lw 1862 1138 m21 6 lw 1867 1128 m 5 Y s 1867 1145 m 5 Y s 3 lw 1867 1139 m21 6 lw 1872 1128 m 5 Y s 1872 1145 m 5 Y s 3 lw 1872 1139 m21 6 lw 1877 1108 m 6 Y s 1877
 1125 m 6 Y s 3 lw 1877 1120 m21 6 lw 1881 1116 m 6 Y s 1881 1133 m 6 Y s 3 lw 1881 1128 m21 6 lw 1886 1139 m 6 Y s 1886 1156 m 6 Y s 3 lw 1886 1151 m21 6 lw 1891 1123 m 6 Y s 1891 1140 m 6 Y s 3 lw 1891 1134 m21 6 lw 1895 1125 m 6 Y s 1895 1142 m 6
 Y s 3 lw 1895 1136 m21 6 lw 1900 1127 m 6 Y s 1900 1145 m 5 Y s 3 lw 1900 1139 m21 6 lw 1905 1122 m 6 Y s 1905 1139 m 6 Y s 3 lw 1905 1133 m21 6 lw 1909 1121 m 6 Y s 1909 1138 m 6 Y s 3 lw 1909 1133 m21 6 lw 1914 1134 m 6 Y s 1914 1152 m 6 Y s 3 lw
 1914 1146 m21 6 lw 1919 1133 m 7 Y s 1919 1151 m 6 Y s 3 lw 1919 1145 m21 6 lw 1924 1134 m 6 Y s 1924 1152 m 6 Y s 3 lw 1924 1146 m21 6 lw 1928 1127 m 6 Y s 1928 1144 m 7 Y s 3 lw 1928 1139 m21 6 lw 1933 1128 m 6 Y s 1933 1145 m 6 Y s 3 lw 1933 1139
 m21 6 lw 1938 1154 m 6 Y s 1938 1171 m 7 Y s 3 lw 1938 1166 m21 6 lw 1942 1126 m 6 Y s 1942 1144 m 6 Y s 3 lw 1942 1138 m21 6 lw 1947 1129 m 7 Y s 1947 1147 m 7 Y s 3 lw 1947 1141 m21 6 lw 1952 1121 m 7 Y s 1952 1139 m 6 Y s 3 lw 1952 1133 m21 6 lw
 1957 1121 m 7 Y s 1957 1139 m 6 Y s 3 lw 1957 1133 m21 6 lw 1961 1131 m 7 Y s 1961 1149 m 7 Y s 3 lw 1961 1143 m21 6 lw 1966 1107 m 6 Y s 1966 1124 m 7 Y s 3 lw 1966 1119 m21 6 lw 1971 1119 m 7 Y s 1971 1137 m 7 Y s 3 lw 1971 1131 m21 6 lw 1975 1124
 m 6 Y s 1975 1142 m 7 Y s 3 lw 1975 1136 m21 6 lw 1980 1113 m 7 Y s 1980 1131 m 7 Y s 3 lw 1980 1125 m21 6 lw 1985 1127 m 7 Y s 1985 1145 m 7 Y s 3 lw 1985 1139 m21 6 lw 1989 1158 m 7 Y s 1989 1176 m 7 Y s 3 lw 1989 1171 m21 6 lw 1994 1123 m 7 Y s
 1994 1142 m 6 Y s 3 lw 1994 1136 m21 6 lw 1999 1122 m 6 Y s 1999 1140 m 7 Y s 3 lw 1999 1134 m21 6 lw 2004 1151 m 7 Y s 2004 1169 m 8 Y s 3 lw 2004 1164 m21 6 lw 2008 1129 m 7 Y s 2008 1148 m 7 Y s 3 lw 2008 1142 m21 6 lw 2013 1126 m 7 Y s 2013 1144
 m 7 Y s 3 lw 2013 1138 m21 6 lw 2018 1122 m 7 Y s 2018 1141 m 7 Y s 3 lw 2018 1135 m21 6 lw 2022 1144 m 8 Y s 2022 1163 m 7 Y s 3 lw 2022 1157 m21 6 lw 2027 1124 m 7 Y s 2027 1143 m 7 Y s 3 lw 2027 1137 m21 6 lw 2032 1121 m 7 Y s 2032 1140 m 7 Y s 3
 lw 2032 1134 m21 6 lw 2036 1131 m 7 Y s 2036 1149 m 8 Y s 3 lw 2036 1144 m21 6 lw 2041 1103 m 7 Y s 2041 1121 m 8 Y s 3 lw 2041 1116 m21 6 lw 2046 1134 m 8 Y s 2046 1153 m 8 Y s 3 lw 2046 1147 m21 6 lw 2051 1135 m 8 Y s 2051 1154 m 8 Y s 3 lw 2051
 1149 m21 6 lw 2055 1151 m 8 Y s 2055 1170 m 8 Y s 3 lw 2055 1165 m21 6 lw 2060 1134 m 8 Y s 2060 1153 m 8 Y s 3 lw 2060 1148 m21 6 lw 2065 1141 m 8 Y s 2065 1161 m 7 Y s 3 lw 2065 1155 m21 6 lw 2069 1130 m 8 Y s 2069 1149 m 8 Y s 3 lw 2069 1144 m21
 6 lw 2074 1128 m 8 Y s 2074 1147 m 8 Y s 3 lw 2074 1141 m21 6 lw 2079 1144 m 8 Y s 2079 1164 m 8 Y s 3 lw 2079 1158 m21 6 lw 2084 1120 m 8 Y s 2084 1140 m 8 Y s 3 lw 2084 1134 m21 6 lw 2088 1118 m 7 Y s 2088 1137 m 8 Y s 3 lw 2088 1131 m21 6 lw 2093
 1132 m 8 Y s 2093 1151 m 8 Y s 3 lw 2093 1146 m21 6 lw 2098 1131 m 8 Y s 2098 1150 m 8 Y s 3 lw 2098 1144 m21 6 lw 2102 1137 m 8 Y s 2102 1156 m 8 Y s 3 lw 2102 1150 m21 6 lw 2107 1147 m 8 Y s 2107 1167 m 8 Y s 3 lw 2107 1161 m21 6 lw 2112 1117 m 8
 Y s 2112 1137 m 8 Y s 3 lw 2112 1131 m21 6 lw 2116 1120 m 9 Y s 2116 1140 m 8 Y s 3 lw 2116 1134 m21 6 lw 2121 1140 m 8 Y s 2121 1159 m 9 Y s 3 lw 2121 1154 m21 6 lw 2126 1143 m 8 Y s 2126 1163 m 8 Y s 3 lw 2126 1157 m21 6 lw 2131 1138 m 8 Y s 2131
 1158 m 8 Y s 3 lw 2131 1152 m21 6 lw 2135 1135 m 8 Y s 2135 1155 m 8 Y s 3 lw 2135 1149 m21 6 lw 2140 1128 m 8 Y s 2140 1148 m 8 Y s 3 lw 2140 1142 m21 6 lw 2145 1116 m 9 Y s 2145 1136 m 9 Y s 3 lw 2145 1130 m21 6 lw 2149 1109 m 8 Y s 2149 1129 m 8
 Y s 3 lw 2149 1123 m21 6 lw 2154 1114 m 9 Y s 2154 1134 m 9 Y s 3 lw 2154 1129 m21 6 lw 2159 1104 m 9 Y s 2159 1124 m 9 Y s 3 lw 2159 1118 m21 6 lw 2164 1132 m 9 Y s 2164 1152 m 9 Y s 3 lw 2164 1146 m21 6 lw 2168 1118 m 9 Y s 2168 1138 m 9 Y s 3 lw
 2168 1133 m21 6 lw 2173 1121 m 9 Y s 2173 1142 m 9 Y s 3 lw 2173 1136 m21 6 lw 2178 1150 m 9 Y s 2178 1171 m 9 Y s 3 lw 2178 1165 m21 6 lw 2182 1118 m 9 Y s 2182 1138 m 9 Y s 3 lw 2182 1132 m21 6 lw 2187 1153 m 10 Y s 2187 1174 m 10 Y s 3 lw 2187
 1169 m21 6 lw 2192 1118 m 10 Y s 2192 1139 m 9 Y s 3 lw 2192 1133 m21 6 lw 2196 1102 m 9 Y s 2196 1123 m 9 Y s 3 lw 2196 1117 m21 6 lw 2201 1134 m 10 Y s 2201 1155 m 10 Y s 3 lw 2201 1150 m21 6 lw 2206 1124 m 9 Y s 2206 1144 m 10 Y s 3 lw 2206 1139
 m21 6 lw 2211 1135 m 10 Y s 2211 1156 m 10 Y s 3 lw 2211 1151 m21 6 lw 2215 1131 m 10 Y s 2215 1152 m 10 Y s 3 lw 2215 1147 m21 6 lw 2220 1126 m 9 Y s 2220 1147 m 9 Y s 3 lw 2220 1141 m21 6 lw black 340 223 m 1882 X s
 gsave  2268 2234 0 0 C 1923.86 58.2559 t 0 r /Helvetica findfont 83.8316 sf 0 0 m (Q [GeV]) show NC gr  340 279 m -56 Y s 387 251 m -28 Y s 434 251 m -28 Y s 481 251 m -28 Y s 528 279 m -56 Y s 575 251 m -28 Y s 622 251 m -28 Y s 670 251 m -28 Y s
 717 279 m -56 Y s 764 251 m -28 Y s 811 251 m -28 Y s 858 251 m -28 Y s 905 279 m -56 Y s 952 251 m -28 Y s 999 251 m -28 Y s 1046 251 m -28 Y s 1093 279 m -56 Y s 1140 251 m -28 Y s 1187 251 m -28 Y s 1234 251 m -28 Y s 1281 279 m -56 Y s 1328 251
 m -28 Y s 1375 251 m -28 Y s 1422 251 m -28 Y s 1469 279 m -56 Y s 1517 251 m -28 Y s 1564 251 m -28 Y s 1611 251 m -28 Y s 1658 279 m -56 Y s 1705 251 m -28 Y s 1752 251 m -28 Y s 1799 251 m -28 Y s 1846 279 m -56 Y s 1893 251 m -28 Y s 1940 251 m
 -28 Y s 1987 251 m -28 Y s 2034 279 m -56 Y s 2081 251 m -28 Y s 2128 251 m -28 Y s 2175 251 m -28 Y s 2222 279 m -56 Y s
 gsave  2268 2234 0 0 C 322.539 159.138 t 0 r /Helvetica findfont 62.5185 sf 0 0 m (0) show NC gr 
 gsave  2268 2234 0 0 C 484.518 159.138 t 0 r /Helvetica findfont 62.5185 sf 0 0 m (0.2) show NC gr 
 gsave  2268 2234 0 0 C 673.495 159.138 t 0 r /Helvetica findfont 62.5185 sf 0 0 m (0.4) show NC gr 
 gsave  2268 2234 0 0 C 861.05 159.138 t 0 r /Helvetica findfont 62.5185 sf 0 0 m (0.6) show NC gr 
 gsave  2268 2234 0 0 C 1050.03 159.138 t 0 r /Helvetica findfont 62.5185 sf 0 0 m (0.8) show NC gr 
 gsave  2268 2234 0 0 C 1268.84 159.138 t 0 r /Helvetica findfont 62.5185 sf 0 0 m (1) show NC gr 
 gsave  2268 2234 0 0 C 1426.56 159.138 t 0 r /Helvetica findfont 62.5185 sf 0 0 m (1.2) show NC gr 
 gsave  2268 2234 0 0 C 1614.11 159.138 t 0 r /Helvetica findfont 62.5185 sf 0 0 m (1.4) show NC gr 
 gsave  2268 2234 0 0 C 1803.09 159.138 t 0 r /Helvetica findfont 62.5185 sf 0 0 m (1.6) show NC gr 
 gsave  2268 2234 0 0 C 1990.65 159.138 t 0 r /Helvetica findfont 62.5185 sf 0 0 m (1.8) show NC gr 
 gsave  2268 2234 0 0 C 2205.2 159.138 t 0 r /Helvetica findfont 62.5185 sf 0 0 m (2) show NC gr  340 223 m 1966 Y s
 gsave  2268 2234 0 0 C 152.034 1953.7 t 90 r /Helvetica findfont 83.8316 sf 0 0 m (DR\(Q\)) show NC gr  400 402 m -60 X s 370 491 m -30 X s 370 581 m -30 X s 370 670 m -30 X s 400 759 m -60 X s 370 849 m -30 X s 370 938 m -30 X s 370 1027 m -30 X s
 400 1117 m -60 X s 370 1206 m -30 X s 370 1295 m -30 X s 370 1385 m -30 X s 400 1474 m -60 X s 370 1564 m -30 X s 370 1653 m -30 X s 370 1742 m -30 X s 400 1832 m -60 X s 370 1921 m -30 X s 370 2010 m -30 X s 370 2100 m -30 X s 400 2189 m -60 X s
 400 402 m -60 X s 370 313 m -30 X s 370 223 m -30 X s
 gsave  2268 2234 0 0 C 242.97 379.374 t 0 r /Helvetica findfont 62.5185 sf 0 0 m (0.6) show NC gr 
 gsave  2268 2234 0 0 C 242.97 737.434 t 0 r /Helvetica findfont 62.5185 sf 0 0 m (0.8) show NC gr 
 gsave  2268 2234 0 0 C 305.488 1092.65 t 0 r /Helvetica findfont 62.5185 sf 0 0 m (1) show NC gr 
 gsave  2268 2234 0 0 C 242.97 1450.71 t 0 r /Helvetica findfont 62.5185 sf 0 0 m (1.2) show NC gr 
 gsave  2268 2234 0 0 C 242.97 1808.77 t 0 r /Helvetica findfont 62.5185 sf 0 0 m (1.4) show NC gr 
 gsave  2268 2234 0 0 C 242.97 2166.83 t 0 r /Helvetica findfont 62.5185 sf 0 0 m (1.6) show NC gr 
 gsave  2268 2234 0 0 C 906.518 670.653 t 0 r /Helvetica-Bold findfont 72.4646 sf 0 0 m (DR PIONS) show NC gr 
 gsave  2268 2234 0 0 C 906.518 558.404 t 0 r /Helvetica-Bold findfont 72.4646 sf 0 0 m (ref. sample: EVENT MIX) show NC gr 
 gsave  2268 2234 0 0 C 906.518 447.576 t 0 r /Helvetica-Bold findfont 72.4646 sf 0 0 m (VELO tracks multiplicity: 21 \255 60) show NC gr 
 gr  gr showpage
end
%%EOF
