%!PS-Adobe-2.0 EPSF-2.0
%%BoundingBox:  0 0 567 558
%%Title: ./DR_pion_0c65_h3001_1_h3401_1.eps: DR_pion_0c65_h3001_1_h3401_1
%%Creator: ROOT Version 6.06/02
%%CreationDate: Wed Feb  1 16:20:58 2017
%%DocumentNeededResources: ProcSet (FontSetInit)
%%EndComments
%%BeginProlog
80 dict begin
/s {stroke} def /l {lineto} def /m {moveto} def /t {translate} def
/r {rotate} def /rl {roll}  def /R {repeat} def
/d {rlineto} def /rm {rmoveto} def /gr {grestore} def /f {eofill} def
/c {setrgbcolor} def /black {0 setgray} def /sd {setdash} def
/cl {closepath} def /sf {scalefont setfont} def /lw {setlinewidth} def
/box {m dup 0 exch d exch 0 d 0 exch neg d cl} def
/NC{systemdict begin initclip end}def/C{NC box clip newpath}def
/bl {box s} def /bf {gsave box gsave f grestore 1 lw [] 0 sd s grestore} def /Y { 0 exch d} def /X { 0 d} def 
/K {{pop pop 0 moveto} exch kshow} bind def
/ita {/ang 15 def gsave [1 0 ang dup sin exch cos div 1 0 0] concat} def 
/mp {newpath /y exch def /x exch def} def
/side {[w .77 mul w .23 mul] .385 w mul sd w 0 l currentpoint t -144 r} def
/mr {mp x y w2 0 360 arc} def /m24 {mr s} def /m20 {mr f} def
/mb {mp x y w2 add m w2 neg 0 d 0 w neg d w 0 d 0 w d cl} def
/mt {mp x y w2 add m w2 neg w neg d w 0 d cl} def
/m21 {mb f} def /m25 {mb s} def /m22 {mt f} def /m26{mt s} def
/m23 {mp x y w2 sub m w2 w d w neg 0 d cl f} def
/m27 {mp x y w2 add m w3 neg w2 neg d w3 w2 neg d w3 w2 d cl s} def
/m28 {mp x w2 sub y w2 sub w3 add m w3 0 d  0 w3 neg d w3 0 d 0 w3 d w3 0 d  0 w3 d w3 neg 0 d 0 w3 d w3 neg 0 d 0 w3 neg d w3 neg 0 d cl s } def
/m29 {mp gsave x w2 sub y w2 add w3 sub m currentpoint t 4 {side} repeat cl fill gr} def
/m30 {mp gsave x w2 sub y w2 add w3 sub m currentpoint t 4 {side} repeat cl s gr} def
/m31 {mp x y w2 sub m 0 w d x w2 sub y m w 0 d x w2 sub y w2 add m w w neg d x w2 sub y w2 sub m w w d s} def
/m32 {mp x y w2 sub m w2 w d w neg 0 d cl s} def
/m33 {mp x y w2 add m w3 neg w2 neg d w3 w2 neg d w3 w2 d cl f} def
/m34 {mp x w2 sub y w2 sub w3 add m w3 0 d  0 w3 neg d w3 0 d 0 w3 d w3 0 d  0 w3 d w3 neg 0 d 0 w3 d w3 neg 0 d 0 w3 neg d w3 neg 0 d cl f } def
/m2 {mp x y w2 sub m 0 w d x w2 sub y m w 0 d s} def
/m5 {mp x w2 sub y w2 sub m w w d x w2 sub y w2 add m w w neg d s} def
%%IncludeResource: ProcSet (FontSetInit)
%%IncludeResource: font Times-Roman
%%IncludeResource: font Times-Italic
%%IncludeResource: font Times-Bold
%%IncludeResource: font Times-BoldItalic
%%IncludeResource: font Helvetica
%%IncludeResource: font Helvetica-Oblique
%%IncludeResource: font Helvetica-Bold
%%IncludeResource: font Helvetica-BoldOblique
%%IncludeResource: font Courier
%%IncludeResource: font Courier-Oblique
%%IncludeResource: font Courier-Bold
%%IncludeResource: font Courier-BoldOblique
%%IncludeResource: font Symbol
%%IncludeResource: font ZapfDingbats
/reEncode {exch findfont dup length dict begin {1 index /FID eq  {pop pop} {def} ifelse } forall /Encoding exch def currentdict end dup /FontName get exch definefont pop } def [/Times-Bold /Times-Italic /Times-BoldItalic /Helvetica /Helvetica-Oblique
 /Helvetica-Bold /Helvetica-BoldOblique /Courier /Courier-Oblique /Courier-Bold /Courier-BoldOblique /Times-Roman /AvantGarde-Book /AvantGarde-BookOblique /AvantGarde-Demi /AvantGarde-DemiOblique /Bookman-Demi /Bookman-DemiItalic /Bookman-Light
 /Bookman-LightItalic /Helvetica-Narrow /Helvetica-Narrow-Bold /Helvetica-Narrow-BoldOblique /Helvetica-Narrow-Oblique /NewCenturySchlbk-Roman /NewCenturySchlbk-Bold /NewCenturySchlbk-BoldItalic /NewCenturySchlbk-Italic /Palatino-Bold
 /Palatino-BoldItalic /Palatino-Italic /Palatino-Roman ] {ISOLatin1Encoding reEncode } forall
%%EndProlog
%%BeginSetup
%%EndSetup
newpath  gsave  .25 .25 scale  gsave  0 0 t black[  ] 0 sd 6 lw 1 1 1 c 2268 2234 0 0 bf black 3 lw 1 1 1 c 1882 1966 340 223 bf black 1882 1966 340 223 bl 1 1 1 c 1882 1966 340 223 bf black 1882 1966 340 223 bl 0 0 1 c 6 lw 1 1 1 c 0 0 1 c 390 1805
 m 36 Y s 390 1852 m 36 Y s 3 lw /w 14 def /w2 {w 2 div} def /w3 {w 3 div} def 390 1846 m21 6 lw 394 1800 m 32 Y s 394 1844 m 32 Y s 3 lw 394 1838 m21 6 lw 399 1745 m 29 Y s 399 1785 m 29 Y s 3 lw 399 1780 m21 6 lw 404 1687 m 26 Y s 404 1724 m 26 Y s
 3 lw 404 1718 m21 6 lw 408 1685 m 24 Y s 408 1720 m 24 Y s 3 lw 408 1715 m21 6 lw 413 1680 m 22 Y s 413 1713 m 22 Y s 3 lw 413 1707 m21 6 lw 418 1611 m 20 Y s 418 1642 m 20 Y s 3 lw 418 1637 m21 6 lw 423 1603 m 18 Y s 423 1633 m 18 Y s 3 lw 423 1627
 m21 6 lw 427 1608 m 17 Y s 427 1637 m 17 Y s 3 lw 427 1631 m21 6 lw 432 1580 m 16 Y s 432 1608 m 16 Y s 3 lw 432 1602 m21 6 lw 437 1541 m 15 Y s 437 1567 m 15 Y s 3 lw 437 1562 m21 6 lw 441 1531 m 15 Y s 441 1557 m 15 Y s 3 lw 441 1551 m21 6 lw 446
 1545 m 14 Y s 446 1571 m 13 Y s 3 lw 446 1565 m21 6 lw 451 1502 m 13 Y s 451 1526 m 13 Y s 3 lw 451 1520 m21 6 lw 455 1503 m 12 Y s 455 1526 m 13 Y s 3 lw 455 1521 m21 6 lw 460 1472 m 12 Y s 460 1495 m 12 Y s 3 lw 460 1489 m21 6 lw 465 1452 m 12 Y s
 465 1475 m 11 Y s 3 lw 465 1469 m21 6 lw 470 1437 m 11 Y s 470 1459 m 11 Y s 3 lw 470 1454 m21 6 lw 474 1462 m 10 Y s 474 1483 m 11 Y s 3 lw 474 1478 m21 6 lw 479 1412 m 9 Y s 479 1433 m 9 Y s 3 lw 479 1427 m21 6 lw 484 1396 m 9 Y s 484 1417 m 9 Y s
 3 lw 484 1411 m21 6 lw 488 1422 m 9 Y s 488 1442 m 9 Y s 3 lw 488 1437 m21 6 lw 493 1407 m 8 Y s 493 1427 m 9 Y s 3 lw 493 1421 m21 6 lw 498 1369 m 8 Y s 498 1389 m 8 Y s 3 lw 498 1383 m21 6 lw 502 1344 m 8 Y s 502 1364 m 8 Y s 3 lw 502 1358 m21 6
 lw 507 1370 m 8 Y s 507 1389 m 8 Y s 3 lw 507 1383 m21 6 lw 512 1342 m 7 Y s 512 1361 m 7 Y s 3 lw 512 1355 m21 6 lw 517 1332 m 7 Y s 517 1350 m 8 Y s 3 lw 517 1345 m21 6 lw 521 1342 m 7 Y s 521 1360 m 7 Y s 3 lw 521 1355 m21 6 lw 526 1306 m 7 Y s
 526 1324 m 7 Y s 3 lw 526 1319 m21 6 lw 531 1319 m 6 Y s 531 1337 m 6 Y s 3 lw 531 1331 m21 6 lw 535 1286 m 6 Y s 535 1304 m 6 Y s 3 lw 535 1298 m21 6 lw 540 1323 m 6 Y s 540 1341 m 6 Y s 3 lw 540 1335 m21 6 lw 545 1305 m 6 Y s 545 1322 m 7 Y s 3 lw
 545 1317 m21 6 lw 550 1295 m 6 Y s 550 1312 m 6 Y s 3 lw 550 1307 m21 6 lw 554 1271 m 6 Y s 554 1288 m 6 Y s 3 lw 554 1282 m21 6 lw 559 1248 m 5 Y s 559 1264 m 6 Y s 3 lw 559 1259 m21 6 lw 564 1267 m 6 Y s 564 1284 m 6 Y s 3 lw 564 1278 m21 6 lw 568
 1235 m 5 Y s 568 1251 m 6 Y s 3 lw 568 1246 m21 6 lw 573 1226 m 5 Y s 573 1242 m 5 Y s 3 lw 573 1236 m21 6 lw 578 1244 m 5 Y s 578 1260 m 5 Y s 3 lw 578 1255 m21 6 lw 582 1227 m 5 Y s 582 1243 m 5 Y s 3 lw 582 1237 m21 6 lw 587 1245 m 5 Y s 587 1261
 m 5 Y s 3 lw 587 1255 m21 6 lw 592 1225 m 5 Y s 592 1241 m 5 Y s 3 lw 592 1235 m21 6 lw 597 1218 m 5 Y s 597 1234 m 4 Y s 3 lw 597 1228 m21 6 lw 601 1210 m 5 Y s 601 1226 m 4 Y s 3 lw 601 1220 m21 6 lw 606 1203 m 4 Y s 606 1218 m 5 Y s 3 lw 606 1213
 m21 6 lw 611 1186 m 4 Y s 611 1201 m 4 Y s 3 lw 611 1196 m21 6 lw 615 1199 m 4 Y s 615 1214 m 4 Y s 3 lw 615 1209 m21 6 lw 620 1196 m 3 Y s 620 1211 m 4 Y s 3 lw 620 1205 m21 6 lw 625 1183 m 4 Y s 625 1198 m 4 Y s 3 lw 625 1193 m21 6 lw 630 1183 m 4
 Y s 630 1198 m 4 Y s 3 lw 630 1192 m21 6 lw 634 1169 m 4 Y s 634 1184 m 3 Y s 3 lw 634 1178 m21 6 lw 639 1166 m 3 Y s 639 1180 m 4 Y s 3 lw 639 1175 m21 6 lw 644 1175 m 4 Y s 644 1190 m 4 Y s 3 lw 644 1185 m21 6 lw 648 1169 m 3 Y s 648 1184 m 3 Y s
 3 lw 648 1178 m21 6 lw 653 1165 m 4 Y s 653 1180 m 3 Y s 3 lw 653 1174 m21 6 lw 658 1156 m 3 Y s 658 1171 m 3 Y s 3 lw 658 1165 m21 6 lw 662 1157 m 3 Y s 662 1172 m 3 Y s 3 lw 662 1166 m21 6 lw 667 1164 m 3 Y s 667 1178 m 4 Y s 3 lw 667 1173 m21 6
 lw 672 1148 m 3 Y s 672 1162 m 3 Y s 3 lw 672 1157 m21 6 lw 677 1140 m 3 Y s 677 1155 m 3 Y s 3 lw 677 1149 m21 6 lw 681 1131 m 3 Y s 681 1146 m 2 Y s 3 lw 681 1140 m21 6 lw 686 1136 m 3 Y s 686 1150 m 3 Y s 3 lw 686 1144 m21 6 lw 691 1134 m 3 Y s
 691 1148 m 3 Y s 3 lw 691 1142 m21 6 lw 695 1154 m 3 Y s 695 1168 m 3 Y s 3 lw 695 1163 m21 6 lw 700 1139 m 3 Y s 700 1153 m 3 Y s 3 lw 700 1148 m21 6 lw 705 1145 m 2 Y s 705 1159 m 2 Y s 3 lw 705 1153 m21 6 lw 710 1124 m 3 Y s 710 1138 m 3 Y s 3 lw
 710 1133 m21 6 lw 714 1119 m 2 Y s 714 1133 m 2 Y s 3 lw 714 1127 m21 6 lw 719 1112 m 3 Y s 719 1126 m 3 Y s 3 lw 719 1121 m21 6 lw 724 1140 m 2 Y s 724 1154 m 2 Y s 3 lw 724 1148 m21 6 lw 728 1114 m 3 Y s 728 1128 m 3 Y s 3 lw 728 1122 m21 6 lw 733
 1119 m 2 Y s 733 1132 m 3 Y s 3 lw 733 1127 m21 6 lw 738 1107 m 2 Y s 738 1120 m 3 Y s 3 lw 738 1115 m21 6 lw 742 1108 m 2 Y s 742 1122 m 2 Y s 3 lw 742 1116 m21 6 lw 747 1100 m 2 Y s 747 1114 m 2 Y s 3 lw 747 1108 m21 6 lw 752 1100 m 2 Y s 752 1114
 m 2 Y s 3 lw 752 1108 m21 6 lw 757 1098 m 2 Y s 757 1112 m 2 Y s 3 lw 757 1106 m21 6 lw 761 1100 m 2 Y s 761 1113 m 3 Y s 3 lw 761 1108 m21 6 lw 766 1081 m 2 Y s 766 1094 m 3 Y s 3 lw 766 1089 m21 6 lw 771 1092 m 2 Y s 771 1106 m 2 Y s 3 lw 771 1100
 m21 6 lw 775 1092 m 2 Y s 775 1105 m 2 Y s 3 lw 775 1100 m21 6 lw 780 1098 m 2 Y s 780 1111 m 2 Y s 3 lw 780 1105 m21 6 lw 785 1087 m 2 Y s 785 1100 m 2 Y s 3 lw 785 1094 m21 6 lw 790 1088 m 2 Y s 790 1102 m 2 Y s 3 lw 790 1096 m21 6 lw 794 1090 m 2
 Y s 794 1103 m 2 Y s 3 lw 794 1098 m21 6 lw 799 1091 m 2 Y s 799 1105 m 2 Y s 3 lw 799 1099 m21 6 lw 804 1081 m 2 Y s 804 1095 m 2 Y s 3 lw 804 1089 m21 6 lw 808 1084 m 2 Y s 808 1097 m 2 Y s 3 lw 808 1091 m21 6 lw 813 1072 m 2 Y s 813 1085 m 2 Y s
 3 lw 813 1080 m21 6 lw 818 1095 m 2 Y s 818 1108 m 2 Y s 3 lw 818 1103 m21 6 lw 822 1070 m 2 Y s 822 1083 m 2 Y s 3 lw 822 1078 m21 6 lw 827 1073 m 2 Y s 827 1086 m 2 Y s 3 lw 827 1081 m21 6 lw 832 1070 m 2 Y s 832 1084 m 2 Y s 3 lw 832 1078 m21 6
 lw 837 1072 m 2 Y s 837 1085 m 2 Y s 3 lw 837 1079 m21 6 lw 841 1088 m 2 Y s 841 1101 m 2 Y s 3 lw 841 1096 m21 6 lw 846 1086 m 2 Y s 846 1100 m 2 Y s 3 lw 846 1094 m21 6 lw 851 1071 m 2 Y s 851 1085 m 2 Y s 3 lw 851 1079 m21 6 lw 855 1063 m 2 Y s
 855 1076 m 2 Y s 3 lw 855 1070 m21 6 lw 860 1058 m 2 Y s 860 1071 m 2 Y s 3 lw 860 1066 m21 6 lw 865 1065 m 2 Y s 865 1078 m 2 Y s 3 lw 865 1073 m21 6 lw 870 1069 m 1 Y s 870 1082 m 2 Y s 3 lw 870 1076 m21 6 lw 874 1067 m 2 Y s 874 1080 m 2 Y s 3 lw
 874 1074 m21 6 lw 879 1058 m 2 Y s 879 1071 m 2 Y s 3 lw 879 1066 m21 6 lw 884 1073 m 2 Y s 884 1086 m 2 Y s 3 lw 884 1081 m21 6 lw 888 1057 m 2 Y s 888 1070 m 2 Y s 3 lw 888 1065 m21 6 lw 893 1044 m 2 Y s 893 1057 m 2 Y s 3 lw 893 1052 m21 6 lw 898
 1069 m 1 Y s 898 1082 m 2 Y s 3 lw 898 1076 m21 6 lw 902 1050 m 2 Y s 902 1063 m 2 Y s 3 lw 902 1057 m21 6 lw 907 1052 m 2 Y s 907 1065 m 2 Y s 3 lw 907 1060 m21 6 lw 912 1058 m 2 Y s 912 1071 m 2 Y s 3 lw 912 1066 m21 6 lw 917 1063 m 2 Y s 917 1077
 m 2 Y s 3 lw 917 1071 m21 6 lw 921 1043 m 2 Y s 921 1056 m 2 Y s 3 lw 921 1051 m21 6 lw 926 1066 m 2 Y s 926 1079 m 2 Y s 3 lw 926 1074 m21 6 lw 931 1058 m 2 Y s 931 1071 m 2 Y s 3 lw 931 1065 m21 6 lw 935 1051 m 2 Y s 935 1064 m 2 Y s 3 lw 935 1059
 m21 6 lw 940 1046 m 2 Y s 940 1059 m 2 Y s 3 lw 940 1054 m21 6 lw 945 1063 m 2 Y s 945 1077 m 2 Y s 3 lw 945 1071 m21 6 lw 950 1043 m 2 Y s 950 1057 m 2 Y s 3 lw 950 1051 m21 6 lw 954 1044 m 2 Y s 954 1058 m 2 Y s 3 lw 954 1052 m21 6 lw 959 1054 m 2
 Y s 959 1068 m 2 Y s 3 lw 959 1062 m21 6 lw 964 1041 m 2 Y s 964 1055 m 2 Y s 3 lw 964 1049 m21 6 lw 968 1041 m 2 Y s 968 1054 m 2 Y s 3 lw 968 1049 m21 6 lw 973 1040 m 2 Y s 973 1053 m 2 Y s 3 lw 973 1048 m21 6 lw 978 1058 m 2 Y s 978 1072 m 2 Y s
 3 lw 978 1066 m21 6 lw 982 1036 m 2 Y s 982 1049 m 2 Y s 3 lw 982 1044 m21 6 lw 987 1035 m 2 Y s 987 1048 m 2 Y s 3 lw 987 1043 m21 6 lw 992 1048 m 2 Y s 992 1061 m 3 Y s 3 lw 992 1056 m21 6 lw 997 1047 m 3 Y s 997 1061 m 2 Y s 3 lw 997 1055 m21 6
 lw 1001 1044 m 3 Y s 1001 1058 m 2 Y s 3 lw 1001 1052 m21 6 lw 1006 1037 m 2 Y s 1006 1050 m 2 Y s 3 lw 1006 1045 m21 6 lw 1011 1030 m 3 Y s 1011 1044 m 2 Y s 3 lw 1011 1038 m21 6 lw 1015 1037 m 3 Y s 1015 1051 m 2 Y s 3 lw 1015 1045 m21 6 lw 1020
 1046 m 3 Y s 1020 1060 m 2 Y s 3 lw 1020 1054 m21 6 lw 1025 1035 m 2 Y s 1025 1048 m 3 Y s 3 lw 1025 1043 m21 6 lw 1030 1036 m 3 Y s 1030 1050 m 2 Y s 3 lw 1030 1044 m21 6 lw 1034 1046 m 3 Y s 1034 1060 m 2 Y s 3 lw 1034 1054 m21 6 lw 1039 1056 m 2
 Y s 1039 1070 m 2 Y s 3 lw 1039 1064 m21 6 lw 1044 1042 m 2 Y s 1044 1055 m 3 Y s 3 lw 1044 1050 m21 6 lw 1048 1036 m 3 Y s 1048 1050 m 2 Y s 3 lw 1048 1044 m21 6 lw 1053 1039 m 2 Y s 1053 1053 m 2 Y s 3 lw 1053 1047 m21 6 lw 1058 1051 m 2 Y s 1058
 1065 m 2 Y s 3 lw 1058 1059 m21 6 lw 1062 1052 m 3 Y s 1062 1066 m 2 Y s 3 lw 1062 1060 m21 6 lw 1067 1042 m 3 Y s 1067 1056 m 3 Y s 3 lw 1067 1050 m21 6 lw 1072 1035 m 2 Y s 1072 1049 m 2 Y s 3 lw 1072 1043 m21 6 lw 1077 1020 m 3 Y s 1077 1034 m 3
 Y s 3 lw 1077 1028 m21 6 lw 1081 1033 m 3 Y s 1081 1047 m 3 Y s 3 lw 1081 1041 m21 6 lw 1086 1044 m 3 Y s 1086 1058 m 3 Y s 3 lw 1086 1053 m21 6 lw 1091 1036 m 2 Y s 1091 1049 m 3 Y s 3 lw 1091 1044 m21 6 lw 1095 1048 m 2 Y s 1095 1062 m 3 Y s 3 lw
 1095 1056 m21 6 lw 1100 1051 m 3 Y s 1100 1065 m 3 Y s 3 lw 1100 1060 m21 6 lw 1105 1046 m 2 Y s 1105 1060 m 2 Y s 3 lw 1105 1054 m21 6 lw 1110 1028 m 2 Y s 1110 1042 m 3 Y s 3 lw 1110 1036 m21 6 lw 1114 1042 m 3 Y s 1114 1056 m 3 Y s 3 lw 1114 1050
 m21 6 lw 1119 1040 m 3 Y s 1119 1054 m 3 Y s 3 lw 1119 1049 m21 6 lw 1124 1052 m 3 Y s 1124 1066 m 3 Y s 3 lw 1124 1060 m21 6 lw 1128 1039 m 3 Y s 1128 1053 m 3 Y s 3 lw 1128 1048 m21 6 lw 1133 1043 m 3 Y s 1133 1057 m 3 Y s 3 lw 1133 1051 m21 6 lw
 1138 1054 m 3 Y s 1138 1069 m 3 Y s 3 lw 1138 1063 m21 6 lw 1142 1026 m 3 Y s 1142 1040 m 3 Y s 3 lw 1142 1034 m21 6 lw 1147 1047 m 3 Y s 1147 1062 m 3 Y s 3 lw 1147 1056 m21 6 lw 1152 1060 m 3 Y s 1152 1074 m 3 Y s 3 lw 1152 1069 m21 6 lw 1157 1040
 m 3 Y s 1157 1054 m 3 Y s 3 lw 1157 1048 m21 6 lw 1161 1041 m 3 Y s 1161 1056 m 3 Y s 3 lw 1161 1050 m21 6 lw 1166 1042 m 3 Y s 1166 1057 m 3 Y s 3 lw 1166 1051 m21 6 lw 1171 1052 m 4 Y s 1171 1067 m 3 Y s 3 lw 1171 1061 m21 6 lw 1175 1043 m 3 Y s
 1175 1057 m 4 Y s 3 lw 1175 1052 m21 6 lw 1180 1039 m 4 Y s 1180 1054 m 3 Y s 3 lw 1180 1048 m21 6 lw 1185 1062 m 4 Y s 1185 1077 m 3 Y s 3 lw 1185 1071 m21 6 lw 1190 1050 m 3 Y s 1190 1064 m 4 Y s 3 lw 1190 1059 m21 6 lw 1194 1054 m 3 Y s 1194 1068
 m 4 Y s 3 lw 1194 1063 m21 6 lw 1199 1051 m 3 Y s 1199 1066 m 3 Y s 3 lw 1199 1060 m21 6 lw 1204 1046 m 4 Y s 1204 1061 m 3 Y s 3 lw 1204 1055 m21 6 lw 1208 1053 m 4 Y s 1208 1068 m 4 Y s 3 lw 1208 1062 m21 6 lw 1213 1031 m 3 Y s 1213 1046 m 3 Y s 3
 lw 1213 1040 m21 6 lw 1218 1052 m 4 Y s 1218 1067 m 4 Y s 3 lw 1218 1062 m21 6 lw 1222 1051 m 4 Y s 1222 1066 m 4 Y s 3 lw 1222 1061 m21 6 lw 1227 1065 m 4 Y s 1227 1080 m 4 Y s 3 lw 1227 1075 m21 6 lw 1232 1053 m 4 Y s 1232 1069 m 3 Y s 3 lw 1232
 1063 m21 6 lw 1237 1059 m 4 Y s 1237 1075 m 4 Y s 3 lw 1237 1069 m21 6 lw 1241 1064 m 4 Y s 1241 1079 m 4 Y s 3 lw 1241 1074 m21 6 lw 1246 1027 m 4 Y s 1246 1042 m 4 Y s 3 lw 1246 1037 m21 6 lw 1251 1049 m 4 Y s 1251 1064 m 4 Y s 3 lw 1251 1058 m21
 6 lw 1255 1066 m 4 Y s 1255 1082 m 4 Y s 3 lw 1255 1076 m21 6 lw 1260 1062 m 4 Y s 1260 1077 m 4 Y s 3 lw 1260 1071 m21 6 lw 1265 1055 m 4 Y s 1265 1070 m 4 Y s 3 lw 1265 1064 m21 6 lw 1269 1038 m 4 Y s 1269 1054 m 4 Y s 3 lw 1269 1048 m21 6 lw 1274
 1050 m 5 Y s 1274 1066 m 4 Y s 3 lw 1274 1060 m21 6 lw 1279 1068 m 5 Y s 1279 1084 m 4 Y s 3 lw 1279 1078 m21 6 lw 1284 1047 m 4 Y s 1284 1062 m 5 Y s 3 lw 1284 1057 m21 6 lw 1288 1068 m 4 Y s 1288 1084 m 4 Y s 3 lw 1288 1078 m21 6 lw 1293 1068 m 4
 Y s 1293 1084 m 4 Y s 3 lw 1293 1078 m21 6 lw 1298 1048 m 5 Y s 1298 1064 m 4 Y s 3 lw 1298 1058 m21 6 lw 1302 1075 m 4 Y s 1302 1091 m 4 Y s 3 lw 1302 1085 m21 6 lw 1307 1049 m 5 Y s 1307 1065 m 5 Y s 3 lw 1307 1060 m21 6 lw 1312 1080 m 5 Y s 1312
 1096 m 5 Y s 3 lw 1312 1090 m21 6 lw 1317 1077 m 4 Y s 1317 1093 m 5 Y s 3 lw 1317 1087 m21 6 lw 1321 1041 m 5 Y s 1321 1057 m 5 Y s 3 lw 1321 1051 m21 6 lw 1326 1056 m 4 Y s 1326 1072 m 5 Y s 3 lw 1326 1066 m21 6 lw 1331 1045 m 5 Y s 1331 1061 m 5
 Y s 3 lw 1331 1055 m21 6 lw 1335 1050 m 5 Y s 1335 1066 m 5 Y s 3 lw 1335 1060 m21 6 lw 1340 1049 m 5 Y s 1340 1065 m 5 Y s 3 lw 1340 1060 m21 6 lw 1345 1050 m 5 Y s 1345 1066 m 5 Y s 3 lw 1345 1060 m21 6 lw 1349 1067 m 5 Y s 1349 1084 m 5 Y s 3 lw
 1349 1078 m21 6 lw 1354 1074 m 5 Y s 1354 1091 m 5 Y s 3 lw 1354 1085 m21 6 lw 1359 1073 m 5 Y s 1359 1090 m 5 Y s 3 lw 1359 1084 m21 6 lw 1364 1075 m 5 Y s 1364 1091 m 6 Y s 3 lw 1364 1086 m21 6 lw 1368 1058 m 5 Y s 1368 1074 m 5 Y s 3 lw 1368 1069
 m21 6 lw 1373 1051 m 5 Y s 1373 1067 m 6 Y s 3 lw 1373 1062 m21 6 lw 1378 1075 m 5 Y s 1378 1092 m 5 Y s 3 lw 1378 1086 m21 6 lw 1382 1084 m 6 Y s 1382 1101 m 6 Y s 3 lw 1382 1095 m21 6 lw 1387 1062 m 5 Y s 1387 1079 m 5 Y s 3 lw 1387 1073 m21 6 lw
 1392 1062 m 5 Y s 1392 1079 m 5 Y s 3 lw 1392 1073 m21 6 lw 1397 1064 m 6 Y s 1397 1081 m 6 Y s 3 lw 1397 1076 m21 6 lw 1401 1077 m 6 Y s 1401 1094 m 6 Y s 3 lw 1401 1089 m21 6 lw 1406 1076 m 6 Y s 1406 1094 m 6 Y s 3 lw 1406 1088 m21 6 lw 1411 1067
 m 6 Y s 1411 1084 m 6 Y s 3 lw 1411 1078 m21 6 lw 1415 1058 m 6 Y s 1415 1076 m 6 Y s 3 lw 1415 1070 m21 6 lw 1420 1075 m 6 Y s 1420 1093 m 6 Y s 3 lw 1420 1087 m21 6 lw 1425 1081 m 7 Y s 1425 1099 m 6 Y s 3 lw 1425 1093 m21 6 lw 1429 1097 m 6 Y s
 1429 1114 m 7 Y s 3 lw 1429 1109 m21 6 lw 1434 1063 m 6 Y s 1434 1080 m 7 Y s 3 lw 1434 1075 m21 6 lw 1439 1074 m 6 Y s 1439 1092 m 6 Y s 3 lw 1439 1086 m21 6 lw 1444 1077 m 6 Y s 1444 1094 m 7 Y s 3 lw 1444 1089 m21 6 lw 1448 1072 m 6 Y s 1448 1090
 m 6 Y s 3 lw 1448 1084 m21 6 lw 1453 1066 m 7 Y s 1453 1084 m 6 Y s 3 lw 1453 1078 m21 6 lw 1458 1093 m 7 Y s 1458 1111 m 7 Y s 3 lw 1458 1105 m21 6 lw 1462 1079 m 7 Y s 1462 1097 m 7 Y s 3 lw 1462 1091 m21 6 lw 1467 1096 m 7 Y s 1467 1114 m 7 Y s 3
 lw 1467 1109 m21 6 lw 1472 1086 m 7 Y s 1472 1104 m 7 Y s 3 lw 1472 1099 m21 6 lw 1477 1078 m 7 Y s 1477 1096 m 7 Y s 3 lw 1477 1091 m21 6 lw 1481 1091 m 7 Y s 1481 1109 m 7 Y s 3 lw 1481 1104 m21 6 lw 1486 1082 m 7 Y s 1486 1100 m 7 Y s 3 lw 1486
 1094 m21 6 lw 1491 1094 m 7 Y s 1491 1113 m 7 Y s 3 lw 1491 1107 m21 6 lw 1495 1079 m 7 Y s 1495 1098 m 7 Y s 3 lw 1495 1092 m21 6 lw 1500 1071 m 8 Y s 1500 1090 m 7 Y s 3 lw 1500 1084 m21 6 lw 1505 1100 m 8 Y s 1505 1119 m 7 Y s 3 lw 1505 1113 m21
 6 lw 1509 1083 m 8 Y s 1509 1102 m 7 Y s 3 lw 1509 1096 m21 6 lw 1514 1087 m 8 Y s 1514 1106 m 8 Y s 3 lw 1514 1100 m21 6 lw 1519 1097 m 7 Y s 1519 1116 m 7 Y s 3 lw 1519 1110 m21 6 lw 1524 1089 m 8 Y s 1524 1108 m 8 Y s 3 lw 1524 1103 m21 6 lw 1528
 1086 m 8 Y s 1528 1105 m 8 Y s 3 lw 1528 1099 m21 6 lw 1533 1084 m 8 Y s 1533 1104 m 7 Y s 3 lw 1533 1098 m21 6 lw 1538 1080 m 7 Y s 1538 1099 m 8 Y s 3 lw 1538 1093 m21 6 lw 1542 1098 m 8 Y s 1542 1118 m 8 Y s 3 lw 1542 1112 m21 6 lw 1547 1086 m 8
 Y s 1547 1105 m 8 Y s 3 lw 1547 1100 m21 6 lw 1552 1080 m 8 Y s 1552 1099 m 8 Y s 3 lw 1552 1094 m21 6 lw 1557 1117 m 8 Y s 1557 1137 m 8 Y s 3 lw 1557 1131 m21 6 lw 1561 1112 m 9 Y s 1561 1132 m 9 Y s 3 lw 1561 1126 m21 6 lw 1566 1084 m 9 Y s 1566
 1104 m 8 Y s 3 lw 1566 1098 m21 6 lw 1571 1095 m 8 Y s 1571 1114 m 9 Y s 3 lw 1571 1109 m21 6 lw 1575 1101 m 8 Y s 1575 1121 m 8 Y s 3 lw 1575 1115 m21 6 lw 1580 1116 m 9 Y s 1580 1136 m 9 Y s 3 lw 1580 1131 m21 6 lw 1585 1109 m 9 Y s 1585 1129 m 9
 Y s 3 lw 1585 1124 m21 6 lw 1589 1091 m 9 Y s 1589 1112 m 8 Y s 3 lw 1589 1106 m21 6 lw 1594 1134 m 9 Y s 1594 1154 m 9 Y s 3 lw 1594 1149 m21 6 lw 1599 1115 m 9 Y s 1599 1135 m 9 Y s 3 lw 1599 1129 m21 6 lw 1604 1107 m 9 Y s 1604 1128 m 9 Y s 3 lw
 1604 1122 m21 6 lw 1608 1109 m 9 Y s 1608 1130 m 9 Y s 3 lw 1608 1124 m21 6 lw 1613 1090 m 9 Y s 1613 1111 m 9 Y s 3 lw 1613 1105 m21 6 lw 1618 1115 m 9 Y s 1618 1136 m 9 Y s 3 lw 1618 1130 m21 6 lw 1622 1110 m 10 Y s 1622 1131 m 9 Y s 3 lw 1622
 1125 m21 6 lw 1627 1097 m 9 Y s 1627 1118 m 9 Y s 3 lw 1627 1112 m21 6 lw 1632 1128 m 10 Y s 1632 1149 m 10 Y s 3 lw 1632 1143 m21 6 lw 1637 1115 m 10 Y s 1637 1136 m 10 Y s 3 lw 1637 1130 m21 6 lw 1641 1121 m 9 Y s 1641 1142 m 10 Y s 3 lw 1641 1136
 m21 6 lw 1646 1104 m 10 Y s 1646 1125 m 10 Y s 3 lw 1646 1119 m21 6 lw 1651 1119 m 10 Y s 1651 1140 m 10 Y s 3 lw 1651 1134 m21 6 lw 1655 1108 m 10 Y s 1655 1129 m 10 Y s 3 lw 1655 1123 m21 6 lw 1660 1110 m 10 Y s 1660 1131 m 10 Y s 3 lw 1660 1125
 m21 6 lw 1665 1122 m 10 Y s 1665 1144 m 10 Y s 3 lw 1665 1138 m21 6 lw 1669 1099 m 10 Y s 1669 1121 m 10 Y s 3 lw 1669 1115 m21 6 lw 1674 1100 m 10 Y s 1674 1121 m 10 Y s 3 lw 1674 1115 m21 6 lw 1679 1135 m 11 Y s 1679 1157 m 11 Y s 3 lw 1679 1152
 m21 6 lw 1684 1145 m 11 Y s 1684 1167 m 11 Y s 3 lw 1684 1162 m21 6 lw 1688 1112 m 10 Y s 1688 1134 m 10 Y s 3 lw 1688 1128 m21 6 lw 1693 1117 m 11 Y s 1693 1139 m 11 Y s 3 lw 1693 1134 m21 6 lw 1698 1097 m 11 Y s 1698 1119 m 11 Y s 3 lw 1698 1113
 m21 6 lw 1702 1126 m 11 Y s 1702 1148 m 11 Y s 3 lw 1702 1143 m21 6 lw 1707 1116 m 11 Y s 1707 1139 m 11 Y s 3 lw 1707 1133 m21 6 lw 1712 1136 m 11 Y s 1712 1158 m 12 Y s 3 lw 1712 1153 m21 6 lw 1717 1112 m 12 Y s 1717 1135 m 11 Y s 3 lw 1717 1129
 m21 6 lw 1721 1123 m 12 Y s 1721 1146 m 11 Y s 3 lw 1721 1140 m21 6 lw 1726 1114 m 11 Y s 1726 1137 m 11 Y s 3 lw 1726 1131 m21 6 lw 1731 1126 m 11 Y s 1731 1149 m 11 Y s 3 lw 1731 1143 m21 6 lw 1735 1124 m 12 Y s 1735 1147 m 12 Y s 3 lw 1735 1141
 m21 6 lw 1740 1144 m 12 Y s 1740 1167 m 12 Y s 3 lw 1740 1162 m21 6 lw 1745 1129 m 12 Y s 1745 1152 m 12 Y s 3 lw 1745 1146 m21 6 lw 1749 1139 m 12 Y s 1749 1162 m 12 Y s 3 lw 1749 1156 m21 6 lw 1754 1127 m 12 Y s 1754 1151 m 12 Y s 3 lw 1754 1145
 m21 6 lw 1759 1156 m 13 Y s 1759 1180 m 12 Y s 3 lw 1759 1174 m21 6 lw 1764 1139 m 12 Y s 1764 1163 m 12 Y s 3 lw 1764 1157 m21 6 lw 1768 1148 m 13 Y s 1768 1172 m 13 Y s 3 lw 1768 1166 m21 6 lw 1773 1125 m 13 Y s 1773 1149 m 13 Y s 3 lw 1773 1144
 m21 6 lw 1778 1144 m 13 Y s 1778 1168 m 13 Y s 3 lw 1778 1162 m21 6 lw 1782 1156 m 13 Y s 1782 1180 m 13 Y s 3 lw 1782 1175 m21 6 lw 1787 1131 m 13 Y s 1787 1155 m 13 Y s 3 lw 1787 1149 m21 6 lw 1792 1138 m 13 Y s 1792 1162 m 13 Y s 3 lw 1792 1156
 m21 6 lw 1797 1168 m 13 Y s 1797 1192 m 14 Y s 3 lw 1797 1187 m21 6 lw 1801 1152 m 13 Y s 1801 1177 m 13 Y s 3 lw 1801 1171 m21 6 lw 1806 1174 m 14 Y s 1806 1199 m 14 Y s 3 lw 1806 1194 m21 6 lw 1811 1101 m 13 Y s 1811 1126 m 13 Y s 3 lw 1811 1120
 m21 6 lw 1815 1127 m 13 Y s 1815 1151 m 14 Y s 3 lw 1815 1146 m21 6 lw 1820 1125 m 14 Y s 1820 1150 m 14 Y s 3 lw 1820 1144 m21 6 lw 1825 1129 m 13 Y s 1825 1154 m 13 Y s 3 lw 1825 1148 m21 6 lw 1829 1127 m 14 Y s 1829 1152 m 14 Y s 3 lw 1829 1147
 m21 6 lw 1834 1111 m 14 Y s 1834 1136 m 14 Y s 3 lw 1834 1131 m21 6 lw 1839 1141 m 14 Y s 1839 1166 m 14 Y s 3 lw 1839 1161 m21 6 lw 1844 1128 m 14 Y s 1844 1154 m 14 Y s 3 lw 1844 1148 m21 6 lw 1848 1138 m 14 Y s 1848 1164 m 14 Y s 3 lw 1848 1158
 m21 6 lw 1853 1157 m 15 Y s 1853 1183 m 14 Y s 3 lw 1853 1177 m21 6 lw 1858 1089 m 13 Y s 1858 1114 m 14 Y s 3 lw 1858 1108 m21 6 lw 1862 1138 m 15 Y s 1862 1164 m 15 Y s 3 lw 1862 1159 m21 6 lw 1867 1117 m 15 Y s 1867 1143 m 14 Y s 3 lw 1867 1137
 m21 6 lw 1872 1159 m 15 Y s 1872 1185 m 15 Y s 3 lw 1872 1179 m21 6 lw 1877 1119 m 14 Y s 1877 1145 m 14 Y s 3 lw 1877 1139 m21 6 lw 1881 1145 m 15 Y s 1881 1172 m 15 Y s 3 lw 1881 1166 m21 6 lw 1886 1129 m 15 Y s 1886 1155 m 15 Y s 3 lw 1886 1149
 m21 6 lw 1891 1132 m 15 Y s 1891 1159 m 15 Y s 3 lw 1891 1153 m21 6 lw 1895 1140 m 16 Y s 1895 1167 m 15 Y s 3 lw 1895 1161 m21 6 lw 1900 1160 m 15 Y s 1900 1187 m 15 Y s 3 lw 1900 1181 m21 6 lw 1905 1129 m 15 Y s 1905 1155 m 16 Y s 3 lw 1905 1150
 m21 6 lw 1909 1141 m 15 Y s 1909 1168 m 15 Y s 3 lw 1909 1162 m21 6 lw 1914 1118 m 15 Y s 1914 1144 m 16 Y s 3 lw 1914 1139 m21 6 lw 1919 1157 m 16 Y s 1919 1184 m 16 Y s 3 lw 1919 1179 m21 6 lw 1924 1172 m 17 Y s 1924 1200 m 16 Y s 3 lw 1924 1194
 m21 6 lw 1928 1150 m 16 Y s 1928 1178 m 16 Y s 3 lw 1928 1172 m21 6 lw 1933 1139 m 17 Y s 1933 1167 m 16 Y s 3 lw 1933 1161 m21 6 lw 1938 1126 m 17 Y s 1938 1154 m 16 Y s 3 lw 1938 1148 m21 6 lw 1942 1151 m 17 Y s 1942 1179 m 17 Y s 3 lw 1942 1173
 m21 6 lw 1947 1176 m 17 Y s 1947 1205 m 17 Y s 3 lw 1947 1199 m21 6 lw 1952 1161 m 17 Y s 1952 1189 m 17 Y s 3 lw 1952 1184 m21 6 lw 1957 1166 m 17 Y s 1957 1194 m 17 Y s 3 lw 1957 1189 m21 6 lw 1961 1184 m 18 Y s 1961 1213 m 18 Y s 3 lw 1961 1208
 m21 6 lw 1966 1139 m 17 Y s 1966 1168 m 17 Y s 3 lw 1966 1162 m21 6 lw 1971 1181 m 18 Y s 1971 1210 m 18 Y s 3 lw 1971 1204 m21 6 lw 1975 1146 m 17 Y s 1975 1174 m 18 Y s 3 lw 1975 1169 m21 6 lw 1980 1163 m 18 Y s 1980 1192 m 18 Y s 3 lw 1980 1187
 m21 6 lw 1985 1169 m 18 Y s 1985 1198 m 18 Y s 3 lw 1985 1192 m21 6 lw 1989 1140 m 18 Y s 1989 1169 m 18 Y s 3 lw 1989 1163 m21 6 lw 1994 1158 m 18 Y s 1994 1187 m 18 Y s 3 lw 1994 1182 m21 6 lw 1999 1126 m 18 Y s 1999 1156 m 17 Y s 3 lw 1999 1150
 m21 6 lw 2004 1192 m 19 Y s 2004 1222 m 19 Y s 3 lw 2004 1217 m21 6 lw 2008 1171 m 18 Y s 2008 1201 m 18 Y s 3 lw 2008 1195 m21 6 lw 2013 1190 m 19 Y s 2013 1220 m 19 Y s 3 lw 2013 1215 m21 6 lw 2018 1156 m 18 Y s 2018 1185 m 19 Y s 3 lw 2018 1180
 m21 6 lw 2022 1160 m 19 Y s 2022 1190 m 19 Y s 3 lw 2022 1184 m21 6 lw 2027 1154 m 19 Y s 2027 1185 m 18 Y s 3 lw 2027 1179 m21 6 lw 2032 1198 m 19 Y s 2032 1229 m 19 Y s 3 lw 2032 1223 m21 6 lw 2036 1192 m 20 Y s 2036 1223 m 20 Y s 3 lw 2036 1218
 m21 6 lw 2041 1181 m 19 Y s 2041 1212 m 19 Y s 3 lw 2041 1206 m21 6 lw 2046 1155 m 20 Y s 2046 1186 m 19 Y s 3 lw 2046 1180 m21 6 lw 2051 1164 m 19 Y s 2051 1195 m 19 Y s 3 lw 2051 1189 m21 6 lw 2055 1153 m 20 Y s 2055 1184 m 20 Y s 3 lw 2055 1179
 m21 6 lw 2060 1146 m 19 Y s 2060 1177 m 19 Y s 3 lw 2060 1171 m21 6 lw 2065 1158 m 20 Y s 2065 1189 m 21 Y s 3 lw 2065 1184 m21 6 lw 2069 1174 m 20 Y s 2069 1205 m 21 Y s 3 lw 2069 1200 m21 6 lw 2074 1160 m 20 Y s 2074 1192 m 20 Y s 3 lw 2074 1186
 m21 6 lw 2079 1177 m 20 Y s 2079 1209 m 20 Y s 3 lw 2079 1203 m21 6 lw 2084 1132 m 21 Y s 2084 1164 m 20 Y s 3 lw 2084 1158 m21 6 lw 2088 1162 m 20 Y s 2088 1194 m 20 Y s 3 lw 2088 1188 m21 6 lw 2093 1129 m 20 Y s 2093 1160 m 21 Y s 3 lw 2093 1155
 m21 6 lw 2098 1135 m 21 Y s 2098 1167 m 21 Y s 3 lw 2098 1161 m21 6 lw 2102 1166 m 21 Y s 2102 1199 m 21 Y s 3 lw 2102 1193 m21 6 lw 2107 1177 m 21 Y s 2107 1209 m 22 Y s 3 lw 2107 1204 m21 6 lw 2112 1137 m 21 Y s 2112 1170 m 21 Y s 3 lw 2112 1164
 m21 6 lw 2116 1140 m 21 Y s 2116 1172 m 21 Y s 3 lw 2116 1166 m21 6 lw 2121 1161 m 22 Y s 2121 1195 m 21 Y s 3 lw 2121 1189 m21 6 lw 2126 1210 m 22 Y s 2126 1243 m 23 Y s 3 lw 2126 1238 m21 6 lw 2131 1173 m 22 Y s 2131 1206 m 22 Y s 3 lw 2131 1200
 m21 6 lw 2135 1145 m 22 Y s 2135 1178 m 22 Y s 3 lw 2135 1172 m21 6 lw 2140 1117 m 21 Y s 2140 1149 m 22 Y s 3 lw 2140 1144 m21 6 lw 2145 1159 m 22 Y s 2145 1193 m 22 Y s 3 lw 2145 1187 m21 6 lw 2149 1218 m 23 Y s 2149 1253 m 23 Y s 3 lw 2149 1247
 m21 6 lw 2154 1115 m 22 Y s 2154 1149 m 22 Y s 3 lw 2154 1143 m21 6 lw 2159 1150 m 23 Y s 2159 1184 m 23 Y s 3 lw 2159 1179 m21 6 lw 2164 1117 m 23 Y s 2164 1151 m 22 Y s 3 lw 2164 1145 m21 6 lw 2168 1139 m 23 Y s 2168 1173 m 23 Y s 3 lw 2168 1168
 m21 6 lw 2173 1165 m 23 Y s 2173 1199 m 24 Y s 3 lw 2173 1194 m21 6 lw 2178 1159 m 24 Y s 2178 1194 m 24 Y s 3 lw 2178 1188 m21 6 lw 2182 1173 m 24 Y s 2182 1209 m 24 Y s 3 lw 2182 1203 m21 6 lw 2187 1157 m 23 Y s 2187 1192 m 23 Y s 3 lw 2187 1186
 m21 6 lw 2192 1096 m 23 Y s 2192 1130 m 23 Y s 3 lw 2192 1125 m21 6 lw 2196 1150 m 24 Y s 2196 1186 m 23 Y s 3 lw 2196 1180 m21 6 lw 2201 1204 m 25 Y s 2201 1241 m 24 Y s 3 lw 2201 1235 m21 6 lw 2206 1168 m 25 Y s 2206 1204 m 25 Y s 3 lw 2206 1199
 m21 6 lw 2211 1153 m 24 Y s 2211 1189 m 24 Y s 3 lw 2211 1183 m21 6 lw 2215 1189 m 25 Y s 2215 1225 m 25 Y s 3 lw 2215 1219 m21 6 lw 2220 1163 m 25 Y s 2220 1200 m 24 Y s 3 lw 2220 1194 m21 6 lw black 340 223 m 1882 X s
 gsave  2268 2234 0 0 C 1923.86 58.2559 t 0 r /Helvetica findfont 83.8316 sf 0 0 m (Q [GeV]) show NC gr  340 279 m -56 Y s 387 251 m -28 Y s 434 251 m -28 Y s 481 251 m -28 Y s 528 279 m -56 Y s 575 251 m -28 Y s 622 251 m -28 Y s 670 251 m -28 Y s
 717 279 m -56 Y s 764 251 m -28 Y s 811 251 m -28 Y s 858 251 m -28 Y s 905 279 m -56 Y s 952 251 m -28 Y s 999 251 m -28 Y s 1046 251 m -28 Y s 1093 279 m -56 Y s 1140 251 m -28 Y s 1187 251 m -28 Y s 1234 251 m -28 Y s 1281 279 m -56 Y s 1328 251
 m -28 Y s 1375 251 m -28 Y s 1422 251 m -28 Y s 1469 279 m -56 Y s 1517 251 m -28 Y s 1564 251 m -28 Y s 1611 251 m -28 Y s 1658 279 m -56 Y s 1705 251 m -28 Y s 1752 251 m -28 Y s 1799 251 m -28 Y s 1846 279 m -56 Y s 1893 251 m -28 Y s 1940 251 m
 -28 Y s 1987 251 m -28 Y s 2034 279 m -56 Y s 2081 251 m -28 Y s 2128 251 m -28 Y s 2175 251 m -28 Y s 2222 279 m -56 Y s
 gsave  2268 2234 0 0 C 322.539 159.138 t 0 r /Helvetica findfont 62.5185 sf 0 0 m (0) show NC gr 
 gsave  2268 2234 0 0 C 484.518 159.138 t 0 r /Helvetica findfont 62.5185 sf 0 0 m (0.2) show NC gr 
 gsave  2268 2234 0 0 C 673.495 159.138 t 0 r /Helvetica findfont 62.5185 sf 0 0 m (0.4) show NC gr 
 gsave  2268 2234 0 0 C 861.05 159.138 t 0 r /Helvetica findfont 62.5185 sf 0 0 m (0.6) show NC gr 
 gsave  2268 2234 0 0 C 1050.03 159.138 t 0 r /Helvetica findfont 62.5185 sf 0 0 m (0.8) show NC gr 
 gsave  2268 2234 0 0 C 1268.84 159.138 t 0 r /Helvetica findfont 62.5185 sf 0 0 m (1) show NC gr 
 gsave  2268 2234 0 0 C 1426.56 159.138 t 0 r /Helvetica findfont 62.5185 sf 0 0 m (1.2) show NC gr 
 gsave  2268 2234 0 0 C 1614.11 159.138 t 0 r /Helvetica findfont 62.5185 sf 0 0 m (1.4) show NC gr 
 gsave  2268 2234 0 0 C 1803.09 159.138 t 0 r /Helvetica findfont 62.5185 sf 0 0 m (1.6) show NC gr 
 gsave  2268 2234 0 0 C 1990.65 159.138 t 0 r /Helvetica findfont 62.5185 sf 0 0 m (1.8) show NC gr 
 gsave  2268 2234 0 0 C 2205.2 159.138 t 0 r /Helvetica findfont 62.5185 sf 0 0 m (2) show NC gr  340 223 m 1966 Y s
 gsave  2268 2234 0 0 C 152.034 1953.7 t 90 r /Helvetica findfont 83.8316 sf 0 0 m (DR\(Q\)) show NC gr  400 402 m -60 X s 370 491 m -30 X s 370 581 m -30 X s 370 670 m -30 X s 400 759 m -60 X s 370 849 m -30 X s 370 938 m -30 X s 370 1027 m -30 X s
 400 1117 m -60 X s 370 1206 m -30 X s 370 1295 m -30 X s 370 1385 m -30 X s 400 1474 m -60 X s 370 1564 m -30 X s 370 1653 m -30 X s 370 1742 m -30 X s 400 1832 m -60 X s 370 1921 m -30 X s 370 2010 m -30 X s 370 2100 m -30 X s 400 2189 m -60 X s
 400 402 m -60 X s 370 313 m -30 X s 370 223 m -30 X s
 gsave  2268 2234 0 0 C 242.97 379.374 t 0 r /Helvetica findfont 62.5185 sf 0 0 m (0.6) show NC gr 
 gsave  2268 2234 0 0 C 242.97 737.434 t 0 r /Helvetica findfont 62.5185 sf 0 0 m (0.8) show NC gr 
 gsave  2268 2234 0 0 C 305.488 1092.65 t 0 r /Helvetica findfont 62.5185 sf 0 0 m (1) show NC gr 
 gsave  2268 2234 0 0 C 242.97 1450.71 t 0 r /Helvetica findfont 62.5185 sf 0 0 m (1.2) show NC gr 
 gsave  2268 2234 0 0 C 242.97 1808.77 t 0 r /Helvetica findfont 62.5185 sf 0 0 m (1.4) show NC gr 
 gsave  2268 2234 0 0 C 242.97 2166.83 t 0 r /Helvetica findfont 62.5185 sf 0 0 m (1.6) show NC gr 
 gsave  2268 2234 0 0 C 906.518 670.653 t 0 r /Helvetica-Bold findfont 72.4646 sf 0 0 m (DR PIONS) show NC gr 
 gsave  2268 2234 0 0 C 906.518 558.404 t 0 r /Helvetica-Bold findfont 72.4646 sf 0 0 m (ref. sample: EVENT MIX) show NC gr 
 gsave  2268 2234 0 0 C 906.518 447.576 t 0 r /Helvetica-Bold findfont 72.4646 sf 0 0 m (VELO tracks multiplicity: < 10) show NC gr 
 gr  gr showpage
end
%%EOF
