%!PS-Adobe-2.0 EPSF-2.0
%%BoundingBox:  0 0 567 558
%%Title: ./DR_pion_0c65_h3001_2_h3401_2.eps: DR_pion_0c65_h3001_2_h3401_2
%%Creator: ROOT Version 6.06/02
%%CreationDate: Wed Feb  1 16:20:58 2017
%%DocumentNeededResources: ProcSet (FontSetInit)
%%EndComments
%%BeginProlog
80 dict begin
/s {stroke} def /l {lineto} def /m {moveto} def /t {translate} def
/r {rotate} def /rl {roll}  def /R {repeat} def
/d {rlineto} def /rm {rmoveto} def /gr {grestore} def /f {eofill} def
/c {setrgbcolor} def /black {0 setgray} def /sd {setdash} def
/cl {closepath} def /sf {scalefont setfont} def /lw {setlinewidth} def
/box {m dup 0 exch d exch 0 d 0 exch neg d cl} def
/NC{systemdict begin initclip end}def/C{NC box clip newpath}def
/bl {box s} def /bf {gsave box gsave f grestore 1 lw [] 0 sd s grestore} def /Y { 0 exch d} def /X { 0 d} def 
/K {{pop pop 0 moveto} exch kshow} bind def
/ita {/ang 15 def gsave [1 0 ang dup sin exch cos div 1 0 0] concat} def 
/mp {newpath /y exch def /x exch def} def
/side {[w .77 mul w .23 mul] .385 w mul sd w 0 l currentpoint t -144 r} def
/mr {mp x y w2 0 360 arc} def /m24 {mr s} def /m20 {mr f} def
/mb {mp x y w2 add m w2 neg 0 d 0 w neg d w 0 d 0 w d cl} def
/mt {mp x y w2 add m w2 neg w neg d w 0 d cl} def
/m21 {mb f} def /m25 {mb s} def /m22 {mt f} def /m26{mt s} def
/m23 {mp x y w2 sub m w2 w d w neg 0 d cl f} def
/m27 {mp x y w2 add m w3 neg w2 neg d w3 w2 neg d w3 w2 d cl s} def
/m28 {mp x w2 sub y w2 sub w3 add m w3 0 d  0 w3 neg d w3 0 d 0 w3 d w3 0 d  0 w3 d w3 neg 0 d 0 w3 d w3 neg 0 d 0 w3 neg d w3 neg 0 d cl s } def
/m29 {mp gsave x w2 sub y w2 add w3 sub m currentpoint t 4 {side} repeat cl fill gr} def
/m30 {mp gsave x w2 sub y w2 add w3 sub m currentpoint t 4 {side} repeat cl s gr} def
/m31 {mp x y w2 sub m 0 w d x w2 sub y m w 0 d x w2 sub y w2 add m w w neg d x w2 sub y w2 sub m w w d s} def
/m32 {mp x y w2 sub m w2 w d w neg 0 d cl s} def
/m33 {mp x y w2 add m w3 neg w2 neg d w3 w2 neg d w3 w2 d cl f} def
/m34 {mp x w2 sub y w2 sub w3 add m w3 0 d  0 w3 neg d w3 0 d 0 w3 d w3 0 d  0 w3 d w3 neg 0 d 0 w3 d w3 neg 0 d 0 w3 neg d w3 neg 0 d cl f } def
/m2 {mp x y w2 sub m 0 w d x w2 sub y m w 0 d s} def
/m5 {mp x w2 sub y w2 sub m w w d x w2 sub y w2 add m w w neg d s} def
%%IncludeResource: ProcSet (FontSetInit)
%%IncludeResource: font Times-Roman
%%IncludeResource: font Times-Italic
%%IncludeResource: font Times-Bold
%%IncludeResource: font Times-BoldItalic
%%IncludeResource: font Helvetica
%%IncludeResource: font Helvetica-Oblique
%%IncludeResource: font Helvetica-Bold
%%IncludeResource: font Helvetica-BoldOblique
%%IncludeResource: font Courier
%%IncludeResource: font Courier-Oblique
%%IncludeResource: font Courier-Bold
%%IncludeResource: font Courier-BoldOblique
%%IncludeResource: font Symbol
%%IncludeResource: font ZapfDingbats
/reEncode {exch findfont dup length dict begin {1 index /FID eq  {pop pop} {def} ifelse } forall /Encoding exch def currentdict end dup /FontName get exch definefont pop } def [/Times-Bold /Times-Italic /Times-BoldItalic /Helvetica /Helvetica-Oblique
 /Helvetica-Bold /Helvetica-BoldOblique /Courier /Courier-Oblique /Courier-Bold /Courier-BoldOblique /Times-Roman /AvantGarde-Book /AvantGarde-BookOblique /AvantGarde-Demi /AvantGarde-DemiOblique /Bookman-Demi /Bookman-DemiItalic /Bookman-Light
 /Bookman-LightItalic /Helvetica-Narrow /Helvetica-Narrow-Bold /Helvetica-Narrow-BoldOblique /Helvetica-Narrow-Oblique /NewCenturySchlbk-Roman /NewCenturySchlbk-Bold /NewCenturySchlbk-BoldItalic /NewCenturySchlbk-Italic /Palatino-Bold
 /Palatino-BoldItalic /Palatino-Italic /Palatino-Roman ] {ISOLatin1Encoding reEncode } forall
%%EndProlog
%%BeginSetup
%%EndSetup
newpath  gsave  .25 .25 scale  gsave  0 0 t black[  ] 0 sd 6 lw 1 1 1 c 2268 2234 0 0 bf black 3 lw 1 1 1 c 1882 1966 340 223 bf black 1882 1966 340 223 bl 1 1 1 c 1882 1966 340 223 bf black 1882 1966 340 223 bl 0 0 1 c 6 lw 1 1 1 c 0 0 1 c 390 1666
 m 26 Y s 390 1704 m 25 Y s 3 lw /w 14 def /w2 {w 2 div} def /w3 {w 3 div} def 390 1698 m21 6 lw 394 1662 m 23 Y s 394 1696 m 24 Y s 3 lw 394 1691 m21 6 lw 399 1669 m 21 Y s 399 1702 m 21 Y s 3 lw 399 1696 m21 6 lw 404 1589 m 19 Y s 404 1619 m 19 Y s
 3 lw 404 1614 m21 6 lw 408 1551 m 16 Y s 408 1579 m 17 Y s 3 lw 408 1573 m21 6 lw 413 1556 m 16 Y s 413 1583 m 16 Y s 3 lw 413 1578 m21 6 lw 418 1542 m 14 Y s 418 1568 m 14 Y s 3 lw 418 1562 m21 6 lw 423 1519 m 13 Y s 423 1543 m 13 Y s 3 lw 423 1538
 m21 6 lw 427 1479 m 12 Y s 427 1503 m 12 Y s 3 lw 427 1497 m21 6 lw 432 1452 m 11 Y s 432 1474 m 11 Y s 3 lw 432 1468 m21 6 lw 437 1480 m 10 Y s 437 1502 m 10 Y s 3 lw 437 1496 m21 6 lw 441 1422 m 10 Y s 441 1443 m 10 Y s 3 lw 441 1437 m21 6 lw 446
 1428 m 9 Y s 446 1449 m 9 Y s 3 lw 446 1443 m21 6 lw 451 1402 m 8 Y s 451 1422 m 8 Y s 3 lw 451 1416 m21 6 lw 455 1395 m 8 Y s 455 1414 m 8 Y s 3 lw 455 1409 m21 6 lw 460 1358 m 8 Y s 460 1377 m 8 Y s 3 lw 460 1371 m21 6 lw 465 1369 m 7 Y s 465 1387
 m 8 Y s 3 lw 465 1382 m21 6 lw 470 1348 m 6 Y s 470 1366 m 6 Y s 3 lw 470 1360 m21 6 lw 474 1334 m 6 Y s 474 1351 m 7 Y s 3 lw 474 1346 m21 6 lw 479 1312 m 6 Y s 479 1330 m 5 Y s 3 lw 479 1324 m21 6 lw 484 1287 m 5 Y s 484 1304 m 5 Y s 3 lw 484 1298
 m21 6 lw 488 1298 m 5 Y s 488 1315 m 5 Y s 3 lw 488 1309 m21 6 lw 493 1278 m 5 Y s 493 1294 m 5 Y s 3 lw 493 1289 m21 6 lw 498 1274 m 5 Y s 498 1290 m 5 Y s 3 lw 498 1284 m21 6 lw 502 1277 m 4 Y s 502 1293 m 4 Y s 3 lw 502 1287 m21 6 lw 507 1270 m 5
 Y s 507 1286 m 5 Y s 3 lw 507 1280 m21 6 lw 512 1242 m 4 Y s 512 1258 m 4 Y s 3 lw 512 1252 m21 6 lw 517 1253 m 4 Y s 517 1269 m 4 Y s 3 lw 517 1263 m21 6 lw 521 1236 m 4 Y s 521 1251 m 4 Y s 3 lw 521 1246 m21 6 lw 526 1247 m 4 Y s 526 1263 m 3 Y s
 3 lw 526 1257 m21 6 lw 531 1229 m 4 Y s 531 1244 m 4 Y s 3 lw 531 1239 m21 6 lw 535 1209 m 3 Y s 535 1224 m 3 Y s 3 lw 535 1218 m21 6 lw 540 1193 m 3 Y s 540 1207 m 4 Y s 3 lw 540 1202 m21 6 lw 545 1200 m 3 Y s 545 1214 m 3 Y s 3 lw 545 1209 m21 6
 lw 550 1211 m 3 Y s 550 1226 m 3 Y s 3 lw 550 1220 m21 6 lw 554 1198 m 3 Y s 554 1213 m 2 Y s 3 lw 554 1207 m21 6 lw 559 1192 m 3 Y s 559 1206 m 3 Y s 3 lw 559 1200 m21 6 lw 564 1182 m 2 Y s 564 1196 m 2 Y s 3 lw 564 1190 m21 6 lw 568 1178 m 2 Y s
 568 1192 m 2 Y s 3 lw 568 1186 m21 6 lw 573 1174 m 2 Y s 573 1187 m 3 Y s 3 lw 573 1182 m21 6 lw 578 1155 m 2 Y s 578 1169 m 2 Y s 3 lw 578 1163 m21 6 lw 582 1168 m 2 Y s 582 1181 m 3 Y s 3 lw 582 1176 m21 6 lw 587 1168 m 2 Y s 587 1181 m 3 Y s 3 lw
 587 1176 m21 6 lw 592 1158 m 2 Y s 592 1171 m 2 Y s 3 lw 592 1166 m21 6 lw 597 1146 m 2 Y s 597 1159 m 2 Y s 3 lw 597 1154 m21 6 lw 601 1154 m 2 Y s 601 1168 m 1 Y s 3 lw 601 1162 m21 6 lw 606 1144 m 1 Y s 606 1157 m 1 Y s 3 lw 606 1151 m21 6 lw 611
 1148 m 1 Y s 611 1161 m 1 Y s 3 lw 611 1155 m21 6 lw 615 1137 m 2 Y s 615 1150 m 2 Y s 3 lw 615 1144 m21 6 lw 620 1136 m 1 Y s 620 1148 m 2 Y s 3 lw 620 1143 m21 6 lw 625 1130 m 1 Y s 625 1143 m 1 Y s 3 lw 625 1137 m21 6 lw 630 1128 m 1 Y s 630 1140
 m 2 Y s 3 lw 630 1135 m21 6 lw 634 1140 m 2 Y s 634 1153 m 1 Y s 3 lw 634 1147 m21 6 lw 639 1126 m 2 Y s 639 1139 m 1 Y s 3 lw 639 1133 m21 6 lw 644 1118 m 1 Y s 644 1130 m 1 Y s 3 lw 644 1125 m21 6 lw 648 1118 m 1 Y s 648 1131 m 1 Y s 3 lw 648 1125
 m21 6 lw 653 1108 m 1 Y s 653 1120 m 2 Y s 3 lw 653 1115 m21 6 lw 658 1112 m 1 Y s 658 1125 m 1 Y s 3 lw 658 1119 m21 6 lw 662 1119 m 1 Y s 662 1131 m 1 Y s 3 lw 662 1126 m21 6 lw 667 1113 m 1 Y s 667 1126 m 1 Y s 3 lw 667 1120 m21 6 lw 672 1116 m 1
 Y s 672 1128 m 1 Y s 3 lw 672 1123 m21 6 lw 677 1119 m 1 Y s 677 1132 m 1 Y s 3 lw 677 1126 m21 6 lw 681 1106 m 1 Y s 681 1118 m 1 Y s 3 lw 681 1113 m21 6 lw 686 1112 m 1 Y s 686 1124 m 1 Y s 3 lw 686 1119 m21 6 lw 691 1106 m 1 Y s 691 1118 m 1 Y s
 3 lw 691 1112 m21 6 lw 695 1110 m 1 Y s 695 1123 m s 3 lw 695 1117 m21 6 lw 700 1093 m 1 Y s 700 1105 m 1 Y s 3 lw 700 1100 m21 6 lw 705 1096 m 1 Y s 705 1108 m 1 Y s 3 lw 705 1103 m21 6 lw 710 1100 m 1 Y s 710 1112 m 1 Y s 3 lw 710 1106 m21 6 lw
 714 1094 m s 714 1106 m s 3 lw 714 1100 m21 6 lw 719 1098 m 1 Y s 719 1110 m s 3 lw 719 1104 m21 6 lw 724 1096 m s 724 1108 m s 3 lw 724 1102 m21 6 lw 728 1099 m 1 Y s 728 1111 m 1 Y s 3 lw 728 1105 m21 6 lw 733 1101 m 1 Y s 733 1113 m s 3 lw 733
 1107 m21 6 lw 738 1098 m 1 Y s 738 1110 m 1 Y s 3 lw 738 1105 m21 6 lw 742 1093 m s 742 1104 m 1 Y s 3 lw 742 1099 m21 6 lw 747 1105 m s 747 1116 m 1 Y s 3 lw 747 1111 m21 6 lw 752 1091 m 1 Y s 752 1103 m s 3 lw 752 1097 m21 6 lw 757 1087 m 1 Y s
 757 1099 m s 3 lw 757 1093 m21 6 lw 761 1088 m s 761 1099 m 1 Y s 3 lw 761 1094 m21 6 lw 766 1086 m s 766 1098 m s 3 lw 766 1092 m21 6 lw 771 1093 m s 771 1104 m 1 Y s 3 lw 771 1099 m21 6 lw 775 1088 m 1 Y s 775 1100 m s 3 lw 775 1094 m21 6 lw 780
 1074 m s 780 1085 m 1 Y s 3 lw 780 1080 m21 6 lw 785 1077 m s 785 1088 m 1 Y s 3 lw 785 1083 m21 6 lw 790 1086 m s 790 1097 m 1 Y s 3 lw 790 1092 m21 6 lw 794 1090 m s 794 1102 m s 3 lw 794 1096 m21 6 lw 799 1073 m s 799 1084 m 1 Y s 3 lw 799 1079
 m21 6 lw 804 1069 m s 804 1080 m s 3 lw 804 1074 m21 6 lw 808 1081 m s 808 1092 m s 3 lw 808 1087 m21 6 lw 813 1083 m 1 Y s 813 1095 m s 3 lw 813 1089 m21 6 lw 818 1064 m 1 Y s 818 1076 m s 3 lw 818 1070 m21 6 lw 822 1073 m s 822 1085 m s 3 lw 822
 1079 m21 6 lw 827 1068 m s 827 1079 m s 3 lw 827 1073 m21 6 lw 832 1066 m s 832 1078 m s 3 lw 832 1072 m21 6 lw 837 1068 m 1 Y s 837 1080 m s 3 lw 837 1074 m21 6 lw 841 1072 m s 841 1083 m s 3 lw 841 1078 m21 6 lw 846 1072 m s 846 1084 m s 3 lw 846
 1078 m21 6 lw 851 1072 m s 851 1083 m s 3 lw 851 1078 m21 6 lw 855 1068 m s 855 1079 m s 3 lw 855 1073 m21 6 lw 860 1068 m s 860 1079 m 1 Y s 3 lw 860 1074 m21 6 lw 865 1069 m s 865 1081 m s 3 lw 865 1075 m21 6 lw 870 1075 m s 870 1087 m s 3 lw 870
 1081 m21 6 lw 874 1066 m s 874 1077 m s 3 lw 874 1072 m21 6 lw 879 1068 m s 879 1079 m s 3 lw 879 1074 m21 6 lw 884 1061 m s 884 1072 m s 3 lw 884 1066 m21 6 lw 888 1073 m s 888 1084 m s 3 lw 888 1078 m21 6 lw 893 1072 m s 893 1084 m s 3 lw 893 1078
 m21 6 lw 898 1073 m s 898 1084 m s 3 lw 898 1078 m21 6 lw 902 1073 m s 902 1085 m s 3 lw 902 1079 m21 6 lw 907 1062 m s 907 1073 m s 3 lw 907 1068 m21 6 lw 912 1066 m s 912 1078 m s 3 lw 912 1072 m21 6 lw 917 1057 m 1 Y s 917 1069 m s 3 lw 917 1063
 m21 6 lw 921 1058 m s 921 1070 m s 3 lw 921 1064 m21 6 lw 926 1085 m s 926 1097 m s 3 lw 926 1091 m21 6 lw 931 1071 m 1 Y s 931 1083 m s 3 lw 931 1077 m21 6 lw 935 1058 m s 935 1070 m s 3 lw 935 1064 m21 6 lw 940 1064 m s 940 1076 m s 3 lw 940 1070
 m21 6 lw 945 1052 m s 945 1064 m s 3 lw 945 1058 m21 6 lw 950 1064 m s 950 1075 m s 3 lw 950 1069 m21 6 lw 954 1057 m s 954 1068 m s 3 lw 954 1062 m21 6 lw 959 1060 m s 959 1072 m s 3 lw 959 1066 m21 6 lw 964 1076 m s 964 1088 m s 3 lw 964 1082 m21
 6 lw 968 1067 m s 968 1078 m 1 Y s 3 lw 968 1073 m21 6 lw 973 1072 m s 973 1084 m s 3 lw 973 1078 m21 6 lw 978 1070 m s 978 1081 m s 3 lw 978 1075 m21 6 lw 982 1061 m s 982 1072 m s 3 lw 982 1067 m21 6 lw 987 1061 m 1 Y s 987 1073 m s 3 lw 987 1067
 m21 6 lw 992 1076 m s 992 1087 m s 3 lw 992 1082 m21 6 lw 997 1059 m s 997 1070 m s 3 lw 997 1065 m21 6 lw 1001 1067 m s 1001 1079 m s 3 lw 1001 1073 m21 6 lw 1006 1067 m s 1006 1079 m s 3 lw 1006 1073 m21 6 lw 1011 1066 m s 1011 1077 m 1 Y s 3 lw
 1011 1072 m21 6 lw 1015 1061 m s 1015 1072 m 1 Y s 3 lw 1015 1067 m21 6 lw 1020 1066 m 1 Y s 1020 1078 m s 3 lw 1020 1072 m21 6 lw 1025 1067 m s 1025 1078 m 1 Y s 3 lw 1025 1073 m21 6 lw 1030 1070 m 1 Y s 1030 1082 m s 3 lw 1030 1076 m21 6 lw 1034
 1062 m s 1034 1074 m s 3 lw 1034 1068 m21 6 lw 1039 1077 m s 1039 1088 m 1 Y s 3 lw 1039 1083 m21 6 lw 1044 1071 m 1 Y s 1044 1083 m s 3 lw 1044 1077 m21 6 lw 1048 1073 m s 1048 1084 m 1 Y s 3 lw 1048 1079 m21 6 lw 1053 1063 m s 1053 1074 m 1 Y s 3
 lw 1053 1069 m21 6 lw 1058 1072 m s 1058 1084 m s 3 lw 1058 1078 m21 6 lw 1062 1067 m s 1062 1079 m s 3 lw 1062 1073 m21 6 lw 1067 1071 m 1 Y s 1067 1083 m s 3 lw 1067 1077 m21 6 lw 1072 1069 m 1 Y s 1072 1081 m s 3 lw 1072 1075 m21 6 lw 1077 1059 m
 1 Y s 1077 1071 m s 3 lw 1077 1065 m21 6 lw 1081 1071 m 1 Y s 1081 1083 m 1 Y s 3 lw 1081 1077 m21 6 lw 1086 1077 m 1 Y s 1086 1089 m 1 Y s 3 lw 1086 1084 m21 6 lw 1091 1073 m s 1091 1085 m s 3 lw 1091 1079 m21 6 lw 1095 1077 m 1 Y s 1095 1089 m s 3
 lw 1095 1083 m21 6 lw 1100 1076 m 1 Y s 1100 1088 m 1 Y s 3 lw 1100 1083 m21 6 lw 1105 1080 m s 1105 1091 m 1 Y s 3 lw 1105 1086 m21 6 lw 1110 1076 m s 1110 1088 m s 3 lw 1110 1082 m21 6 lw 1114 1073 m 1 Y s 1114 1085 m 1 Y s 3 lw 1114 1079 m21 6 lw
 1119 1065 m s 1119 1077 m s 3 lw 1119 1071 m21 6 lw 1124 1087 m 1 Y s 1124 1099 m 1 Y s 3 lw 1124 1094 m21 6 lw 1128 1078 m 1 Y s 1128 1090 m 1 Y s 3 lw 1128 1085 m21 6 lw 1133 1067 m 1 Y s 1133 1079 m 1 Y s 3 lw 1133 1074 m21 6 lw 1138 1081 m 1 Y s
 1138 1093 m 1 Y s 3 lw 1138 1088 m21 6 lw 1142 1085 m 1 Y s 1142 1097 m 1 Y s 3 lw 1142 1091 m21 6 lw 1147 1079 m s 1147 1091 m 1 Y s 3 lw 1147 1085 m21 6 lw 1152 1078 m 1 Y s 1152 1090 m 1 Y s 3 lw 1152 1084 m21 6 lw 1157 1080 m 1 Y s 1157 1093 m s
 3 lw 1157 1087 m21 6 lw 1161 1079 m s 1161 1091 m 1 Y s 3 lw 1161 1085 m21 6 lw 1166 1084 m 1 Y s 1166 1096 m 1 Y s 3 lw 1166 1090 m21 6 lw 1171 1084 m 1 Y s 1171 1096 m 1 Y s 3 lw 1171 1090 m21 6 lw 1175 1075 m 1 Y s 1175 1088 m s 3 lw 1175 1082
 m21 6 lw 1180 1082 m 1 Y s 1180 1095 m s 3 lw 1180 1089 m21 6 lw 1185 1084 m 1 Y s 1185 1096 m 1 Y s 3 lw 1185 1090 m21 6 lw 1190 1078 m 1 Y s 1190 1090 m 1 Y s 3 lw 1190 1085 m21 6 lw 1194 1085 m 2 Y s 1194 1098 m 1 Y s 3 lw 1194 1092 m21 6 lw 1199
 1083 m 1 Y s 1199 1096 m 1 Y s 3 lw 1199 1090 m21 6 lw 1204 1095 m 1 Y s 1204 1107 m 2 Y s 3 lw 1204 1102 m21 6 lw 1208 1087 m 1 Y s 1208 1099 m 1 Y s 3 lw 1208 1093 m21 6 lw 1213 1079 m 1 Y s 1213 1091 m 2 Y s 3 lw 1213 1086 m21 6 lw 1218 1085 m 1
 Y s 1218 1097 m 1 Y s 3 lw 1218 1091 m21 6 lw 1222 1075 m 1 Y s 1222 1088 m 1 Y s 3 lw 1222 1082 m21 6 lw 1227 1087 m 1 Y s 1227 1100 m 1 Y s 3 lw 1227 1094 m21 6 lw 1232 1098 m 1 Y s 1232 1110 m 1 Y s 3 lw 1232 1104 m21 6 lw 1237 1089 m 1 Y s 1237
 1102 m 1 Y s 3 lw 1237 1096 m21 6 lw 1241 1085 m 1 Y s 1241 1097 m 1 Y s 3 lw 1241 1091 m21 6 lw 1246 1084 m 1 Y s 1246 1096 m 1 Y s 3 lw 1246 1090 m21 6 lw 1251 1090 m 1 Y s 1251 1103 m 1 Y s 3 lw 1251 1097 m21 6 lw 1255 1079 m 2 Y s 1255 1092 m 1
 Y s 3 lw 1255 1086 m21 6 lw 1260 1095 m 1 Y s 1260 1108 m 1 Y s 3 lw 1260 1102 m21 6 lw 1265 1096 m 1 Y s 1265 1108 m 2 Y s 3 lw 1265 1103 m21 6 lw 1269 1100 m 1 Y s 1269 1112 m 2 Y s 3 lw 1269 1107 m21 6 lw 1274 1097 m 2 Y s 1274 1110 m 1 Y s 3 lw
 1274 1104 m21 6 lw 1279 1097 m 1 Y s 1279 1109 m 2 Y s 3 lw 1279 1104 m21 6 lw 1284 1078 m 2 Y s 1284 1091 m 1 Y s 3 lw 1284 1085 m21 6 lw 1288 1092 m 1 Y s 1288 1104 m 2 Y s 3 lw 1288 1099 m21 6 lw 1293 1077 m 1 Y s 1293 1089 m 2 Y s 3 lw 1293 1084
 m21 6 lw 1298 1101 m 2 Y s 1298 1114 m 2 Y s 3 lw 1298 1109 m21 6 lw 1302 1093 m 2 Y s 1302 1106 m 2 Y s 3 lw 1302 1100 m21 6 lw 1307 1105 m 1 Y s 1307 1118 m 1 Y s 3 lw 1307 1112 m21 6 lw 1312 1096 m 2 Y s 1312 1109 m 2 Y s 3 lw 1312 1104 m21 6 lw
 1317 1094 m 2 Y s 1317 1107 m 2 Y s 3 lw 1317 1102 m21 6 lw 1321 1097 m 2 Y s 1321 1110 m 2 Y s 3 lw 1321 1104 m21 6 lw 1326 1091 m 2 Y s 1326 1105 m 1 Y s 3 lw 1326 1099 m21 6 lw 1331 1086 m 2 Y s 1331 1100 m 1 Y s 3 lw 1331 1094 m21 6 lw 1335 1109
 m 2 Y s 1335 1122 m 2 Y s 3 lw 1335 1117 m21 6 lw 1340 1095 m 2 Y s 1340 1109 m 1 Y s 3 lw 1340 1103 m21 6 lw 1345 1109 m 2 Y s 1345 1122 m 2 Y s 3 lw 1345 1117 m21 6 lw 1349 1097 m 2 Y s 1349 1110 m 2 Y s 3 lw 1349 1105 m21 6 lw 1354 1104 m 2 Y s
 1354 1117 m 2 Y s 3 lw 1354 1112 m21 6 lw 1359 1100 m 2 Y s 1359 1114 m 2 Y s 3 lw 1359 1108 m21 6 lw 1364 1100 m 2 Y s 1364 1113 m 2 Y s 3 lw 1364 1108 m21 6 lw 1368 1109 m 2 Y s 1368 1122 m 2 Y s 3 lw 1368 1117 m21 6 lw 1373 1095 m 2 Y s 1373 1108
 m 3 Y s 3 lw 1373 1103 m21 6 lw 1378 1110 m 2 Y s 1378 1123 m 2 Y s 3 lw 1378 1117 m21 6 lw 1382 1118 m 2 Y s 1382 1131 m 3 Y s 3 lw 1382 1126 m21 6 lw 1387 1104 m 3 Y s 1387 1118 m 2 Y s 3 lw 1387 1112 m21 6 lw 1392 1104 m 2 Y s 1392 1118 m 2 Y s 3
 lw 1392 1112 m21 6 lw 1397 1105 m 2 Y s 1397 1119 m 2 Y s 3 lw 1397 1113 m21 6 lw 1401 1111 m 2 Y s 1401 1125 m 2 Y s 3 lw 1401 1119 m21 6 lw 1406 1099 m 2 Y s 1406 1113 m 2 Y s 3 lw 1406 1107 m21 6 lw 1411 1089 m 3 Y s 1411 1103 m 2 Y s 3 lw 1411
 1097 m21 6 lw 1415 1101 m 2 Y s 1415 1115 m 2 Y s 3 lw 1415 1109 m21 6 lw 1420 1092 m 3 Y s 1420 1106 m 3 Y s 3 lw 1420 1101 m21 6 lw 1425 1105 m 3 Y s 1425 1119 m 3 Y s 3 lw 1425 1113 m21 6 lw 1429 1118 m 3 Y s 1429 1132 m 3 Y s 3 lw 1429 1126 m21
 6 lw 1434 1132 m 3 Y s 1434 1146 m 3 Y s 3 lw 1434 1140 m21 6 lw 1439 1117 m 3 Y s 1439 1131 m 3 Y s 3 lw 1439 1125 m21 6 lw 1444 1111 m 2 Y s 1444 1125 m 2 Y s 3 lw 1444 1119 m21 6 lw 1448 1120 m 3 Y s 1448 1134 m 3 Y s 3 lw 1448 1129 m21 6 lw 1453
 1102 m 3 Y s 1453 1116 m 3 Y s 3 lw 1453 1111 m21 6 lw 1458 1126 m 3 Y s 1458 1140 m 3 Y s 3 lw 1458 1135 m21 6 lw 1462 1119 m 2 Y s 1462 1133 m 3 Y s 3 lw 1462 1127 m21 6 lw 1467 1123 m 3 Y s 1467 1137 m 3 Y s 3 lw 1467 1131 m21 6 lw 1472 1120 m 3
 Y s 1472 1135 m 3 Y s 3 lw 1472 1129 m21 6 lw 1477 1109 m 3 Y s 1477 1124 m 3 Y s 3 lw 1477 1118 m21 6 lw 1481 1113 m 3 Y s 1481 1127 m 3 Y s 3 lw 1481 1121 m21 6 lw 1486 1122 m 4 Y s 1486 1137 m 3 Y s 3 lw 1486 1131 m21 6 lw 1491 1138 m 3 Y s 1491
 1153 m 3 Y s 3 lw 1491 1147 m21 6 lw 1495 1111 m 3 Y s 1495 1126 m 3 Y s 3 lw 1495 1120 m21 6 lw 1500 1115 m 3 Y s 1500 1129 m 4 Y s 3 lw 1500 1124 m21 6 lw 1505 1117 m 3 Y s 1505 1132 m 3 Y s 3 lw 1505 1126 m21 6 lw 1509 1112 m 3 Y s 1509 1127 m 3
 Y s 3 lw 1509 1121 m21 6 lw 1514 1116 m 4 Y s 1514 1131 m 3 Y s 3 lw 1514 1125 m21 6 lw 1519 1115 m 4 Y s 1519 1130 m 3 Y s 3 lw 1519 1124 m21 6 lw 1524 1121 m 4 Y s 1524 1136 m 4 Y s 3 lw 1524 1130 m21 6 lw 1528 1142 m 4 Y s 1528 1157 m 4 Y s 3 lw
 1528 1151 m21 6 lw 1533 1103 m 4 Y s 1533 1118 m 3 Y s 3 lw 1533 1112 m21 6 lw 1538 1115 m 4 Y s 1538 1130 m 3 Y s 3 lw 1538 1124 m21 6 lw 1542 1118 m 4 Y s 1542 1133 m 4 Y s 3 lw 1542 1127 m21 6 lw 1547 1110 m 3 Y s 1547 1125 m 3 Y s 3 lw 1547 1119
 m21 6 lw 1552 1122 m 4 Y s 1552 1137 m 4 Y s 3 lw 1552 1131 m21 6 lw 1557 1126 m 4 Y s 1557 1142 m 3 Y s 3 lw 1557 1136 m21 6 lw 1561 1123 m 4 Y s 1561 1138 m 4 Y s 3 lw 1561 1133 m21 6 lw 1566 1111 m 4 Y s 1566 1126 m 4 Y s 3 lw 1566 1121 m21 6 lw
 1571 1122 m 4 Y s 1571 1137 m 4 Y s 3 lw 1571 1131 m21 6 lw 1575 1115 m 4 Y s 1575 1131 m 4 Y s 3 lw 1575 1125 m21 6 lw 1580 1122 m 4 Y s 1580 1137 m 4 Y s 3 lw 1580 1132 m21 6 lw 1585 1123 m 4 Y s 1585 1138 m 4 Y s 3 lw 1585 1133 m21 6 lw 1589 1103
 m 4 Y s 1589 1118 m 4 Y s 3 lw 1589 1112 m21 6 lw 1594 1127 m 4 Y s 1594 1142 m 4 Y s 3 lw 1594 1136 m21 6 lw 1599 1125 m 4 Y s 1599 1140 m 5 Y s 3 lw 1599 1135 m21 6 lw 1604 1117 m 4 Y s 1604 1132 m 4 Y s 3 lw 1604 1126 m21 6 lw 1608 1126 m 4 Y s
 1608 1142 m 4 Y s 3 lw 1608 1136 m21 6 lw 1613 1129 m 4 Y s 1613 1145 m 4 Y s 3 lw 1613 1139 m21 6 lw 1618 1129 m 4 Y s 1618 1144 m 5 Y s 3 lw 1618 1139 m21 6 lw 1622 1133 m 4 Y s 1622 1149 m 4 Y s 3 lw 1622 1143 m21 6 lw 1627 1147 m 5 Y s 1627 1163
 m 5 Y s 3 lw 1627 1157 m21 6 lw 1632 1138 m 4 Y s 1632 1153 m 5 Y s 3 lw 1632 1148 m21 6 lw 1637 1131 m 4 Y s 1637 1146 m 5 Y s 3 lw 1637 1141 m21 6 lw 1641 1139 m 5 Y s 1641 1155 m 5 Y s 3 lw 1641 1149 m21 6 lw 1646 1117 m 4 Y s 1646 1133 m 4 Y s 3
 lw 1646 1127 m21 6 lw 1651 1098 m 5 Y s 1651 1114 m 4 Y s 3 lw 1651 1108 m21 6 lw 1655 1130 m 5 Y s 1655 1146 m 5 Y s 3 lw 1655 1141 m21 6 lw 1660 1132 m 5 Y s 1660 1148 m 5 Y s 3 lw 1660 1143 m21 6 lw 1665 1121 m 4 Y s 1665 1137 m 5 Y s 3 lw 1665
 1131 m21 6 lw 1669 1127 m 5 Y s 1669 1143 m 5 Y s 3 lw 1669 1138 m21 6 lw 1674 1123 m 5 Y s 1674 1139 m 5 Y s 3 lw 1674 1134 m21 6 lw 1679 1151 m 5 Y s 1679 1168 m 5 Y s 3 lw 1679 1162 m21 6 lw 1684 1142 m 5 Y s 1684 1158 m 5 Y s 3 lw 1684 1152 m21
 6 lw 1688 1128 m 5 Y s 1688 1144 m 6 Y s 3 lw 1688 1139 m21 6 lw 1693 1119 m 5 Y s 1693 1135 m 5 Y s 3 lw 1693 1129 m21 6 lw 1698 1143 m 5 Y s 1698 1159 m 6 Y s 3 lw 1698 1154 m21 6 lw 1702 1141 m 5 Y s 1702 1158 m 5 Y s 3 lw 1702 1152 m21 6 lw 1707
 1145 m 6 Y s 1707 1162 m 6 Y s 3 lw 1707 1156 m21 6 lw 1712 1135 m 5 Y s 1712 1152 m 5 Y s 3 lw 1712 1146 m21 6 lw 1717 1124 m 5 Y s 1717 1140 m 6 Y s 3 lw 1717 1135 m21 6 lw 1721 1125 m 6 Y s 1721 1142 m 6 Y s 3 lw 1721 1137 m21 6 lw 1726 1114 m 5
 Y s 1726 1130 m 6 Y s 3 lw 1726 1125 m21 6 lw 1731 1129 m 5 Y s 1731 1145 m 6 Y s 3 lw 1731 1140 m21 6 lw 1735 1142 m 5 Y s 1735 1159 m 5 Y s 3 lw 1735 1153 m21 6 lw 1740 1151 m 5 Y s 1740 1168 m 5 Y s 3 lw 1740 1162 m21 6 lw 1745 1155 m 6 Y s 1745
 1173 m 5 Y s 3 lw 1745 1167 m21 6 lw 1749 1139 m 5 Y s 1749 1156 m 6 Y s 3 lw 1749 1150 m21 6 lw 1754 1124 m 6 Y s 1754 1141 m 6 Y s 3 lw 1754 1136 m21 6 lw 1759 1123 m 6 Y s 1759 1140 m 6 Y s 3 lw 1759 1135 m21 6 lw 1764 1138 m 6 Y s 1764 1155 m 6
 Y s 3 lw 1764 1149 m21 6 lw 1768 1142 m 6 Y s 1768 1160 m 6 Y s 3 lw 1768 1154 m21 6 lw 1773 1150 m 6 Y s 1773 1167 m 6 Y s 3 lw 1773 1161 m21 6 lw 1778 1134 m 6 Y s 1778 1151 m 6 Y s 3 lw 1778 1146 m21 6 lw 1782 1146 m 6 Y s 1782 1164 m 6 Y s 3 lw
 1782 1158 m21 6 lw 1787 1123 m 6 Y s 1787 1141 m 6 Y s 3 lw 1787 1135 m21 6 lw 1792 1140 m 7 Y s 1792 1158 m 6 Y s 3 lw 1792 1152 m21 6 lw 1797 1113 m 6 Y s 1797 1130 m 7 Y s 3 lw 1797 1125 m21 6 lw 1801 1144 m 6 Y s 1801 1162 m 6 Y s 3 lw 1801 1156
 m21 6 lw 1806 1141 m 6 Y s 1806 1159 m 6 Y s 3 lw 1806 1153 m21 6 lw 1811 1144 m 6 Y s 1811 1161 m 7 Y s 3 lw 1811 1156 m21 6 lw 1815 1122 m 6 Y s 1815 1140 m 6 Y s 3 lw 1815 1134 m21 6 lw 1820 1143 m 7 Y s 1820 1161 m 7 Y s 3 lw 1820 1155 m21 6 lw
 1825 1151 m 6 Y s 1825 1169 m 6 Y s 3 lw 1825 1163 m21 6 lw 1829 1132 m 7 Y s 1829 1150 m 7 Y s 3 lw 1829 1145 m21 6 lw 1834 1144 m 7 Y s 1834 1162 m 7 Y s 3 lw 1834 1156 m21 6 lw 1839 1147 m 6 Y s 1839 1165 m 7 Y s 3 lw 1839 1159 m21 6 lw 1844 1165
 m 7 Y s 1844 1184 m 7 Y s 3 lw 1844 1178 m21 6 lw 1848 1148 m 7 Y s 1848 1166 m 7 Y s 3 lw 1848 1161 m21 6 lw 1853 1141 m 7 Y s 1853 1159 m 7 Y s 3 lw 1853 1153 m21 6 lw 1858 1146 m 8 Y s 1858 1165 m 7 Y s 3 lw 1858 1159 m21 6 lw 1862 1131 m 7 Y s
 1862 1149 m 7 Y s 3 lw 1862 1143 m21 6 lw 1867 1145 m 7 Y s 1867 1163 m 8 Y s 3 lw 1867 1158 m21 6 lw 1872 1141 m 7 Y s 1872 1160 m 7 Y s 3 lw 1872 1154 m21 6 lw 1877 1152 m 8 Y s 1877 1171 m 8 Y s 3 lw 1877 1166 m21 6 lw 1881 1129 m 8 Y s 1881 1148
 m 7 Y s 3 lw 1881 1142 m21 6 lw 1886 1128 m 8 Y s 1886 1147 m 7 Y s 3 lw 1886 1141 m21 6 lw 1891 1149 m 7 Y s 1891 1168 m 7 Y s 3 lw 1891 1162 m21 6 lw 1895 1146 m 8 Y s 1895 1165 m 8 Y s 3 lw 1895 1159 m21 6 lw 1900 1135 m 8 Y s 1900 1154 m 7 Y s 3
 lw 1900 1148 m21 6 lw 1905 1124 m 8 Y s 1905 1143 m 8 Y s 3 lw 1905 1138 m21 6 lw 1909 1127 m 7 Y s 1909 1146 m 7 Y s 3 lw 1909 1140 m21 6 lw 1914 1124 m 8 Y s 1914 1143 m 8 Y s 3 lw 1914 1137 m21 6 lw 1919 1142 m 8 Y s 1919 1161 m 8 Y s 3 lw 1919
 1155 m21 6 lw 1924 1159 m 8 Y s 1924 1178 m 8 Y s 3 lw 1924 1173 m21 6 lw 1928 1142 m 8 Y s 1928 1161 m 8 Y s 3 lw 1928 1156 m21 6 lw 1933 1154 m 8 Y s 1933 1173 m 8 Y s 3 lw 1933 1168 m21 6 lw 1938 1139 m 8 Y s 1938 1158 m 8 Y s 3 lw 1938 1153 m21
 6 lw 1942 1157 m 8 Y s 1942 1177 m 8 Y s 3 lw 1942 1171 m21 6 lw 1947 1139 m 9 Y s 1947 1159 m 8 Y s 3 lw 1947 1153 m21 6 lw 1952 1146 m 8 Y s 1952 1165 m 9 Y s 3 lw 1952 1160 m21 6 lw 1957 1133 m 9 Y s 1957 1153 m 8 Y s 3 lw 1957 1147 m21 6 lw 1961
 1134 m 8 Y s 1961 1154 m 8 Y s 3 lw 1961 1148 m21 6 lw 1966 1149 m 8 Y s 1966 1169 m 8 Y s 3 lw 1966 1163 m21 6 lw 1971 1145 m 9 Y s 1971 1165 m 9 Y s 3 lw 1971 1160 m21 6 lw 1975 1158 m 9 Y s 1975 1179 m 8 Y s 3 lw 1975 1173 m21 6 lw 1980 1153 m 9
 Y s 1980 1173 m 9 Y s 3 lw 1980 1168 m21 6 lw 1985 1132 m 9 Y s 1985 1152 m 9 Y s 3 lw 1985 1147 m21 6 lw 1989 1146 m 9 Y s 1989 1167 m 9 Y s 3 lw 1989 1161 m21 6 lw 1994 1174 m 9 Y s 1994 1194 m 10 Y s 3 lw 1994 1189 m21 6 lw 1999 1133 m 9 Y s 1999
 1153 m 9 Y s 3 lw 1999 1147 m21 6 lw 2004 1135 m 9 Y s 2004 1155 m 9 Y s 3 lw 2004 1150 m21 6 lw 2008 1138 m 9 Y s 2008 1158 m 9 Y s 3 lw 2008 1153 m21 6 lw 2013 1135 m 9 Y s 2013 1156 m 9 Y s 3 lw 2013 1150 m21 6 lw 2018 1135 m 9 Y s 2018 1156 m 9
 Y s 3 lw 2018 1150 m21 6 lw 2022 1124 m 9 Y s 2022 1144 m 10 Y s 3 lw 2022 1139 m21 6 lw 2027 1159 m 10 Y s 2027 1180 m 9 Y s 3 lw 2027 1174 m21 6 lw 2032 1177 m 10 Y s 2032 1198 m 10 Y s 3 lw 2032 1193 m21 6 lw 2036 1180 m 10 Y s 2036 1201 m 10 Y s
 3 lw 2036 1196 m21 6 lw 2041 1157 m 10 Y s 2041 1178 m 10 Y s 3 lw 2041 1172 m21 6 lw 2046 1163 m 10 Y s 2046 1184 m 10 Y s 3 lw 2046 1178 m21 6 lw 2051 1141 m 10 Y s 2051 1162 m 10 Y s 3 lw 2051 1157 m21 6 lw 2055 1124 m 10 Y s 2055 1145 m 10 Y s 3
 lw 2055 1139 m21 6 lw 2060 1171 m 11 Y s 2060 1193 m 10 Y s 3 lw 2060 1187 m21 6 lw 2065 1119 m 10 Y s 2065 1141 m 9 Y s 3 lw 2065 1135 m21 6 lw 2069 1167 m 10 Y s 2069 1188 m 11 Y s 3 lw 2069 1183 m21 6 lw 2074 1148 m 10 Y s 2074 1170 m 10 Y s 3 lw
 2074 1164 m21 6 lw 2079 1153 m 10 Y s 2079 1174 m 11 Y s 3 lw 2079 1169 m21 6 lw 2084 1175 m 11 Y s 2084 1197 m 10 Y s 3 lw 2084 1191 m21 6 lw 2088 1174 m 10 Y s 2088 1196 m 10 Y s 3 lw 2088 1190 m21 6 lw 2093 1168 m 10 Y s 2093 1190 m 10 Y s 3 lw
 2093 1184 m21 6 lw 2098 1145 m 10 Y s 2098 1166 m 11 Y s 3 lw 2098 1161 m21 6 lw 2102 1150 m 10 Y s 2102 1171 m 11 Y s 3 lw 2102 1166 m21 6 lw 2107 1184 m 11 Y s 2107 1206 m 11 Y s 3 lw 2107 1201 m21 6 lw 2112 1168 m 11 Y s 2112 1190 m 11 Y s 3 lw
 2112 1185 m21 6 lw 2116 1170 m 11 Y s 2116 1192 m 11 Y s 3 lw 2116 1186 m21 6 lw 2121 1146 m 11 Y s 2121 1168 m 11 Y s 3 lw 2121 1162 m21 6 lw 2126 1180 m 11 Y s 2126 1203 m 11 Y s 3 lw 2126 1197 m21 6 lw 2131 1148 m 11 Y s 2131 1170 m 11 Y s 3 lw
 2131 1165 m21 6 lw 2135 1143 m 11 Y s 2135 1166 m 11 Y s 3 lw 2135 1160 m21 6 lw 2140 1150 m 11 Y s 2140 1172 m 11 Y s 3 lw 2140 1167 m21 6 lw 2145 1126 m 11 Y s 2145 1148 m 11 Y s 3 lw 2145 1143 m21 6 lw 2149 1162 m 12 Y s 2149 1185 m 12 Y s 3 lw
 2149 1180 m21 6 lw 2154 1151 m 12 Y s 2154 1174 m 12 Y s 3 lw 2154 1168 m21 6 lw 2159 1157 m 12 Y s 2159 1180 m 11 Y s 3 lw 2159 1174 m21 6 lw 2164 1164 m 12 Y s 2164 1187 m 12 Y s 3 lw 2164 1181 m21 6 lw 2168 1123 m 11 Y s 2168 1146 m 11 Y s 3 lw
 2168 1140 m21 6 lw 2173 1135 m 12 Y s 2173 1158 m 12 Y s 3 lw 2173 1153 m21 6 lw 2178 1159 m 12 Y s 2178 1182 m 12 Y s 3 lw 2178 1176 m21 6 lw 2182 1132 m 12 Y s 2182 1156 m 11 Y s 3 lw 2182 1150 m21 6 lw 2187 1145 m 12 Y s 2187 1168 m 12 Y s 3 lw
 2187 1162 m21 6 lw 2192 1139 m 12 Y s 2192 1162 m 12 Y s 3 lw 2192 1157 m21 6 lw 2196 1147 m 13 Y s 2196 1171 m 12 Y s 3 lw 2196 1165 m21 6 lw 2201 1168 m 12 Y s 2201 1192 m 12 Y s 3 lw 2201 1186 m21 6 lw 2206 1124 m 13 Y s 2206 1148 m 12 Y s 3 lw
 2206 1142 m21 6 lw 2211 1166 m 12 Y s 2211 1190 m 12 Y s 3 lw 2211 1184 m21 6 lw 2215 1153 m 13 Y s 2215 1177 m 12 Y s 3 lw 2215 1171 m21 6 lw 2220 1140 m 12 Y s 2220 1163 m 13 Y s 3 lw 2220 1158 m21 6 lw black 340 223 m 1882 X s
 gsave  2268 2234 0 0 C 1923.86 58.2559 t 0 r /Helvetica findfont 83.8316 sf 0 0 m (Q [GeV]) show NC gr  340 279 m -56 Y s 387 251 m -28 Y s 434 251 m -28 Y s 481 251 m -28 Y s 528 279 m -56 Y s 575 251 m -28 Y s 622 251 m -28 Y s 670 251 m -28 Y s
 717 279 m -56 Y s 764 251 m -28 Y s 811 251 m -28 Y s 858 251 m -28 Y s 905 279 m -56 Y s 952 251 m -28 Y s 999 251 m -28 Y s 1046 251 m -28 Y s 1093 279 m -56 Y s 1140 251 m -28 Y s 1187 251 m -28 Y s 1234 251 m -28 Y s 1281 279 m -56 Y s 1328 251
 m -28 Y s 1375 251 m -28 Y s 1422 251 m -28 Y s 1469 279 m -56 Y s 1517 251 m -28 Y s 1564 251 m -28 Y s 1611 251 m -28 Y s 1658 279 m -56 Y s 1705 251 m -28 Y s 1752 251 m -28 Y s 1799 251 m -28 Y s 1846 279 m -56 Y s 1893 251 m -28 Y s 1940 251 m
 -28 Y s 1987 251 m -28 Y s 2034 279 m -56 Y s 2081 251 m -28 Y s 2128 251 m -28 Y s 2175 251 m -28 Y s 2222 279 m -56 Y s
 gsave  2268 2234 0 0 C 322.539 159.138 t 0 r /Helvetica findfont 62.5185 sf 0 0 m (0) show NC gr 
 gsave  2268 2234 0 0 C 484.518 159.138 t 0 r /Helvetica findfont 62.5185 sf 0 0 m (0.2) show NC gr 
 gsave  2268 2234 0 0 C 673.495 159.138 t 0 r /Helvetica findfont 62.5185 sf 0 0 m (0.4) show NC gr 
 gsave  2268 2234 0 0 C 861.05 159.138 t 0 r /Helvetica findfont 62.5185 sf 0 0 m (0.6) show NC gr 
 gsave  2268 2234 0 0 C 1050.03 159.138 t 0 r /Helvetica findfont 62.5185 sf 0 0 m (0.8) show NC gr 
 gsave  2268 2234 0 0 C 1268.84 159.138 t 0 r /Helvetica findfont 62.5185 sf 0 0 m (1) show NC gr 
 gsave  2268 2234 0 0 C 1426.56 159.138 t 0 r /Helvetica findfont 62.5185 sf 0 0 m (1.2) show NC gr 
 gsave  2268 2234 0 0 C 1614.11 159.138 t 0 r /Helvetica findfont 62.5185 sf 0 0 m (1.4) show NC gr 
 gsave  2268 2234 0 0 C 1803.09 159.138 t 0 r /Helvetica findfont 62.5185 sf 0 0 m (1.6) show NC gr 
 gsave  2268 2234 0 0 C 1990.65 159.138 t 0 r /Helvetica findfont 62.5185 sf 0 0 m (1.8) show NC gr 
 gsave  2268 2234 0 0 C 2205.2 159.138 t 0 r /Helvetica findfont 62.5185 sf 0 0 m (2) show NC gr  340 223 m 1966 Y s
 gsave  2268 2234 0 0 C 152.034 1953.7 t 90 r /Helvetica findfont 83.8316 sf 0 0 m (DR\(Q\)) show NC gr  400 402 m -60 X s 370 491 m -30 X s 370 581 m -30 X s 370 670 m -30 X s 400 759 m -60 X s 370 849 m -30 X s 370 938 m -30 X s 370 1027 m -30 X s
 400 1117 m -60 X s 370 1206 m -30 X s 370 1295 m -30 X s 370 1385 m -30 X s 400 1474 m -60 X s 370 1564 m -30 X s 370 1653 m -30 X s 370 1742 m -30 X s 400 1832 m -60 X s 370 1921 m -30 X s 370 2010 m -30 X s 370 2100 m -30 X s 400 2189 m -60 X s
 400 402 m -60 X s 370 313 m -30 X s 370 223 m -30 X s
 gsave  2268 2234 0 0 C 242.97 379.374 t 0 r /Helvetica findfont 62.5185 sf 0 0 m (0.6) show NC gr 
 gsave  2268 2234 0 0 C 242.97 737.434 t 0 r /Helvetica findfont 62.5185 sf 0 0 m (0.8) show NC gr 
 gsave  2268 2234 0 0 C 305.488 1092.65 t 0 r /Helvetica findfont 62.5185 sf 0 0 m (1) show NC gr 
 gsave  2268 2234 0 0 C 242.97 1450.71 t 0 r /Helvetica findfont 62.5185 sf 0 0 m (1.2) show NC gr 
 gsave  2268 2234 0 0 C 242.97 1808.77 t 0 r /Helvetica findfont 62.5185 sf 0 0 m (1.4) show NC gr 
 gsave  2268 2234 0 0 C 242.97 2166.83 t 0 r /Helvetica findfont 62.5185 sf 0 0 m (1.6) show NC gr 
 gsave  2268 2234 0 0 C 906.518 670.653 t 0 r /Helvetica-Bold findfont 72.4646 sf 0 0 m (DR PIONS) show NC gr 
 gsave  2268 2234 0 0 C 906.518 558.404 t 0 r /Helvetica-Bold findfont 72.4646 sf 0 0 m (ref. sample: EVENT MIX) show NC gr 
 gsave  2268 2234 0 0 C 906.518 447.576 t 0 r /Helvetica-Bold findfont 72.4646 sf 0 0 m (VELO tracks multiplicity: 11 \255 20) show NC gr 
 gr  gr showpage
end
%%EOF
