%!PS-Adobe-2.0 EPSF-2.0
%%BoundingBox:  0 0 567 558
%%Title: ./DR_pion_0c65_h3015_2_h3401_2_compare.eps: DR_pion_0c65_h3015_2_h3401_2_compare
%%Creator: ROOT Version 6.06/02
%%CreationDate: Fri Jan 27 13:15:53 2017
%%DocumentNeededResources: ProcSet (FontSetInit)
%%EndComments
%%BeginProlog
80 dict begin
/s {stroke} def /l {lineto} def /m {moveto} def /t {translate} def
/r {rotate} def /rl {roll}  def /R {repeat} def
/d {rlineto} def /rm {rmoveto} def /gr {grestore} def /f {eofill} def
/c {setrgbcolor} def /black {0 setgray} def /sd {setdash} def
/cl {closepath} def /sf {scalefont setfont} def /lw {setlinewidth} def
/box {m dup 0 exch d exch 0 d 0 exch neg d cl} def
/NC{systemdict begin initclip end}def/C{NC box clip newpath}def
/bl {box s} def /bf {gsave box gsave f grestore 1 lw [] 0 sd s grestore} def /Y { 0 exch d} def /X { 0 d} def 
/K {{pop pop 0 moveto} exch kshow} bind def
/ita {/ang 15 def gsave [1 0 ang dup sin exch cos div 1 0 0] concat} def 
/mp {newpath /y exch def /x exch def} def
/side {[w .77 mul w .23 mul] .385 w mul sd w 0 l currentpoint t -144 r} def
/mr {mp x y w2 0 360 arc} def /m24 {mr s} def /m20 {mr f} def
/mb {mp x y w2 add m w2 neg 0 d 0 w neg d w 0 d 0 w d cl} def
/mt {mp x y w2 add m w2 neg w neg d w 0 d cl} def
/m21 {mb f} def /m25 {mb s} def /m22 {mt f} def /m26{mt s} def
/m23 {mp x y w2 sub m w2 w d w neg 0 d cl f} def
/m27 {mp x y w2 add m w3 neg w2 neg d w3 w2 neg d w3 w2 d cl s} def
/m28 {mp x w2 sub y w2 sub w3 add m w3 0 d  0 w3 neg d w3 0 d 0 w3 d w3 0 d  0 w3 d w3 neg 0 d 0 w3 d w3 neg 0 d 0 w3 neg d w3 neg 0 d cl s } def
/m29 {mp gsave x w2 sub y w2 add w3 sub m currentpoint t 4 {side} repeat cl fill gr} def
/m30 {mp gsave x w2 sub y w2 add w3 sub m currentpoint t 4 {side} repeat cl s gr} def
/m31 {mp x y w2 sub m 0 w d x w2 sub y m w 0 d x w2 sub y w2 add m w w neg d x w2 sub y w2 sub m w w d s} def
/m32 {mp x y w2 sub m w2 w d w neg 0 d cl s} def
/m33 {mp x y w2 add m w3 neg w2 neg d w3 w2 neg d w3 w2 d cl f} def
/m34 {mp x w2 sub y w2 sub w3 add m w3 0 d  0 w3 neg d w3 0 d 0 w3 d w3 0 d  0 w3 d w3 neg 0 d 0 w3 d w3 neg 0 d 0 w3 neg d w3 neg 0 d cl f } def
/m2 {mp x y w2 sub m 0 w d x w2 sub y m w 0 d s} def
/m5 {mp x w2 sub y w2 sub m w w d x w2 sub y w2 add m w w neg d s} def
%%IncludeResource: ProcSet (FontSetInit)
%%IncludeResource: font Times-Roman
%%IncludeResource: font Times-Italic
%%IncludeResource: font Times-Bold
%%IncludeResource: font Times-BoldItalic
%%IncludeResource: font Helvetica
%%IncludeResource: font Helvetica-Oblique
%%IncludeResource: font Helvetica-Bold
%%IncludeResource: font Helvetica-BoldOblique
%%IncludeResource: font Courier
%%IncludeResource: font Courier-Oblique
%%IncludeResource: font Courier-Bold
%%IncludeResource: font Courier-BoldOblique
%%IncludeResource: font Symbol
%%IncludeResource: font ZapfDingbats
/reEncode {exch findfont dup length dict begin {1 index /FID eq  {pop pop} {def} ifelse } forall /Encoding exch def currentdict end dup /FontName get exch definefont pop } def [/Times-Bold /Times-Italic /Times-BoldItalic /Helvetica /Helvetica-Oblique
 /Helvetica-Bold /Helvetica-BoldOblique /Courier /Courier-Oblique /Courier-Bold /Courier-BoldOblique /Times-Roman /AvantGarde-Book /AvantGarde-BookOblique /AvantGarde-Demi /AvantGarde-DemiOblique /Bookman-Demi /Bookman-DemiItalic /Bookman-Light
 /Bookman-LightItalic /Helvetica-Narrow /Helvetica-Narrow-Bold /Helvetica-Narrow-BoldOblique /Helvetica-Narrow-Oblique /NewCenturySchlbk-Roman /NewCenturySchlbk-Bold /NewCenturySchlbk-BoldItalic /NewCenturySchlbk-Italic /Palatino-Bold
 /Palatino-BoldItalic /Palatino-Italic /Palatino-Roman ] {ISOLatin1Encoding reEncode } forall
%%EndProlog
%%BeginSetup
%%EndSetup
newpath  gsave  .25 .25 scale  gsave  0 0 t black[  ] 0 sd 6 lw 1 1 1 c 2268 2234 0 0 bf black 3 lw 1 1 1 c 1882 1966 340 223 bf black 1882 1966 340 223 bl 1 1 1 c 1882 1966 340 223 bf black 1882 1966 340 223 bl 0 0 1 c 6 lw 1 1 1 c 0 0 1 c 406 1707
 m 7 Y s 406 1731 m 6 Y s 3 lw /w 19 def /w2 {w 2 div} def /w3 {w 3 div} def 406 1722 m21 6 lw 425 1567 m 2 Y s 425 1586 m 3 Y s 3 lw 425 1578 m21 6 lw 444 1485 m 1 Y s 444 1503 m s 3 lw 444 1494 m21 6 lw 3 lw 463 1413 m21 6 lw 3 lw 481 1340 m21 6 lw
 3 lw 500 1295 m21 6 lw 3 lw 519 1263 m21 6 lw 3 lw 538 1221 m21 6 lw 3 lw 557 1205 m21 6 lw 3 lw 575 1178 m21 6 lw 3 lw 594 1162 m21 6 lw 3 lw 613 1148 m21 6 lw 3 lw 632 1135 m21 6 lw 3 lw 651 1115 m21 6 lw 3 lw 670 1117 m21 6 lw 3 lw 688 1113 m21 6
 lw 3 lw 707 1099 m21 6 lw 3 lw 726 1099 m21 6 lw 3 lw 745 1097 m21 6 lw 3 lw 764 1082 m21 6 lw 3 lw 782 1077 m21 6 lw 3 lw 801 1078 m21 6 lw 3 lw 820 1074 m21 6 lw 3 lw 839 1069 m21 6 lw 3 lw 858 1069 m21 6 lw 3 lw 877 1071 m21 6 lw 3 lw 895 1075
 m21 6 lw 3 lw 914 1059 m21 6 lw 3 lw 933 1074 m21 6 lw 3 lw 952 1058 m21 6 lw 3 lw 971 1072 m21 6 lw 3 lw 990 1062 m21 6 lw 3 lw 1008 1065 m21 6 lw 3 lw 1027 1068 m21 6 lw 3 lw 1046 1073 m21 6 lw 3 lw 1065 1070 m21 6 lw 3 lw 1084 1077 m21 6 lw 3 lw
 1102 1074 m21 6 lw 3 lw 1121 1076 m21 6 lw 3 lw 1140 1078 m21 6 lw 3 lw 1159 1082 m21 6 lw 3 lw 1178 1078 m21 6 lw 3 lw 1197 1083 m21 6 lw 3 lw 1215 1085 m21 6 lw 3 lw 1234 1092 m21 6 lw 3 lw 1253 1090 m21 6 lw 3 lw 1272 1100 m21 6 lw 3 lw 1291 1082
 m21 6 lw 3 lw 1309 1095 m21 6 lw 3 lw 1328 1094 m21 6 lw 3 lw 1347 1098 m21 6 lw 3 lw 1366 1098 m21 6 lw 3 lw 1385 1110 m21 6 lw 3 lw 1404 1098 m21 6 lw 3 lw 1422 1106 m21 6 lw 3 lw 1441 1117 m21 6 lw 3 lw 1460 1111 m21 6 lw 3 lw 1479 1111 m21 6 lw
 3 lw 1498 1122 m21 6 lw 3 lw 1517 1116 m21 6 lw 3 lw 1535 1121 m21 6 lw 3 lw 1554 1120 m21 6 lw 3 lw 1573 1127 m21 6 lw 3 lw 1592 1117 m21 6 lw 3 lw 1611 1117 m21 6 lw 3 lw 1629 1141 m21 6 lw 3 lw 1648 1112 m21 6 lw 3 lw 1667 1136 m21 6 lw 3 lw 1686
 1136 m21 6 lw 3 lw 1705 1143 m21 6 lw 3 lw 1724 1132 m21 6 lw 3 lw 1742 1145 m21 6 lw 3 lw 1761 1127 m21 6 lw 3 lw 1780 1142 m21 6 lw 1799 1131 m s 1799 1148 m s 3 lw 1799 1139 m21 6 lw 1818 1133 m s 1818 1151 m s 3 lw 1818 1142 m21 6 lw 1837 1144 m
 1 Y s 1837 1162 m s 3 lw 1837 1153 m21 6 lw 1855 1140 m 1 Y s 1855 1158 m s 3 lw 1855 1149 m21 6 lw 1874 1137 m 1 Y s 1874 1155 m s 3 lw 1874 1146 m21 6 lw 1893 1123 m 1 Y s 1893 1141 m 1 Y s 3 lw 1893 1133 m21 6 lw 1912 1134 m 1 Y s 1912 1152 m 1 Y
 s 3 lw 1912 1144 m21 6 lw 1931 1142 m 2 Y s 1931 1161 m 1 Y s 3 lw 1931 1152 m21 6 lw 1949 1153 m 1 Y s 1949 1171 m 2 Y s 3 lw 1949 1163 m21 6 lw 1968 1145 m 2 Y s 1968 1164 m 1 Y s 3 lw 1968 1155 m21 6 lw 1987 1144 m 2 Y s 1987 1163 m 2 Y s 3 lw
 1987 1154 m21 6 lw 2006 1133 m 2 Y s 2006 1152 m 2 Y s 3 lw 2006 1144 m21 6 lw 2025 1146 m 3 Y s 2025 1166 m 2 Y s 3 lw 2025 1157 m21 6 lw 2044 1148 m 3 Y s 2044 1168 m 2 Y s 3 lw 2044 1159 m21 6 lw 2062 1141 m 3 Y s 2062 1161 m 3 Y s 3 lw 2062 1152
 m21 6 lw 2081 1149 m 3 Y s 2081 1169 m 3 Y s 3 lw 2081 1160 m21 6 lw 2100 1171 m 3 Y s 2100 1191 m 4 Y s 3 lw 2100 1183 m21 6 lw 2119 1159 m 4 Y s 2119 1180 m 3 Y s 3 lw 2119 1171 m21 6 lw 2138 1128 m 3 Y s 2138 1148 m 4 Y s 3 lw 2138 1140 m21 6 lw
 2156 1158 m 4 Y s 2156 1179 m 4 Y s 3 lw 2156 1170 m21 6 lw 2175 1154 m 5 Y s 2175 1176 m 4 Y s 3 lw 2175 1167 m21 6 lw 2194 1145 m 5 Y s 2194 1167 m 4 Y s 3 lw 2194 1158 m21 6 lw 2213 1155 m 4 Y s 2213 1177 m 4 Y s 3 lw 2213 1168 m21 6 lw black 340
 223 m 1882 X s
 gsave  2268 2234 0 0 C 1923.86 58.2559 t 0 r /Helvetica findfont 83.8316 sf 0 0 m (Q [GeV]) show NC gr  340 279 m -56 Y s 387 251 m -28 Y s 434 251 m -28 Y s 481 251 m -28 Y s 528 279 m -56 Y s 575 251 m -28 Y s 622 251 m -28 Y s 670 251 m -28 Y s
 717 279 m -56 Y s 764 251 m -28 Y s 811 251 m -28 Y s 858 251 m -28 Y s 905 279 m -56 Y s 952 251 m -28 Y s 999 251 m -28 Y s 1046 251 m -28 Y s 1093 279 m -56 Y s 1140 251 m -28 Y s 1187 251 m -28 Y s 1234 251 m -28 Y s 1281 279 m -56 Y s 1328 251
 m -28 Y s 1375 251 m -28 Y s 1422 251 m -28 Y s 1469 279 m -56 Y s 1517 251 m -28 Y s 1564 251 m -28 Y s 1611 251 m -28 Y s 1658 279 m -56 Y s 1705 251 m -28 Y s 1752 251 m -28 Y s 1799 251 m -28 Y s 1846 279 m -56 Y s 1893 251 m -28 Y s 1940 251 m
 -28 Y s 1987 251 m -28 Y s 2034 279 m -56 Y s 2081 251 m -28 Y s 2128 251 m -28 Y s 2175 251 m -28 Y s 2222 279 m -56 Y s
 gsave  2268 2234 0 0 C 322.539 159.138 t 0 r /Helvetica findfont 62.5185 sf 0 0 m (0) show NC gr 
 gsave  2268 2234 0 0 C 484.518 159.138 t 0 r /Helvetica findfont 62.5185 sf 0 0 m (0.2) show NC gr 
 gsave  2268 2234 0 0 C 673.495 159.138 t 0 r /Helvetica findfont 62.5185 sf 0 0 m (0.4) show NC gr 
 gsave  2268 2234 0 0 C 861.05 159.138 t 0 r /Helvetica findfont 62.5185 sf 0 0 m (0.6) show NC gr 
 gsave  2268 2234 0 0 C 1050.03 159.138 t 0 r /Helvetica findfont 62.5185 sf 0 0 m (0.8) show NC gr 
 gsave  2268 2234 0 0 C 1268.84 159.138 t 0 r /Helvetica findfont 62.5185 sf 0 0 m (1) show NC gr 
 gsave  2268 2234 0 0 C 1426.56 159.138 t 0 r /Helvetica findfont 62.5185 sf 0 0 m (1.2) show NC gr 
 gsave  2268 2234 0 0 C 1614.11 159.138 t 0 r /Helvetica findfont 62.5185 sf 0 0 m (1.4) show NC gr 
 gsave  2268 2234 0 0 C 1803.09 159.138 t 0 r /Helvetica findfont 62.5185 sf 0 0 m (1.6) show NC gr 
 gsave  2268 2234 0 0 C 1990.65 159.138 t 0 r /Helvetica findfont 62.5185 sf 0 0 m (1.8) show NC gr 
 gsave  2268 2234 0 0 C 2205.2 159.138 t 0 r /Helvetica findfont 62.5185 sf 0 0 m (2) show NC gr  340 223 m 1966 Y s
 gsave  2268 2234 0 0 C 152.034 1450.71 t 90 r /Helvetica findfont 83.8316 sf 0 0 m ( DR\(Q\) / \(0.02 GeV\)) show NC gr  400 402 m -60 X s 370 491 m -30 X s 370 581 m -30 X s 370 670 m -30 X s 400 759 m -60 X s 370 849 m -30 X s 370 938 m -30 X s
 370 1027 m -30 X s 400 1117 m -60 X s 370 1206 m -30 X s 370 1295 m -30 X s 370 1385 m -30 X s 400 1474 m -60 X s 370 1564 m -30 X s 370 1653 m -30 X s 370 1742 m -30 X s 400 1832 m -60 X s 370 1921 m -30 X s 370 2010 m -30 X s 370 2100 m -30 X s
 400 2189 m -60 X s 400 402 m -60 X s 370 313 m -30 X s 370 223 m -30 X s
 gsave  2268 2234 0 0 C 242.97 379.374 t 0 r /Helvetica findfont 62.5185 sf 0 0 m (0.6) show NC gr 
 gsave  2268 2234 0 0 C 242.97 737.434 t 0 r /Helvetica findfont 62.5185 sf 0 0 m (0.8) show NC gr 
 gsave  2268 2234 0 0 C 305.488 1092.65 t 0 r /Helvetica findfont 62.5185 sf 0 0 m (1) show NC gr 
 gsave  2268 2234 0 0 C 242.97 1450.71 t 0 r /Helvetica findfont 62.5185 sf 0 0 m (1.2) show NC gr 
 gsave  2268 2234 0 0 C 242.97 1808.77 t 0 r /Helvetica findfont 62.5185 sf 0 0 m (1.4) show NC gr 
 gsave  2268 2234 0 0 C 242.97 2166.83 t 0 r /Helvetica findfont 62.5185 sf 0 0 m (1.6) show NC gr  1 0 0 c 1 1 1 c 1 0 0 c 406 1636 m 15 Y s 406 1668 m 14 Y s 3 lw 406 1659 m21 6 lw 425 1557 m 9 Y s 425 1583 m 9 Y s 3 lw 425 1574 m21 6 lw 444 1474 m
 6 Y s 444 1497 m 6 Y s 3 lw 444 1488 m21 6 lw 463 1401 m 4 Y s 463 1422 m 4 Y s 3 lw 463 1414 m21 6 lw 481 1345 m 2 Y s 481 1364 m 3 Y s 3 lw 481 1356 m21 6 lw 500 1319 m 1 Y s 500 1337 m 1 Y s 3 lw 500 1329 m21 6 lw 519 1278 m 1 Y s 519 1296 m s 3
 lw 519 1287 m21 6 lw 3 lw 538 1249 m21 6 lw 3 lw 557 1237 m21 6 lw 3 lw 575 1199 m21 6 lw 3 lw 594 1191 m21 6 lw 3 lw 613 1166 m21 6 lw 3 lw 632 1158 m21 6 lw 3 lw 651 1143 m21 6 lw 3 lw 670 1142 m21 6 lw 3 lw 688 1126 m21 6 lw 3 lw 707 1114 m21 6
 lw 3 lw 726 1119 m21 6 lw 3 lw 745 1116 m21 6 lw 3 lw 764 1114 m21 6 lw 3 lw 782 1102 m21 6 lw 3 lw 801 1092 m21 6 lw 3 lw 820 1084 m21 6 lw 3 lw 839 1084 m21 6 lw 3 lw 858 1082 m21 6 lw 3 lw 877 1076 m21 6 lw 3 lw 895 1082 m21 6 lw 3 lw 914 1074
 m21 6 lw 3 lw 933 1076 m21 6 lw 3 lw 952 1068 m21 6 lw 3 lw 971 1079 m21 6 lw 3 lw 990 1075 m21 6 lw 3 lw 1008 1074 m21 6 lw 3 lw 1027 1073 m21 6 lw 3 lw 1046 1076 m21 6 lw 3 lw 1065 1077 m21 6 lw 3 lw 1084 1071 m21 6 lw 3 lw 1102 1087 m21 6 lw 3 lw
 1121 1082 m21 6 lw 3 lw 1140 1084 m21 6 lw 3 lw 1159 1085 m21 6 lw 3 lw 1178 1090 m21 6 lw 3 lw 1197 1093 m21 6 lw 3 lw 1215 1084 m21 6 lw 3 lw 1234 1092 m21 6 lw 3 lw 1253 1089 m21 6 lw 3 lw 1272 1100 m21 6 lw 3 lw 1291 1097 m21 6 lw 3 lw 1309 1103
 m21 6 lw 3 lw 1328 1103 m21 6 lw 3 lw 1347 1110 m21 6 lw 3 lw 1366 1109 m21 6 lw 3 lw 1385 1113 m21 6 lw 3 lw 1404 1109 m21 6 lw 3 lw 1422 1107 m21 6 lw 3 lw 1441 1127 m21 6 lw 3 lw 1460 1128 m21 6 lw 3 lw 1479 1127 m21 6 lw 3 lw 1498 1123 m21 6 lw
 3 lw 1517 1123 m21 6 lw 3 lw 1535 1124 m21 6 lw 3 lw 1554 1126 m21 6 lw 3 lw 1573 1114 m21 6 lw 3 lw 1592 1127 m21 6 lw 3 lw 1611 1139 m21 6 lw 3 lw 1629 1140 m21 6 lw 3 lw 1648 1136 m21 6 lw 3 lw 1667 1123 m21 6 lw 3 lw 1686 1141 m21 6 lw 3 lw 1705
 1146 m21 6 lw 3 lw 1724 1120 m21 6 lw 3 lw 1742 1157 m21 6 lw 3 lw 1761 1145 m21 6 lw 3 lw 1780 1143 m21 6 lw 3 lw 1799 1138 m21 6 lw 1818 1139 m s 1818 1156 m s 3 lw 1818 1148 m21 6 lw 1837 1141 m 1 Y s 1837 1159 m s 3 lw 1837 1150 m21 6 lw 1855
 1136 m s 1855 1154 m s 3 lw 1855 1145 m21 6 lw 1874 1139 m s 1874 1156 m 1 Y s 3 lw 1874 1148 m21 6 lw 1893 1146 m 1 Y s 1893 1164 m 1 Y s 3 lw 1893 1155 m21 6 lw 1912 1118 m s 1912 1135 m 1 Y s 3 lw 1912 1127 m21 6 lw 1931 1146 m 1 Y s 1931 1164 m
 1 Y s 3 lw 1931 1155 m21 6 lw 1949 1128 m 1 Y s 1949 1146 m 1 Y s 3 lw 1949 1138 m21 6 lw 1968 1140 m 2 Y s 1968 1159 m 1 Y s 3 lw 1968 1150 m21 6 lw 1987 1151 m 2 Y s 1987 1170 m 1 Y s 3 lw 1987 1161 m21 6 lw 2006 1129 m 2 Y s 2006 1148 m 1 Y s 3
 lw 2006 1139 m21 6 lw 2025 1143 m 2 Y s 2025 1162 m 2 Y s 3 lw 2025 1154 m21 6 lw 2044 1163 m 2 Y s 2044 1182 m 2 Y s 3 lw 2044 1174 m21 6 lw 2062 1142 m 2 Y s 2062 1161 m 2 Y s 3 lw 2062 1152 m21 6 lw 2081 1167 m 3 Y s 2081 1187 m 2 Y s 3 lw 2081
 1178 m21 6 lw 2100 1144 m 3 Y s 2100 1164 m 3 Y s 3 lw 2100 1156 m21 6 lw 2119 1164 m 3 Y s 2119 1184 m 3 Y s 3 lw 2119 1176 m21 6 lw 2138 1146 m 3 Y s 2138 1166 m 3 Y s 3 lw 2138 1158 m21 6 lw 2156 1151 m 4 Y s 2156 1172 m 3 Y s 3 lw 2156 1163 m21
 6 lw 2175 1115 m 4 Y s 2175 1136 m 3 Y s 3 lw 2175 1127 m21 6 lw 2194 1145 m 4 Y s 2194 1166 m 4 Y s 3 lw 2194 1158 m21 6 lw 2213 1130 m 4 Y s 2213 1151 m 4 Y s 3 lw 2213 1143 m21 6 lw black 1 1 1 c 680 447 1474 1675 bf black 1474 1675 m 680 X s
 2154 1675 m 447 Y s 2154 2122 m -680 X s 1474 2122 m -447 Y s
 gsave  2268 2234 0 0 C 1528.86 2014.8 t 0 r /Helvetica findfont 72.4646 sf 0 0 m ( of pair range) show NC gr 
 gsave  2268 2234 0 0 C 1490.5 2014.8 t 0 r /Symbol findfont 72.4646 sf 0 0 m (h) show NC gr 
 gsave  2268 2234 0 0 C 1643.95 1865.61 t 0 r /Helvetica findfont 72.4646 sf 0 0 m (2 \255 4) show NC gr  0 0 1 c 1559 1854 m 89 Y s 3 lw 1559 1899 m21 6 lw black
 gsave  2268 2234 0 0 C 1643.95 1716.42 t 0 r /Helvetica findfont 72.4646 sf 0 0 m (4 \255 7) show NC gr  1 0 0 c 1559 1705 m 89 Y s 3 lw 1559 1750 m21 6 lw black
 gsave  2268 2234 0 0 C 906.518 670.653 t 0 r /Helvetica-Bold findfont 72.4646 sf 0 0 m (DR PIONS) show NC gr 
 gsave  2268 2234 0 0 C 906.518 558.404 t 0 r /Helvetica-Bold findfont 72.4646 sf 0 0 m (ref. sample: EVENT MIX) show NC gr 
 gsave  2268 2234 0 0 C 906.518 447.576 t 0 r /Helvetica-Bold findfont 72.4646 sf 0 0 m (VELO tracks multiplicity: 11 \255 20) show NC gr 
 gr  gr showpage
end
%%EOF
