%!PS-Adobe-2.0 EPSF-2.0
%%BoundingBox:  0 0 567 558
%%Title: ./DR_pion_0c65_h3001_2_h3401_2.eps: DR_pion_0c65_h3001_2_h3401_2
%%Creator: ROOT Version 6.06/02
%%CreationDate: Wed Dec  7 17:36:49 2016
%%DocumentNeededResources: ProcSet (FontSetInit)
%%EndComments
%%BeginProlog
80 dict begin
/s {stroke} def /l {lineto} def /m {moveto} def /t {translate} def
/r {rotate} def /rl {roll}  def /R {repeat} def
/d {rlineto} def /rm {rmoveto} def /gr {grestore} def /f {eofill} def
/c {setrgbcolor} def /black {0 setgray} def /sd {setdash} def
/cl {closepath} def /sf {scalefont setfont} def /lw {setlinewidth} def
/box {m dup 0 exch d exch 0 d 0 exch neg d cl} def
/NC{systemdict begin initclip end}def/C{NC box clip newpath}def
/bl {box s} def /bf {gsave box gsave f grestore 1 lw [] 0 sd s grestore} def /Y { 0 exch d} def /X { 0 d} def 
/K {{pop pop 0 moveto} exch kshow} bind def
/ita {/ang 15 def gsave [1 0 ang dup sin exch cos div 1 0 0] concat} def 
/mp {newpath /y exch def /x exch def} def
/side {[w .77 mul w .23 mul] .385 w mul sd w 0 l currentpoint t -144 r} def
/mr {mp x y w2 0 360 arc} def /m24 {mr s} def /m20 {mr f} def
/mb {mp x y w2 add m w2 neg 0 d 0 w neg d w 0 d 0 w d cl} def
/mt {mp x y w2 add m w2 neg w neg d w 0 d cl} def
/m21 {mb f} def /m25 {mb s} def /m22 {mt f} def /m26{mt s} def
/m23 {mp x y w2 sub m w2 w d w neg 0 d cl f} def
/m27 {mp x y w2 add m w3 neg w2 neg d w3 w2 neg d w3 w2 d cl s} def
/m28 {mp x w2 sub y w2 sub w3 add m w3 0 d  0 w3 neg d w3 0 d 0 w3 d w3 0 d  0 w3 d w3 neg 0 d 0 w3 d w3 neg 0 d 0 w3 neg d w3 neg 0 d cl s } def
/m29 {mp gsave x w2 sub y w2 add w3 sub m currentpoint t 4 {side} repeat cl fill gr} def
/m30 {mp gsave x w2 sub y w2 add w3 sub m currentpoint t 4 {side} repeat cl s gr} def
/m31 {mp x y w2 sub m 0 w d x w2 sub y m w 0 d x w2 sub y w2 add m w w neg d x w2 sub y w2 sub m w w d s} def
/m32 {mp x y w2 sub m w2 w d w neg 0 d cl s} def
/m33 {mp x y w2 add m w3 neg w2 neg d w3 w2 neg d w3 w2 d cl f} def
/m34 {mp x w2 sub y w2 sub w3 add m w3 0 d  0 w3 neg d w3 0 d 0 w3 d w3 0 d  0 w3 d w3 neg 0 d 0 w3 d w3 neg 0 d 0 w3 neg d w3 neg 0 d cl f } def
/m2 {mp x y w2 sub m 0 w d x w2 sub y m w 0 d s} def
/m5 {mp x w2 sub y w2 sub m w w d x w2 sub y w2 add m w w neg d s} def
%%IncludeResource: ProcSet (FontSetInit)
%%IncludeResource: font Times-Roman
%%IncludeResource: font Times-Italic
%%IncludeResource: font Times-Bold
%%IncludeResource: font Times-BoldItalic
%%IncludeResource: font Helvetica
%%IncludeResource: font Helvetica-Oblique
%%IncludeResource: font Helvetica-Bold
%%IncludeResource: font Helvetica-BoldOblique
%%IncludeResource: font Courier
%%IncludeResource: font Courier-Oblique
%%IncludeResource: font Courier-Bold
%%IncludeResource: font Courier-BoldOblique
%%IncludeResource: font Symbol
%%IncludeResource: font ZapfDingbats
/reEncode {exch findfont dup length dict begin {1 index /FID eq  {pop pop} {def} ifelse } forall /Encoding exch def currentdict end dup /FontName get exch definefont pop } def [/Times-Bold /Times-Italic /Times-BoldItalic /Helvetica /Helvetica-Oblique
 /Helvetica-Bold /Helvetica-BoldOblique /Courier /Courier-Oblique /Courier-Bold /Courier-BoldOblique /Times-Roman /AvantGarde-Book /AvantGarde-BookOblique /AvantGarde-Demi /AvantGarde-DemiOblique /Bookman-Demi /Bookman-DemiItalic /Bookman-Light
 /Bookman-LightItalic /Helvetica-Narrow /Helvetica-Narrow-Bold /Helvetica-Narrow-BoldOblique /Helvetica-Narrow-Oblique /NewCenturySchlbk-Roman /NewCenturySchlbk-Bold /NewCenturySchlbk-BoldItalic /NewCenturySchlbk-Italic /Palatino-Bold
 /Palatino-BoldItalic /Palatino-Italic /Palatino-Roman ] {ISOLatin1Encoding reEncode } forall
%%EndProlog
%%BeginSetup
%%EndSetup
newpath  gsave  .25 .25 scale  gsave  0 0 t black[  ] 0 sd 6 lw 1 1 1 c 2268 2234 0 0 bf black 3 lw 1 1 1 c 1882 1966 340 223 bf black 1882 1966 340 223 bl 1 1 1 c 1882 1966 340 223 bf black 1882 1966 340 223 bl 0 0 1 c 6 lw 1 1 1 c 0 0 1 c 390 1806
 m 63 Y s 390 1880 m 64 Y s 3 lw /w 14 def /w2 {w 2 div} def /w3 {w 3 div} def 390 1875 m21 6 lw 394 1664 m 54 Y s 394 1729 m 54 Y s 3 lw 394 1723 m21 6 lw 399 1811 m 53 Y s 399 1875 m 52 Y s 3 lw 399 1869 m21 6 lw 404 1727 m 47 Y s 404 1785 m 47 Y s
 3 lw 404 1779 m21 6 lw 408 1622 m 41 Y s 408 1675 m 41 Y s 3 lw 408 1669 m21 6 lw 413 1612 m 38 Y s 413 1661 m 38 Y s 3 lw 413 1655 m21 6 lw 418 1594 m 35 Y s 418 1640 m 35 Y s 3 lw 418 1634 m21 6 lw 423 1611 m 33 Y s 423 1655 m 33 Y s 3 lw 423 1649
 m21 6 lw 427 1591 m 30 Y s 427 1633 m 30 Y s 3 lw 427 1627 m21 6 lw 432 1515 m 28 Y s 432 1554 m 28 Y s 3 lw 432 1548 m21 6 lw 437 1528 m 27 Y s 437 1566 m 27 Y s 3 lw 437 1560 m21 6 lw 441 1530 m 25 Y s 441 1566 m 25 Y s 3 lw 441 1560 m21 6 lw 446
 1496 m 23 Y s 446 1531 m 23 Y s 3 lw 446 1525 m21 6 lw 451 1479 m 23 Y s 451 1513 m 22 Y s 3 lw 451 1507 m21 6 lw 455 1466 m 21 Y s 455 1498 m 21 Y s 3 lw 455 1492 m21 6 lw 460 1455 m 20 Y s 460 1486 m 20 Y s 3 lw 460 1480 m21 6 lw 465 1400 m 18 Y s
 465 1430 m 18 Y s 3 lw 465 1424 m21 6 lw 470 1417 m 18 Y s 470 1446 m 18 Y s 3 lw 470 1441 m21 6 lw 474 1396 m 17 Y s 474 1424 m 17 Y s 3 lw 474 1418 m21 6 lw 479 1403 m 16 Y s 479 1430 m 17 Y s 3 lw 479 1425 m21 6 lw 484 1386 m 16 Y s 484 1413 m 16
 Y s 3 lw 484 1408 m21 6 lw 488 1329 m 15 Y s 488 1355 m 15 Y s 3 lw 488 1349 m21 6 lw 493 1362 m 14 Y s 493 1387 m 15 Y s 3 lw 493 1382 m21 6 lw 498 1292 m 13 Y s 498 1317 m 13 Y s 3 lw 498 1311 m21 6 lw 502 1319 m 13 Y s 502 1343 m 13 Y s 3 lw 502
 1338 m21 6 lw 507 1311 m 12 Y s 507 1334 m 13 Y s 3 lw 507 1329 m21 6 lw 512 1279 m 12 Y s 512 1303 m 12 Y s 3 lw 512 1297 m21 6 lw 517 1295 m 12 Y s 517 1319 m 11 Y s 3 lw 517 1313 m21 6 lw 521 1298 m 12 Y s 521 1321 m 12 Y s 3 lw 521 1315 m21 6 lw
 526 1272 m 11 Y s 526 1294 m 11 Y s 3 lw 526 1288 m21 6 lw 531 1245 m 11 Y s 531 1267 m 10 Y s 3 lw 531 1261 m21 6 lw 535 1261 m 11 Y s 535 1283 m 10 Y s 3 lw 535 1277 m21 6 lw 540 1270 m 10 Y s 540 1291 m 10 Y s 3 lw 540 1285 m21 6 lw 545 1258 m 10
 Y s 545 1279 m 10 Y s 3 lw 545 1273 m21 6 lw 550 1214 m 9 Y s 550 1234 m 9 Y s 3 lw 550 1229 m21 6 lw 554 1217 m 9 Y s 554 1238 m 9 Y s 3 lw 554 1232 m21 6 lw 559 1234 m 9 Y s 559 1254 m 9 Y s 3 lw 559 1249 m21 6 lw 564 1209 m 9 Y s 564 1229 m 9 Y s
 3 lw 564 1224 m21 6 lw 568 1232 m 8 Y s 568 1252 m 8 Y s 3 lw 568 1246 m21 6 lw 573 1221 m 8 Y s 573 1241 m 8 Y s 3 lw 573 1235 m21 6 lw 578 1188 m 8 Y s 578 1208 m 7 Y s 3 lw 578 1202 m21 6 lw 582 1200 m 8 Y s 582 1219 m 8 Y s 3 lw 582 1213 m21 6
 lw 587 1210 m 8 Y s 587 1229 m 8 Y s 3 lw 587 1223 m21 6 lw 592 1192 m 7 Y s 592 1211 m 7 Y s 3 lw 592 1205 m21 6 lw 597 1159 m 7 Y s 597 1178 m 7 Y s 3 lw 597 1172 m21 6 lw 601 1160 m 7 Y s 601 1179 m 7 Y s 3 lw 601 1173 m21 6 lw 606 1162 m 7 Y s
 606 1180 m 7 Y s 3 lw 606 1175 m21 6 lw 611 1171 m 7 Y s 611 1190 m 6 Y s 3 lw 611 1184 m21 6 lw 615 1153 m 7 Y s 615 1171 m 7 Y s 3 lw 615 1166 m21 6 lw 620 1160 m 7 Y s 620 1178 m 7 Y s 3 lw 620 1172 m21 6 lw 625 1162 m 6 Y s 625 1179 m 7 Y s 3 lw
 625 1174 m21 6 lw 630 1151 m 6 Y s 630 1169 m 6 Y s 3 lw 630 1163 m21 6 lw 634 1156 m 6 Y s 634 1173 m 7 Y s 3 lw 634 1168 m21 6 lw 639 1140 m 6 Y s 639 1158 m 6 Y s 3 lw 639 1152 m21 6 lw 644 1150 m 6 Y s 644 1167 m 7 Y s 3 lw 644 1162 m21 6 lw 648
 1123 m 6 Y s 648 1140 m 6 Y s 3 lw 648 1134 m21 6 lw 653 1144 m 6 Y s 653 1161 m 6 Y s 3 lw 653 1156 m21 6 lw 658 1131 m 6 Y s 658 1148 m 6 Y s 3 lw 658 1143 m21 6 lw 662 1154 m 6 Y s 662 1172 m 6 Y s 3 lw 662 1166 m21 6 lw 667 1133 m 6 Y s 667 1150
 m 6 Y s 3 lw 667 1145 m21 6 lw 672 1119 m 6 Y s 672 1136 m 6 Y s 3 lw 672 1130 m21 6 lw 677 1112 m 5 Y s 677 1128 m 6 Y s 3 lw 677 1123 m21 6 lw 681 1119 m 6 Y s 681 1136 m 5 Y s 3 lw 681 1130 m21 6 lw 686 1121 m 5 Y s 686 1138 m 5 Y s 3 lw 686 1132
 m21 6 lw 691 1122 m 6 Y s 691 1139 m 5 Y s 3 lw 691 1133 m21 6 lw 695 1117 m 6 Y s 695 1134 m 5 Y s 3 lw 695 1128 m21 6 lw 700 1108 m 5 Y s 700 1125 m 5 Y s 3 lw 700 1119 m21 6 lw 705 1125 m 5 Y s 705 1142 m 5 Y s 3 lw 705 1136 m21 6 lw 710 1103 m 5
 Y s 710 1119 m 5 Y s 3 lw 710 1114 m21 6 lw 714 1120 m 5 Y s 714 1136 m 5 Y s 3 lw 714 1131 m21 6 lw 719 1103 m 5 Y s 719 1119 m 5 Y s 3 lw 719 1113 m21 6 lw 724 1104 m 5 Y s 724 1120 m 5 Y s 3 lw 724 1115 m21 6 lw 728 1120 m 5 Y s 728 1137 m 5 Y s
 3 lw 728 1131 m21 6 lw 733 1089 m 5 Y s 733 1106 m 4 Y s 3 lw 733 1100 m21 6 lw 738 1101 m 5 Y s 738 1118 m 4 Y s 3 lw 738 1112 m21 6 lw 742 1087 m 5 Y s 742 1103 m 5 Y s 3 lw 742 1097 m21 6 lw 747 1102 m 5 Y s 747 1118 m 5 Y s 3 lw 747 1113 m21 6
 lw 752 1092 m 4 Y s 752 1108 m 4 Y s 3 lw 752 1102 m21 6 lw 757 1103 m 5 Y s 757 1119 m 5 Y s 3 lw 757 1113 m21 6 lw 761 1090 m 5 Y s 761 1106 m 5 Y s 3 lw 761 1100 m21 6 lw 766 1076 m 4 Y s 766 1092 m 4 Y s 3 lw 766 1086 m21 6 lw 771 1086 m 4 Y s
 771 1101 m 5 Y s 3 lw 771 1096 m21 6 lw 775 1093 m 4 Y s 775 1109 m 4 Y s 3 lw 775 1103 m21 6 lw 780 1084 m 5 Y s 780 1100 m 4 Y s 3 lw 780 1094 m21 6 lw 785 1103 m 4 Y s 785 1118 m 5 Y s 3 lw 785 1113 m21 6 lw 790 1095 m 5 Y s 790 1111 m 5 Y s 3 lw
 790 1106 m21 6 lw 794 1087 m 4 Y s 794 1102 m 5 Y s 3 lw 794 1097 m21 6 lw 799 1089 m 5 Y s 799 1105 m 4 Y s 3 lw 799 1099 m21 6 lw 804 1074 m 4 Y s 804 1090 m 4 Y s 3 lw 804 1084 m21 6 lw 808 1094 m 4 Y s 808 1109 m 5 Y s 3 lw 808 1104 m21 6 lw 813
 1093 m 4 Y s 813 1109 m 4 Y s 3 lw 813 1103 m21 6 lw 818 1084 m 4 Y s 818 1099 m 4 Y s 3 lw 818 1094 m21 6 lw 822 1072 m 4 Y s 822 1087 m 4 Y s 3 lw 822 1081 m21 6 lw 827 1073 m 4 Y s 827 1089 m 4 Y s 3 lw 827 1083 m21 6 lw 832 1087 m 4 Y s 832 1103
 m 4 Y s 3 lw 832 1097 m21 6 lw 837 1068 m 4 Y s 837 1084 m 4 Y s 3 lw 837 1078 m21 6 lw 841 1079 m 4 Y s 841 1095 m 4 Y s 3 lw 841 1089 m21 6 lw 846 1064 m 4 Y s 846 1080 m 4 Y s 3 lw 846 1074 m21 6 lw 851 1078 m 4 Y s 851 1094 m 4 Y s 3 lw 851 1088
 m21 6 lw 855 1085 m 4 Y s 855 1101 m 4 Y s 3 lw 855 1095 m21 6 lw 860 1063 m 4 Y s 860 1078 m 4 Y s 3 lw 860 1073 m21 6 lw 865 1078 m 4 Y s 865 1093 m 4 Y s 3 lw 865 1087 m21 6 lw 870 1082 m 4 Y s 870 1098 m 4 Y s 3 lw 870 1092 m21 6 lw 874 1054 m 3
 Y s 874 1069 m 4 Y s 3 lw 874 1063 m21 6 lw 879 1060 m 3 Y s 879 1075 m 4 Y s 3 lw 879 1069 m21 6 lw 884 1064 m 4 Y s 884 1079 m 4 Y s 3 lw 884 1074 m21 6 lw 888 1049 m 4 Y s 888 1064 m 4 Y s 3 lw 888 1059 m21 6 lw 893 1040 m 4 Y s 893 1056 m 3 Y s
 3 lw 893 1050 m21 6 lw 898 1059 m 4 Y s 898 1075 m 3 Y s 3 lw 898 1069 m21 6 lw 902 1063 m 4 Y s 902 1079 m 4 Y s 3 lw 902 1073 m21 6 lw 907 1046 m 4 Y s 907 1061 m 4 Y s 3 lw 907 1056 m21 6 lw 912 1074 m 4 Y s 912 1089 m 4 Y s 3 lw 912 1084 m21 6
 lw 917 1058 m 4 Y s 917 1073 m 4 Y s 3 lw 917 1067 m21 6 lw 921 1075 m 4 Y s 921 1090 m 4 Y s 3 lw 921 1085 m21 6 lw 926 1069 m 4 Y s 926 1084 m 4 Y s 3 lw 926 1078 m21 6 lw 931 1066 m 4 Y s 931 1081 m 4 Y s 3 lw 931 1075 m21 6 lw 935 1072 m 4 Y s
 935 1087 m 4 Y s 3 lw 935 1082 m21 6 lw 940 1070 m 4 Y s 940 1085 m 4 Y s 3 lw 940 1080 m21 6 lw 945 1070 m 4 Y s 945 1085 m 4 Y s 3 lw 945 1079 m21 6 lw 950 1060 m 4 Y s 950 1075 m 4 Y s 3 lw 950 1069 m21 6 lw 954 1059 m 4 Y s 954 1075 m 3 Y s 3 lw
 954 1069 m21 6 lw 959 1045 m 3 Y s 959 1060 m 3 Y s 3 lw 959 1054 m21 6 lw 964 1039 m 4 Y s 964 1054 m 4 Y s 3 lw 964 1049 m21 6 lw 968 1063 m 4 Y s 968 1078 m 4 Y s 3 lw 968 1073 m21 6 lw 973 1071 m 4 Y s 973 1086 m 4 Y s 3 lw 973 1081 m21 6 lw 978
 1064 m 4 Y s 978 1079 m 4 Y s 3 lw 978 1073 m21 6 lw 982 1062 m 4 Y s 982 1078 m 3 Y s 3 lw 982 1072 m21 6 lw 987 1045 m 3 Y s 987 1060 m 3 Y s 3 lw 987 1054 m21 6 lw 992 1071 m 4 Y s 992 1086 m 4 Y s 3 lw 992 1081 m21 6 lw 997 1061 m 3 Y s 997 1076
 m 4 Y s 3 lw 997 1070 m21 6 lw 1001 1060 m 4 Y s 1001 1075 m 4 Y s 3 lw 1001 1070 m21 6 lw 1006 1050 m 4 Y s 1006 1065 m 4 Y s 3 lw 1006 1060 m21 6 lw 1011 1067 m 3 Y s 1011 1082 m 4 Y s 3 lw 1011 1076 m21 6 lw 1015 1047 m 4 Y s 1015 1062 m 4 Y s 3
 lw 1015 1057 m21 6 lw 1020 1070 m 4 Y s 1020 1086 m 4 Y s 3 lw 1020 1080 m21 6 lw 1025 1056 m 4 Y s 1025 1071 m 4 Y s 3 lw 1025 1065 m21 6 lw 1030 1061 m 4 Y s 1030 1076 m 4 Y s 3 lw 1030 1071 m21 6 lw 1034 1068 m 4 Y s 1034 1084 m 3 Y s 3 lw 1034
 1078 m21 6 lw 1039 1063 m 4 Y s 1039 1079 m 4 Y s 3 lw 1039 1073 m21 6 lw 1044 1072 m 4 Y s 1044 1087 m 4 Y s 3 lw 1044 1082 m21 6 lw 1048 1070 m 4 Y s 1048 1085 m 4 Y s 3 lw 1048 1079 m21 6 lw 1053 1072 m 4 Y s 1053 1087 m 4 Y s 3 lw 1053 1081 m21
 6 lw 1058 1055 m 4 Y s 1058 1071 m 3 Y s 3 lw 1058 1065 m21 6 lw 1062 1066 m 4 Y s 1062 1082 m 3 Y s 3 lw 1062 1076 m21 6 lw 1067 1055 m 4 Y s 1067 1070 m 4 Y s 3 lw 1067 1065 m21 6 lw 1072 1051 m 4 Y s 1072 1067 m 3 Y s 3 lw 1072 1061 m21 6 lw 1077
 1066 m 4 Y s 1077 1081 m 4 Y s 3 lw 1077 1075 m21 6 lw 1081 1069 m 4 Y s 1081 1085 m 3 Y s 3 lw 1081 1079 m21 6 lw 1086 1065 m 4 Y s 1086 1080 m 4 Y s 3 lw 1086 1075 m21 6 lw 1091 1061 m 3 Y s 1091 1076 m 4 Y s 3 lw 1091 1070 m21 6 lw 1095 1066 m 4
 Y s 1095 1082 m 4 Y s 3 lw 1095 1076 m21 6 lw 1100 1064 m 4 Y s 1100 1079 m 4 Y s 3 lw 1100 1073 m21 6 lw 1105 1079 m 4 Y s 1105 1094 m 4 Y s 3 lw 1105 1089 m21 6 lw 1110 1060 m 4 Y s 1110 1075 m 4 Y s 3 lw 1110 1070 m21 6 lw 1114 1073 m 4 Y s 1114
 1088 m 4 Y s 3 lw 1114 1082 m21 6 lw 1119 1078 m 4 Y s 1119 1094 m 4 Y s 3 lw 1119 1088 m21 6 lw 1124 1064 m 4 Y s 1124 1080 m 3 Y s 3 lw 1124 1074 m21 6 lw 1128 1082 m 4 Y s 1128 1097 m 4 Y s 3 lw 1128 1091 m21 6 lw 1133 1061 m 3 Y s 1133 1076 m 4
 Y s 3 lw 1133 1070 m21 6 lw 1138 1088 m 4 Y s 1138 1104 m 4 Y s 3 lw 1138 1098 m21 6 lw 1142 1075 m 4 Y s 1142 1091 m 4 Y s 3 lw 1142 1085 m21 6 lw 1147 1060 m 4 Y s 1147 1075 m 4 Y s 3 lw 1147 1069 m21 6 lw 1152 1069 m 4 Y s 1152 1085 m 4 Y s 3 lw
 1152 1079 m21 6 lw 1157 1070 m 4 Y s 1157 1086 m 4 Y s 3 lw 1157 1080 m21 6 lw 1161 1083 m 4 Y s 1161 1098 m 4 Y s 3 lw 1161 1092 m21 6 lw 1166 1080 m 4 Y s 1166 1096 m 4 Y s 3 lw 1166 1090 m21 6 lw 1171 1091 m 4 Y s 1171 1107 m 4 Y s 3 lw 1171 1101
 m21 6 lw 1175 1056 m 4 Y s 1175 1071 m 4 Y s 3 lw 1175 1066 m21 6 lw 1180 1063 m 4 Y s 1180 1078 m 4 Y s 3 lw 1180 1072 m21 6 lw 1185 1079 m 4 Y s 1185 1094 m 4 Y s 3 lw 1185 1089 m21 6 lw 1190 1074 m 4 Y s 1190 1090 m 4 Y s 3 lw 1190 1084 m21 6 lw
 1194 1073 m 4 Y s 1194 1088 m 5 Y s 3 lw 1194 1083 m21 6 lw 1199 1075 m 4 Y s 1199 1091 m 4 Y s 3 lw 1199 1085 m21 6 lw 1204 1091 m 4 Y s 1204 1107 m 4 Y s 3 lw 1204 1101 m21 6 lw 1208 1082 m 4 Y s 1208 1098 m 4 Y s 3 lw 1208 1092 m21 6 lw 1213 1073
 m 4 Y s 1213 1088 m 4 Y s 3 lw 1213 1083 m21 6 lw 1218 1090 m 4 Y s 1218 1105 m 5 Y s 3 lw 1218 1100 m21 6 lw 1222 1079 m 4 Y s 1222 1095 m 4 Y s 3 lw 1222 1089 m21 6 lw 1227 1065 m 5 Y s 1227 1081 m 4 Y s 3 lw 1227 1075 m21 6 lw 1232 1090 m 5 Y s
 1232 1106 m 4 Y s 3 lw 1232 1100 m21 6 lw 1237 1075 m 5 Y s 1237 1091 m 4 Y s 3 lw 1237 1085 m21 6 lw 1241 1078 m 4 Y s 1241 1093 m 4 Y s 3 lw 1241 1087 m21 6 lw 1246 1091 m 4 Y s 1246 1106 m 5 Y s 3 lw 1246 1101 m21 6 lw 1251 1075 m 4 Y s 1251 1090
 m 5 Y s 3 lw 1251 1085 m21 6 lw 1255 1083 m 4 Y s 1255 1098 m 5 Y s 3 lw 1255 1093 m21 6 lw 1260 1078 m 4 Y s 1260 1093 m 5 Y s 3 lw 1260 1088 m21 6 lw 1265 1091 m 4 Y s 1265 1106 m 5 Y s 3 lw 1265 1101 m21 6 lw 1269 1084 m 4 Y s 1269 1100 m 4 Y s 3
 lw 1269 1094 m21 6 lw 1274 1106 m 5 Y s 1274 1122 m 5 Y s 3 lw 1274 1116 m21 6 lw 1279 1097 m 4 Y s 1279 1112 m 5 Y s 3 lw 1279 1107 m21 6 lw 1284 1086 m 5 Y s 1284 1102 m 5 Y s 3 lw 1284 1097 m21 6 lw 1288 1077 m 4 Y s 1288 1092 m 5 Y s 3 lw 1288
 1087 m21 6 lw 1293 1071 m 5 Y s 1293 1087 m 4 Y s 3 lw 1293 1081 m21 6 lw 1298 1086 m 5 Y s 1298 1102 m 5 Y s 3 lw 1298 1096 m21 6 lw 1302 1102 m 5 Y s 1302 1118 m 5 Y s 3 lw 1302 1113 m21 6 lw 1307 1091 m 4 Y s 1307 1107 m 4 Y s 3 lw 1307 1101 m21
 6 lw 1312 1094 m 4 Y s 1312 1110 m 4 Y s 3 lw 1312 1104 m21 6 lw 1317 1099 m 4 Y s 1317 1115 m 4 Y s 3 lw 1317 1109 m21 6 lw 1321 1081 m 4 Y s 1321 1097 m 4 Y s 3 lw 1321 1091 m21 6 lw 1326 1093 m 5 Y s 1326 1109 m 5 Y s 3 lw 1326 1103 m21 6 lw 1331
 1095 m 5 Y s 1331 1111 m 5 Y s 3 lw 1331 1106 m21 6 lw 1335 1069 m 4 Y s 1335 1085 m 4 Y s 3 lw 1335 1079 m21 6 lw 1340 1065 m 5 Y s 1340 1081 m 5 Y s 3 lw 1340 1075 m21 6 lw 1345 1096 m 4 Y s 1345 1112 m 4 Y s 3 lw 1345 1106 m21 6 lw 1349 1085 m 5
 Y s 1349 1101 m 5 Y s 3 lw 1349 1095 m21 6 lw 1354 1115 m 5 Y s 1354 1131 m 5 Y s 3 lw 1354 1126 m21 6 lw 1359 1113 m 5 Y s 1359 1129 m 5 Y s 3 lw 1359 1124 m21 6 lw 1364 1077 m 5 Y s 1364 1093 m 5 Y s 3 lw 1364 1087 m21 6 lw 1368 1093 m 5 Y s 1368
 1109 m 5 Y s 3 lw 1368 1103 m21 6 lw 1373 1090 m 4 Y s 1373 1106 m 5 Y s 3 lw 1373 1100 m21 6 lw 1378 1084 m 4 Y s 1378 1100 m 4 Y s 3 lw 1378 1094 m21 6 lw 1382 1084 m 4 Y s 1382 1100 m 5 Y s 3 lw 1382 1094 m21 6 lw 1387 1090 m 4 Y s 1387 1106 m 5
 Y s 3 lw 1387 1100 m21 6 lw 1392 1106 m 5 Y s 1392 1122 m 5 Y s 3 lw 1392 1116 m21 6 lw 1397 1095 m 5 Y s 1397 1111 m 5 Y s 3 lw 1397 1106 m21 6 lw 1401 1102 m 5 Y s 1401 1118 m 5 Y s 3 lw 1401 1112 m21 6 lw 1406 1082 m 5 Y s 1406 1098 m 5 Y s 3 lw
 1406 1093 m21 6 lw 1411 1100 m 5 Y s 1411 1116 m 5 Y s 3 lw 1411 1111 m21 6 lw 1415 1081 m 5 Y s 1415 1097 m 5 Y s 3 lw 1415 1092 m21 6 lw 1420 1097 m 5 Y s 1420 1114 m 5 Y s 3 lw 1420 1108 m21 6 lw 1425 1116 m 6 Y s 1425 1133 m 5 Y s 3 lw 1425 1127
 m21 6 lw 1429 1096 m 5 Y s 1429 1112 m 5 Y s 3 lw 1429 1107 m21 6 lw 1434 1118 m 5 Y s 1434 1134 m 5 Y s 3 lw 1434 1128 m21 6 lw 1439 1099 m 5 Y s 1439 1115 m 6 Y s 3 lw 1439 1110 m21 6 lw 1444 1118 m 5 Y s 1444 1134 m 6 Y s 3 lw 1444 1129 m21 6 lw
 1448 1117 m 5 Y s 1448 1133 m 6 Y s 3 lw 1448 1128 m21 6 lw 1453 1097 m 5 Y s 1453 1113 m 6 Y s 3 lw 1453 1108 m21 6 lw 1458 1107 m 5 Y s 1458 1123 m 6 Y s 3 lw 1458 1118 m21 6 lw 1462 1095 m 5 Y s 1462 1112 m 5 Y s 3 lw 1462 1106 m21 6 lw 1467 1090
 m 5 Y s 1467 1106 m 6 Y s 3 lw 1467 1101 m21 6 lw 1472 1091 m 5 Y s 1472 1108 m 5 Y s 3 lw 1472 1102 m21 6 lw 1477 1100 m 6 Y s 1477 1117 m 5 Y s 3 lw 1477 1111 m21 6 lw 1481 1104 m 5 Y s 1481 1121 m 5 Y s 3 lw 1481 1115 m21 6 lw 1486 1094 m 5 Y s
 1486 1111 m 5 Y s 3 lw 1486 1105 m21 6 lw 1491 1111 m 5 Y s 1491 1127 m 6 Y s 3 lw 1491 1122 m21 6 lw 1495 1089 m 5 Y s 1495 1106 m 5 Y s 3 lw 1495 1100 m21 6 lw 1500 1117 m 6 Y s 1500 1134 m 6 Y s 3 lw 1500 1129 m21 6 lw 1505 1129 m 5 Y s 1505 1146
 m 6 Y s 3 lw 1505 1140 m21 6 lw 1509 1116 m 6 Y s 1509 1133 m 6 Y s 3 lw 1509 1127 m21 6 lw 1514 1114 m 6 Y s 1514 1131 m 6 Y s 3 lw 1514 1125 m21 6 lw 1519 1113 m 6 Y s 1519 1130 m 6 Y s 3 lw 1519 1125 m21 6 lw 1524 1108 m 5 Y s 1524 1125 m 5 Y s 3
 lw 1524 1119 m21 6 lw 1528 1117 m 6 Y s 1528 1134 m 6 Y s 3 lw 1528 1129 m21 6 lw 1533 1118 m 6 Y s 1533 1135 m 6 Y s 3 lw 1533 1129 m21 6 lw 1538 1101 m 6 Y s 1538 1119 m 5 Y s 3 lw 1538 1113 m21 6 lw 1542 1115 m 6 Y s 1542 1132 m 6 Y s 3 lw 1542
 1126 m21 6 lw 1547 1105 m 6 Y s 1547 1122 m 6 Y s 3 lw 1547 1116 m21 6 lw 1552 1125 m 6 Y s 1552 1142 m 6 Y s 3 lw 1552 1136 m21 6 lw 1557 1125 m 6 Y s 1557 1142 m 6 Y s 3 lw 1557 1136 m21 6 lw 1561 1109 m 6 Y s 1561 1127 m 6 Y s 3 lw 1561 1121 m21
 6 lw 1566 1103 m 6 Y s 1566 1120 m 6 Y s 3 lw 1566 1114 m21 6 lw 1571 1106 m 6 Y s 1571 1123 m 6 Y s 3 lw 1571 1117 m21 6 lw 1575 1135 m 6 Y s 1575 1152 m 6 Y s 3 lw 1575 1147 m21 6 lw 1580 1122 m 6 Y s 1580 1140 m 6 Y s 3 lw 1580 1134 m21 6 lw 1585
 1112 m 6 Y s 1585 1129 m 6 Y s 3 lw 1585 1124 m21 6 lw 1589 1114 m 6 Y s 1589 1131 m 7 Y s 3 lw 1589 1126 m21 6 lw 1594 1122 m 6 Y s 1594 1139 m 7 Y s 3 lw 1594 1134 m21 6 lw 1599 1110 m 6 Y s 1599 1128 m 6 Y s 3 lw 1599 1122 m21 6 lw 1604 1123 m 7
 Y s 1604 1141 m 6 Y s 3 lw 1604 1135 m21 6 lw 1608 1108 m 6 Y s 1608 1126 m 6 Y s 3 lw 1608 1120 m21 6 lw 1613 1112 m 6 Y s 1613 1129 m 6 Y s 3 lw 1613 1123 m21 6 lw 1618 1097 m 6 Y s 1618 1115 m 6 Y s 3 lw 1618 1109 m21 6 lw 1622 1124 m 6 Y s 1622
 1141 m 7 Y s 3 lw 1622 1136 m21 6 lw 1627 1141 m 7 Y s 1627 1159 m 7 Y s 3 lw 1627 1153 m21 6 lw 1632 1119 m 7 Y s 1632 1137 m 7 Y s 3 lw 1632 1132 m21 6 lw 1637 1128 m 6 Y s 1637 1146 m 6 Y s 3 lw 1637 1140 m21 6 lw 1641 1128 m 6 Y s 1641 1146 m 6
 Y s 3 lw 1641 1140 m21 6 lw 1646 1133 m 6 Y s 1646 1151 m 6 Y s 3 lw 1646 1145 m21 6 lw 1651 1118 m 7 Y s 1651 1136 m 7 Y s 3 lw 1651 1130 m21 6 lw 1655 1139 m 7 Y s 1655 1157 m 7 Y s 3 lw 1655 1151 m21 6 lw 1660 1125 m 6 Y s 1660 1143 m 6 Y s 3 lw
 1660 1137 m21 6 lw 1665 1121 m 7 Y s 1665 1139 m 7 Y s 3 lw 1665 1134 m21 6 lw 1669 1140 m 7 Y s 1669 1158 m 7 Y s 3 lw 1669 1152 m21 6 lw 1674 1129 m 6 Y s 1674 1147 m 7 Y s 3 lw 1674 1141 m21 6 lw 1679 1108 m 7 Y s 1679 1126 m 7 Y s 3 lw 1679 1121
 m21 6 lw 1684 1142 m 7 Y s 1684 1161 m 7 Y s 3 lw 1684 1155 m21 6 lw 1688 1129 m 7 Y s 1688 1147 m 7 Y s 3 lw 1688 1142 m21 6 lw 1693 1155 m 7 Y s 1693 1173 m 7 Y s 3 lw 1693 1167 m21 6 lw 1698 1130 m 7 Y s 1698 1149 m 7 Y s 3 lw 1698 1143 m21 6 lw
 1702 1130 m 7 Y s 1702 1149 m 7 Y s 3 lw 1702 1143 m21 6 lw 1707 1138 m 7 Y s 1707 1156 m 7 Y s 3 lw 1707 1151 m21 6 lw 1712 1124 m 7 Y s 1712 1142 m 7 Y s 3 lw 1712 1136 m21 6 lw 1717 1154 m 8 Y s 1717 1173 m 8 Y s 3 lw 1717 1168 m21 6 lw 1721 1129
 m 8 Y s 1721 1148 m 7 Y s 3 lw 1721 1142 m21 6 lw 1726 1126 m 7 Y s 1726 1144 m 8 Y s 3 lw 1726 1139 m21 6 lw 1731 1134 m 7 Y s 1731 1153 m 7 Y s 3 lw 1731 1147 m21 6 lw 1735 1108 m 7 Y s 1735 1126 m 8 Y s 3 lw 1735 1121 m21 6 lw 1740 1148 m 8 Y s
 1740 1167 m 7 Y s 3 lw 1740 1161 m21 6 lw 1745 1124 m 8 Y s 1745 1143 m 8 Y s 3 lw 1745 1138 m21 6 lw 1749 1110 m 8 Y s 1749 1129 m 7 Y s 3 lw 1749 1123 m21 6 lw 1754 1136 m 8 Y s 1754 1155 m 8 Y s 3 lw 1754 1149 m21 6 lw 1759 1127 m 8 Y s 1759 1146
 m 7 Y s 3 lw 1759 1140 m21 6 lw 1764 1116 m 7 Y s 1764 1135 m 7 Y s 3 lw 1764 1129 m21 6 lw 1768 1141 m 7 Y s 1768 1160 m 8 Y s 3 lw 1768 1154 m21 6 lw 1773 1121 m 8 Y s 1773 1140 m 8 Y s 3 lw 1773 1135 m21 6 lw 1778 1151 m 8 Y s 1778 1171 m 8 Y s 3
 lw 1778 1165 m21 6 lw 1782 1135 m 8 Y s 1782 1154 m 8 Y s 3 lw 1782 1148 m21 6 lw 1787 1116 m 7 Y s 1787 1135 m 7 Y s 3 lw 1787 1129 m21 6 lw 1792 1120 m 8 Y s 1792 1140 m 7 Y s 3 lw 1792 1134 m21 6 lw 1797 1127 m 8 Y s 1797 1146 m 8 Y s 3 lw 1797
 1141 m21 6 lw 1801 1138 m 8 Y s 1801 1157 m 8 Y s 3 lw 1801 1152 m21 6 lw 1806 1149 m 8 Y s 1806 1168 m 8 Y s 3 lw 1806 1163 m21 6 lw 1811 1142 m 8 Y s 1811 1161 m 8 Y s 3 lw 1811 1156 m21 6 lw 1815 1164 m 8 Y s 1815 1183 m 9 Y s 3 lw 1815 1178 m21
 6 lw 1820 1127 m 8 Y s 1820 1147 m 8 Y s 3 lw 1820 1141 m21 6 lw 1825 1151 m 9 Y s 1825 1171 m 8 Y s 3 lw 1825 1165 m21 6 lw 1829 1144 m 8 Y s 1829 1163 m 9 Y s 3 lw 1829 1158 m21 6 lw 1834 1147 m 9 Y s 1834 1167 m 9 Y s 3 lw 1834 1162 m21 6 lw 1839
 1155 m 8 Y s 1839 1175 m 8 Y s 3 lw 1839 1169 m21 6 lw 1844 1127 m 9 Y s 1844 1147 m 8 Y s 3 lw 1844 1141 m21 6 lw 1848 1124 m 8 Y s 1848 1144 m 8 Y s 3 lw 1848 1138 m21 6 lw 1853 1150 m 8 Y s 1853 1170 m 8 Y s 3 lw 1853 1164 m21 6 lw 1858 1115 m 8
 Y s 1858 1134 m 9 Y s 3 lw 1858 1129 m21 6 lw 1862 1145 m 9 Y s 1862 1166 m 8 Y s 3 lw 1862 1160 m21 6 lw 1867 1151 m 9 Y s 1867 1171 m 9 Y s 3 lw 1867 1165 m21 6 lw 1872 1153 m 9 Y s 1872 1173 m 9 Y s 3 lw 1872 1167 m21 6 lw 1877 1144 m 9 Y s 1877
 1164 m 9 Y s 3 lw 1877 1158 m21 6 lw 1881 1149 m 9 Y s 1881 1169 m 9 Y s 3 lw 1881 1163 m21 6 lw 1886 1142 m 9 Y s 1886 1162 m 9 Y s 3 lw 1886 1157 m21 6 lw 1891 1130 m 8 Y s 1891 1150 m 9 Y s 3 lw 1891 1144 m21 6 lw 1895 1147 m 9 Y s 1895 1168 m 9
 Y s 3 lw 1895 1162 m21 6 lw 1900 1147 m 9 Y s 1900 1167 m 9 Y s 3 lw 1900 1161 m21 6 lw 1905 1141 m 9 Y s 1905 1161 m 9 Y s 3 lw 1905 1155 m21 6 lw 1909 1143 m 9 Y s 1909 1163 m 9 Y s 3 lw 1909 1158 m21 6 lw 1914 1130 m 10 Y s 1914 1151 m 9 Y s 3 lw
 1914 1145 m21 6 lw 1919 1146 m 9 Y s 1919 1166 m 10 Y s 3 lw 1919 1161 m21 6 lw 1924 1161 m 10 Y s 1924 1182 m 9 Y s 3 lw 1924 1176 m21 6 lw 1928 1171 m 10 Y s 1928 1192 m 10 Y s 3 lw 1928 1187 m21 6 lw 1933 1118 m 9 Y s 1933 1138 m 10 Y s 3 lw 1933
 1133 m21 6 lw 1938 1126 m 10 Y s 1938 1147 m 9 Y s 3 lw 1938 1141 m21 6 lw 1942 1170 m 10 Y s 1942 1191 m 10 Y s 3 lw 1942 1185 m21 6 lw 1947 1165 m 10 Y s 1947 1186 m 10 Y s 3 lw 1947 1181 m21 6 lw 1952 1153 m 9 Y s 1952 1174 m 10 Y s 3 lw 1952
 1168 m21 6 lw 1957 1162 m 10 Y s 1957 1183 m 10 Y s 3 lw 1957 1177 m21 6 lw 1961 1123 m 10 Y s 1961 1144 m 10 Y s 3 lw 1961 1139 m21 6 lw 1966 1151 m 10 Y s 1966 1172 m 10 Y s 3 lw 1966 1167 m21 6 lw 1971 1149 m 10 Y s 1971 1170 m 10 Y s 3 lw 1971
 1165 m21 6 lw 1975 1165 m 10 Y s 1975 1186 m 10 Y s 3 lw 1975 1180 m21 6 lw 1980 1148 m 10 Y s 1980 1169 m 10 Y s 3 lw 1980 1163 m21 6 lw 1985 1148 m 10 Y s 1985 1169 m 10 Y s 3 lw 1985 1164 m21 6 lw 1989 1136 m 10 Y s 1989 1157 m 10 Y s 3 lw 1989
 1151 m21 6 lw 1994 1144 m 11 Y s 1994 1166 m 10 Y s 3 lw 1994 1160 m21 6 lw 1999 1166 m 10 Y s 1999 1188 m 10 Y s 3 lw 1999 1182 m21 6 lw 2004 1150 m 10 Y s 2004 1171 m 11 Y s 3 lw 2004 1166 m21 6 lw 2008 1136 m 10 Y s 2008 1157 m 11 Y s 3 lw 2008
 1152 m21 6 lw 2013 1185 m 11 Y s 2013 1207 m 11 Y s 3 lw 2013 1201 m21 6 lw 2018 1131 m 10 Y s 2018 1153 m 10 Y s 3 lw 2018 1147 m21 6 lw 2022 1155 m 10 Y s 2022 1177 m 10 Y s 3 lw 2022 1171 m21 6 lw 2027 1124 m 10 Y s 2027 1145 m 11 Y s 3 lw 2027
 1140 m21 6 lw 2032 1142 m 11 Y s 2032 1164 m 11 Y s 3 lw 2032 1158 m21 6 lw 2036 1144 m 10 Y s 2036 1166 m 10 Y s 3 lw 2036 1160 m21 6 lw 2041 1132 m 11 Y s 2041 1154 m 11 Y s 3 lw 2041 1148 m21 6 lw 2046 1135 m 11 Y s 2046 1157 m 11 Y s 3 lw 2046
 1152 m21 6 lw 2051 1158 m 11 Y s 2051 1180 m 11 Y s 3 lw 2051 1175 m21 6 lw 2055 1161 m 11 Y s 2055 1183 m 11 Y s 3 lw 2055 1177 m21 6 lw 2060 1153 m 11 Y s 2060 1175 m 11 Y s 3 lw 2060 1170 m21 6 lw 2065 1144 m 11 Y s 2065 1167 m 11 Y s 3 lw 2065
 1161 m21 6 lw 2069 1151 m 11 Y s 2069 1173 m 11 Y s 3 lw 2069 1167 m21 6 lw 2074 1147 m 12 Y s 2074 1170 m 11 Y s 3 lw 2074 1164 m21 6 lw 2079 1144 m 11 Y s 2079 1167 m 11 Y s 3 lw 2079 1161 m21 6 lw 2084 1168 m 11 Y s 2084 1191 m 11 Y s 3 lw 2084
 1185 m21 6 lw 2088 1162 m 12 Y s 2088 1185 m 12 Y s 3 lw 2088 1179 m21 6 lw 2093 1119 m 11 Y s 2093 1142 m 11 Y s 3 lw 2093 1136 m21 6 lw 2098 1167 m 11 Y s 2098 1190 m 11 Y s 3 lw 2098 1184 m21 6 lw 2102 1176 m 12 Y s 2102 1199 m 12 Y s 3 lw 2102
 1194 m21 6 lw 2107 1121 m 12 Y s 2107 1144 m 12 Y s 3 lw 2107 1138 m21 6 lw 2112 1151 m 11 Y s 2112 1174 m 11 Y s 3 lw 2112 1168 m21 6 lw 2116 1165 m 11 Y s 2116 1188 m 12 Y s 3 lw 2116 1182 m21 6 lw 2121 1144 m 12 Y s 2121 1167 m 12 Y s 3 lw 2121
 1161 m21 6 lw 2126 1161 m 13 Y s 2126 1185 m 12 Y s 3 lw 2126 1179 m21 6 lw 2131 1162 m 12 Y s 2131 1186 m 12 Y s 3 lw 2131 1180 m21 6 lw 2135 1159 m 12 Y s 2135 1183 m 12 Y s 3 lw 2135 1177 m21 6 lw 2140 1135 m 12 Y s 2140 1158 m 12 Y s 3 lw 2140
 1153 m21 6 lw 2145 1142 m 12 Y s 2145 1165 m 12 Y s 3 lw 2145 1159 m21 6 lw 2149 1129 m 12 Y s 2149 1153 m 12 Y s 3 lw 2149 1147 m21 6 lw 2154 1128 m 12 Y s 2154 1151 m 12 Y s 3 lw 2154 1146 m21 6 lw 2159 1126 m 12 Y s 2159 1149 m 12 Y s 3 lw 2159
 1144 m21 6 lw 2164 1155 m 12 Y s 2164 1179 m 12 Y s 3 lw 2164 1173 m21 6 lw 2168 1142 m 13 Y s 2168 1166 m 12 Y s 3 lw 2168 1160 m21 6 lw 2173 1146 m 13 Y s 2173 1170 m 13 Y s 3 lw 2173 1165 m21 6 lw 2178 1162 m 13 Y s 2178 1187 m 12 Y s 3 lw 2178
 1181 m21 6 lw 2182 1140 m 12 Y s 2182 1164 m 12 Y s 3 lw 2182 1158 m21 6 lw 2187 1155 m 13 Y s 2187 1180 m 12 Y s 3 lw 2187 1174 m21 6 lw 2192 1182 m 14 Y s 2192 1207 m 13 Y s 3 lw 2192 1201 m21 6 lw 2196 1158 m 13 Y s 2196 1182 m 13 Y s 3 lw 2196
 1176 m21 6 lw 2201 1199 m 14 Y s 2201 1224 m 13 Y s 3 lw 2201 1218 m21 6 lw 2206 1131 m 12 Y s 2206 1155 m 13 Y s 3 lw 2206 1149 m21 6 lw 2211 1168 m 13 Y s 2211 1192 m 14 Y s 3 lw 2211 1187 m21 6 lw 2215 1163 m 13 Y s 2215 1188 m 13 Y s 3 lw 2215
 1182 m21 6 lw 2220 1132 m 14 Y s 2220 1157 m 13 Y s 3 lw 2220 1151 m21 6 lw black 340 223 m 1882 X s
 gsave  2268 2234 0 0 C 1923.86 58.2559 t 0 r /Helvetica findfont 83.8316 sf 0 0 m (Q [GeV]) show NC gr  340 279 m -56 Y s 387 251 m -28 Y s 434 251 m -28 Y s 481 251 m -28 Y s 528 279 m -56 Y s 575 251 m -28 Y s 622 251 m -28 Y s 670 251 m -28 Y s
 717 279 m -56 Y s 764 251 m -28 Y s 811 251 m -28 Y s 858 251 m -28 Y s 905 279 m -56 Y s 952 251 m -28 Y s 999 251 m -28 Y s 1046 251 m -28 Y s 1093 279 m -56 Y s 1140 251 m -28 Y s 1187 251 m -28 Y s 1234 251 m -28 Y s 1281 279 m -56 Y s 1328 251
 m -28 Y s 1375 251 m -28 Y s 1422 251 m -28 Y s 1469 279 m -56 Y s 1517 251 m -28 Y s 1564 251 m -28 Y s 1611 251 m -28 Y s 1658 279 m -56 Y s 1705 251 m -28 Y s 1752 251 m -28 Y s 1799 251 m -28 Y s 1846 279 m -56 Y s 1893 251 m -28 Y s 1940 251 m
 -28 Y s 1987 251 m -28 Y s 2034 279 m -56 Y s 2081 251 m -28 Y s 2128 251 m -28 Y s 2175 251 m -28 Y s 2222 279 m -56 Y s
 gsave  2268 2234 0 0 C 322.539 159.138 t 0 r /Helvetica findfont 62.5185 sf 0 0 m (0) show NC gr 
 gsave  2268 2234 0 0 C 484.518 159.138 t 0 r /Helvetica findfont 62.5185 sf 0 0 m (0.2) show NC gr 
 gsave  2268 2234 0 0 C 673.495 159.138 t 0 r /Helvetica findfont 62.5185 sf 0 0 m (0.4) show NC gr 
 gsave  2268 2234 0 0 C 861.05 159.138 t 0 r /Helvetica findfont 62.5185 sf 0 0 m (0.6) show NC gr 
 gsave  2268 2234 0 0 C 1050.03 159.138 t 0 r /Helvetica findfont 62.5185 sf 0 0 m (0.8) show NC gr 
 gsave  2268 2234 0 0 C 1268.84 159.138 t 0 r /Helvetica findfont 62.5185 sf 0 0 m (1) show NC gr 
 gsave  2268 2234 0 0 C 1426.56 159.138 t 0 r /Helvetica findfont 62.5185 sf 0 0 m (1.2) show NC gr 
 gsave  2268 2234 0 0 C 1614.11 159.138 t 0 r /Helvetica findfont 62.5185 sf 0 0 m (1.4) show NC gr 
 gsave  2268 2234 0 0 C 1803.09 159.138 t 0 r /Helvetica findfont 62.5185 sf 0 0 m (1.6) show NC gr 
 gsave  2268 2234 0 0 C 1990.65 159.138 t 0 r /Helvetica findfont 62.5185 sf 0 0 m (1.8) show NC gr 
 gsave  2268 2234 0 0 C 2205.2 159.138 t 0 r /Helvetica findfont 62.5185 sf 0 0 m (2) show NC gr  340 223 m 1966 Y s
 gsave  2268 2234 0 0 C 152.034 1953.7 t 90 r /Helvetica findfont 83.8316 sf 0 0 m (DR\(Q\)) show NC gr  400 402 m -60 X s 370 491 m -30 X s 370 581 m -30 X s 370 670 m -30 X s 400 759 m -60 X s 370 849 m -30 X s 370 938 m -30 X s 370 1027 m -30 X s
 400 1117 m -60 X s 370 1206 m -30 X s 370 1295 m -30 X s 370 1385 m -30 X s 400 1474 m -60 X s 370 1564 m -30 X s 370 1653 m -30 X s 370 1742 m -30 X s 400 1832 m -60 X s 370 1921 m -30 X s 370 2010 m -30 X s 370 2100 m -30 X s 400 2189 m -60 X s
 400 402 m -60 X s 370 313 m -30 X s 370 223 m -30 X s
 gsave  2268 2234 0 0 C 242.97 379.374 t 0 r /Helvetica findfont 62.5185 sf 0 0 m (0.6) show NC gr 
 gsave  2268 2234 0 0 C 242.97 737.434 t 0 r /Helvetica findfont 62.5185 sf 0 0 m (0.8) show NC gr 
 gsave  2268 2234 0 0 C 305.488 1092.65 t 0 r /Helvetica findfont 62.5185 sf 0 0 m (1) show NC gr 
 gsave  2268 2234 0 0 C 242.97 1450.71 t 0 r /Helvetica findfont 62.5185 sf 0 0 m (1.2) show NC gr 
 gsave  2268 2234 0 0 C 242.97 1808.77 t 0 r /Helvetica findfont 62.5185 sf 0 0 m (1.4) show NC gr 
 gsave  2268 2234 0 0 C 242.97 2166.83 t 0 r /Helvetica findfont 62.5185 sf 0 0 m (1.6) show NC gr 
 gsave  2268 2234 0 0 C 906.518 670.653 t 0 r /Helvetica-Bold findfont 72.4646 sf 0 0 m (DR PIONS) show NC gr 
 gsave  2268 2234 0 0 C 906.518 558.404 t 0 r /Helvetica-Bold findfont 72.4646 sf 0 0 m (ref. sample: EVENT MIX) show NC gr 
 gsave  2268 2234 0 0 C 906.518 447.576 t 0 r /Helvetica-Bold findfont 72.4646 sf 0 0 m (VELO tracks multiplicity: 11 \255 20) show NC gr 
 gr  gr showpage
end
%%EOF
