%!PS-Adobe-2.0 EPSF-2.0
%%BoundingBox:  0 0 567 558
%%Title: ./DR_pion_0c65_h3001_3_h3401_3.eps: DR_pion_0c65_h3001_3_h3401_3
%%Creator: ROOT Version 6.06/02
%%CreationDate: Wed Dec  7 17:36:50 2016
%%DocumentNeededResources: ProcSet (FontSetInit)
%%EndComments
%%BeginProlog
80 dict begin
/s {stroke} def /l {lineto} def /m {moveto} def /t {translate} def
/r {rotate} def /rl {roll}  def /R {repeat} def
/d {rlineto} def /rm {rmoveto} def /gr {grestore} def /f {eofill} def
/c {setrgbcolor} def /black {0 setgray} def /sd {setdash} def
/cl {closepath} def /sf {scalefont setfont} def /lw {setlinewidth} def
/box {m dup 0 exch d exch 0 d 0 exch neg d cl} def
/NC{systemdict begin initclip end}def/C{NC box clip newpath}def
/bl {box s} def /bf {gsave box gsave f grestore 1 lw [] 0 sd s grestore} def /Y { 0 exch d} def /X { 0 d} def 
/K {{pop pop 0 moveto} exch kshow} bind def
/ita {/ang 15 def gsave [1 0 ang dup sin exch cos div 1 0 0] concat} def 
/mp {newpath /y exch def /x exch def} def
/side {[w .77 mul w .23 mul] .385 w mul sd w 0 l currentpoint t -144 r} def
/mr {mp x y w2 0 360 arc} def /m24 {mr s} def /m20 {mr f} def
/mb {mp x y w2 add m w2 neg 0 d 0 w neg d w 0 d 0 w d cl} def
/mt {mp x y w2 add m w2 neg w neg d w 0 d cl} def
/m21 {mb f} def /m25 {mb s} def /m22 {mt f} def /m26{mt s} def
/m23 {mp x y w2 sub m w2 w d w neg 0 d cl f} def
/m27 {mp x y w2 add m w3 neg w2 neg d w3 w2 neg d w3 w2 d cl s} def
/m28 {mp x w2 sub y w2 sub w3 add m w3 0 d  0 w3 neg d w3 0 d 0 w3 d w3 0 d  0 w3 d w3 neg 0 d 0 w3 d w3 neg 0 d 0 w3 neg d w3 neg 0 d cl s } def
/m29 {mp gsave x w2 sub y w2 add w3 sub m currentpoint t 4 {side} repeat cl fill gr} def
/m30 {mp gsave x w2 sub y w2 add w3 sub m currentpoint t 4 {side} repeat cl s gr} def
/m31 {mp x y w2 sub m 0 w d x w2 sub y m w 0 d x w2 sub y w2 add m w w neg d x w2 sub y w2 sub m w w d s} def
/m32 {mp x y w2 sub m w2 w d w neg 0 d cl s} def
/m33 {mp x y w2 add m w3 neg w2 neg d w3 w2 neg d w3 w2 d cl f} def
/m34 {mp x w2 sub y w2 sub w3 add m w3 0 d  0 w3 neg d w3 0 d 0 w3 d w3 0 d  0 w3 d w3 neg 0 d 0 w3 d w3 neg 0 d 0 w3 neg d w3 neg 0 d cl f } def
/m2 {mp x y w2 sub m 0 w d x w2 sub y m w 0 d s} def
/m5 {mp x w2 sub y w2 sub m w w d x w2 sub y w2 add m w w neg d s} def
%%IncludeResource: ProcSet (FontSetInit)
%%IncludeResource: font Times-Roman
%%IncludeResource: font Times-Italic
%%IncludeResource: font Times-Bold
%%IncludeResource: font Times-BoldItalic
%%IncludeResource: font Helvetica
%%IncludeResource: font Helvetica-Oblique
%%IncludeResource: font Helvetica-Bold
%%IncludeResource: font Helvetica-BoldOblique
%%IncludeResource: font Courier
%%IncludeResource: font Courier-Oblique
%%IncludeResource: font Courier-Bold
%%IncludeResource: font Courier-BoldOblique
%%IncludeResource: font Symbol
%%IncludeResource: font ZapfDingbats
/reEncode {exch findfont dup length dict begin {1 index /FID eq  {pop pop} {def} ifelse } forall /Encoding exch def currentdict end dup /FontName get exch definefont pop } def [/Times-Bold /Times-Italic /Times-BoldItalic /Helvetica /Helvetica-Oblique
 /Helvetica-Bold /Helvetica-BoldOblique /Courier /Courier-Oblique /Courier-Bold /Courier-BoldOblique /Times-Roman /AvantGarde-Book /AvantGarde-BookOblique /AvantGarde-Demi /AvantGarde-DemiOblique /Bookman-Demi /Bookman-DemiItalic /Bookman-Light
 /Bookman-LightItalic /Helvetica-Narrow /Helvetica-Narrow-Bold /Helvetica-Narrow-BoldOblique /Helvetica-Narrow-Oblique /NewCenturySchlbk-Roman /NewCenturySchlbk-Bold /NewCenturySchlbk-BoldItalic /NewCenturySchlbk-Italic /Palatino-Bold
 /Palatino-BoldItalic /Palatino-Italic /Palatino-Roman ] {ISOLatin1Encoding reEncode } forall
%%EndProlog
%%BeginSetup
%%EndSetup
newpath  gsave  .25 .25 scale  gsave  0 0 t black[  ] 0 sd 6 lw 1 1 1 c 2268 2234 0 0 bf black 3 lw 1 1 1 c 1882 1966 340 223 bf black 1882 1966 340 223 bl 1 1 1 c 1882 1966 340 223 bf black 1882 1966 340 223 bl 0 0 1 c 6 lw 1 1 1 c 0 0 1 c 390 1575
 m 55 Y s 390 1642 m 55 Y s 3 lw /w 14 def /w2 {w 2 div} def /w3 {w 3 div} def 390 1636 m21 6 lw 394 1646 m 52 Y s 394 1709 m 52 Y s 3 lw 394 1704 m21 6 lw 399 1663 m 48 Y s 399 1722 m 48 Y s 3 lw 399 1717 m21 6 lw 404 1514 m 40 Y s 404 1566 m 40 Y s
 3 lw 404 1560 m21 6 lw 408 1523 m 37 Y s 408 1572 m 37 Y s 3 lw 408 1566 m21 6 lw 413 1520 m 35 Y s 413 1566 m 35 Y s 3 lw 413 1561 m21 6 lw 418 1509 m 32 Y s 418 1552 m 32 Y s 3 lw 418 1547 m21 6 lw 423 1480 m 30 Y s 423 1521 m 30 Y s 3 lw 423 1516
 m21 6 lw 427 1458 m 28 Y s 427 1497 m 28 Y s 3 lw 427 1491 m21 6 lw 432 1372 m 25 Y s 432 1408 m 25 Y s 3 lw 432 1403 m21 6 lw 437 1378 m 24 Y s 437 1413 m 24 Y s 3 lw 437 1408 m21 6 lw 441 1385 m 22 Y s 441 1418 m 22 Y s 3 lw 441 1412 m21 6 lw 446
 1383 m 21 Y s 446 1415 m 21 Y s 3 lw 446 1410 m21 6 lw 451 1347 m 19 Y s 451 1378 m 19 Y s 3 lw 451 1372 m21 6 lw 455 1373 m 19 Y s 455 1403 m 19 Y s 3 lw 455 1397 m21 6 lw 460 1332 m 18 Y s 460 1361 m 18 Y s 3 lw 460 1356 m21 6 lw 465 1309 m 17 Y s
 465 1337 m 17 Y s 3 lw 465 1332 m21 6 lw 470 1351 m 16 Y s 470 1379 m 16 Y s 3 lw 470 1373 m21 6 lw 474 1309 m 16 Y s 474 1336 m 15 Y s 3 lw 474 1330 m21 6 lw 479 1261 m 14 Y s 479 1286 m 14 Y s 3 lw 479 1281 m21 6 lw 484 1261 m 13 Y s 484 1286 m 13
 Y s 3 lw 484 1280 m21 6 lw 488 1275 m 13 Y s 488 1299 m 14 Y s 3 lw 488 1294 m21 6 lw 493 1269 m 13 Y s 493 1293 m 13 Y s 3 lw 493 1287 m21 6 lw 498 1266 m 12 Y s 498 1290 m 12 Y s 3 lw 498 1284 m21 6 lw 502 1243 m 11 Y s 502 1266 m 11 Y s 3 lw 502
 1260 m21 6 lw 507 1247 m 12 Y s 507 1270 m 11 Y s 3 lw 507 1264 m21 6 lw 512 1215 m 11 Y s 512 1237 m 11 Y s 3 lw 512 1232 m21 6 lw 517 1254 m 11 Y s 517 1276 m 11 Y s 3 lw 517 1271 m21 6 lw 521 1208 m 9 Y s 521 1229 m 10 Y s 3 lw 521 1223 m21 6 lw
 526 1225 m 10 Y s 526 1246 m 10 Y s 3 lw 526 1241 m21 6 lw 531 1191 m 9 Y s 531 1211 m 10 Y s 3 lw 531 1206 m21 6 lw 535 1223 m 10 Y s 535 1244 m 9 Y s 3 lw 535 1238 m21 6 lw 540 1173 m 9 Y s 540 1193 m 9 Y s 3 lw 540 1187 m21 6 lw 545 1208 m 8 Y s
 545 1228 m 8 Y s 3 lw 545 1222 m21 6 lw 550 1186 m 8 Y s 550 1205 m 9 Y s 3 lw 550 1200 m21 6 lw 554 1205 m 9 Y s 554 1225 m 8 Y s 3 lw 554 1219 m21 6 lw 559 1148 m 8 Y s 559 1167 m 8 Y s 3 lw 559 1162 m21 6 lw 564 1151 m 7 Y s 564 1170 m 7 Y s 3 lw
 564 1164 m21 6 lw 568 1147 m 7 Y s 568 1165 m 8 Y s 3 lw 568 1160 m21 6 lw 573 1170 m 7 Y s 573 1188 m 7 Y s 3 lw 573 1182 m21 6 lw 578 1162 m 7 Y s 578 1180 m 7 Y s 3 lw 578 1174 m21 6 lw 582 1146 m 7 Y s 582 1165 m 6 Y s 3 lw 582 1159 m21 6 lw 587
 1163 m 7 Y s 587 1181 m 7 Y s 3 lw 587 1176 m21 6 lw 592 1143 m 7 Y s 592 1161 m 7 Y s 3 lw 592 1156 m21 6 lw 597 1141 m 6 Y s 597 1159 m 6 Y s 3 lw 597 1153 m21 6 lw 601 1133 m 6 Y s 601 1150 m 6 Y s 3 lw 601 1145 m21 6 lw 606 1155 m 7 Y s 606 1173
 m 6 Y s 3 lw 606 1167 m21 6 lw 611 1145 m 6 Y s 611 1162 m 6 Y s 3 lw 611 1157 m21 6 lw 615 1143 m 5 Y s 615 1160 m 6 Y s 3 lw 615 1154 m21 6 lw 620 1129 m 6 Y s 620 1146 m 6 Y s 3 lw 620 1141 m21 6 lw 625 1115 m 6 Y s 625 1132 m 6 Y s 3 lw 625 1126
 m21 6 lw 630 1148 m 6 Y s 630 1165 m 6 Y s 3 lw 630 1159 m21 6 lw 634 1119 m 6 Y s 634 1136 m 6 Y s 3 lw 634 1131 m21 6 lw 639 1107 m 5 Y s 639 1123 m 6 Y s 3 lw 639 1118 m21 6 lw 644 1134 m 6 Y s 644 1151 m 5 Y s 3 lw 644 1145 m21 6 lw 648 1138 m 5
 Y s 648 1154 m 6 Y s 3 lw 648 1149 m21 6 lw 653 1114 m 5 Y s 653 1131 m 5 Y s 3 lw 653 1125 m21 6 lw 658 1116 m 5 Y s 658 1133 m 5 Y s 3 lw 658 1127 m21 6 lw 662 1103 m 5 Y s 662 1119 m 5 Y s 3 lw 662 1113 m21 6 lw 667 1103 m 5 Y s 667 1119 m 5 Y s
 3 lw 667 1113 m21 6 lw 672 1123 m 5 Y s 672 1139 m 5 Y s 3 lw 672 1134 m21 6 lw 677 1106 m 4 Y s 677 1122 m 5 Y s 3 lw 677 1116 m21 6 lw 681 1118 m 5 Y s 681 1134 m 5 Y s 3 lw 681 1129 m21 6 lw 686 1113 m 4 Y s 686 1129 m 5 Y s 3 lw 686 1123 m21 6
 lw 691 1113 m 4 Y s 691 1129 m 4 Y s 3 lw 691 1123 m21 6 lw 695 1091 m 4 Y s 695 1107 m 4 Y s 3 lw 695 1101 m21 6 lw 700 1104 m 5 Y s 700 1120 m 4 Y s 3 lw 700 1114 m21 6 lw 705 1100 m 4 Y s 705 1115 m 5 Y s 3 lw 705 1110 m21 6 lw 710 1122 m 4 Y s
 710 1137 m 5 Y s 3 lw 710 1132 m21 6 lw 714 1096 m 4 Y s 714 1111 m 5 Y s 3 lw 714 1106 m21 6 lw 719 1093 m 4 Y s 719 1108 m 5 Y s 3 lw 719 1103 m21 6 lw 724 1100 m 5 Y s 724 1116 m 4 Y s 3 lw 724 1110 m21 6 lw 728 1102 m 5 Y s 728 1118 m 4 Y s 3 lw
 728 1112 m21 6 lw 733 1101 m 4 Y s 733 1116 m 5 Y s 3 lw 733 1111 m21 6 lw 738 1090 m 4 Y s 738 1105 m 4 Y s 3 lw 738 1099 m21 6 lw 742 1115 m 4 Y s 742 1130 m 5 Y s 3 lw 742 1125 m21 6 lw 747 1098 m 4 Y s 747 1113 m 4 Y s 3 lw 747 1107 m21 6 lw 752
 1101 m 4 Y s 752 1116 m 4 Y s 3 lw 752 1110 m21 6 lw 757 1096 m 4 Y s 757 1111 m 4 Y s 3 lw 757 1106 m21 6 lw 761 1087 m 4 Y s 761 1103 m 4 Y s 3 lw 761 1097 m21 6 lw 766 1103 m 4 Y s 766 1119 m 4 Y s 3 lw 766 1113 m21 6 lw 771 1080 m 4 Y s 771 1095
 m 4 Y s 3 lw 771 1090 m21 6 lw 775 1082 m 4 Y s 775 1097 m 4 Y s 3 lw 775 1092 m21 6 lw 780 1084 m 4 Y s 780 1099 m 4 Y s 3 lw 780 1093 m21 6 lw 785 1087 m 4 Y s 785 1102 m 4 Y s 3 lw 785 1097 m21 6 lw 790 1087 m 3 Y s 790 1102 m 4 Y s 3 lw 790 1096
 m21 6 lw 794 1094 m 3 Y s 794 1109 m 3 Y s 3 lw 794 1103 m21 6 lw 799 1104 m 4 Y s 799 1119 m 4 Y s 3 lw 799 1113 m21 6 lw 804 1091 m 4 Y s 804 1106 m 4 Y s 3 lw 804 1101 m21 6 lw 808 1082 m 4 Y s 808 1097 m 4 Y s 3 lw 808 1092 m21 6 lw 813 1063 m 4
 Y s 813 1078 m 3 Y s 3 lw 813 1072 m21 6 lw 818 1085 m 4 Y s 818 1100 m 4 Y s 3 lw 818 1095 m21 6 lw 822 1090 m 3 Y s 822 1104 m 4 Y s 3 lw 822 1099 m21 6 lw 827 1083 m 3 Y s 827 1098 m 3 Y s 3 lw 827 1092 m21 6 lw 832 1077 m 3 Y s 832 1092 m 3 Y s
 3 lw 832 1086 m21 6 lw 837 1081 m 3 Y s 837 1095 m 4 Y s 3 lw 837 1090 m21 6 lw 841 1088 m 4 Y s 841 1103 m 4 Y s 3 lw 841 1098 m21 6 lw 846 1076 m 4 Y s 846 1091 m 4 Y s 3 lw 846 1086 m21 6 lw 851 1067 m 3 Y s 851 1082 m 3 Y s 3 lw 851 1076 m21 6
 lw 855 1080 m 3 Y s 855 1095 m 3 Y s 3 lw 855 1089 m21 6 lw 860 1075 m 4 Y s 860 1090 m 3 Y s 3 lw 860 1084 m21 6 lw 865 1094 m 4 Y s 865 1109 m 4 Y s 3 lw 865 1103 m21 6 lw 870 1095 m 4 Y s 870 1110 m 3 Y s 3 lw 870 1104 m21 6 lw 874 1071 m 4 Y s
 874 1086 m 3 Y s 3 lw 874 1080 m21 6 lw 879 1054 m 4 Y s 879 1069 m 3 Y s 3 lw 879 1063 m21 6 lw 884 1075 m 4 Y s 884 1090 m 3 Y s 3 lw 884 1084 m21 6 lw 888 1085 m 4 Y s 888 1100 m 3 Y s 3 lw 888 1094 m21 6 lw 893 1092 m 3 Y s 893 1107 m 3 Y s 3 lw
 893 1101 m21 6 lw 898 1076 m 4 Y s 898 1091 m 3 Y s 3 lw 898 1085 m21 6 lw 902 1073 m 4 Y s 902 1088 m 3 Y s 3 lw 902 1082 m21 6 lw 907 1073 m 3 Y s 907 1088 m 3 Y s 3 lw 907 1082 m21 6 lw 912 1075 m 3 Y s 912 1089 m 3 Y s 3 lw 912 1084 m21 6 lw 917
 1071 m 4 Y s 917 1086 m 3 Y s 3 lw 917 1080 m21 6 lw 921 1083 m 4 Y s 921 1098 m 3 Y s 3 lw 921 1092 m21 6 lw 926 1074 m 3 Y s 926 1089 m 3 Y s 3 lw 926 1083 m21 6 lw 931 1051 m 3 Y s 931 1065 m 3 Y s 3 lw 931 1060 m21 6 lw 935 1071 m 3 Y s 935 1085
 m 3 Y s 3 lw 935 1080 m21 6 lw 940 1078 m 3 Y s 940 1093 m 3 Y s 3 lw 940 1087 m21 6 lw 945 1077 m 4 Y s 945 1092 m 3 Y s 3 lw 945 1086 m21 6 lw 950 1084 m 3 Y s 950 1098 m 3 Y s 3 lw 950 1092 m21 6 lw 954 1076 m 4 Y s 954 1091 m 3 Y s 3 lw 954 1085
 m21 6 lw 959 1073 m 3 Y s 959 1087 m 3 Y s 3 lw 959 1081 m21 6 lw 964 1082 m 3 Y s 964 1097 m 3 Y s 3 lw 964 1091 m21 6 lw 968 1085 m 3 Y s 968 1100 m 3 Y s 3 lw 968 1094 m21 6 lw 973 1082 m 3 Y s 973 1096 m 3 Y s 3 lw 973 1090 m21 6 lw 978 1058 m 3
 Y s 978 1073 m 3 Y s 3 lw 978 1067 m21 6 lw 982 1068 m 3 Y s 982 1083 m 3 Y s 3 lw 982 1077 m21 6 lw 987 1068 m 3 Y s 987 1082 m 3 Y s 3 lw 987 1076 m21 6 lw 992 1081 m 3 Y s 992 1095 m 4 Y s 3 lw 992 1090 m21 6 lw 997 1079 m 3 Y s 997 1093 m 3 Y s
 3 lw 997 1087 m21 6 lw 1001 1067 m 3 Y s 1001 1082 m 3 Y s 3 lw 1001 1076 m21 6 lw 1006 1078 m 3 Y s 1006 1092 m 3 Y s 3 lw 1006 1087 m21 6 lw 1011 1068 m 3 Y s 1011 1082 m 4 Y s 3 lw 1011 1077 m21 6 lw 1015 1078 m 3 Y s 1015 1093 m 3 Y s 3 lw 1015
 1087 m21 6 lw 1020 1068 m 3 Y s 1020 1083 m 3 Y s 3 lw 1020 1077 m21 6 lw 1025 1076 m 3 Y s 1025 1091 m 3 Y s 3 lw 1025 1085 m21 6 lw 1030 1069 m 3 Y s 1030 1084 m 3 Y s 3 lw 1030 1078 m21 6 lw 1034 1084 m 3 Y s 1034 1098 m 4 Y s 3 lw 1034 1093 m21
 6 lw 1039 1079 m 3 Y s 1039 1094 m 3 Y s 3 lw 1039 1088 m21 6 lw 1044 1084 m 3 Y s 1044 1099 m 3 Y s 3 lw 1044 1093 m21 6 lw 1048 1077 m 3 Y s 1048 1091 m 4 Y s 3 lw 1048 1086 m21 6 lw 1053 1064 m 3 Y s 1053 1079 m 3 Y s 3 lw 1053 1073 m21 6 lw 1058
 1082 m 4 Y s 1058 1097 m 3 Y s 3 lw 1058 1091 m21 6 lw 1062 1071 m 3 Y s 1062 1085 m 3 Y s 3 lw 1062 1080 m21 6 lw 1067 1082 m 3 Y s 1067 1097 m 3 Y s 3 lw 1067 1091 m21 6 lw 1072 1081 m 3 Y s 1072 1095 m 4 Y s 3 lw 1072 1090 m21 6 lw 1077 1071 m 3
 Y s 1077 1085 m 4 Y s 3 lw 1077 1080 m21 6 lw 1081 1068 m 3 Y s 1081 1082 m 3 Y s 3 lw 1081 1076 m21 6 lw 1086 1071 m 3 Y s 1086 1086 m 3 Y s 3 lw 1086 1080 m21 6 lw 1091 1082 m 3 Y s 1091 1097 m 3 Y s 3 lw 1091 1091 m21 6 lw 1095 1076 m 3 Y s 1095
 1091 m 3 Y s 3 lw 1095 1085 m21 6 lw 1100 1055 m 3 Y s 1100 1069 m 4 Y s 3 lw 1100 1064 m21 6 lw 1105 1078 m 4 Y s 1105 1093 m 3 Y s 3 lw 1105 1087 m21 6 lw 1110 1076 m 3 Y s 1110 1090 m 3 Y s 3 lw 1110 1084 m21 6 lw 1114 1084 m 3 Y s 1114 1099 m 3
 Y s 3 lw 1114 1093 m21 6 lw 1119 1076 m 3 Y s 1119 1091 m 3 Y s 3 lw 1119 1085 m21 6 lw 1124 1074 m 3 Y s 1124 1088 m 3 Y s 3 lw 1124 1083 m21 6 lw 1128 1078 m 3 Y s 1128 1092 m 3 Y s 3 lw 1128 1087 m21 6 lw 1133 1079 m 3 Y s 1133 1093 m 3 Y s 3 lw
 1133 1088 m21 6 lw 1138 1092 m 4 Y s 1138 1107 m 3 Y s 3 lw 1138 1101 m21 6 lw 1142 1084 m 3 Y s 1142 1098 m 3 Y s 3 lw 1142 1093 m21 6 lw 1147 1103 m 3 Y s 1147 1118 m 3 Y s 3 lw 1147 1112 m21 6 lw 1152 1083 m 3 Y s 1152 1097 m 4 Y s 3 lw 1152 1092
 m21 6 lw 1157 1090 m 3 Y s 1157 1104 m 3 Y s 3 lw 1157 1099 m21 6 lw 1161 1076 m 3 Y s 1161 1090 m 4 Y s 3 lw 1161 1085 m21 6 lw 1166 1096 m 4 Y s 1166 1111 m 3 Y s 3 lw 1166 1105 m21 6 lw 1171 1090 m 3 Y s 1171 1105 m 3 Y s 3 lw 1171 1099 m21 6 lw
 1175 1091 m 3 Y s 1175 1106 m 3 Y s 3 lw 1175 1100 m21 6 lw 1180 1071 m 3 Y s 1180 1085 m 4 Y s 3 lw 1180 1080 m21 6 lw 1185 1085 m 3 Y s 1185 1099 m 4 Y s 3 lw 1185 1094 m21 6 lw 1190 1078 m 3 Y s 1190 1092 m 3 Y s 3 lw 1190 1087 m21 6 lw 1194 1082
 m 3 Y s 1194 1097 m 3 Y s 3 lw 1194 1091 m21 6 lw 1199 1072 m 3 Y s 1199 1087 m 3 Y s 3 lw 1199 1081 m21 6 lw 1204 1107 m 3 Y s 1204 1121 m 4 Y s 3 lw 1204 1116 m21 6 lw 1208 1070 m 4 Y s 1208 1085 m 3 Y s 3 lw 1208 1079 m21 6 lw 1213 1081 m 4 Y s
 1213 1096 m 3 Y s 3 lw 1213 1090 m21 6 lw 1218 1088 m 3 Y s 1218 1103 m 3 Y s 3 lw 1218 1097 m21 6 lw 1222 1087 m 3 Y s 1222 1101 m 4 Y s 3 lw 1222 1096 m21 6 lw 1227 1092 m 4 Y s 1227 1107 m 3 Y s 3 lw 1227 1101 m21 6 lw 1232 1091 m 3 Y s 1232 1106
 m 3 Y s 3 lw 1232 1100 m21 6 lw 1237 1114 m 3 Y s 1237 1129 m 3 Y s 3 lw 1237 1123 m21 6 lw 1241 1093 m 3 Y s 1241 1108 m 3 Y s 3 lw 1241 1102 m21 6 lw 1246 1088 m 4 Y s 1246 1103 m 3 Y s 3 lw 1246 1097 m21 6 lw 1251 1101 m 3 Y s 1251 1115 m 4 Y s 3
 lw 1251 1110 m21 6 lw 1255 1089 m 4 Y s 1255 1104 m 3 Y s 3 lw 1255 1098 m21 6 lw 1260 1104 m 4 Y s 1260 1119 m 4 Y s 3 lw 1260 1113 m21 6 lw 1265 1078 m 4 Y s 1265 1093 m 3 Y s 3 lw 1265 1087 m21 6 lw 1269 1091 m 3 Y s 1269 1105 m 4 Y s 3 lw 1269
 1100 m21 6 lw 1274 1094 m 3 Y s 1274 1108 m 4 Y s 3 lw 1274 1103 m21 6 lw 1279 1114 m 3 Y s 1279 1129 m 3 Y s 3 lw 1279 1123 m21 6 lw 1284 1106 m 3 Y s 1284 1120 m 4 Y s 3 lw 1284 1115 m21 6 lw 1288 1092 m 4 Y s 1288 1107 m 4 Y s 3 lw 1288 1101 m21
 6 lw 1293 1094 m 4 Y s 1293 1109 m 4 Y s 3 lw 1293 1104 m21 6 lw 1298 1084 m 4 Y s 1298 1099 m 4 Y s 3 lw 1298 1093 m21 6 lw 1302 1092 m 3 Y s 1302 1106 m 4 Y s 3 lw 1302 1101 m21 6 lw 1307 1092 m 3 Y s 1307 1107 m 3 Y s 3 lw 1307 1101 m21 6 lw 1312
 1103 m 3 Y s 1312 1118 m 3 Y s 3 lw 1312 1112 m21 6 lw 1317 1095 m 4 Y s 1317 1110 m 4 Y s 3 lw 1317 1104 m21 6 lw 1321 1107 m 4 Y s 1321 1122 m 4 Y s 3 lw 1321 1116 m21 6 lw 1326 1101 m 4 Y s 1326 1116 m 4 Y s 3 lw 1326 1110 m21 6 lw 1331 1117 m 4
 Y s 1331 1133 m 3 Y s 3 lw 1331 1127 m21 6 lw 1335 1097 m 3 Y s 1335 1112 m 3 Y s 3 lw 1335 1106 m21 6 lw 1340 1106 m 4 Y s 1340 1121 m 4 Y s 3 lw 1340 1116 m21 6 lw 1345 1103 m 3 Y s 1345 1118 m 3 Y s 3 lw 1345 1112 m21 6 lw 1349 1104 m 3 Y s 1349
 1119 m 3 Y s 3 lw 1349 1113 m21 6 lw 1354 1092 m 4 Y s 1354 1107 m 4 Y s 3 lw 1354 1101 m21 6 lw 1359 1101 m 4 Y s 1359 1116 m 4 Y s 3 lw 1359 1110 m21 6 lw 1364 1099 m 4 Y s 1364 1114 m 4 Y s 3 lw 1364 1109 m21 6 lw 1368 1112 m 3 Y s 1368 1127 m 3
 Y s 3 lw 1368 1121 m21 6 lw 1373 1117 m 4 Y s 1373 1132 m 4 Y s 3 lw 1373 1126 m21 6 lw 1378 1109 m 4 Y s 1378 1124 m 4 Y s 3 lw 1378 1119 m21 6 lw 1382 1108 m 3 Y s 1382 1123 m 4 Y s 3 lw 1382 1117 m21 6 lw 1387 1106 m 4 Y s 1387 1121 m 4 Y s 3 lw
 1387 1116 m21 6 lw 1392 1084 m 4 Y s 1392 1099 m 4 Y s 3 lw 1392 1093 m21 6 lw 1397 1109 m 4 Y s 1397 1124 m 4 Y s 3 lw 1397 1119 m21 6 lw 1401 1108 m 4 Y s 1401 1123 m 4 Y s 3 lw 1401 1117 m21 6 lw 1406 1120 m 4 Y s 1406 1135 m 4 Y s 3 lw 1406 1129
 m21 6 lw 1411 1115 m 4 Y s 1411 1130 m 4 Y s 3 lw 1411 1124 m21 6 lw 1415 1117 m 4 Y s 1415 1132 m 4 Y s 3 lw 1415 1126 m21 6 lw 1420 1116 m 4 Y s 1420 1131 m 4 Y s 3 lw 1420 1126 m21 6 lw 1425 1111 m 4 Y s 1425 1126 m 4 Y s 3 lw 1425 1121 m21 6 lw
 1429 1099 m 4 Y s 1429 1115 m 3 Y s 3 lw 1429 1109 m21 6 lw 1434 1115 m 4 Y s 1434 1131 m 4 Y s 3 lw 1434 1125 m21 6 lw 1439 1114 m 4 Y s 1439 1129 m 4 Y s 3 lw 1439 1123 m21 6 lw 1444 1122 m 4 Y s 1444 1138 m 4 Y s 3 lw 1444 1132 m21 6 lw 1448 1117
 m 4 Y s 1448 1132 m 4 Y s 3 lw 1448 1126 m21 6 lw 1453 1124 m 4 Y s 1453 1140 m 4 Y s 3 lw 1453 1134 m21 6 lw 1458 1096 m 4 Y s 1458 1111 m 4 Y s 3 lw 1458 1105 m21 6 lw 1462 1112 m 4 Y s 1462 1128 m 4 Y s 3 lw 1462 1122 m21 6 lw 1467 1111 m 4 Y s
 1467 1127 m 4 Y s 3 lw 1467 1121 m21 6 lw 1472 1103 m 4 Y s 1472 1118 m 4 Y s 3 lw 1472 1112 m21 6 lw 1477 1112 m 4 Y s 1477 1127 m 4 Y s 3 lw 1477 1122 m21 6 lw 1481 1114 m 4 Y s 1481 1130 m 4 Y s 3 lw 1481 1124 m21 6 lw 1486 1122 m 4 Y s 1486 1138
 m 4 Y s 3 lw 1486 1132 m21 6 lw 1491 1133 m 4 Y s 1491 1149 m 4 Y s 3 lw 1491 1143 m21 6 lw 1495 1113 m 4 Y s 1495 1128 m 4 Y s 3 lw 1495 1123 m21 6 lw 1500 1111 m 4 Y s 1500 1127 m 4 Y s 3 lw 1500 1121 m21 6 lw 1505 1107 m 4 Y s 1505 1122 m 4 Y s 3
 lw 1505 1117 m21 6 lw 1509 1120 m 4 Y s 1509 1136 m 4 Y s 3 lw 1509 1130 m21 6 lw 1514 1123 m 5 Y s 1514 1139 m 4 Y s 3 lw 1514 1133 m21 6 lw 1519 1113 m 4 Y s 1519 1129 m 4 Y s 3 lw 1519 1123 m21 6 lw 1524 1124 m 5 Y s 1524 1140 m 5 Y s 3 lw 1524
 1134 m21 6 lw 1528 1106 m 5 Y s 1528 1122 m 4 Y s 3 lw 1528 1116 m21 6 lw 1533 1120 m 5 Y s 1533 1136 m 5 Y s 3 lw 1533 1130 m21 6 lw 1538 1132 m 5 Y s 1538 1148 m 5 Y s 3 lw 1538 1143 m21 6 lw 1542 1131 m 5 Y s 1542 1147 m 5 Y s 3 lw 1542 1141 m21
 6 lw 1547 1133 m 5 Y s 1547 1149 m 4 Y s 3 lw 1547 1143 m21 6 lw 1552 1118 m 4 Y s 1552 1134 m 4 Y s 3 lw 1552 1128 m21 6 lw 1557 1111 m 5 Y s 1557 1127 m 5 Y s 3 lw 1557 1121 m21 6 lw 1561 1108 m 4 Y s 1561 1124 m 4 Y s 3 lw 1561 1118 m21 6 lw 1566
 1105 m 5 Y s 1566 1121 m 4 Y s 3 lw 1566 1115 m21 6 lw 1571 1113 m 5 Y s 1571 1129 m 5 Y s 3 lw 1571 1124 m21 6 lw 1575 1117 m 4 Y s 1575 1133 m 4 Y s 3 lw 1575 1127 m21 6 lw 1580 1112 m 5 Y s 1580 1128 m 5 Y s 3 lw 1580 1123 m21 6 lw 1585 1129 m 5
 Y s 1585 1145 m 5 Y s 3 lw 1585 1139 m21 6 lw 1589 1123 m 5 Y s 1589 1139 m 5 Y s 3 lw 1589 1134 m21 6 lw 1594 1117 m 5 Y s 1594 1133 m 5 Y s 3 lw 1594 1127 m21 6 lw 1599 1145 m 4 Y s 1599 1161 m 5 Y s 3 lw 1599 1155 m21 6 lw 1604 1120 m 5 Y s 1604
 1136 m 5 Y s 3 lw 1604 1130 m21 6 lw 1608 1121 m 5 Y s 1608 1137 m 5 Y s 3 lw 1608 1132 m21 6 lw 1613 1135 m 5 Y s 1613 1151 m 5 Y s 3 lw 1613 1145 m21 6 lw 1618 1127 m 5 Y s 1618 1143 m 5 Y s 3 lw 1618 1137 m21 6 lw 1622 1134 m 4 Y s 1622 1150 m 5
 Y s 3 lw 1622 1144 m21 6 lw 1627 1112 m 5 Y s 1627 1128 m 5 Y s 3 lw 1627 1123 m21 6 lw 1632 1110 m 5 Y s 1632 1126 m 5 Y s 3 lw 1632 1120 m21 6 lw 1637 1148 m 5 Y s 1637 1164 m 5 Y s 3 lw 1637 1158 m21 6 lw 1641 1125 m 5 Y s 1641 1141 m 5 Y s 3 lw
 1641 1136 m21 6 lw 1646 1107 m 5 Y s 1646 1124 m 5 Y s 3 lw 1646 1118 m21 6 lw 1651 1127 m 5 Y s 1651 1143 m 5 Y s 3 lw 1651 1138 m21 6 lw 1655 1125 m 5 Y s 1655 1141 m 5 Y s 3 lw 1655 1135 m21 6 lw 1660 1125 m 5 Y s 1660 1141 m 5 Y s 3 lw 1660 1136
 m21 6 lw 1665 1124 m 5 Y s 1665 1140 m 5 Y s 3 lw 1665 1134 m21 6 lw 1669 1112 m 5 Y s 1669 1129 m 5 Y s 3 lw 1669 1123 m21 6 lw 1674 1125 m 5 Y s 1674 1142 m 5 Y s 3 lw 1674 1136 m21 6 lw 1679 1131 m 5 Y s 1679 1148 m 5 Y s 3 lw 1679 1142 m21 6 lw
 1684 1111 m 5 Y s 1684 1128 m 5 Y s 3 lw 1684 1122 m21 6 lw 1688 1125 m 5 Y s 1688 1141 m 6 Y s 3 lw 1688 1136 m21 6 lw 1693 1126 m 6 Y s 1693 1143 m 5 Y s 3 lw 1693 1137 m21 6 lw 1698 1130 m 5 Y s 1698 1147 m 5 Y s 3 lw 1698 1141 m21 6 lw 1702 1129
 m 5 Y s 1702 1146 m 5 Y s 3 lw 1702 1140 m21 6 lw 1707 1102 m 6 Y s 1707 1119 m 5 Y s 3 lw 1707 1113 m21 6 lw 1712 1139 m 6 Y s 1712 1156 m 6 Y s 3 lw 1712 1150 m21 6 lw 1717 1118 m 5 Y s 1717 1135 m 5 Y s 3 lw 1717 1129 m21 6 lw 1721 1137 m 6 Y s
 1721 1154 m 5 Y s 3 lw 1721 1148 m21 6 lw 1726 1129 m 6 Y s 1726 1146 m 6 Y s 3 lw 1726 1141 m21 6 lw 1731 1123 m 6 Y s 1731 1140 m 6 Y s 3 lw 1731 1135 m21 6 lw 1735 1105 m 6 Y s 1735 1122 m 5 Y s 3 lw 1735 1116 m21 6 lw 1740 1129 m 5 Y s 1740 1146
 m 5 Y s 3 lw 1740 1140 m21 6 lw 1745 1126 m 6 Y s 1745 1143 m 6 Y s 3 lw 1745 1138 m21 6 lw 1749 1138 m 6 Y s 1749 1155 m 6 Y s 3 lw 1749 1149 m21 6 lw 1754 1151 m 6 Y s 1754 1168 m 6 Y s 3 lw 1754 1163 m21 6 lw 1759 1120 m 6 Y s 1759 1137 m 6 Y s 3
 lw 1759 1131 m21 6 lw 1764 1139 m 6 Y s 1764 1157 m 5 Y s 3 lw 1764 1151 m21 6 lw 1768 1103 m 6 Y s 1768 1120 m 6 Y s 3 lw 1768 1114 m21 6 lw 1773 1120 m 6 Y s 1773 1137 m 6 Y s 3 lw 1773 1132 m21 6 lw 1778 1126 m 6 Y s 1778 1144 m 6 Y s 3 lw 1778
 1138 m21 6 lw 1782 1124 m 6 Y s 1782 1141 m 6 Y s 3 lw 1782 1135 m21 6 lw 1787 1130 m 6 Y s 1787 1148 m 6 Y s 3 lw 1787 1142 m21 6 lw 1792 1108 m 5 Y s 1792 1125 m 6 Y s 3 lw 1792 1119 m21 6 lw 1797 1105 m 6 Y s 1797 1122 m 6 Y s 3 lw 1797 1116 m21
 6 lw 1801 1108 m 6 Y s 1801 1125 m 6 Y s 3 lw 1801 1120 m21 6 lw 1806 1128 m 6 Y s 1806 1145 m 6 Y s 3 lw 1806 1140 m21 6 lw 1811 1120 m 6 Y s 1811 1137 m 6 Y s 3 lw 1811 1131 m21 6 lw 1815 1129 m 6 Y s 1815 1147 m 6 Y s 3 lw 1815 1141 m21 6 lw 1820
 1132 m 7 Y s 1820 1150 m 6 Y s 3 lw 1820 1144 m21 6 lw 1825 1115 m 7 Y s 1825 1133 m 6 Y s 3 lw 1825 1127 m21 6 lw 1829 1117 m 7 Y s 1829 1135 m 6 Y s 3 lw 1829 1129 m21 6 lw 1834 1114 m 7 Y s 1834 1132 m 6 Y s 3 lw 1834 1126 m21 6 lw 1839 1136 m 6
 Y s 1839 1154 m 6 Y s 3 lw 1839 1148 m21 6 lw 1844 1142 m 7 Y s 1844 1160 m 7 Y s 3 lw 1844 1155 m21 6 lw 1848 1131 m 6 Y s 1848 1149 m 6 Y s 3 lw 1848 1143 m21 6 lw 1853 1140 m 6 Y s 1853 1157 m 7 Y s 3 lw 1853 1152 m21 6 lw 1858 1122 m 6 Y s 1858
 1139 m 7 Y s 3 lw 1858 1134 m21 6 lw 1862 1134 m 7 Y s 1862 1152 m 7 Y s 3 lw 1862 1146 m21 6 lw 1867 1126 m 7 Y s 1867 1144 m 7 Y s 3 lw 1867 1139 m21 6 lw 1872 1117 m 6 Y s 1872 1135 m 6 Y s 3 lw 1872 1129 m21 6 lw 1877 1130 m 6 Y s 1877 1148 m 6
 Y s 3 lw 1877 1142 m21 6 lw 1881 1122 m 7 Y s 1881 1140 m 7 Y s 3 lw 1881 1134 m21 6 lw 1886 1148 m 7 Y s 1886 1166 m 7 Y s 3 lw 1886 1160 m21 6 lw 1891 1137 m 6 Y s 1891 1155 m 7 Y s 3 lw 1891 1149 m21 6 lw 1895 1111 m 7 Y s 1895 1130 m 6 Y s 3 lw
 1895 1124 m21 6 lw 1900 1109 m 7 Y s 1900 1127 m 7 Y s 3 lw 1900 1122 m21 6 lw 1905 1109 m 7 Y s 1905 1127 m 7 Y s 3 lw 1905 1122 m21 6 lw 1909 1150 m 7 Y s 1909 1168 m 7 Y s 3 lw 1909 1162 m21 6 lw 1914 1129 m 7 Y s 1914 1148 m 7 Y s 3 lw 1914 1142
 m21 6 lw 1919 1141 m 7 Y s 1919 1159 m 7 Y s 3 lw 1919 1153 m21 6 lw 1924 1120 m 7 Y s 1924 1138 m 7 Y s 3 lw 1924 1133 m21 6 lw 1928 1139 m 7 Y s 1928 1157 m 8 Y s 3 lw 1928 1152 m21 6 lw 1933 1107 m 7 Y s 1933 1126 m 7 Y s 3 lw 1933 1120 m21 6 lw
 1938 1120 m 7 Y s 1938 1138 m 7 Y s 3 lw 1938 1133 m21 6 lw 1942 1112 m 7 Y s 1942 1130 m 8 Y s 3 lw 1942 1125 m21 6 lw 1947 1136 m 8 Y s 1947 1155 m 7 Y s 3 lw 1947 1149 m21 6 lw 1952 1126 m 8 Y s 1952 1145 m 7 Y s 3 lw 1952 1139 m21 6 lw 1957 1118
 m 8 Y s 1957 1137 m 7 Y s 3 lw 1957 1131 m21 6 lw 1961 1148 m 8 Y s 1961 1167 m 7 Y s 3 lw 1961 1161 m21 6 lw 1966 1111 m 7 Y s 1966 1130 m 7 Y s 3 lw 1966 1124 m21 6 lw 1971 1122 m 8 Y s 1971 1141 m 8 Y s 3 lw 1971 1136 m21 6 lw 1975 1118 m 7 Y s
 1975 1137 m 7 Y s 3 lw 1975 1131 m21 6 lw 1980 1136 m 8 Y s 1980 1155 m 8 Y s 3 lw 1980 1149 m21 6 lw 1985 1152 m 7 Y s 1985 1171 m 8 Y s 3 lw 1985 1165 m21 6 lw 1989 1128 m 8 Y s 1989 1147 m 8 Y s 3 lw 1989 1142 m21 6 lw 1994 1126 m 8 Y s 1994 1145
 m 8 Y s 3 lw 1994 1140 m21 6 lw 1999 1103 m 7 Y s 1999 1122 m 7 Y s 3 lw 1999 1116 m21 6 lw 2004 1139 m 8 Y s 2004 1158 m 8 Y s 3 lw 2004 1152 m21 6 lw 2008 1144 m 8 Y s 2008 1163 m 8 Y s 3 lw 2008 1158 m21 6 lw 2013 1115 m 8 Y s 2013 1134 m 8 Y s 3
 lw 2013 1128 m21 6 lw 2018 1120 m 8 Y s 2018 1140 m 7 Y s 3 lw 2018 1134 m21 6 lw 2022 1118 m 8 Y s 2022 1137 m 8 Y s 3 lw 2022 1132 m21 6 lw 2027 1124 m 8 Y s 2027 1143 m 8 Y s 3 lw 2027 1137 m21 6 lw 2032 1118 m 8 Y s 2032 1137 m 8 Y s 3 lw 2032
 1132 m21 6 lw 2036 1139 m 8 Y s 2036 1158 m 8 Y s 3 lw 2036 1153 m21 6 lw 2041 1118 m 8 Y s 2041 1138 m 8 Y s 3 lw 2041 1132 m21 6 lw 2046 1146 m 8 Y s 2046 1166 m 8 Y s 3 lw 2046 1160 m21 6 lw 2051 1139 m 8 Y s 2051 1158 m 9 Y s 3 lw 2051 1153 m21
 6 lw 2055 1126 m 8 Y s 2055 1146 m 8 Y s 3 lw 2055 1140 m21 6 lw 2060 1108 m 8 Y s 2060 1127 m 9 Y s 3 lw 2060 1122 m21 6 lw 2065 1129 m 8 Y s 2065 1149 m 8 Y s 3 lw 2065 1143 m21 6 lw 2069 1137 m 9 Y s 2069 1157 m 8 Y s 3 lw 2069 1151 m21 6 lw 2074
 1126 m 8 Y s 2074 1146 m 8 Y s 3 lw 2074 1140 m21 6 lw 2079 1117 m 9 Y s 2079 1137 m 9 Y s 3 lw 2079 1132 m21 6 lw 2084 1127 m 8 Y s 2084 1147 m 8 Y s 3 lw 2084 1141 m21 6 lw 2088 1115 m 8 Y s 2088 1135 m 8 Y s 3 lw 2088 1129 m21 6 lw 2093 1124 m 9
 Y s 2093 1144 m 9 Y s 3 lw 2093 1138 m21 6 lw 2098 1146 m 9 Y s 2098 1167 m 8 Y s 3 lw 2098 1161 m21 6 lw 2102 1138 m 8 Y s 2102 1158 m 9 Y s 3 lw 2102 1152 m21 6 lw 2107 1103 m 9 Y s 2107 1123 m 9 Y s 3 lw 2107 1117 m21 6 lw 2112 1128 m 9 Y s 2112
 1148 m 9 Y s 3 lw 2112 1143 m21 6 lw 2116 1153 m 9 Y s 2116 1174 m 9 Y s 3 lw 2116 1168 m21 6 lw 2121 1125 m 9 Y s 2121 1146 m 9 Y s 3 lw 2121 1140 m21 6 lw 2126 1142 m 9 Y s 2126 1162 m 9 Y s 3 lw 2126 1156 m21 6 lw 2131 1153 m 9 Y s 2131 1173 m 9
 Y s 3 lw 2131 1167 m21 6 lw 2135 1134 m 10 Y s 2135 1155 m 9 Y s 3 lw 2135 1149 m21 6 lw 2140 1126 m 9 Y s 2140 1146 m 10 Y s 3 lw 2140 1141 m21 6 lw 2145 1140 m 9 Y s 2145 1160 m 10 Y s 3 lw 2145 1155 m21 6 lw 2149 1118 m 9 Y s 2149 1139 m 9 Y s 3
 lw 2149 1133 m21 6 lw 2154 1117 m 9 Y s 2154 1137 m 9 Y s 3 lw 2154 1131 m21 6 lw 2159 1105 m 9 Y s 2159 1126 m 9 Y s 3 lw 2159 1120 m21 6 lw 2164 1114 m 9 Y s 2164 1135 m 9 Y s 3 lw 2164 1129 m21 6 lw 2168 1124 m 10 Y s 2168 1145 m 10 Y s 3 lw 2168
 1140 m21 6 lw 2173 1140 m 9 Y s 2173 1161 m 9 Y s 3 lw 2173 1155 m21 6 lw 2178 1089 m 9 Y s 2178 1109 m 10 Y s 3 lw 2178 1104 m21 6 lw 2182 1116 m 10 Y s 2182 1137 m 10 Y s 3 lw 2182 1132 m21 6 lw 2187 1129 m 10 Y s 2187 1150 m 10 Y s 3 lw 2187 1145
 m21 6 lw 2192 1104 m 9 Y s 2192 1125 m 9 Y s 3 lw 2192 1119 m21 6 lw 2196 1106 m 10 Y s 2196 1127 m 10 Y s 3 lw 2196 1122 m21 6 lw 2201 1121 m 10 Y s 2201 1142 m 10 Y s 3 lw 2201 1136 m21 6 lw 2206 1103 m 10 Y s 2206 1124 m 10 Y s 3 lw 2206 1118 m21
 6 lw 2211 1156 m 10 Y s 2211 1177 m 10 Y s 3 lw 2211 1172 m21 6 lw 2215 1133 m 10 Y s 2215 1154 m 10 Y s 3 lw 2215 1149 m21 6 lw 2220 1146 m 11 Y s 2220 1168 m 10 Y s 3 lw 2220 1162 m21 6 lw black 340 223 m 1882 X s
 gsave  2268 2234 0 0 C 1923.86 58.2559 t 0 r /Helvetica findfont 83.8316 sf 0 0 m (Q [GeV]) show NC gr  340 279 m -56 Y s 387 251 m -28 Y s 434 251 m -28 Y s 481 251 m -28 Y s 528 279 m -56 Y s 575 251 m -28 Y s 622 251 m -28 Y s 670 251 m -28 Y s
 717 279 m -56 Y s 764 251 m -28 Y s 811 251 m -28 Y s 858 251 m -28 Y s 905 279 m -56 Y s 952 251 m -28 Y s 999 251 m -28 Y s 1046 251 m -28 Y s 1093 279 m -56 Y s 1140 251 m -28 Y s 1187 251 m -28 Y s 1234 251 m -28 Y s 1281 279 m -56 Y s 1328 251
 m -28 Y s 1375 251 m -28 Y s 1422 251 m -28 Y s 1469 279 m -56 Y s 1517 251 m -28 Y s 1564 251 m -28 Y s 1611 251 m -28 Y s 1658 279 m -56 Y s 1705 251 m -28 Y s 1752 251 m -28 Y s 1799 251 m -28 Y s 1846 279 m -56 Y s 1893 251 m -28 Y s 1940 251 m
 -28 Y s 1987 251 m -28 Y s 2034 279 m -56 Y s 2081 251 m -28 Y s 2128 251 m -28 Y s 2175 251 m -28 Y s 2222 279 m -56 Y s
 gsave  2268 2234 0 0 C 322.539 159.138 t 0 r /Helvetica findfont 62.5185 sf 0 0 m (0) show NC gr 
 gsave  2268 2234 0 0 C 484.518 159.138 t 0 r /Helvetica findfont 62.5185 sf 0 0 m (0.2) show NC gr 
 gsave  2268 2234 0 0 C 673.495 159.138 t 0 r /Helvetica findfont 62.5185 sf 0 0 m (0.4) show NC gr 
 gsave  2268 2234 0 0 C 861.05 159.138 t 0 r /Helvetica findfont 62.5185 sf 0 0 m (0.6) show NC gr 
 gsave  2268 2234 0 0 C 1050.03 159.138 t 0 r /Helvetica findfont 62.5185 sf 0 0 m (0.8) show NC gr 
 gsave  2268 2234 0 0 C 1268.84 159.138 t 0 r /Helvetica findfont 62.5185 sf 0 0 m (1) show NC gr 
 gsave  2268 2234 0 0 C 1426.56 159.138 t 0 r /Helvetica findfont 62.5185 sf 0 0 m (1.2) show NC gr 
 gsave  2268 2234 0 0 C 1614.11 159.138 t 0 r /Helvetica findfont 62.5185 sf 0 0 m (1.4) show NC gr 
 gsave  2268 2234 0 0 C 1803.09 159.138 t 0 r /Helvetica findfont 62.5185 sf 0 0 m (1.6) show NC gr 
 gsave  2268 2234 0 0 C 1990.65 159.138 t 0 r /Helvetica findfont 62.5185 sf 0 0 m (1.8) show NC gr 
 gsave  2268 2234 0 0 C 2205.2 159.138 t 0 r /Helvetica findfont 62.5185 sf 0 0 m (2) show NC gr  340 223 m 1966 Y s
 gsave  2268 2234 0 0 C 152.034 1953.7 t 90 r /Helvetica findfont 83.8316 sf 0 0 m (DR\(Q\)) show NC gr  400 402 m -60 X s 370 491 m -30 X s 370 581 m -30 X s 370 670 m -30 X s 400 759 m -60 X s 370 849 m -30 X s 370 938 m -30 X s 370 1027 m -30 X s
 400 1117 m -60 X s 370 1206 m -30 X s 370 1295 m -30 X s 370 1385 m -30 X s 400 1474 m -60 X s 370 1564 m -30 X s 370 1653 m -30 X s 370 1742 m -30 X s 400 1832 m -60 X s 370 1921 m -30 X s 370 2010 m -30 X s 370 2100 m -30 X s 400 2189 m -60 X s
 400 402 m -60 X s 370 313 m -30 X s 370 223 m -30 X s
 gsave  2268 2234 0 0 C 242.97 379.374 t 0 r /Helvetica findfont 62.5185 sf 0 0 m (0.6) show NC gr 
 gsave  2268 2234 0 0 C 242.97 737.434 t 0 r /Helvetica findfont 62.5185 sf 0 0 m (0.8) show NC gr 
 gsave  2268 2234 0 0 C 305.488 1092.65 t 0 r /Helvetica findfont 62.5185 sf 0 0 m (1) show NC gr 
 gsave  2268 2234 0 0 C 242.97 1450.71 t 0 r /Helvetica findfont 62.5185 sf 0 0 m (1.2) show NC gr 
 gsave  2268 2234 0 0 C 242.97 1808.77 t 0 r /Helvetica findfont 62.5185 sf 0 0 m (1.4) show NC gr 
 gsave  2268 2234 0 0 C 242.97 2166.83 t 0 r /Helvetica findfont 62.5185 sf 0 0 m (1.6) show NC gr 
 gsave  2268 2234 0 0 C 906.518 670.653 t 0 r /Helvetica-Bold findfont 72.4646 sf 0 0 m (DR PIONS) show NC gr 
 gsave  2268 2234 0 0 C 906.518 558.404 t 0 r /Helvetica-Bold findfont 72.4646 sf 0 0 m (ref. sample: EVENT MIX) show NC gr 
 gsave  2268 2234 0 0 C 906.518 447.576 t 0 r /Helvetica-Bold findfont 72.4646 sf 0 0 m (VELO tracks multiplicity: 21 \255 60) show NC gr 
 gr  gr showpage
end
%%EOF
