%!PS-Adobe-2.0 EPSF-2.0
%%BoundingBox:  0 0 567 558
%%Title: ./scalar1_results_DR_corr_DR_pion_0c65_h3015_2_h3401_2_compare.eps: scalar1_results_DR_corr_DR_pion_0c65_h3015_2_h3401_2_compare
%%Creator: ROOT Version 5.34/25
%%CreationDate: Wed Dec 21 16:56:54 2016
%%EndComments
%%BeginProlog
80 dict begin
/s {stroke} def /l {lineto} def /m {moveto} def /t {translate} def
/r {rotate} def /rl {roll}  def /R {repeat} def
/d {rlineto} def /rm {rmoveto} def /gr {grestore} def /f {eofill} def
/c {setrgbcolor} def /black {0 setgray} def /sd {setdash} def
/cl {closepath} def /sf {scalefont setfont} def /lw {setlinewidth} def
/box {m dup 0 exch d exch 0 d 0 exch neg d cl} def
/NC{systemdict begin initclip end}def/C{NC box clip newpath}def
/bl {box s} def /bf {box f} def /Y { 0 exch d} def /X { 0 d} def 
/K {{pop pop 0 moveto} exch kshow} bind def
/ita {/ang 15 def gsave [1 0 ang dup sin exch cos div 1 0 0] concat} def 
/mp {newpath /y exch def /x exch def} def
/side {[w .77 mul w .23 mul] .385 w mul sd w 0 l currentpoint t -144 r} def
/mr {mp x y w2 0 360 arc} def /m24 {mr s} def /m20 {mr f} def
/mb {mp x y w2 add m w2 neg 0 d 0 w neg d w 0 d 0 w d cl} def
/mt {mp x y w2 add m w2 neg w neg d w 0 d cl} def
/m21 {mb f} def /m25 {mb s} def /m22 {mt f} def /m26{mt s} def
/m23 {mp x y w2 sub m w2 w d w neg 0 d cl f} def
/m27 {mp x y w2 add m w3 neg w2 neg d w3 w2 neg d w3 w2 d cl s} def
/m28 {mp x w2 sub y w2 sub w3 add m w3 0 d  0 w3 neg d w3 0 d 0 w3 d w3 0 d  0 w3 d w3 neg 0 d 0 w3 d w3 neg 0 d 0 w3 neg d w3 neg 0 d cl s } def
/m29 {mp gsave x w2 sub y w2 add w3 sub m currentpoint t 4 {side} repeat cl fill gr} def
/m30 {mp gsave x w2 sub y w2 add w3 sub m currentpoint t 4 {side} repeat cl s gr} def
/m31 {mp x y w2 sub m 0 w d x w2 sub y m w 0 d x w2 sub y w2 add m w w neg d x w2 sub y w2 sub m w w d s} def
/m32 {mp x y w2 sub m w2 w d w neg 0 d cl s} def
/m33 {mp x y w2 add m w3 neg w2 neg d w3 w2 neg d w3 w2 d cl f} def
/m34 {mp x w2 sub y w2 sub w3 add m w3 0 d  0 w3 neg d w3 0 d 0 w3 d w3 0 d  0 w3 d w3 neg 0 d 0 w3 d w3 neg 0 d 0 w3 neg d w3 neg 0 d cl f } def
/m2 {mp x y w2 sub m 0 w d x w2 sub y m w 0 d s} def
/m5 {mp x w2 sub y w2 sub m w w d x w2 sub y w2 add m w w neg d s} def
/reEncode {exch findfont dup length dict begin {1 index /FID eq  {pop pop} {def} ifelse } forall /Encoding exch def currentdict end dup /FontName get exch definefont pop } def [/Times-Bold /Times-Italic /Times-BoldItalic /Helvetica /Helvetica-Oblique
 /Helvetica-Bold /Helvetica-BoldOblique /Courier /Courier-Oblique /Courier-Bold /Courier-BoldOblique /Times-Roman /AvantGarde-Book /AvantGarde-BookOblique /AvantGarde-Demi /AvantGarde-DemiOblique /Bookman-Demi /Bookman-DemiItalic /Bookman-Light
 /Bookman-LightItalic /Helvetica-Narrow /Helvetica-Narrow-Bold /Helvetica-Narrow-BoldOblique /Helvetica-Narrow-Oblique /NewCenturySchlbk-Roman /NewCenturySchlbk-Bold /NewCenturySchlbk-BoldItalic /NewCenturySchlbk-Italic /Palatino-Bold
 /Palatino-BoldItalic /Palatino-Italic /Palatino-Roman ] {ISOLatin1Encoding reEncode } forall
%%EndProlog
%%BeginSetup
%%EndSetup
newpath  gsave  .25 .25 scale  gsave  0 0 t black[  ] 0 sd 6 lw 1 1 1 c 2268 2234 0 0 bf black 3 lw 1 1 1 c 1882 1966 340 223 bf black 1882 1966 340 223 bl 1 1 1 c 1882 1966 340 223 bf black 1882 1966 340 223 bl 0 0 1 c 6 lw 1 1 1 c 0 0 1 c 406 1733
 m 6 Y s 406 1756 m 7 Y s 3 lw /w 19 def /w2 {w 2 div} def /w3 {w 3 div} def 406 1748 m21 6 lw 425 1599 m 4 Y s 425 1620 m 3 Y s 3 lw 425 1611 m21 6 lw 444 1515 m 1 Y s 444 1533 m 1 Y s 3 lw 444 1524 m21 6 lw 3 lw 463 1417 m21 6 lw 3 lw 481 1365 m21
 6 lw 3 lw 500 1313 m21 6 lw 3 lw 519 1281 m21 6 lw 3 lw 538 1256 m21 6 lw 3 lw 557 1226 m21 6 lw 3 lw 575 1204 m21 6 lw 3 lw 594 1184 m21 6 lw 3 lw 613 1166 m21 6 lw 3 lw 632 1155 m21 6 lw 3 lw 651 1142 m21 6 lw 3 lw 670 1145 m21 6 lw 3 lw 688 1123
 m21 6 lw 3 lw 707 1113 m21 6 lw 3 lw 726 1114 m21 6 lw 3 lw 745 1107 m21 6 lw 3 lw 764 1096 m21 6 lw 3 lw 782 1097 m21 6 lw 3 lw 801 1095 m21 6 lw 3 lw 820 1087 m21 6 lw 3 lw 839 1080 m21 6 lw 3 lw 858 1075 m21 6 lw 3 lw 877 1079 m21 6 lw 3 lw 895
 1076 m21 6 lw 3 lw 914 1069 m21 6 lw 3 lw 933 1074 m21 6 lw 3 lw 952 1063 m21 6 lw 3 lw 971 1065 m21 6 lw 3 lw 990 1067 m21 6 lw 3 lw 1008 1071 m21 6 lw 3 lw 1027 1063 m21 6 lw 3 lw 1046 1067 m21 6 lw 3 lw 1065 1064 m21 6 lw 3 lw 1084 1061 m21 6 lw
 3 lw 1102 1066 m21 6 lw 3 lw 1121 1059 m21 6 lw 3 lw 1140 1070 m21 6 lw 3 lw 1159 1073 m21 6 lw 3 lw 1178 1065 m21 6 lw 3 lw 1197 1075 m21 6 lw 3 lw 1215 1075 m21 6 lw 3 lw 1234 1066 m21 6 lw 3 lw 1253 1077 m21 6 lw 1272 1058 m s 1272 1075 m s 3 lw
 1272 1067 m21 6 lw 1291 1065 m s 1291 1082 m 1 Y s 3 lw 1291 1074 m21 6 lw 1309 1061 m 1 Y s 1309 1079 m 1 Y s 3 lw 1309 1071 m21 6 lw 1328 1067 m 1 Y s 1328 1085 m 2 Y s 3 lw 1328 1077 m21 6 lw 1347 1075 m 3 Y s 1347 1095 m 2 Y s 3 lw 1347 1086 m21
 6 lw 1366 1054 m 3 Y s 1366 1074 m 3 Y s 3 lw 1366 1065 m21 6 lw 1385 1055 m 4 Y s 1385 1076 m 4 Y s 3 lw 1385 1067 m21 6 lw 1404 1075 m 5 Y s 1404 1097 m 5 Y s 3 lw 1404 1089 m21 6 lw 1422 1087 m 5 Y s 1422 1109 m 6 Y s 3 lw 1422 1101 m21 6 lw 1441
 1085 m 7 Y s 1441 1109 m 6 Y s 3 lw 1441 1100 m21 6 lw 1460 1083 m 8 Y s 1460 1108 m 7 Y s 3 lw 1460 1099 m21 6 lw 1479 1084 m 9 Y s 1479 1110 m 8 Y s 3 lw 1479 1101 m21 6 lw 1498 1038 m 9 Y s 1498 1064 m 10 Y s 3 lw 1498 1056 m21 6 lw 1517 1044 m
 10 Y s 1517 1071 m 11 Y s 3 lw 1517 1063 m21 6 lw 1535 1070 m 12 Y s 1535 1099 m 12 Y s 3 lw 1535 1091 m21 6 lw 1554 1051 m 13 Y s 1554 1082 m 13 Y s 3 lw 1554 1073 m21 6 lw 1573 1046 m 14 Y s 1573 1077 m 15 Y s 3 lw 1573 1069 m21 6 lw 1592 1039 m
 16 Y s 1592 1072 m 16 Y s 3 lw 1592 1064 m21 6 lw 1611 1053 m 18 Y s 1611 1088 m 18 Y s 3 lw 1611 1080 m21 6 lw 1629 1027 m 19 Y s 1629 1063 m 19 Y s 3 lw 1629 1054 m21 6 lw 1648 1042 m 22 Y s 1648 1081 m 22 Y s 3 lw 1648 1073 m21 6 lw 1667 1069 m
 24 Y s 1667 1110 m 24 Y s 3 lw 1667 1102 m21 6 lw 1686 1068 m 27 Y s 1686 1112 m 27 Y s 3 lw 1686 1103 m21 6 lw 1705 966 m 27 Y s 1705 1010 m 28 Y s 3 lw 1705 1002 m21 6 lw 1724 1033 m 31 Y s 1724 1081 m 32 Y s 3 lw 1724 1073 m21 6 lw 1742 967 m 34
 Y s 1742 1018 m 33 Y s 3 lw 1742 1009 m21 6 lw 1761 1117 m 41 Y s 1761 1175 m 41 Y s 3 lw 1761 1166 m21 6 lw 1780 1090 m 44 Y s 1780 1151 m 44 Y s 3 lw 1780 1143 m21 6 lw 1799 1040 m 47 Y s 1799 1104 m 48 Y s 3 lw 1799 1096 m21 6 lw 1818 1015 m 52 Y
 s 1818 1084 m 52 Y s 3 lw 1818 1075 m21 6 lw 1837 1011 m 58 Y s 1837 1086 m 57 Y s 3 lw 1837 1077 m21 6 lw 1855 1037 m 63 Y s 1855 1117 m 64 Y s 3 lw 1855 1109 m21 6 lw 1874 914 m 65 Y s 1874 997 m 65 Y s 3 lw 1874 988 m21 6 lw 1893 1031 m 83 Y s
 1893 1131 m 83 Y s 3 lw 1893 1122 m21 6 lw 1912 959 m 86 Y s 1912 1062 m 86 Y s 3 lw 1912 1053 m21 6 lw 1931 898 m 93 Y s 1931 1008 m 94 Y s 3 lw 1931 1000 m21 6 lw 1949 1087 m 118 Y s 1949 1222 m 119 Y s 3 lw 1949 1214 m21 6 lw 1968 640 m 100 Y s
 1968 757 m 99 Y s 3 lw 1968 748 m21 6 lw 1987 1011 m 147 Y s 1987 1175 m 147 Y s 3 lw 1987 1167 m21 6 lw 2006 1203 m 188 Y s 2006 1408 m 188 Y s 3 lw 2006 1400 m21 6 lw 2025 1231 m 218 Y s 2025 1466 m 218 Y s 3 lw 2025 1457 m21 6 lw 2044 839 m 207 Y
 s 2044 1063 m 206 Y s 3 lw 2044 1054 m21 6 lw 2062 738 m 235 Y s 2062 990 m 235 Y s 3 lw 2062 981 m21 6 lw 2081 821 m 289 Y s 2081 1127 m 288 Y s 3 lw 2081 1118 m21 6 lw 2100 550 m 282 Y s 2100 849 m 282 Y s 3 lw 2100 840 m21 6 lw 2119 600 m 379 Y s
 2119 996 m 380 Y s 3 lw 2119 988 m21 6 lw black 340 223 m 1882 X s
 gsave  2268 2234 0 0 C 1923.86 58.2559 t 0 r /Helvetica findfont 83.8316 sf 0 0 m (Q [GeV]) show NC gr  340 279 m -56 Y s 387 251 m -28 Y s 434 251 m -28 Y s 481 251 m -28 Y s 528 279 m -56 Y s 575 251 m -28 Y s 622 251 m -28 Y s 670 251 m -28 Y s
 717 279 m -56 Y s 764 251 m -28 Y s 811 251 m -28 Y s 858 251 m -28 Y s 905 279 m -56 Y s 952 251 m -28 Y s 999 251 m -28 Y s 1046 251 m -28 Y s 1093 279 m -56 Y s 1140 251 m -28 Y s 1187 251 m -28 Y s 1234 251 m -28 Y s 1281 279 m -56 Y s 1328 251
 m -28 Y s 1375 251 m -28 Y s 1422 251 m -28 Y s 1469 279 m -56 Y s 1517 251 m -28 Y s 1564 251 m -28 Y s 1611 251 m -28 Y s 1658 279 m -56 Y s 1705 251 m -28 Y s 1752 251 m -28 Y s 1799 251 m -28 Y s 1846 279 m -56 Y s 1893 251 m -28 Y s 1940 251 m
 -28 Y s 1987 251 m -28 Y s 2034 279 m -56 Y s 2081 251 m -28 Y s 2128 251 m -28 Y s 2175 251 m -28 Y s 2222 279 m -56 Y s
 gsave  2268 2234 0 0 C 322.539 159.138 t 0 r /Helvetica findfont 62.5185 sf 0 0 m (0) show NC gr 
 gsave  2268 2234 0 0 C 484.518 159.138 t 0 r /Helvetica findfont 62.5185 sf 0 0 m (0.2) show NC gr 
 gsave  2268 2234 0 0 C 673.495 159.138 t 0 r /Helvetica findfont 62.5185 sf 0 0 m (0.4) show NC gr 
 gsave  2268 2234 0 0 C 861.05 159.138 t 0 r /Helvetica findfont 62.5185 sf 0 0 m (0.6) show NC gr 
 gsave  2268 2234 0 0 C 1050.03 159.138 t 0 r /Helvetica findfont 62.5185 sf 0 0 m (0.8) show NC gr 
 gsave  2268 2234 0 0 C 1268.84 159.138 t 0 r /Helvetica findfont 62.5185 sf 0 0 m (1) show NC gr 
 gsave  2268 2234 0 0 C 1426.56 159.138 t 0 r /Helvetica findfont 62.5185 sf 0 0 m (1.2) show NC gr 
 gsave  2268 2234 0 0 C 1614.11 159.138 t 0 r /Helvetica findfont 62.5185 sf 0 0 m (1.4) show NC gr 
 gsave  2268 2234 0 0 C 1803.09 159.138 t 0 r /Helvetica findfont 62.5185 sf 0 0 m (1.6) show NC gr 
 gsave  2268 2234 0 0 C 1990.65 159.138 t 0 r /Helvetica findfont 62.5185 sf 0 0 m (1.8) show NC gr 
 gsave  2268 2234 0 0 C 2205.2 159.138 t 0 r /Helvetica findfont 62.5185 sf 0 0 m (2) show NC gr  340 223 m 1966 Y s
 gsave  2268 2234 0 0 C 152.034 1953.7 t 90 r /Helvetica findfont 83.8316 sf 0 0 m (DR\(Q\)) show NC gr  400 402 m -60 X s 370 491 m -30 X s 370 581 m -30 X s 370 670 m -30 X s 400 759 m -60 X s 370 849 m -30 X s 370 938 m -30 X s 370 1027 m -30 X s
 400 1117 m -60 X s 370 1206 m -30 X s 370 1295 m -30 X s 370 1385 m -30 X s 400 1474 m -60 X s 370 1564 m -30 X s 370 1653 m -30 X s 370 1742 m -30 X s 400 1832 m -60 X s 370 1921 m -30 X s 370 2010 m -30 X s 370 2100 m -30 X s 400 2189 m -60 X s
 400 402 m -60 X s 370 313 m -30 X s 370 223 m -30 X s
 gsave  2268 2234 0 0 C 242.97 379.374 t 0 r /Helvetica findfont 62.5185 sf 0 0 m (0.6) show NC gr 
 gsave  2268 2234 0 0 C 242.97 737.434 t 0 r /Helvetica findfont 62.5185 sf 0 0 m (0.8) show NC gr 
 gsave  2268 2234 0 0 C 305.488 1092.65 t 0 r /Helvetica findfont 62.5185 sf 0 0 m (1) show NC gr 
 gsave  2268 2234 0 0 C 242.97 1450.71 t 0 r /Helvetica findfont 62.5185 sf 0 0 m (1.2) show NC gr 
 gsave  2268 2234 0 0 C 242.97 1808.77 t 0 r /Helvetica findfont 62.5185 sf 0 0 m (1.4) show NC gr 
 gsave  2268 2234 0 0 C 242.97 2166.83 t 0 r /Helvetica findfont 62.5185 sf 0 0 m (1.6) show NC gr  1 0 0 c 1 1 1 c 1 0 0 c 406 1819 m 18 Y s 406 1854 m 18 Y s 3 lw 406 1846 m21 6 lw 425 1668 m 10 Y s 425 1695 m 11 Y s 3 lw 425 1687 m21 6 lw 444 1576
 m 6 Y s 444 1599 m 7 Y s 3 lw 444 1591 m21 6 lw 463 1488 m 5 Y s 463 1510 m 4 Y s 3 lw 463 1501 m21 6 lw 481 1424 m 3 Y s 481 1444 m 2 Y s 3 lw 481 1435 m21 6 lw 500 1360 m 1 Y s 500 1378 m 1 Y s 3 lw 500 1370 m21 6 lw 519 1322 m s 519 1339 m s 3 lw
 519 1330 m21 6 lw 3 lw 538 1294 m21 6 lw 3 lw 557 1252 m21 6 lw 3 lw 575 1241 m21 6 lw 3 lw 594 1207 m21 6 lw 3 lw 613 1187 m21 6 lw 3 lw 632 1175 m21 6 lw 3 lw 651 1160 m21 6 lw 3 lw 670 1153 m21 6 lw 3 lw 688 1141 m21 6 lw 3 lw 707 1132 m21 6 lw 3
 lw 726 1122 m21 6 lw 3 lw 745 1117 m21 6 lw 3 lw 764 1107 m21 6 lw 3 lw 782 1108 m21 6 lw 3 lw 801 1103 m21 6 lw 3 lw 820 1094 m21 6 lw 3 lw 839 1094 m21 6 lw 3 lw 858 1088 m21 6 lw 3 lw 877 1082 m21 6 lw 3 lw 895 1074 m21 6 lw 3 lw 914 1084 m21 6
 lw 3 lw 933 1086 m21 6 lw 3 lw 952 1075 m21 6 lw 3 lw 971 1075 m21 6 lw 3 lw 990 1077 m21 6 lw 3 lw 1008 1077 m21 6 lw 3 lw 1027 1082 m21 6 lw 3 lw 1046 1082 m21 6 lw 3 lw 1065 1073 m21 6 lw 3 lw 1084 1081 m21 6 lw 3 lw 1102 1082 m21 6 lw 3 lw 1121
 1085 m21 6 lw 3 lw 1140 1084 m21 6 lw 3 lw 1159 1093 m21 6 lw 3 lw 1178 1088 m21 6 lw 3 lw 1197 1090 m21 6 lw 3 lw 1215 1087 m21 6 lw 3 lw 1234 1094 m21 6 lw 3 lw 1253 1096 m21 6 lw 3 lw 1272 1100 m21 6 lw 3 lw 1291 1100 m21 6 lw 3 lw 1309 1104 m21
 6 lw 3 lw 1328 1098 m21 6 lw 3 lw 1347 1101 m21 6 lw 3 lw 1366 1106 m21 6 lw 3 lw 1385 1103 m21 6 lw 3 lw 1404 1104 m21 6 lw 3 lw 1422 1113 m21 6 lw 3 lw 1441 1119 m21 6 lw 3 lw 1460 1113 m21 6 lw 3 lw 1479 1111 m21 6 lw 3 lw 1498 1119 m21 6 lw 3 lw
 1517 1127 m21 6 lw 3 lw 1535 1121 m21 6 lw 3 lw 1554 1123 m21 6 lw 3 lw 1573 1124 m21 6 lw 3 lw 1592 1126 m21 6 lw 3 lw 1611 1117 m21 6 lw 3 lw 1629 1134 m21 6 lw 3 lw 1648 1126 m21 6 lw 3 lw 1667 1130 m21 6 lw 3 lw 1686 1132 m21 6 lw 3 lw 1705 1133
 m21 6 lw 3 lw 1724 1138 m21 6 lw 3 lw 1742 1134 m21 6 lw 3 lw 1761 1133 m21 6 lw 3 lw 1780 1134 m21 6 lw 3 lw 1799 1129 m21 6 lw 3 lw 1818 1139 m21 6 lw 3 lw 1837 1143 m21 6 lw 3 lw 1855 1130 m21 6 lw 3 lw 1874 1147 m21 6 lw 3 lw 1893 1143 m21 6 lw
 3 lw 1912 1133 m21 6 lw 3 lw 1931 1149 m21 6 lw 3 lw 1949 1151 m21 6 lw 3 lw 1968 1142 m21 6 lw 3 lw 1987 1141 m21 6 lw 3 lw 2006 1150 m21 6 lw 3 lw 2025 1139 m21 6 lw 3 lw 2044 1135 m21 6 lw 3 lw 2062 1146 m21 6 lw 3 lw 2081 1149 m21 6 lw 3 lw 2100
 1144 m21 6 lw 3 lw 2119 1160 m21 6 lw 3 lw 2138 1143 m21 6 lw 3 lw 2156 1135 m21 6 lw 3 lw 2175 1139 m21 6 lw 3 lw 2194 1169 m21 6 lw 3 lw 2213 1144 m21 6 lw black 1 1 1 c 680 447 1474 1675 bf black 1474 1675 m 680 X s 2154 1675 m 447 Y s 2154 2122
 m -680 X s 1474 2122 m -447 Y s
 gsave  2268 2234 0 0 C 1490.5 2027.59 t 0 r /Helvetica findfont 53.9932 sf 0 0 m (kT \255 scalar sum) show NC gr 
 gsave  2268 2234 0 0 C 1643.95 1879.82 t 0 r /Helvetica findfont 53.9932 sf 0 0 m (2\2554) show NC gr  0 0 1 c 1559 1854 m 89 Y s 3 lw 1559 1899 m21 6 lw black
 gsave  2268 2234 0 0 C 1643.95 1730.63 t 0 r /Helvetica findfont 53.9932 sf 0 0 m (4\2557) show NC gr  1 0 0 c 1559 1705 m 89 Y s 3 lw 1559 1750 m21 6 lw black
 gsave  2268 2234 0 0 C 906.518 670.653 t 0 r /Helvetica-Bold findfont 72.4646 sf 0 0 m (DR PIONS) show NC gr 
 gsave  2268 2234 0 0 C 906.518 558.404 t 0 r /Helvetica-Bold findfont 72.4646 sf 0 0 m (ref. sample: EVENT MIX) show NC gr 
 gsave  2268 2234 0 0 C 906.518 447.576 t 0 r /Helvetica-Bold findfont 72.4646 sf 0 0 m (VELO tracks multiplicity: 11 \255 20) show NC gr 
 gr  gr showpage
end
%%EOF
