%!PS-Adobe-2.0 EPSF-2.0
%%BoundingBox:  0 0 567 558
%%Title: ./DR_pion_0c65_h3001_2_h3401_2.eps: DR_pion_0c65_h3001_2_h3401_2
%%Creator: ROOT Version 6.06/02
%%CreationDate: Wed Dec  7 17:33:34 2016
%%DocumentNeededResources: ProcSet (FontSetInit)
%%EndComments
%%BeginProlog
80 dict begin
/s {stroke} def /l {lineto} def /m {moveto} def /t {translate} def
/r {rotate} def /rl {roll}  def /R {repeat} def
/d {rlineto} def /rm {rmoveto} def /gr {grestore} def /f {eofill} def
/c {setrgbcolor} def /black {0 setgray} def /sd {setdash} def
/cl {closepath} def /sf {scalefont setfont} def /lw {setlinewidth} def
/box {m dup 0 exch d exch 0 d 0 exch neg d cl} def
/NC{systemdict begin initclip end}def/C{NC box clip newpath}def
/bl {box s} def /bf {gsave box gsave f grestore 1 lw [] 0 sd s grestore} def /Y { 0 exch d} def /X { 0 d} def 
/K {{pop pop 0 moveto} exch kshow} bind def
/ita {/ang 15 def gsave [1 0 ang dup sin exch cos div 1 0 0] concat} def 
/mp {newpath /y exch def /x exch def} def
/side {[w .77 mul w .23 mul] .385 w mul sd w 0 l currentpoint t -144 r} def
/mr {mp x y w2 0 360 arc} def /m24 {mr s} def /m20 {mr f} def
/mb {mp x y w2 add m w2 neg 0 d 0 w neg d w 0 d 0 w d cl} def
/mt {mp x y w2 add m w2 neg w neg d w 0 d cl} def
/m21 {mb f} def /m25 {mb s} def /m22 {mt f} def /m26{mt s} def
/m23 {mp x y w2 sub m w2 w d w neg 0 d cl f} def
/m27 {mp x y w2 add m w3 neg w2 neg d w3 w2 neg d w3 w2 d cl s} def
/m28 {mp x w2 sub y w2 sub w3 add m w3 0 d  0 w3 neg d w3 0 d 0 w3 d w3 0 d  0 w3 d w3 neg 0 d 0 w3 d w3 neg 0 d 0 w3 neg d w3 neg 0 d cl s } def
/m29 {mp gsave x w2 sub y w2 add w3 sub m currentpoint t 4 {side} repeat cl fill gr} def
/m30 {mp gsave x w2 sub y w2 add w3 sub m currentpoint t 4 {side} repeat cl s gr} def
/m31 {mp x y w2 sub m 0 w d x w2 sub y m w 0 d x w2 sub y w2 add m w w neg d x w2 sub y w2 sub m w w d s} def
/m32 {mp x y w2 sub m w2 w d w neg 0 d cl s} def
/m33 {mp x y w2 add m w3 neg w2 neg d w3 w2 neg d w3 w2 d cl f} def
/m34 {mp x w2 sub y w2 sub w3 add m w3 0 d  0 w3 neg d w3 0 d 0 w3 d w3 0 d  0 w3 d w3 neg 0 d 0 w3 d w3 neg 0 d 0 w3 neg d w3 neg 0 d cl f } def
/m2 {mp x y w2 sub m 0 w d x w2 sub y m w 0 d s} def
/m5 {mp x w2 sub y w2 sub m w w d x w2 sub y w2 add m w w neg d s} def
%%IncludeResource: ProcSet (FontSetInit)
%%IncludeResource: font Times-Roman
%%IncludeResource: font Times-Italic
%%IncludeResource: font Times-Bold
%%IncludeResource: font Times-BoldItalic
%%IncludeResource: font Helvetica
%%IncludeResource: font Helvetica-Oblique
%%IncludeResource: font Helvetica-Bold
%%IncludeResource: font Helvetica-BoldOblique
%%IncludeResource: font Courier
%%IncludeResource: font Courier-Oblique
%%IncludeResource: font Courier-Bold
%%IncludeResource: font Courier-BoldOblique
%%IncludeResource: font Symbol
%%IncludeResource: font ZapfDingbats
/reEncode {exch findfont dup length dict begin {1 index /FID eq  {pop pop} {def} ifelse } forall /Encoding exch def currentdict end dup /FontName get exch definefont pop } def [/Times-Bold /Times-Italic /Times-BoldItalic /Helvetica /Helvetica-Oblique
 /Helvetica-Bold /Helvetica-BoldOblique /Courier /Courier-Oblique /Courier-Bold /Courier-BoldOblique /Times-Roman /AvantGarde-Book /AvantGarde-BookOblique /AvantGarde-Demi /AvantGarde-DemiOblique /Bookman-Demi /Bookman-DemiItalic /Bookman-Light
 /Bookman-LightItalic /Helvetica-Narrow /Helvetica-Narrow-Bold /Helvetica-Narrow-BoldOblique /Helvetica-Narrow-Oblique /NewCenturySchlbk-Roman /NewCenturySchlbk-Bold /NewCenturySchlbk-BoldItalic /NewCenturySchlbk-Italic /Palatino-Bold
 /Palatino-BoldItalic /Palatino-Italic /Palatino-Roman ] {ISOLatin1Encoding reEncode } forall
%%EndProlog
%%BeginSetup
%%EndSetup
newpath  gsave  .25 .25 scale  gsave  0 0 t black[  ] 0 sd 6 lw 1 1 1 c 2268 2234 0 0 bf black 3 lw 1 1 1 c 1882 1966 340 223 bf black 1882 1966 340 223 bl 1 1 1 c 1882 1966 340 223 bf black 1882 1966 340 223 bl 0 0 1 c 6 lw 1 1 1 c 0 0 1 c 390 1788
 m 35 Y s 390 1834 m 35 Y s 3 lw /w 14 def /w2 {w 2 div} def /w3 {w 3 div} def 390 1829 m21 6 lw 394 1665 m 29 Y s 394 1706 m 29 Y s 3 lw 394 1700 m21 6 lw 399 1650 m 27 Y s 399 1688 m 27 Y s 3 lw 399 1683 m21 6 lw 404 1651 m 25 Y s 404 1687 m 25 Y s
 3 lw 404 1682 m21 6 lw 408 1618 m 22 Y s 408 1652 m 22 Y s 3 lw 408 1646 m21 6 lw 413 1589 m 21 Y s 413 1621 m 21 Y s 3 lw 413 1615 m21 6 lw 418 1522 m 18 Y s 418 1552 m 18 Y s 3 lw 418 1546 m21 6 lw 423 1537 m 18 Y s 423 1566 m 18 Y s 3 lw 423 1560
 m21 6 lw 427 1521 m 16 Y s 427 1548 m 17 Y s 3 lw 427 1543 m21 6 lw 432 1521 m 16 Y s 432 1548 m 16 Y s 3 lw 432 1542 m21 6 lw 437 1521 m 14 Y s 437 1547 m 14 Y s 3 lw 437 1541 m21 6 lw 441 1448 m 14 Y s 441 1473 m 13 Y s 3 lw 441 1467 m21 6 lw 446
 1430 m 12 Y s 446 1454 m 12 Y s 3 lw 446 1448 m21 6 lw 451 1437 m 12 Y s 451 1460 m 12 Y s 3 lw 451 1455 m21 6 lw 455 1395 m 11 Y s 455 1417 m 12 Y s 3 lw 455 1412 m21 6 lw 460 1368 m 11 Y s 460 1390 m 11 Y s 3 lw 460 1384 m21 6 lw 465 1353 m 10 Y s
 465 1374 m 10 Y s 3 lw 465 1368 m21 6 lw 470 1348 m 10 Y s 470 1369 m 10 Y s 3 lw 470 1363 m21 6 lw 474 1348 m 9 Y s 474 1368 m 10 Y s 3 lw 474 1363 m21 6 lw 479 1329 m 9 Y s 479 1350 m 9 Y s 3 lw 479 1344 m21 6 lw 484 1321 m 9 Y s 484 1341 m 9 Y s
 3 lw 484 1336 m21 6 lw 488 1295 m 8 Y s 488 1314 m 8 Y s 3 lw 488 1308 m21 6 lw 493 1307 m 8 Y s 493 1327 m 8 Y s 3 lw 493 1321 m21 6 lw 498 1289 m 8 Y s 498 1308 m 8 Y s 3 lw 498 1303 m21 6 lw 502 1264 m 7 Y s 502 1283 m 7 Y s 3 lw 502 1277 m21 6
 lw 507 1250 m 7 Y s 507 1268 m 7 Y s 3 lw 507 1262 m21 6 lw 512 1253 m 7 Y s 512 1271 m 7 Y s 3 lw 512 1266 m21 6 lw 517 1255 m 7 Y s 517 1273 m 7 Y s 3 lw 517 1267 m21 6 lw 521 1245 m 6 Y s 521 1263 m 6 Y s 3 lw 521 1257 m21 6 lw 526 1251 m 6 Y s
 526 1269 m 6 Y s 3 lw 526 1263 m21 6 lw 531 1234 m 6 Y s 531 1251 m 7 Y s 3 lw 531 1246 m21 6 lw 535 1223 m 6 Y s 535 1241 m 6 Y s 3 lw 535 1235 m21 6 lw 540 1228 m 6 Y s 540 1246 m 6 Y s 3 lw 540 1240 m21 6 lw 545 1234 m 6 Y s 545 1251 m 6 Y s 3 lw
 545 1245 m21 6 lw 550 1219 m 5 Y s 550 1236 m 5 Y s 3 lw 550 1230 m21 6 lw 554 1191 m 5 Y s 554 1208 m 5 Y s 3 lw 554 1202 m21 6 lw 559 1205 m 5 Y s 559 1221 m 6 Y s 3 lw 559 1216 m21 6 lw 564 1199 m 5 Y s 564 1216 m 5 Y s 3 lw 564 1210 m21 6 lw 568
 1189 m 5 Y s 568 1206 m 5 Y s 3 lw 568 1200 m21 6 lw 573 1198 m 5 Y s 573 1214 m 5 Y s 3 lw 573 1209 m21 6 lw 578 1172 m 5 Y s 578 1188 m 5 Y s 3 lw 578 1183 m21 6 lw 582 1178 m 4 Y s 582 1194 m 4 Y s 3 lw 582 1188 m21 6 lw 587 1194 m 4 Y s 587 1210
 m 4 Y s 3 lw 587 1204 m21 6 lw 592 1156 m 5 Y s 592 1172 m 4 Y s 3 lw 592 1166 m21 6 lw 597 1164 m 4 Y s 597 1180 m 4 Y s 3 lw 597 1174 m21 6 lw 601 1153 m 4 Y s 601 1169 m 4 Y s 3 lw 601 1163 m21 6 lw 606 1156 m 4 Y s 606 1172 m 4 Y s 3 lw 606 1166
 m21 6 lw 611 1144 m 4 Y s 611 1159 m 4 Y s 3 lw 611 1154 m21 6 lw 615 1163 m 4 Y s 615 1179 m 4 Y s 3 lw 615 1173 m21 6 lw 620 1138 m 4 Y s 620 1153 m 4 Y s 3 lw 620 1147 m21 6 lw 625 1155 m 4 Y s 625 1170 m 4 Y s 3 lw 625 1164 m21 6 lw 630 1140 m 3
 Y s 630 1155 m 4 Y s 3 lw 630 1149 m21 6 lw 634 1129 m 4 Y s 634 1144 m 4 Y s 3 lw 634 1138 m21 6 lw 639 1141 m 4 Y s 639 1156 m 4 Y s 3 lw 639 1151 m21 6 lw 644 1143 m 3 Y s 644 1157 m 4 Y s 3 lw 644 1152 m21 6 lw 648 1111 m 3 Y s 648 1126 m 3 Y s
 3 lw 648 1120 m21 6 lw 653 1141 m 3 Y s 653 1156 m 3 Y s 3 lw 653 1150 m21 6 lw 658 1122 m 4 Y s 658 1137 m 3 Y s 3 lw 658 1131 m21 6 lw 662 1134 m 3 Y s 662 1148 m 4 Y s 3 lw 662 1143 m21 6 lw 667 1133 m 3 Y s 667 1147 m 4 Y s 3 lw 667 1142 m21 6
 lw 672 1134 m 3 Y s 672 1148 m 4 Y s 3 lw 672 1143 m21 6 lw 677 1133 m 3 Y s 677 1147 m 3 Y s 3 lw 677 1141 m21 6 lw 681 1118 m 3 Y s 681 1133 m 3 Y s 3 lw 681 1127 m21 6 lw 686 1110 m 3 Y s 686 1124 m 3 Y s 3 lw 686 1119 m21 6 lw 691 1110 m 3 Y s
 691 1124 m 3 Y s 3 lw 691 1118 m21 6 lw 695 1112 m 3 Y s 695 1126 m 3 Y s 3 lw 695 1120 m21 6 lw 700 1112 m 2 Y s 700 1126 m 2 Y s 3 lw 700 1120 m21 6 lw 705 1103 m 2 Y s 705 1117 m 2 Y s 3 lw 705 1111 m21 6 lw 710 1098 m 3 Y s 710 1112 m 3 Y s 3 lw
 710 1107 m21 6 lw 714 1101 m 3 Y s 714 1115 m 3 Y s 3 lw 714 1110 m21 6 lw 719 1103 m 3 Y s 719 1117 m 3 Y s 3 lw 719 1112 m21 6 lw 724 1112 m 3 Y s 724 1126 m 3 Y s 3 lw 724 1120 m21 6 lw 728 1112 m 3 Y s 728 1126 m 3 Y s 3 lw 728 1121 m21 6 lw 733
 1095 m 3 Y s 733 1109 m 2 Y s 3 lw 733 1103 m21 6 lw 738 1104 m 2 Y s 738 1118 m 2 Y s 3 lw 738 1112 m21 6 lw 742 1089 m 3 Y s 742 1103 m 2 Y s 3 lw 742 1097 m21 6 lw 747 1116 m 3 Y s 747 1130 m 3 Y s 3 lw 747 1124 m21 6 lw 752 1089 m 2 Y s 752 1103
 m 2 Y s 3 lw 752 1097 m21 6 lw 757 1097 m 3 Y s 757 1111 m 2 Y s 3 lw 757 1105 m21 6 lw 761 1075 m 2 Y s 761 1089 m 2 Y s 3 lw 761 1083 m21 6 lw 766 1097 m 2 Y s 766 1110 m 3 Y s 3 lw 766 1105 m21 6 lw 771 1088 m 2 Y s 771 1101 m 2 Y s 3 lw 771 1096
 m21 6 lw 775 1105 m 2 Y s 775 1119 m 2 Y s 3 lw 775 1113 m21 6 lw 780 1083 m 2 Y s 780 1097 m 2 Y s 3 lw 780 1091 m21 6 lw 785 1083 m 2 Y s 785 1097 m 2 Y s 3 lw 785 1091 m21 6 lw 790 1093 m 2 Y s 790 1107 m 2 Y s 3 lw 790 1101 m21 6 lw 794 1093 m 2
 Y s 794 1106 m 2 Y s 3 lw 794 1100 m21 6 lw 799 1099 m 2 Y s 799 1112 m 2 Y s 3 lw 799 1106 m21 6 lw 804 1083 m 2 Y s 804 1096 m 2 Y s 3 lw 804 1090 m21 6 lw 808 1084 m 2 Y s 808 1097 m 2 Y s 3 lw 808 1091 m21 6 lw 813 1083 m 2 Y s 813 1097 m 2 Y s
 3 lw 813 1091 m21 6 lw 818 1089 m 2 Y s 818 1103 m 2 Y s 3 lw 818 1097 m21 6 lw 822 1071 m 2 Y s 822 1085 m 1 Y s 3 lw 822 1079 m21 6 lw 827 1086 m 2 Y s 827 1099 m 2 Y s 3 lw 827 1094 m21 6 lw 832 1079 m 1 Y s 832 1092 m 2 Y s 3 lw 832 1086 m21 6
 lw 837 1081 m 2 Y s 837 1094 m 2 Y s 3 lw 837 1089 m21 6 lw 841 1065 m 2 Y s 841 1079 m 1 Y s 3 lw 841 1073 m21 6 lw 846 1078 m 2 Y s 846 1091 m 2 Y s 3 lw 846 1086 m21 6 lw 851 1068 m 2 Y s 851 1081 m 2 Y s 3 lw 851 1076 m21 6 lw 855 1075 m 2 Y s
 855 1088 m 2 Y s 3 lw 855 1083 m21 6 lw 860 1076 m 2 Y s 860 1089 m 2 Y s 3 lw 860 1083 m21 6 lw 865 1064 m 2 Y s 865 1077 m 2 Y s 3 lw 865 1072 m21 6 lw 870 1072 m 1 Y s 870 1085 m 2 Y s 3 lw 870 1079 m21 6 lw 874 1074 m 1 Y s 874 1087 m 1 Y s 3 lw
 874 1081 m21 6 lw 879 1079 m 2 Y s 879 1092 m 2 Y s 3 lw 879 1086 m21 6 lw 884 1079 m 2 Y s 884 1093 m 1 Y s 3 lw 884 1087 m21 6 lw 888 1074 m 2 Y s 888 1087 m 2 Y s 3 lw 888 1082 m21 6 lw 893 1075 m 2 Y s 893 1088 m 2 Y s 3 lw 893 1083 m21 6 lw 898
 1068 m 2 Y s 898 1081 m 2 Y s 3 lw 898 1076 m21 6 lw 902 1071 m 2 Y s 902 1085 m 1 Y s 3 lw 902 1079 m21 6 lw 907 1073 m 1 Y s 907 1086 m 2 Y s 3 lw 907 1080 m21 6 lw 912 1062 m 1 Y s 912 1075 m 1 Y s 3 lw 912 1069 m21 6 lw 917 1065 m 2 Y s 917 1078
 m 2 Y s 3 lw 917 1072 m21 6 lw 921 1064 m 2 Y s 921 1077 m 2 Y s 3 lw 921 1071 m21 6 lw 926 1071 m 1 Y s 926 1084 m 2 Y s 3 lw 926 1078 m21 6 lw 931 1069 m 2 Y s 931 1082 m 2 Y s 3 lw 931 1077 m21 6 lw 935 1076 m 2 Y s 935 1089 m 2 Y s 3 lw 935 1084
 m21 6 lw 940 1067 m 2 Y s 940 1080 m 2 Y s 3 lw 940 1075 m21 6 lw 945 1056 m 2 Y s 945 1069 m 2 Y s 3 lw 945 1064 m21 6 lw 950 1069 m 2 Y s 950 1083 m 1 Y s 3 lw 950 1077 m21 6 lw 954 1060 m 2 Y s 954 1073 m 2 Y s 3 lw 954 1068 m21 6 lw 959 1058 m 2
 Y s 959 1071 m 2 Y s 3 lw 959 1066 m21 6 lw 964 1066 m 2 Y s 964 1079 m 2 Y s 3 lw 964 1074 m21 6 lw 968 1068 m 2 Y s 968 1081 m 2 Y s 3 lw 968 1076 m21 6 lw 973 1054 m 2 Y s 973 1067 m 2 Y s 3 lw 973 1062 m21 6 lw 978 1063 m 2 Y s 978 1076 m 2 Y s
 3 lw 978 1070 m21 6 lw 982 1071 m 2 Y s 982 1084 m 3 Y s 3 lw 982 1079 m21 6 lw 987 1061 m 2 Y s 987 1075 m 2 Y s 3 lw 987 1069 m21 6 lw 992 1058 m 2 Y s 992 1071 m 3 Y s 3 lw 992 1066 m21 6 lw 997 1067 m 3 Y s 997 1081 m 2 Y s 3 lw 997 1075 m21 6
 lw 1001 1076 m 2 Y s 1001 1089 m 3 Y s 3 lw 1001 1084 m21 6 lw 1006 1076 m 2 Y s 1006 1089 m 3 Y s 3 lw 1006 1084 m21 6 lw 1011 1058 m 2 Y s 1011 1072 m 2 Y s 3 lw 1011 1066 m21 6 lw 1015 1065 m 2 Y s 1015 1078 m 3 Y s 3 lw 1015 1073 m21 6 lw 1020
 1064 m 2 Y s 1020 1078 m 2 Y s 3 lw 1020 1072 m21 6 lw 1025 1053 m 2 Y s 1025 1066 m 3 Y s 3 lw 1025 1061 m21 6 lw 1030 1060 m 2 Y s 1030 1074 m 2 Y s 3 lw 1030 1068 m21 6 lw 1034 1067 m 2 Y s 1034 1080 m 3 Y s 3 lw 1034 1075 m21 6 lw 1039 1071 m 3
 Y s 1039 1085 m 3 Y s 3 lw 1039 1080 m21 6 lw 1044 1059 m 3 Y s 1044 1073 m 2 Y s 3 lw 1044 1067 m21 6 lw 1048 1068 m 3 Y s 1048 1082 m 3 Y s 3 lw 1048 1076 m21 6 lw 1053 1062 m 2 Y s 1053 1076 m 2 Y s 3 lw 1053 1070 m21 6 lw 1058 1071 m 3 Y s 1058
 1086 m 2 Y s 3 lw 1058 1080 m21 6 lw 1062 1058 m 2 Y s 1062 1072 m 3 Y s 3 lw 1062 1066 m21 6 lw 1067 1068 m 2 Y s 1067 1082 m 3 Y s 3 lw 1067 1076 m21 6 lw 1072 1051 m 3 Y s 1072 1066 m 3 Y s 3 lw 1072 1060 m21 6 lw 1077 1050 m 3 Y s 1077 1064 m 3
 Y s 3 lw 1077 1059 m21 6 lw 1081 1051 m 4 Y s 1081 1066 m 3 Y s 3 lw 1081 1060 m21 6 lw 1086 1066 m 4 Y s 1086 1081 m 3 Y s 3 lw 1086 1075 m21 6 lw 1091 1066 m 4 Y s 1091 1081 m 3 Y s 3 lw 1091 1075 m21 6 lw 1095 1073 m 3 Y s 1095 1087 m 4 Y s 3 lw
 1095 1082 m21 6 lw 1100 1061 m 3 Y s 1100 1075 m 4 Y s 3 lw 1100 1070 m21 6 lw 1105 1060 m 3 Y s 1105 1075 m 3 Y s 3 lw 1105 1069 m21 6 lw 1110 1060 m 4 Y s 1110 1075 m 4 Y s 3 lw 1110 1070 m21 6 lw 1114 1061 m 4 Y s 1114 1076 m 4 Y s 3 lw 1114 1071
 m21 6 lw 1119 1058 m 4 Y s 1119 1073 m 4 Y s 3 lw 1119 1068 m21 6 lw 1124 1052 m 4 Y s 1124 1067 m 4 Y s 3 lw 1124 1062 m21 6 lw 1128 1053 m 4 Y s 1128 1069 m 4 Y s 3 lw 1128 1063 m21 6 lw 1133 1050 m 4 Y s 1133 1066 m 4 Y s 3 lw 1133 1060 m21 6 lw
 1138 1076 m 5 Y s 1138 1092 m 5 Y s 3 lw 1138 1086 m21 6 lw 1142 1065 m 5 Y s 1142 1081 m 5 Y s 3 lw 1142 1076 m21 6 lw 1147 1075 m 5 Y s 1147 1091 m 5 Y s 3 lw 1147 1086 m21 6 lw 1152 1077 m 5 Y s 1152 1093 m 5 Y s 3 lw 1152 1087 m21 6 lw 1157 1065
 m 6 Y s 1157 1082 m 5 Y s 3 lw 1157 1076 m21 6 lw 1161 1063 m 5 Y s 1161 1080 m 5 Y s 3 lw 1161 1074 m21 6 lw 1166 1071 m 6 Y s 1166 1088 m 6 Y s 3 lw 1166 1082 m21 6 lw 1171 1077 m 6 Y s 1171 1095 m 6 Y s 3 lw 1171 1089 m21 6 lw 1175 1063 m 6 Y s
 1175 1080 m 6 Y s 3 lw 1175 1075 m21 6 lw 1180 1042 m 6 Y s 1180 1060 m 6 Y s 3 lw 1180 1054 m21 6 lw 1185 1058 m 7 Y s 1185 1076 m 7 Y s 3 lw 1185 1071 m21 6 lw 1190 1080 m 7 Y s 1190 1098 m 7 Y s 3 lw 1190 1093 m21 6 lw 1194 1071 m 8 Y s 1194 1090
 m 7 Y s 3 lw 1194 1084 m21 6 lw 1199 1067 m 8 Y s 1199 1086 m 7 Y s 3 lw 1199 1080 m21 6 lw 1204 1060 m 8 Y s 1204 1079 m 8 Y s 3 lw 1204 1074 m21 6 lw 1208 1059 m 8 Y s 1208 1078 m 8 Y s 3 lw 1208 1072 m21 6 lw 1213 1081 m 9 Y s 1213 1101 m 9 Y s 3
 lw 1213 1095 m21 6 lw 1218 1067 m 8 Y s 1218 1087 m 8 Y s 3 lw 1218 1081 m21 6 lw 1222 1065 m 9 Y s 1222 1085 m 9 Y s 3 lw 1222 1080 m21 6 lw 1227 1052 m 9 Y s 1227 1073 m 9 Y s 3 lw 1227 1067 m21 6 lw 1232 1062 m 10 Y s 1232 1083 m 9 Y s 3 lw 1232
 1077 m21 6 lw 1237 1055 m 9 Y s 1237 1076 m 9 Y s 3 lw 1237 1070 m21 6 lw 1241 1065 m 10 Y s 1241 1087 m 9 Y s 3 lw 1241 1081 m21 6 lw 1246 1065 m 11 Y s 1246 1087 m 10 Y s 3 lw 1246 1081 m21 6 lw 1251 1065 m 10 Y s 1251 1087 m 10 Y s 3 lw 1251 1081
 m21 6 lw 1255 1049 m 11 Y s 1255 1071 m 11 Y s 3 lw 1255 1065 m21 6 lw 1260 1094 m 11 Y s 1260 1117 m 11 Y s 3 lw 1260 1111 m21 6 lw 1265 1076 m 12 Y s 1265 1099 m 11 Y s 3 lw 1265 1093 m21 6 lw 1269 1069 m 12 Y s 1269 1092 m 12 Y s 3 lw 1269 1086
 m21 6 lw 1274 1045 m 12 Y s 1274 1068 m 12 Y s 3 lw 1274 1063 m21 6 lw 1279 1040 m 11 Y s 1279 1063 m 12 Y s 3 lw 1279 1057 m21 6 lw 1284 1071 m 12 Y s 1284 1094 m 13 Y s 3 lw 1284 1089 m21 6 lw 1288 1058 m 12 Y s 1288 1081 m 13 Y s 3 lw 1288 1076
 m21 6 lw 1293 1055 m 13 Y s 1293 1079 m 13 Y s 3 lw 1293 1074 m21 6 lw 1298 1071 m 13 Y s 1298 1095 m 14 Y s 3 lw 1298 1090 m21 6 lw 1302 1064 m 13 Y s 1302 1089 m 13 Y s 3 lw 1302 1083 m21 6 lw 1307 1056 m 13 Y s 1307 1081 m 13 Y s 3 lw 1307 1075
 m21 6 lw 1312 1050 m 14 Y s 1312 1075 m 14 Y s 3 lw 1312 1070 m21 6 lw 1317 1067 m 14 Y s 1317 1093 m 14 Y s 3 lw 1317 1087 m21 6 lw 1321 1098 m 15 Y s 1321 1124 m 15 Y s 3 lw 1321 1119 m21 6 lw 1326 1059 m 15 Y s 1326 1085 m 15 Y s 3 lw 1326 1080
 m21 6 lw 1331 1064 m 16 Y s 1331 1091 m 15 Y s 3 lw 1331 1085 m21 6 lw 1335 1036 m 16 Y s 1335 1063 m 15 Y s 3 lw 1335 1057 m21 6 lw 1340 1045 m 16 Y s 1340 1072 m 16 Y s 3 lw 1340 1066 m21 6 lw 1345 1082 m 17 Y s 1345 1110 m 17 Y s 3 lw 1345 1104
 m21 6 lw 1349 1096 m 17 Y s 1349 1124 m 17 Y s 3 lw 1349 1119 m21 6 lw 1354 1066 m 17 Y s 1354 1095 m 17 Y s 3 lw 1354 1089 m21 6 lw 1359 1065 m 17 Y s 1359 1093 m 18 Y s 3 lw 1359 1088 m21 6 lw 1364 1025 m 17 Y s 1364 1053 m 18 Y s 3 lw 1364 1048
 m21 6 lw 1368 1061 m 18 Y s 1368 1090 m 19 Y s 3 lw 1368 1085 m21 6 lw 1373 1051 m 18 Y s 1373 1080 m 19 Y s 3 lw 1373 1075 m21 6 lw 1378 1032 m 19 Y s 1378 1062 m 19 Y s 3 lw 1378 1057 m21 6 lw 1382 1079 m 20 Y s 1382 1110 m 20 Y s 3 lw 1382 1104
 m21 6 lw 1387 1034 m 19 Y s 1387 1064 m 20 Y s 3 lw 1387 1059 m21 6 lw 1392 1058 m 20 Y s 1392 1089 m 20 Y s 3 lw 1392 1083 m21 6 lw 1397 1117 m 21 Y s 1397 1150 m 21 Y s 3 lw 1397 1144 m21 6 lw 1401 1038 m 21 Y s 1401 1070 m 20 Y s 3 lw 1401 1064
 m21 6 lw 1406 1065 m 22 Y s 1406 1098 m 21 Y s 3 lw 1406 1092 m21 6 lw 1411 1062 m 22 Y s 1411 1095 m 22 Y s 3 lw 1411 1089 m21 6 lw 1415 1074 m 22 Y s 1415 1107 m 22 Y s 3 lw 1415 1102 m21 6 lw 1420 1058 m 22 Y s 1420 1092 m 22 Y s 3 lw 1420 1086
 m21 6 lw 1425 1129 m 24 Y s 1425 1164 m 24 Y s 3 lw 1425 1158 m21 6 lw 1429 1064 m 23 Y s 1429 1099 m 23 Y s 3 lw 1429 1093 m21 6 lw 1434 1094 m 24 Y s 1434 1130 m 24 Y s 3 lw 1434 1124 m21 6 lw 1439 1067 m 24 Y s 1439 1102 m 24 Y s 3 lw 1439 1097
 m21 6 lw 1444 1113 m 25 Y s 1444 1150 m 25 Y s 3 lw 1444 1144 m21 6 lw 1448 1041 m 25 Y s 1448 1077 m 25 Y s 3 lw 1448 1072 m21 6 lw 1453 1061 m 26 Y s 1453 1098 m 26 Y s 3 lw 1453 1092 m21 6 lw 1458 1064 m 26 Y s 1458 1101 m 26 Y s 3 lw 1458 1096
 m21 6 lw 1462 1078 m 27 Y s 1462 1116 m 27 Y s 3 lw 1462 1110 m21 6 lw 1467 1101 m 28 Y s 1467 1140 m 28 Y s 3 lw 1467 1134 m21 6 lw 1472 1065 m 27 Y s 1472 1104 m 27 Y s 3 lw 1472 1098 m21 6 lw 1477 1063 m 29 Y s 1477 1103 m 28 Y s 3 lw 1477 1097
 m21 6 lw 1481 1088 m 29 Y s 1481 1129 m 29 Y s 3 lw 1481 1123 m21 6 lw 1486 1088 m 30 Y s 1486 1130 m 29 Y s 3 lw 1486 1124 m21 6 lw 1491 1027 m 29 Y s 1491 1067 m 29 Y s 3 lw 1491 1062 m21 6 lw 1495 1005 m 29 Y s 1495 1045 m 30 Y s 3 lw 1495 1040
 m21 6 lw 1500 1017 m 30 Y s 1500 1058 m 30 Y s 3 lw 1500 1052 m21 6 lw 1505 1069 m 31 Y s 1505 1112 m 31 Y s 3 lw 1505 1106 m21 6 lw 1509 1092 m 33 Y s 1509 1136 m 33 Y s 3 lw 1509 1131 m21 6 lw 1514 1033 m 32 Y s 1514 1076 m 33 Y s 3 lw 1514 1071
 m21 6 lw 1519 1039 m 33 Y s 1519 1083 m 33 Y s 3 lw 1519 1078 m21 6 lw 1524 970 m 32 Y s 1524 1014 m 31 Y s 3 lw 1524 1008 m21 6 lw 1528 1057 m 34 Y s 1528 1102 m 35 Y s 3 lw 1528 1097 m21 6 lw 1533 1110 m 36 Y s 1533 1157 m 37 Y s 3 lw 1533 1152
 m21 6 lw 1538 1011 m 35 Y s 1538 1057 m 35 Y s 3 lw 1538 1051 m21 6 lw 1542 1059 m 36 Y s 1542 1106 m 37 Y s 3 lw 1542 1101 m21 6 lw 1547 1078 m 37 Y s 1547 1127 m 37 Y s 3 lw 1547 1121 m21 6 lw 1552 1030 m 37 Y s 1552 1078 m 37 Y s 3 lw 1552 1073
 m21 6 lw 1557 1000 m 38 Y s 1557 1049 m 37 Y s 3 lw 1557 1043 m21 6 lw 1561 1047 m 40 Y s 1561 1098 m 39 Y s 3 lw 1561 1092 m21 6 lw 1566 1043 m 40 Y s 1566 1094 m 40 Y s 3 lw 1566 1088 m21 6 lw 1571 1071 m 42 Y s 1571 1124 m 42 Y s 3 lw 1571 1119
 m21 6 lw 1575 1010 m 41 Y s 1575 1062 m 41 Y s 3 lw 1575 1056 m21 6 lw 1580 1003 m 41 Y s 1580 1055 m 41 Y s 3 lw 1580 1049 m21 6 lw 1585 1033 m 43 Y s 1585 1087 m 43 Y s 3 lw 1585 1081 m21 6 lw 1589 1000 m 42 Y s 1589 1053 m 43 Y s 3 lw 1589 1048
 m21 6 lw 1594 964 m 43 Y s 1594 1018 m 43 Y s 3 lw 1594 1013 m21 6 lw 1599 1098 m 47 Y s 1599 1157 m 47 Y s 3 lw 1599 1151 m21 6 lw 1604 1021 m 46 Y s 1604 1078 m 46 Y s 3 lw 1604 1073 m21 6 lw 1608 975 m 46 Y s 1608 1032 m 46 Y s 3 lw 1608 1026 m21
 6 lw 1613 1079 m 49 Y s 1613 1139 m 50 Y s 3 lw 1613 1134 m21 6 lw 1618 1069 m 50 Y s 1618 1130 m 51 Y s 3 lw 1618 1125 m21 6 lw 1622 1056 m 50 Y s 1622 1117 m 51 Y s 3 lw 1622 1112 m21 6 lw 1627 1028 m 50 Y s 1627 1089 m 51 Y s 3 lw 1627 1084 m21 6
 lw 1632 933 m 49 Y s 1632 993 m 49 Y s 3 lw 1632 988 m21 6 lw 1637 1015 m 52 Y s 1637 1078 m 53 Y s 3 lw 1637 1073 m21 6 lw 1641 1085 m 56 Y s 1641 1152 m 56 Y s 3 lw 1641 1146 m21 6 lw 1646 1030 m 55 Y s 1646 1096 m 55 Y s 3 lw 1646 1090 m21 6 lw
 1651 1044 m 56 Y s 1651 1111 m 57 Y s 3 lw 1651 1106 m21 6 lw 1655 927 m 54 Y s 1655 993 m 54 Y s 3 lw 1655 987 m21 6 lw 1660 1069 m 59 Y s 1660 1139 m 59 Y s 3 lw 1660 1133 m21 6 lw 1665 1029 m 60 Y s 1665 1100 m 59 Y s 3 lw 1665 1094 m21 6 lw 1669
 1063 m 61 Y s 1669 1136 m 61 Y s 3 lw 1669 1130 m21 6 lw 1674 1021 m 62 Y s 1674 1094 m 61 Y s 3 lw 1674 1088 m21 6 lw 1679 1100 m 65 Y s 1679 1176 m 66 Y s 3 lw 1679 1171 m21 6 lw 1684 1069 m 66 Y s 1684 1146 m 66 Y s 3 lw 1684 1140 m21 6 lw 1688
 939 m 61 Y s 1688 1012 m 61 Y s 3 lw 1688 1006 m21 6 lw 1693 1062 m 68 Y s 1693 1142 m 68 Y s 3 lw 1693 1136 m21 6 lw 1698 935 m 66 Y s 1698 1012 m 66 Y s 3 lw 1698 1006 m21 6 lw 1702 1029 m 71 Y s 1702 1111 m 70 Y s 3 lw 1702 1105 m21 6 lw 1707 919
 m 66 Y s 1707 996 m 66 Y s 3 lw 1707 991 m21 6 lw 1712 871 m 66 Y s 1712 949 m 65 Y s 3 lw 1712 943 m21 6 lw 1717 1050 m 74 Y s 1717 1135 m 73 Y s 3 lw 1717 1129 m21 6 lw 1721 914 m 70 Y s 1721 995 m 69 Y s 3 lw 1721 989 m21 6 lw 1726 1095 m 80 Y s
 1726 1187 m 80 Y s 3 lw 1726 1181 m21 6 lw 1731 951 m 75 Y s 1731 1037 m 76 Y s 3 lw 1731 1032 m21 6 lw 1735 913 m 76 Y s 1735 1000 m 76 Y s 3 lw 1735 995 m21 6 lw 1740 1038 m 81 Y s 1740 1130 m 81 Y s 3 lw 1740 1124 m21 6 lw 1745 874 m 78 Y s 1745
 964 m 78 Y s 3 lw 1745 958 m21 6 lw 1749 913 m 80 Y s 1749 1004 m 80 Y s 3 lw 1749 998 m21 6 lw 1754 1051 m 89 Y s 1754 1151 m 89 Y s 3 lw 1754 1146 m21 6 lw 1759 1175 m 98 Y s 1759 1284 m 99 Y s 3 lw 1759 1279 m21 6 lw 1764 1010 m 91 Y s 1764 1112
 m 92 Y s 3 lw 1764 1107 m21 6 lw 1768 1075 m 95 Y s 1768 1182 m 95 Y s 3 lw 1768 1176 m21 6 lw 1773 990 m 95 Y s 1773 1096 m 96 Y s 3 lw 1773 1091 m21 6 lw 1778 1053 m 98 Y s 1778 1163 m 98 Y s 3 lw 1778 1157 m21 6 lw 1782 1246 m 112 Y s 1782 1369 m
 112 Y s 3 lw 1782 1363 m21 6 lw 1787 901 m 94 Y s 1787 1007 m 95 Y s 3 lw 1787 1001 m21 6 lw 1792 907 m 98 Y s 1792 1017 m 98 Y s 3 lw 1792 1011 m21 6 lw 1797 923 m 100 Y s 1797 1035 m 100 Y s 3 lw 1797 1029 m21 6 lw 1801 1151 m 119 Y s 1801 1282 m
 119 Y s 3 lw 1801 1276 m21 6 lw 1806 992 m 111 Y s 1806 1114 m 111 Y s 3 lw 1806 1108 m21 6 lw 1811 809 m 105 Y s 1811 925 m 105 Y s 3 lw 1811 919 m21 6 lw 1815 1128 m 127 Y s 1815 1267 m 127 Y s 3 lw 1815 1261 m21 6 lw 1820 922 m 112 Y s 1820 1046
 m 112 Y s 3 lw 1820 1040 m21 6 lw 1825 996 m 119 Y s 1825 1127 m 119 Y s 3 lw 1825 1121 m21 6 lw 1829 981 m 123 Y s 1829 1115 m 124 Y s 3 lw 1829 1110 m21 6 lw 1834 896 m 120 Y s 1834 1028 m 120 Y s 3 lw 1834 1022 m21 6 lw 1839 889 m 121 Y s 1839
 1022 m 122 Y s 3 lw 1839 1016 m21 6 lw 1844 1056 m 139 Y s 1844 1207 m 139 Y s 3 lw 1844 1201 m21 6 lw 1848 999 m 136 Y s 1848 1146 m 136 Y s 3 lw 1848 1140 m21 6 lw 1853 1140 m 152 Y s 1853 1304 m 151 Y s 3 lw 1853 1298 m21 6 lw 1858 940 m 140 Y s
 1858 1092 m 140 Y s 3 lw 1858 1086 m21 6 lw 1862 816 m 131 Y s 1862 959 m 131 Y s 3 lw 1862 953 m21 6 lw 1867 809 m 137 Y s 1867 957 m 137 Y s 3 lw 1867 952 m21 6 lw 1872 883 m 147 Y s 1872 1041 m 147 Y s 3 lw 1872 1036 m21 6 lw 1877 831 m 144 Y s
 1877 986 m 143 Y s 3 lw 1877 980 m21 6 lw 1881 869 m 148 Y s 1881 1029 m 148 Y s 3 lw 1881 1023 m21 6 lw 1886 993 m 170 Y s 1886 1174 m 170 Y s 3 lw 1886 1168 m21 6 lw 1891 761 m 148 Y s 1891 921 m 148 Y s 3 lw 1891 915 m21 6 lw 1895 733 m 158 Y s
 1895 902 m 159 Y s 3 lw 1895 897 m21 6 lw 1900 1317 m 229 Y s 1900 1557 m 229 Y s 3 lw 1900 1552 m21 6 lw 1905 725 m 162 Y s 1905 899 m 162 Y s 3 lw 1905 893 m21 6 lw 1909 874 m 177 Y s 1909 1062 m 177 Y s 3 lw 1909 1056 m21 6 lw 1914 1007 m 203 Y s
 1914 1222 m 203 Y s 3 lw 1914 1216 m21 6 lw 1919 890 m 193 Y s 1919 1095 m 193 Y s 3 lw 1919 1089 m21 6 lw 1924 1001 m 218 Y s 1924 1230 m 218 Y s 3 lw 1924 1225 m21 6 lw 1928 663 m 175 Y s 1928 850 m 176 Y s 3 lw 1928 844 m21 6 lw 1933 853 m 203 Y
 s 1933 1067 m 202 Y s 3 lw 1933 1061 m21 6 lw 1938 703 m 200 Y s 1938 914 m 200 Y s 3 lw 1938 909 m21 6 lw 1942 990 m 240 Y s 1942 1241 m 240 Y s 3 lw 1942 1235 m21 6 lw 1947 970 m 251 Y s 1947 1232 m 251 Y s 3 lw 1947 1227 m21 6 lw 1952 1001 m 256
 Y s 1952 1268 m 257 Y s 3 lw 1952 1263 m21 6 lw 1957 917 m 253 Y s 1957 1182 m 254 Y s 3 lw 1957 1176 m21 6 lw 1961 821 m 250 Y s 1961 1082 m 250 Y s 3 lw 1961 1077 m21 6 lw 1966 365 m 178 Y s 1966 554 m 178 Y s 3 lw 1966 549 m21 6 lw 1971 460 m 195
 Y s 1971 667 m 195 Y s 3 lw 1971 661 m21 6 lw 1975 520 m 214 Y s 1975 746 m 214 Y s 3 lw 1975 740 m21 6 lw 1980 687 m 268 Y s 1980 967 m 267 Y s 3 lw 1980 961 m21 6 lw 1985 579 m 247 Y s 1985 838 m 247 Y s 3 lw 1985 832 m21 6 lw 1989 1009 m 334 Y s
 1989 1354 m 334 Y s 3 lw 1989 1348 m21 6 lw 1994 1198 m 366 Y s 1994 1576 m 365 Y s 3 lw 1994 1570 m21 6 lw 1999 923 m 337 Y s 1999 1271 m 337 Y s 3 lw 1999 1265 m21 6 lw 2004 1055 m 380 Y s 2004 1446 m 380 Y s 3 lw 2004 1441 m21 6 lw 2008 1090 m
 417 Y s 2008 1518 m 417 Y s 3 lw 2008 1512 m21 6 lw 2013 1004 m 421 Y s 2013 1436 m 420 Y s 3 lw 2013 1430 m21 6 lw 2018 869 m 391 Y s 2018 1271 m 391 Y s 3 lw 2018 1266 m21 6 lw 2022 730 m 334 Y s 2022 1076 m 334 Y s 3 lw 2022 1070 m21 6 lw 2027
 1160 m 450 Y s 2027 1621 m 450 Y s 3 lw 2027 1615 m21 6 lw 2032 1337 m 587 Y s 2032 1936 m 253 Y s 3 lw 2032 1930 m21 6 lw 2036 591 m 393 Y s 2036 995 m 392 Y s 3 lw 2036 989 m21 6 lw 2041 1347 m 583 Y s 2041 1942 m 247 Y s 3 lw 2041 1936 m21 6 lw
 2046 302 m 321 Y s 2046 635 m 321 Y s 3 lw 2046 629 m21 6 lw 2051 334 m 365 Y s 2051 710 m 365 Y s 3 lw 2051 705 m21 6 lw 2055 999 m 550 Y s 2055 1561 m 550 Y s 3 lw 2055 1555 m21 6 lw 2060 223 m 28 Y s 2060 262 m 286 Y s 3 lw 2060 257 m21 6 lw 2065
 223 m 340 Y s 2065 574 m 380 Y s 3 lw 2065 569 m21 6 lw 2069 937 m 642 Y s 2069 1590 m 599 Y s 3 lw 2069 1584 m21 6 lw 2074 897 m 620 Y s 2074 1528 m 620 Y s 3 lw 2074 1523 m21 6 lw 2079 223 m 418 Y s 2079 652 m 459 Y s 3 lw 2079 646 m21 6 lw 2084
 223 m 338 Y s 2084 573 m 413 Y s 3 lw 2084 567 m21 6 lw 2088 977 m 798 Y s 2088 1786 m 403 Y s 3 lw 2088 1780 m21 6 lw 2093 671 m 651 Y s 2093 1333 m 650 Y s 3 lw 2093 1327 m21 6 lw 2098 234 m 418 Y s 2098 664 m 418 Y s 3 lw 2098 658 m21 6 lw 2107
 574 m 776 Y s 2107 1361 m 776 Y s 3 lw 2107 1356 m21 6 lw 2112 492 m 768 Y s 2112 1272 m 768 Y s 3 lw 2112 1266 m21 6 lw 2116 223 m 428 Y s 2116 663 m 596 Y s 3 lw 2116 657 m21 6 lw 2121 506 m 1094 Y s 2121 1611 m 578 Y s 3 lw 2121 1606 m21 6 lw
 2126 223 m 235 Y s 2126 469 m 511 Y s 3 lw 2126 463 m21 6 lw 2131 876 m 1219 Y s 2131 2106 m 83 Y s 3 lw 2131 2100 m21 6 lw 2145 223 m 1084 Y s 2145 1319 m 870 Y s 3 lw 2145 1313 m21 6 lw 2149 223 m 291 Y s 2149 525 m 610 Y s 3 lw 2149 520 m21 6 lw
 2154 223 m 191 Y s 2154 425 m 624 Y s 3 lw 2154 419 m21 6 lw 2168 223 m 259 Y s 2168 493 m 852 Y s 3 lw 2168 488 m21 6 lw 2173 223 m 684 Y s 2173 919 m 1090 Y s 3 lw 2173 913 m21 6 lw 2215 223 m 1031 Y s 2215 1265 m 924 Y s 3 lw 2215 1259 m21 6 lw
 black 340 223 m 1882 X s
 gsave  2268 2234 0 0 C 1923.86 58.2559 t 0 r /Helvetica findfont 83.8316 sf 0 0 m (Q [GeV]) show NC gr  340 279 m -56 Y s 387 251 m -28 Y s 434 251 m -28 Y s 481 251 m -28 Y s 528 279 m -56 Y s 575 251 m -28 Y s 622 251 m -28 Y s 670 251 m -28 Y s
 717 279 m -56 Y s 764 251 m -28 Y s 811 251 m -28 Y s 858 251 m -28 Y s 905 279 m -56 Y s 952 251 m -28 Y s 999 251 m -28 Y s 1046 251 m -28 Y s 1093 279 m -56 Y s 1140 251 m -28 Y s 1187 251 m -28 Y s 1234 251 m -28 Y s 1281 279 m -56 Y s 1328 251
 m -28 Y s 1375 251 m -28 Y s 1422 251 m -28 Y s 1469 279 m -56 Y s 1517 251 m -28 Y s 1564 251 m -28 Y s 1611 251 m -28 Y s 1658 279 m -56 Y s 1705 251 m -28 Y s 1752 251 m -28 Y s 1799 251 m -28 Y s 1846 279 m -56 Y s 1893 251 m -28 Y s 1940 251 m
 -28 Y s 1987 251 m -28 Y s 2034 279 m -56 Y s 2081 251 m -28 Y s 2128 251 m -28 Y s 2175 251 m -28 Y s 2222 279 m -56 Y s
 gsave  2268 2234 0 0 C 322.539 159.138 t 0 r /Helvetica findfont 62.5185 sf 0 0 m (0) show NC gr 
 gsave  2268 2234 0 0 C 484.518 159.138 t 0 r /Helvetica findfont 62.5185 sf 0 0 m (0.2) show NC gr 
 gsave  2268 2234 0 0 C 673.495 159.138 t 0 r /Helvetica findfont 62.5185 sf 0 0 m (0.4) show NC gr 
 gsave  2268 2234 0 0 C 861.05 159.138 t 0 r /Helvetica findfont 62.5185 sf 0 0 m (0.6) show NC gr 
 gsave  2268 2234 0 0 C 1050.03 159.138 t 0 r /Helvetica findfont 62.5185 sf 0 0 m (0.8) show NC gr 
 gsave  2268 2234 0 0 C 1268.84 159.138 t 0 r /Helvetica findfont 62.5185 sf 0 0 m (1) show NC gr 
 gsave  2268 2234 0 0 C 1426.56 159.138 t 0 r /Helvetica findfont 62.5185 sf 0 0 m (1.2) show NC gr 
 gsave  2268 2234 0 0 C 1614.11 159.138 t 0 r /Helvetica findfont 62.5185 sf 0 0 m (1.4) show NC gr 
 gsave  2268 2234 0 0 C 1803.09 159.138 t 0 r /Helvetica findfont 62.5185 sf 0 0 m (1.6) show NC gr 
 gsave  2268 2234 0 0 C 1990.65 159.138 t 0 r /Helvetica findfont 62.5185 sf 0 0 m (1.8) show NC gr 
 gsave  2268 2234 0 0 C 2205.2 159.138 t 0 r /Helvetica findfont 62.5185 sf 0 0 m (2) show NC gr  340 223 m 1966 Y s
 gsave  2268 2234 0 0 C 152.034 1953.7 t 90 r /Helvetica findfont 83.8316 sf 0 0 m (DR\(Q\)) show NC gr  400 402 m -60 X s 370 491 m -30 X s 370 581 m -30 X s 370 670 m -30 X s 400 759 m -60 X s 370 849 m -30 X s 370 938 m -30 X s 370 1027 m -30 X s
 400 1117 m -60 X s 370 1206 m -30 X s 370 1295 m -30 X s 370 1385 m -30 X s 400 1474 m -60 X s 370 1564 m -30 X s 370 1653 m -30 X s 370 1742 m -30 X s 400 1832 m -60 X s 370 1921 m -30 X s 370 2010 m -30 X s 370 2100 m -30 X s 400 2189 m -60 X s
 400 402 m -60 X s 370 313 m -30 X s 370 223 m -30 X s
 gsave  2268 2234 0 0 C 242.97 379.374 t 0 r /Helvetica findfont 62.5185 sf 0 0 m (0.6) show NC gr 
 gsave  2268 2234 0 0 C 242.97 737.434 t 0 r /Helvetica findfont 62.5185 sf 0 0 m (0.8) show NC gr 
 gsave  2268 2234 0 0 C 305.488 1092.65 t 0 r /Helvetica findfont 62.5185 sf 0 0 m (1) show NC gr 
 gsave  2268 2234 0 0 C 242.97 1450.71 t 0 r /Helvetica findfont 62.5185 sf 0 0 m (1.2) show NC gr 
 gsave  2268 2234 0 0 C 242.97 1808.77 t 0 r /Helvetica findfont 62.5185 sf 0 0 m (1.4) show NC gr 
 gsave  2268 2234 0 0 C 242.97 2166.83 t 0 r /Helvetica findfont 62.5185 sf 0 0 m (1.6) show NC gr 
 gsave  2268 2234 0 0 C 906.518 670.653 t 0 r /Helvetica-Bold findfont 72.4646 sf 0 0 m (DR PIONS) show NC gr 
 gsave  2268 2234 0 0 C 906.518 558.404 t 0 r /Helvetica-Bold findfont 72.4646 sf 0 0 m (ref. sample: EVENT MIX) show NC gr 
 gsave  2268 2234 0 0 C 906.518 447.576 t 0 r /Helvetica-Bold findfont 72.4646 sf 0 0 m (VELO tracks multiplicity: 11 \255 20) show NC gr 
 gr  gr showpage
end
%%EOF
