%!PS-Adobe-2.0 EPSF-2.0
%%BoundingBox:  0 0 567 558
%%Title: ./DR_pion_0c65_h3001_3_h3401_3.eps: DR_pion_0c65_h3001_3_h3401_3
%%Creator: ROOT Version 6.06/02
%%CreationDate: Wed Dec  7 17:36:13 2016
%%DocumentNeededResources: ProcSet (FontSetInit)
%%EndComments
%%BeginProlog
80 dict begin
/s {stroke} def /l {lineto} def /m {moveto} def /t {translate} def
/r {rotate} def /rl {roll}  def /R {repeat} def
/d {rlineto} def /rm {rmoveto} def /gr {grestore} def /f {eofill} def
/c {setrgbcolor} def /black {0 setgray} def /sd {setdash} def
/cl {closepath} def /sf {scalefont setfont} def /lw {setlinewidth} def
/box {m dup 0 exch d exch 0 d 0 exch neg d cl} def
/NC{systemdict begin initclip end}def/C{NC box clip newpath}def
/bl {box s} def /bf {gsave box gsave f grestore 1 lw [] 0 sd s grestore} def /Y { 0 exch d} def /X { 0 d} def 
/K {{pop pop 0 moveto} exch kshow} bind def
/ita {/ang 15 def gsave [1 0 ang dup sin exch cos div 1 0 0] concat} def 
/mp {newpath /y exch def /x exch def} def
/side {[w .77 mul w .23 mul] .385 w mul sd w 0 l currentpoint t -144 r} def
/mr {mp x y w2 0 360 arc} def /m24 {mr s} def /m20 {mr f} def
/mb {mp x y w2 add m w2 neg 0 d 0 w neg d w 0 d 0 w d cl} def
/mt {mp x y w2 add m w2 neg w neg d w 0 d cl} def
/m21 {mb f} def /m25 {mb s} def /m22 {mt f} def /m26{mt s} def
/m23 {mp x y w2 sub m w2 w d w neg 0 d cl f} def
/m27 {mp x y w2 add m w3 neg w2 neg d w3 w2 neg d w3 w2 d cl s} def
/m28 {mp x w2 sub y w2 sub w3 add m w3 0 d  0 w3 neg d w3 0 d 0 w3 d w3 0 d  0 w3 d w3 neg 0 d 0 w3 d w3 neg 0 d 0 w3 neg d w3 neg 0 d cl s } def
/m29 {mp gsave x w2 sub y w2 add w3 sub m currentpoint t 4 {side} repeat cl fill gr} def
/m30 {mp gsave x w2 sub y w2 add w3 sub m currentpoint t 4 {side} repeat cl s gr} def
/m31 {mp x y w2 sub m 0 w d x w2 sub y m w 0 d x w2 sub y w2 add m w w neg d x w2 sub y w2 sub m w w d s} def
/m32 {mp x y w2 sub m w2 w d w neg 0 d cl s} def
/m33 {mp x y w2 add m w3 neg w2 neg d w3 w2 neg d w3 w2 d cl f} def
/m34 {mp x w2 sub y w2 sub w3 add m w3 0 d  0 w3 neg d w3 0 d 0 w3 d w3 0 d  0 w3 d w3 neg 0 d 0 w3 d w3 neg 0 d 0 w3 neg d w3 neg 0 d cl f } def
/m2 {mp x y w2 sub m 0 w d x w2 sub y m w 0 d s} def
/m5 {mp x w2 sub y w2 sub m w w d x w2 sub y w2 add m w w neg d s} def
%%IncludeResource: ProcSet (FontSetInit)
%%IncludeResource: font Times-Roman
%%IncludeResource: font Times-Italic
%%IncludeResource: font Times-Bold
%%IncludeResource: font Times-BoldItalic
%%IncludeResource: font Helvetica
%%IncludeResource: font Helvetica-Oblique
%%IncludeResource: font Helvetica-Bold
%%IncludeResource: font Helvetica-BoldOblique
%%IncludeResource: font Courier
%%IncludeResource: font Courier-Oblique
%%IncludeResource: font Courier-Bold
%%IncludeResource: font Courier-BoldOblique
%%IncludeResource: font Symbol
%%IncludeResource: font ZapfDingbats
/reEncode {exch findfont dup length dict begin {1 index /FID eq  {pop pop} {def} ifelse } forall /Encoding exch def currentdict end dup /FontName get exch definefont pop } def [/Times-Bold /Times-Italic /Times-BoldItalic /Helvetica /Helvetica-Oblique
 /Helvetica-Bold /Helvetica-BoldOblique /Courier /Courier-Oblique /Courier-Bold /Courier-BoldOblique /Times-Roman /AvantGarde-Book /AvantGarde-BookOblique /AvantGarde-Demi /AvantGarde-DemiOblique /Bookman-Demi /Bookman-DemiItalic /Bookman-Light
 /Bookman-LightItalic /Helvetica-Narrow /Helvetica-Narrow-Bold /Helvetica-Narrow-BoldOblique /Helvetica-Narrow-Oblique /NewCenturySchlbk-Roman /NewCenturySchlbk-Bold /NewCenturySchlbk-BoldItalic /NewCenturySchlbk-Italic /Palatino-Bold
 /Palatino-BoldItalic /Palatino-Italic /Palatino-Roman ] {ISOLatin1Encoding reEncode } forall
%%EndProlog
%%BeginSetup
%%EndSetup
newpath  gsave  .25 .25 scale  gsave  0 0 t black[  ] 0 sd 6 lw 1 1 1 c 2268 2234 0 0 bf black 3 lw 1 1 1 c 1882 1966 340 223 bf black 1882 1966 340 223 bl 1 1 1 c 1882 1966 340 223 bf black 1882 1966 340 223 bl 0 0 1 c 6 lw 1 1 1 c 0 0 1 c 390 1664
 m 35 Y s 390 1710 m 35 Y s 3 lw /w 14 def /w2 {w 2 div} def /w3 {w 3 div} def 390 1704 m21 6 lw 394 1613 m 31 Y s 394 1655 m 31 Y s 3 lw 394 1650 m21 6 lw 399 1565 m 28 Y s 399 1604 m 27 Y s 3 lw 399 1598 m21 6 lw 404 1532 m 25 Y s 404 1568 m 25 Y s
 3 lw 404 1562 m21 6 lw 408 1496 m 22 Y s 408 1530 m 22 Y s 3 lw 408 1524 m21 6 lw 413 1467 m 21 Y s 413 1499 m 21 Y s 3 lw 413 1494 m21 6 lw 418 1465 m 19 Y s 418 1495 m 20 Y s 3 lw 418 1490 m21 6 lw 423 1428 m 18 Y s 423 1457 m 18 Y s 3 lw 423 1451
 m21 6 lw 427 1426 m 16 Y s 427 1454 m 16 Y s 3 lw 427 1448 m21 6 lw 432 1432 m 16 Y s 432 1459 m 16 Y s 3 lw 432 1454 m21 6 lw 437 1390 m 14 Y s 437 1416 m 14 Y s 3 lw 437 1410 m21 6 lw 441 1372 m 14 Y s 441 1397 m 14 Y s 3 lw 441 1391 m21 6 lw 446
 1386 m 13 Y s 446 1410 m 13 Y s 3 lw 446 1404 m21 6 lw 451 1310 m 12 Y s 451 1333 m 13 Y s 3 lw 451 1328 m21 6 lw 455 1319 m 12 Y s 455 1342 m 12 Y s 3 lw 455 1337 m21 6 lw 460 1341 m 11 Y s 460 1364 m 11 Y s 3 lw 460 1358 m21 6 lw 465 1279 m 10 Y s
 465 1301 m 10 Y s 3 lw 465 1295 m21 6 lw 470 1287 m 10 Y s 470 1308 m 10 Y s 3 lw 470 1303 m21 6 lw 474 1259 m 10 Y s 474 1280 m 10 Y s 3 lw 474 1274 m21 6 lw 479 1286 m 10 Y s 479 1307 m 9 Y s 3 lw 479 1301 m21 6 lw 484 1252 m 9 Y s 484 1272 m 9 Y
 s 3 lw 484 1267 m21 6 lw 488 1247 m 9 Y s 488 1267 m 9 Y s 3 lw 488 1261 m21 6 lw 493 1223 m 9 Y s 493 1243 m 8 Y s 3 lw 493 1237 m21 6 lw 498 1219 m 7 Y s 498 1238 m 8 Y s 3 lw 498 1232 m21 6 lw 502 1207 m 7 Y s 502 1226 m 7 Y s 3 lw 502 1220 m21 6
 lw 507 1196 m 7 Y s 507 1215 m 7 Y s 3 lw 507 1209 m21 6 lw 512 1224 m 7 Y s 512 1242 m 8 Y s 3 lw 512 1237 m21 6 lw 517 1194 m 7 Y s 517 1212 m 7 Y s 3 lw 517 1206 m21 6 lw 521 1201 m 7 Y s 521 1219 m 7 Y s 3 lw 521 1213 m21 6 lw 526 1179 m 6 Y s
 526 1197 m 6 Y s 3 lw 526 1191 m21 6 lw 531 1185 m 6 Y s 531 1203 m 6 Y s 3 lw 531 1197 m21 6 lw 535 1202 m 7 Y s 535 1220 m 6 Y s 3 lw 535 1214 m21 6 lw 540 1158 m 6 Y s 540 1175 m 6 Y s 3 lw 540 1170 m21 6 lw 545 1191 m 6 Y s 545 1208 m 6 Y s 3 lw
 545 1202 m21 6 lw 550 1194 m 6 Y s 550 1212 m 5 Y s 3 lw 550 1206 m21 6 lw 554 1165 m 5 Y s 554 1182 m 5 Y s 3 lw 554 1176 m21 6 lw 559 1152 m 5 Y s 559 1169 m 5 Y s 3 lw 559 1163 m21 6 lw 564 1140 m 5 Y s 564 1156 m 6 Y s 3 lw 564 1151 m21 6 lw 568
 1160 m 6 Y s 568 1177 m 5 Y s 3 lw 568 1171 m21 6 lw 573 1157 m 5 Y s 573 1174 m 5 Y s 3 lw 573 1168 m21 6 lw 578 1165 m 6 Y s 578 1182 m 5 Y s 3 lw 578 1176 m21 6 lw 582 1140 m 5 Y s 582 1157 m 4 Y s 3 lw 582 1151 m21 6 lw 587 1145 m 5 Y s 587 1161
 m 5 Y s 3 lw 587 1155 m21 6 lw 592 1136 m 4 Y s 592 1152 m 5 Y s 3 lw 592 1146 m21 6 lw 597 1119 m 5 Y s 597 1135 m 5 Y s 3 lw 597 1130 m21 6 lw 601 1134 m 4 Y s 601 1150 m 4 Y s 3 lw 601 1144 m21 6 lw 606 1148 m 5 Y s 606 1164 m 5 Y s 3 lw 606 1158
 m21 6 lw 611 1141 m 4 Y s 611 1156 m 5 Y s 3 lw 611 1151 m21 6 lw 615 1139 m 5 Y s 615 1155 m 4 Y s 3 lw 615 1149 m21 6 lw 620 1126 m 4 Y s 620 1141 m 5 Y s 3 lw 620 1136 m21 6 lw 625 1133 m 4 Y s 625 1149 m 4 Y s 3 lw 625 1143 m21 6 lw 630 1139 m 4
 Y s 630 1154 m 4 Y s 3 lw 630 1149 m21 6 lw 634 1115 m 4 Y s 634 1130 m 4 Y s 3 lw 634 1125 m21 6 lw 639 1106 m 4 Y s 639 1122 m 3 Y s 3 lw 639 1116 m21 6 lw 644 1131 m 4 Y s 644 1147 m 3 Y s 3 lw 644 1141 m21 6 lw 648 1124 m 4 Y s 648 1139 m 4 Y s
 3 lw 648 1133 m21 6 lw 653 1111 m 3 Y s 653 1126 m 3 Y s 3 lw 653 1120 m21 6 lw 658 1126 m 3 Y s 658 1141 m 3 Y s 3 lw 658 1135 m21 6 lw 662 1107 m 4 Y s 662 1122 m 3 Y s 3 lw 662 1116 m21 6 lw 667 1101 m 3 Y s 667 1116 m 3 Y s 3 lw 667 1110 m21 6
 lw 672 1112 m 4 Y s 672 1127 m 3 Y s 3 lw 672 1121 m21 6 lw 677 1116 m 3 Y s 677 1131 m 3 Y s 3 lw 677 1125 m21 6 lw 681 1123 m 3 Y s 681 1137 m 4 Y s 3 lw 681 1132 m21 6 lw 686 1101 m 3 Y s 686 1115 m 3 Y s 3 lw 686 1110 m21 6 lw 691 1109 m 3 Y s
 691 1123 m 3 Y s 3 lw 691 1117 m21 6 lw 695 1112 m 3 Y s 695 1127 m 3 Y s 3 lw 695 1121 m21 6 lw 700 1104 m 3 Y s 700 1119 m 3 Y s 3 lw 700 1113 m21 6 lw 705 1100 m 3 Y s 705 1114 m 3 Y s 3 lw 705 1109 m21 6 lw 710 1089 m 3 Y s 710 1103 m 3 Y s 3 lw
 710 1098 m21 6 lw 714 1088 m 3 Y s 714 1102 m 3 Y s 3 lw 714 1096 m21 6 lw 719 1083 m 2 Y s 719 1097 m 2 Y s 3 lw 719 1091 m21 6 lw 724 1085 m 3 Y s 724 1099 m 3 Y s 3 lw 724 1094 m21 6 lw 728 1111 m 3 Y s 728 1125 m 3 Y s 3 lw 728 1120 m21 6 lw 733
 1095 m 2 Y s 733 1109 m 2 Y s 3 lw 733 1103 m21 6 lw 738 1100 m 2 Y s 738 1114 m 2 Y s 3 lw 738 1108 m21 6 lw 742 1093 m 3 Y s 742 1107 m 2 Y s 3 lw 742 1101 m21 6 lw 747 1099 m 3 Y s 747 1113 m 3 Y s 3 lw 747 1107 m21 6 lw 752 1111 m 3 Y s 752 1125
 m 3 Y s 3 lw 752 1120 m21 6 lw 757 1095 m 2 Y s 757 1108 m 3 Y s 3 lw 757 1103 m21 6 lw 761 1103 m 2 Y s 761 1116 m 3 Y s 3 lw 761 1111 m21 6 lw 766 1098 m 2 Y s 766 1111 m 3 Y s 3 lw 766 1106 m21 6 lw 771 1097 m 2 Y s 771 1110 m 3 Y s 3 lw 771 1105
 m21 6 lw 775 1087 m 2 Y s 775 1101 m 2 Y s 3 lw 775 1095 m21 6 lw 780 1093 m 2 Y s 780 1106 m 2 Y s 3 lw 780 1100 m21 6 lw 785 1086 m 2 Y s 785 1099 m 2 Y s 3 lw 785 1094 m21 6 lw 790 1091 m 2 Y s 790 1104 m 2 Y s 3 lw 790 1099 m21 6 lw 794 1089 m 2
 Y s 794 1102 m 2 Y s 3 lw 794 1096 m21 6 lw 799 1093 m 2 Y s 799 1107 m 2 Y s 3 lw 799 1101 m21 6 lw 804 1085 m 2 Y s 804 1099 m 2 Y s 3 lw 804 1093 m21 6 lw 808 1094 m 2 Y s 808 1107 m 2 Y s 3 lw 808 1101 m21 6 lw 813 1100 m 2 Y s 813 1114 m 2 Y s
 3 lw 813 1108 m21 6 lw 818 1093 m 2 Y s 818 1106 m 2 Y s 3 lw 818 1100 m21 6 lw 822 1089 m 2 Y s 822 1102 m 2 Y s 3 lw 822 1097 m21 6 lw 827 1094 m 1 Y s 827 1107 m 2 Y s 3 lw 827 1101 m21 6 lw 832 1078 m 1 Y s 832 1091 m 2 Y s 3 lw 832 1085 m21 6
 lw 837 1087 m 2 Y s 837 1100 m 2 Y s 3 lw 837 1094 m21 6 lw 841 1097 m 2 Y s 841 1110 m 2 Y s 3 lw 841 1105 m21 6 lw 846 1098 m 2 Y s 846 1111 m 2 Y s 3 lw 846 1106 m21 6 lw 851 1091 m 2 Y s 851 1104 m 2 Y s 3 lw 851 1098 m21 6 lw 855 1080 m 2 Y s
 855 1093 m 2 Y s 3 lw 855 1087 m21 6 lw 860 1096 m 2 Y s 860 1109 m 2 Y s 3 lw 860 1104 m21 6 lw 865 1076 m 2 Y s 865 1089 m 2 Y s 3 lw 865 1083 m21 6 lw 870 1085 m 2 Y s 870 1098 m 2 Y s 3 lw 870 1092 m21 6 lw 874 1069 m 2 Y s 874 1082 m 2 Y s 3 lw
 874 1076 m21 6 lw 879 1079 m 1 Y s 879 1092 m 1 Y s 3 lw 879 1086 m21 6 lw 884 1073 m 1 Y s 884 1086 m 1 Y s 3 lw 884 1080 m21 6 lw 888 1079 m 2 Y s 888 1092 m 2 Y s 3 lw 888 1086 m21 6 lw 893 1089 m 1 Y s 893 1102 m 1 Y s 3 lw 893 1096 m21 6 lw 898
 1082 m 2 Y s 898 1095 m 2 Y s 3 lw 898 1090 m21 6 lw 902 1083 m 2 Y s 902 1096 m 1 Y s 3 lw 902 1090 m21 6 lw 907 1067 m 2 Y s 907 1080 m 1 Y s 3 lw 907 1074 m21 6 lw 912 1091 m 2 Y s 912 1104 m 2 Y s 3 lw 912 1099 m21 6 lw 917 1079 m 2 Y s 917 1092
 m 2 Y s 3 lw 917 1086 m21 6 lw 921 1076 m 2 Y s 921 1089 m 1 Y s 3 lw 921 1083 m21 6 lw 926 1100 m 1 Y s 926 1113 m 1 Y s 3 lw 926 1107 m21 6 lw 931 1074 m 2 Y s 931 1087 m 2 Y s 3 lw 931 1081 m21 6 lw 935 1084 m 1 Y s 935 1096 m 2 Y s 3 lw 935 1091
 m21 6 lw 940 1085 m 1 Y s 940 1098 m 1 Y s 3 lw 940 1092 m21 6 lw 945 1078 m 2 Y s 945 1091 m 2 Y s 3 lw 945 1085 m21 6 lw 950 1082 m 1 Y s 950 1094 m 2 Y s 3 lw 950 1089 m21 6 lw 954 1075 m 2 Y s 954 1088 m 1 Y s 3 lw 954 1082 m21 6 lw 959 1073 m 2
 Y s 959 1086 m 2 Y s 3 lw 959 1080 m21 6 lw 964 1076 m 2 Y s 964 1089 m 2 Y s 3 lw 964 1084 m21 6 lw 968 1070 m 1 Y s 968 1083 m 1 Y s 3 lw 968 1077 m21 6 lw 973 1092 m 2 Y s 973 1105 m 2 Y s 3 lw 973 1100 m21 6 lw 978 1089 m 1 Y s 978 1101 m 2 Y s
 3 lw 978 1096 m21 6 lw 982 1086 m 2 Y s 982 1099 m 2 Y s 3 lw 982 1093 m21 6 lw 987 1080 m 2 Y s 987 1093 m 2 Y s 3 lw 987 1088 m21 6 lw 992 1077 m 1 Y s 992 1089 m 2 Y s 3 lw 992 1084 m21 6 lw 997 1069 m 1 Y s 997 1081 m 2 Y s 3 lw 997 1076 m21 6
 lw 1001 1070 m 1 Y s 1001 1083 m 1 Y s 3 lw 1001 1077 m21 6 lw 1006 1085 m 2 Y s 1006 1098 m 2 Y s 3 lw 1006 1092 m21 6 lw 1011 1082 m 1 Y s 1011 1095 m 1 Y s 3 lw 1011 1089 m21 6 lw 1015 1090 m 1 Y s 1015 1103 m 1 Y s 3 lw 1015 1097 m21 6 lw 1020
 1089 m 2 Y s 1020 1102 m 2 Y s 3 lw 1020 1097 m21 6 lw 1025 1094 m 2 Y s 1025 1107 m 1 Y s 3 lw 1025 1101 m21 6 lw 1030 1072 m 2 Y s 1030 1085 m 2 Y s 3 lw 1030 1079 m21 6 lw 1034 1088 m 1 Y s 1034 1101 m 1 Y s 3 lw 1034 1095 m21 6 lw 1039 1068 m 1
 Y s 1039 1081 m 1 Y s 3 lw 1039 1075 m21 6 lw 1044 1080 m 2 Y s 1044 1093 m 2 Y s 3 lw 1044 1088 m21 6 lw 1048 1078 m 1 Y s 1048 1090 m 2 Y s 3 lw 1048 1085 m21 6 lw 1053 1075 m 2 Y s 1053 1088 m 2 Y s 3 lw 1053 1082 m21 6 lw 1058 1071 m 2 Y s 1058
 1084 m 1 Y s 3 lw 1058 1078 m21 6 lw 1062 1089 m 2 Y s 1062 1102 m 2 Y s 3 lw 1062 1096 m21 6 lw 1067 1091 m 1 Y s 1067 1104 m 1 Y s 3 lw 1067 1098 m21 6 lw 1072 1075 m 2 Y s 1072 1088 m 2 Y s 3 lw 1072 1082 m21 6 lw 1077 1091 m 1 Y s 1077 1103 m 2
 Y s 3 lw 1077 1098 m21 6 lw 1081 1087 m 1 Y s 1081 1100 m 1 Y s 3 lw 1081 1094 m21 6 lw 1086 1089 m 2 Y s 1086 1102 m 2 Y s 3 lw 1086 1096 m21 6 lw 1091 1090 m 1 Y s 1091 1103 m 1 Y s 3 lw 1091 1097 m21 6 lw 1095 1093 m 2 Y s 1095 1106 m 2 Y s 3 lw
 1095 1100 m21 6 lw 1100 1082 m 1 Y s 1100 1095 m 1 Y s 3 lw 1100 1089 m21 6 lw 1105 1077 m 2 Y s 1105 1090 m 2 Y s 3 lw 1105 1085 m21 6 lw 1110 1079 m 2 Y s 1110 1092 m 2 Y s 3 lw 1110 1087 m21 6 lw 1114 1088 m 1 Y s 1114 1101 m 1 Y s 3 lw 1114 1095
 m21 6 lw 1119 1081 m 2 Y s 1119 1094 m 2 Y s 3 lw 1119 1089 m21 6 lw 1124 1092 m 1 Y s 1124 1105 m 1 Y s 3 lw 1124 1099 m21 6 lw 1128 1090 m 1 Y s 1128 1103 m 2 Y s 3 lw 1128 1097 m21 6 lw 1133 1084 m 2 Y s 1133 1097 m 2 Y s 3 lw 1133 1092 m21 6 lw
 1138 1092 m 2 Y s 1138 1105 m 2 Y s 3 lw 1138 1099 m21 6 lw 1142 1086 m 2 Y s 1142 1099 m 2 Y s 3 lw 1142 1094 m21 6 lw 1147 1113 m 2 Y s 1147 1126 m 2 Y s 3 lw 1147 1120 m21 6 lw 1152 1090 m 2 Y s 1152 1103 m 2 Y s 3 lw 1152 1097 m21 6 lw 1157 1091
 m 2 Y s 1157 1104 m 2 Y s 3 lw 1157 1098 m21 6 lw 1161 1094 m 2 Y s 1161 1107 m 2 Y s 3 lw 1161 1101 m21 6 lw 1166 1096 m 2 Y s 1166 1109 m 2 Y s 3 lw 1166 1103 m21 6 lw 1171 1093 m 2 Y s 1171 1106 m 2 Y s 3 lw 1171 1101 m21 6 lw 1175 1091 m 1 Y s
 1175 1104 m 2 Y s 3 lw 1175 1098 m21 6 lw 1180 1101 m 2 Y s 1180 1114 m 2 Y s 3 lw 1180 1109 m21 6 lw 1185 1093 m 2 Y s 1185 1106 m 2 Y s 3 lw 1185 1101 m21 6 lw 1190 1084 m 2 Y s 1190 1097 m 2 Y s 3 lw 1190 1092 m21 6 lw 1194 1100 m 2 Y s 1194 1114
 m 2 Y s 3 lw 1194 1108 m21 6 lw 1199 1107 m 2 Y s 1199 1121 m 2 Y s 3 lw 1199 1115 m21 6 lw 1204 1098 m 2 Y s 1204 1111 m 2 Y s 3 lw 1204 1105 m21 6 lw 1208 1097 m 2 Y s 1208 1110 m 2 Y s 3 lw 1208 1104 m21 6 lw 1213 1096 m 2 Y s 1213 1109 m 2 Y s 3
 lw 1213 1104 m21 6 lw 1218 1089 m 2 Y s 1218 1102 m 2 Y s 3 lw 1218 1097 m21 6 lw 1222 1092 m 2 Y s 1222 1105 m 2 Y s 3 lw 1222 1099 m21 6 lw 1227 1095 m 3 Y s 1227 1109 m 2 Y s 3 lw 1227 1103 m21 6 lw 1232 1098 m 2 Y s 1232 1111 m 2 Y s 3 lw 1232
 1105 m21 6 lw 1237 1099 m 2 Y s 1237 1113 m 2 Y s 3 lw 1237 1107 m21 6 lw 1241 1091 m 2 Y s 1241 1104 m 3 Y s 3 lw 1241 1099 m21 6 lw 1246 1083 m 2 Y s 1246 1097 m 2 Y s 3 lw 1246 1091 m21 6 lw 1251 1092 m 3 Y s 1251 1106 m 2 Y s 3 lw 1251 1100 m21
 6 lw 1255 1098 m 2 Y s 1255 1111 m 3 Y s 3 lw 1255 1106 m21 6 lw 1260 1101 m 2 Y s 1260 1115 m 2 Y s 3 lw 1260 1109 m21 6 lw 1265 1094 m 2 Y s 1265 1107 m 3 Y s 3 lw 1265 1102 m21 6 lw 1269 1103 m 3 Y s 1269 1117 m 3 Y s 3 lw 1269 1112 m21 6 lw 1274
 1096 m 3 Y s 1274 1110 m 3 Y s 3 lw 1274 1104 m21 6 lw 1279 1103 m 3 Y s 1279 1117 m 3 Y s 3 lw 1279 1112 m21 6 lw 1284 1093 m 2 Y s 1284 1107 m 2 Y s 3 lw 1284 1101 m21 6 lw 1288 1098 m 2 Y s 1288 1112 m 2 Y s 3 lw 1288 1106 m21 6 lw 1293 1092 m 2
 Y s 1293 1106 m 2 Y s 3 lw 1293 1100 m21 6 lw 1298 1101 m 3 Y s 1298 1115 m 3 Y s 3 lw 1298 1110 m21 6 lw 1302 1105 m 3 Y s 1302 1119 m 3 Y s 3 lw 1302 1113 m21 6 lw 1307 1098 m 3 Y s 1307 1112 m 3 Y s 3 lw 1307 1107 m21 6 lw 1312 1115 m 3 Y s 1312
 1129 m 3 Y s 3 lw 1312 1123 m21 6 lw 1317 1115 m 2 Y s 1317 1129 m 3 Y s 3 lw 1317 1123 m21 6 lw 1321 1110 m 2 Y s 1321 1124 m 3 Y s 3 lw 1321 1118 m21 6 lw 1326 1116 m 3 Y s 1326 1130 m 3 Y s 3 lw 1326 1124 m21 6 lw 1331 1094 m 3 Y s 1331 1108 m 3
 Y s 3 lw 1331 1102 m21 6 lw 1335 1098 m 3 Y s 1335 1113 m 3 Y s 3 lw 1335 1107 m21 6 lw 1340 1107 m 3 Y s 1340 1121 m 3 Y s 3 lw 1340 1115 m21 6 lw 1345 1109 m 3 Y s 1345 1123 m 3 Y s 3 lw 1345 1117 m21 6 lw 1349 1116 m 4 Y s 1349 1131 m 3 Y s 3 lw
 1349 1125 m21 6 lw 1354 1110 m 3 Y s 1354 1125 m 3 Y s 3 lw 1354 1119 m21 6 lw 1359 1114 m 3 Y s 1359 1128 m 4 Y s 3 lw 1359 1123 m21 6 lw 1364 1095 m 3 Y s 1364 1109 m 4 Y s 3 lw 1364 1104 m21 6 lw 1368 1113 m 3 Y s 1368 1128 m 3 Y s 3 lw 1368 1122
 m21 6 lw 1373 1116 m 3 Y s 1373 1130 m 3 Y s 3 lw 1373 1125 m21 6 lw 1378 1102 m 4 Y s 1378 1117 m 3 Y s 3 lw 1378 1111 m21 6 lw 1382 1118 m 3 Y s 1382 1133 m 3 Y s 3 lw 1382 1127 m21 6 lw 1387 1102 m 3 Y s 1387 1117 m 3 Y s 3 lw 1387 1111 m21 6 lw
 1392 1100 m 3 Y s 1392 1115 m 3 Y s 3 lw 1392 1109 m21 6 lw 1397 1106 m 3 Y s 1397 1121 m 3 Y s 3 lw 1397 1115 m21 6 lw 1401 1095 m 4 Y s 1401 1110 m 4 Y s 3 lw 1401 1105 m21 6 lw 1406 1110 m 3 Y s 1406 1125 m 3 Y s 3 lw 1406 1119 m21 6 lw 1411 1113
 m 4 Y s 1411 1128 m 4 Y s 3 lw 1411 1123 m21 6 lw 1415 1102 m 4 Y s 1415 1117 m 4 Y s 3 lw 1415 1112 m21 6 lw 1420 1103 m 4 Y s 1420 1118 m 4 Y s 3 lw 1420 1113 m21 6 lw 1425 1112 m 4 Y s 1425 1127 m 4 Y s 3 lw 1425 1122 m21 6 lw 1429 1097 m 4 Y s
 1429 1112 m 4 Y s 3 lw 1429 1107 m21 6 lw 1434 1093 m 3 Y s 1434 1108 m 3 Y s 3 lw 1434 1102 m21 6 lw 1439 1111 m 3 Y s 1439 1126 m 4 Y s 3 lw 1439 1120 m21 6 lw 1444 1096 m 4 Y s 1444 1112 m 3 Y s 3 lw 1444 1106 m21 6 lw 1448 1112 m 4 Y s 1448 1128
 m 4 Y s 3 lw 1448 1122 m21 6 lw 1453 1127 m 4 Y s 1453 1143 m 4 Y s 3 lw 1453 1137 m21 6 lw 1458 1102 m 4 Y s 1458 1117 m 4 Y s 3 lw 1458 1112 m21 6 lw 1462 1116 m 4 Y s 1462 1132 m 4 Y s 3 lw 1462 1126 m21 6 lw 1467 1115 m 4 Y s 1467 1130 m 4 Y s 3
 lw 1467 1125 m21 6 lw 1472 1120 m 4 Y s 1472 1135 m 4 Y s 3 lw 1472 1130 m21 6 lw 1477 1122 m 4 Y s 1477 1137 m 5 Y s 3 lw 1477 1132 m21 6 lw 1481 1118 m 5 Y s 1481 1134 m 4 Y s 3 lw 1481 1128 m21 6 lw 1486 1108 m 4 Y s 1486 1124 m 4 Y s 3 lw 1486
 1118 m21 6 lw 1491 1128 m 4 Y s 1491 1143 m 5 Y s 3 lw 1491 1138 m21 6 lw 1495 1126 m 4 Y s 1495 1142 m 4 Y s 3 lw 1495 1136 m21 6 lw 1500 1102 m 5 Y s 1500 1118 m 5 Y s 3 lw 1500 1112 m21 6 lw 1505 1113 m 5 Y s 1505 1129 m 4 Y s 3 lw 1505 1123 m21
 6 lw 1509 1124 m 5 Y s 1509 1140 m 4 Y s 3 lw 1509 1134 m21 6 lw 1514 1111 m 5 Y s 1514 1127 m 5 Y s 3 lw 1514 1122 m21 6 lw 1519 1126 m 4 Y s 1519 1142 m 4 Y s 3 lw 1519 1136 m21 6 lw 1524 1126 m 5 Y s 1524 1142 m 5 Y s 3 lw 1524 1137 m21 6 lw 1528
 1107 m 4 Y s 1528 1123 m 4 Y s 3 lw 1528 1117 m21 6 lw 1533 1123 m 5 Y s 1533 1139 m 5 Y s 3 lw 1533 1133 m21 6 lw 1538 1128 m 5 Y s 1538 1145 m 5 Y s 3 lw 1538 1139 m21 6 lw 1542 1123 m 5 Y s 1542 1139 m 5 Y s 3 lw 1542 1134 m21 6 lw 1547 1133 m 5
 Y s 1547 1149 m 5 Y s 3 lw 1547 1144 m21 6 lw 1552 1120 m 5 Y s 1552 1137 m 5 Y s 3 lw 1552 1131 m21 6 lw 1557 1119 m 5 Y s 1557 1135 m 5 Y s 3 lw 1557 1130 m21 6 lw 1561 1110 m 5 Y s 1561 1127 m 5 Y s 3 lw 1561 1121 m21 6 lw 1566 1118 m 5 Y s 1566
 1134 m 5 Y s 3 lw 1566 1128 m21 6 lw 1571 1111 m 5 Y s 1571 1127 m 5 Y s 3 lw 1571 1121 m21 6 lw 1575 1128 m 6 Y s 1575 1145 m 5 Y s 3 lw 1575 1139 m21 6 lw 1580 1120 m 6 Y s 1580 1137 m 6 Y s 3 lw 1580 1132 m21 6 lw 1585 1123 m 6 Y s 1585 1140 m 6
 Y s 3 lw 1585 1135 m21 6 lw 1589 1115 m 6 Y s 1589 1132 m 5 Y s 3 lw 1589 1126 m21 6 lw 1594 1116 m 5 Y s 1594 1133 m 5 Y s 3 lw 1594 1127 m21 6 lw 1599 1116 m 6 Y s 1599 1133 m 6 Y s 3 lw 1599 1128 m21 6 lw 1604 1102 m 5 Y s 1604 1118 m 6 Y s 3 lw
 1604 1113 m21 6 lw 1608 1116 m 6 Y s 1608 1133 m 6 Y s 3 lw 1608 1128 m21 6 lw 1613 1117 m 6 Y s 1613 1135 m 5 Y s 3 lw 1613 1129 m21 6 lw 1618 1124 m 6 Y s 1618 1142 m 6 Y s 3 lw 1618 1136 m21 6 lw 1622 1111 m 6 Y s 1622 1128 m 6 Y s 3 lw 1622 1122
 m21 6 lw 1627 1115 m 5 Y s 1627 1132 m 6 Y s 3 lw 1627 1126 m21 6 lw 1632 1132 m 6 Y s 1632 1149 m 6 Y s 3 lw 1632 1144 m21 6 lw 1637 1122 m 6 Y s 1637 1140 m 6 Y s 3 lw 1637 1134 m21 6 lw 1641 1107 m 6 Y s 1641 1124 m 6 Y s 3 lw 1641 1118 m21 6 lw
 1646 1120 m 6 Y s 1646 1137 m 6 Y s 3 lw 1646 1131 m21 6 lw 1651 1094 m 6 Y s 1651 1111 m 6 Y s 3 lw 1651 1106 m21 6 lw 1655 1143 m 6 Y s 1655 1161 m 6 Y s 3 lw 1655 1155 m21 6 lw 1660 1136 m 6 Y s 1660 1154 m 6 Y s 3 lw 1660 1148 m21 6 lw 1665 1108
 m 6 Y s 1665 1125 m 7 Y s 3 lw 1665 1120 m21 6 lw 1669 1110 m 6 Y s 1669 1128 m 6 Y s 3 lw 1669 1122 m21 6 lw 1674 1130 m 6 Y s 1674 1147 m 7 Y s 3 lw 1674 1142 m21 6 lw 1679 1112 m 7 Y s 1679 1130 m 7 Y s 3 lw 1679 1125 m21 6 lw 1684 1115 m 6 Y s
 1684 1133 m 6 Y s 3 lw 1684 1127 m21 6 lw 1688 1128 m 7 Y s 1688 1146 m 7 Y s 3 lw 1688 1141 m21 6 lw 1693 1101 m 7 Y s 1693 1119 m 7 Y s 3 lw 1693 1114 m21 6 lw 1698 1134 m 6 Y s 1698 1152 m 7 Y s 3 lw 1698 1146 m21 6 lw 1702 1112 m 7 Y s 1702 1130
 m 7 Y s 3 lw 1702 1125 m21 6 lw 1707 1127 m 8 Y s 1707 1146 m 7 Y s 3 lw 1707 1140 m21 6 lw 1712 1108 m 7 Y s 1712 1126 m 7 Y s 3 lw 1712 1121 m21 6 lw 1717 1119 m 7 Y s 1717 1138 m 7 Y s 3 lw 1717 1132 m21 6 lw 1721 1106 m 7 Y s 1721 1124 m 7 Y s 3
 lw 1721 1119 m21 6 lw 1726 1122 m 7 Y s 1726 1140 m 8 Y s 3 lw 1726 1135 m21 6 lw 1731 1115 m 7 Y s 1731 1134 m 7 Y s 3 lw 1731 1128 m21 6 lw 1735 1120 m 7 Y s 1735 1139 m 7 Y s 3 lw 1735 1133 m21 6 lw 1740 1106 m 7 Y s 1740 1125 m 7 Y s 3 lw 1740
 1119 m21 6 lw 1745 1122 m 8 Y s 1745 1141 m 8 Y s 3 lw 1745 1136 m21 6 lw 1749 1114 m 7 Y s 1749 1133 m 7 Y s 3 lw 1749 1127 m21 6 lw 1754 1128 m 8 Y s 1754 1147 m 8 Y s 3 lw 1754 1142 m21 6 lw 1759 1093 m 8 Y s 1759 1112 m 8 Y s 3 lw 1759 1106 m21
 6 lw 1764 1102 m 8 Y s 1764 1122 m 7 Y s 3 lw 1764 1116 m21 6 lw 1768 1111 m 7 Y s 1768 1130 m 8 Y s 3 lw 1768 1124 m21 6 lw 1773 1125 m 8 Y s 1773 1145 m 8 Y s 3 lw 1773 1139 m21 6 lw 1778 1092 m 8 Y s 1778 1111 m 8 Y s 3 lw 1778 1105 m21 6 lw 1782
 1141 m 8 Y s 1782 1160 m 9 Y s 3 lw 1782 1155 m21 6 lw 1787 1096 m 8 Y s 1787 1115 m 9 Y s 3 lw 1787 1110 m21 6 lw 1792 1107 m 8 Y s 1792 1127 m 8 Y s 3 lw 1792 1121 m21 6 lw 1797 1119 m 8 Y s 1797 1139 m 8 Y s 3 lw 1797 1133 m21 6 lw 1801 1106 m 8
 Y s 1801 1125 m 9 Y s 3 lw 1801 1120 m21 6 lw 1806 1140 m 8 Y s 1806 1160 m 9 Y s 3 lw 1806 1154 m21 6 lw 1811 1110 m 9 Y s 1811 1130 m 8 Y s 3 lw 1811 1124 m21 6 lw 1815 1122 m 8 Y s 1815 1142 m 8 Y s 3 lw 1815 1136 m21 6 lw 1820 1090 m 9 Y s 1820
 1110 m 9 Y s 3 lw 1820 1105 m21 6 lw 1825 1141 m 9 Y s 1825 1161 m 9 Y s 3 lw 1825 1156 m21 6 lw 1829 1127 m 9 Y s 1829 1147 m 9 Y s 3 lw 1829 1141 m21 6 lw 1834 1122 m 9 Y s 1834 1143 m 9 Y s 3 lw 1834 1137 m21 6 lw 1839 1104 m 9 Y s 1839 1124 m 9
 Y s 3 lw 1839 1119 m21 6 lw 1844 1117 m 9 Y s 1844 1137 m 9 Y s 3 lw 1844 1132 m21 6 lw 1848 1137 m 9 Y s 1848 1157 m 10 Y s 3 lw 1848 1152 m21 6 lw 1853 1123 m 9 Y s 1853 1143 m 10 Y s 3 lw 1853 1138 m21 6 lw 1858 1121 m 10 Y s 1858 1142 m 9 Y s 3
 lw 1858 1136 m21 6 lw 1862 1106 m 10 Y s 1862 1127 m 9 Y s 3 lw 1862 1121 m21 6 lw 1867 1129 m 10 Y s 1867 1150 m 10 Y s 3 lw 1867 1145 m21 6 lw 1872 1117 m 9 Y s 1872 1138 m 9 Y s 3 lw 1872 1132 m21 6 lw 1877 1088 m 9 Y s 1877 1109 m 9 Y s 3 lw
 1877 1103 m21 6 lw 1881 1123 m 10 Y s 1881 1144 m 10 Y s 3 lw 1881 1138 m21 6 lw 1886 1124 m 10 Y s 1886 1146 m 10 Y s 3 lw 1886 1140 m21 6 lw 1891 1093 m 10 Y s 1891 1114 m 10 Y s 3 lw 1891 1109 m21 6 lw 1895 1120 m 10 Y s 1895 1142 m 10 Y s 3 lw
 1895 1136 m21 6 lw 1900 1091 m 9 Y s 1900 1112 m 10 Y s 3 lw 1900 1106 m21 6 lw 1905 1102 m 10 Y s 1905 1123 m 11 Y s 3 lw 1905 1118 m21 6 lw 1909 1123 m 11 Y s 1909 1145 m 10 Y s 3 lw 1909 1139 m21 6 lw 1914 1077 m 10 Y s 1914 1099 m 10 Y s 3 lw
 1914 1093 m21 6 lw 1919 1113 m 10 Y s 1919 1135 m 10 Y s 3 lw 1919 1129 m21 6 lw 1924 1087 m 11 Y s 1924 1109 m 10 Y s 3 lw 1924 1103 m21 6 lw 1928 1110 m 11 Y s 1928 1132 m 10 Y s 3 lw 1928 1126 m21 6 lw 1933 1106 m 11 Y s 1933 1128 m 11 Y s 3 lw
 1933 1122 m21 6 lw 1938 1108 m 11 Y s 1938 1130 m 11 Y s 3 lw 1938 1124 m21 6 lw 1942 1119 m 10 Y s 1942 1141 m 11 Y s 3 lw 1942 1135 m21 6 lw 1947 1111 m 10 Y s 1947 1133 m 11 Y s 3 lw 1947 1127 m21 6 lw 1952 1114 m 11 Y s 1952 1136 m 11 Y s 3 lw
 1952 1131 m21 6 lw 1957 1136 m 11 Y s 1957 1158 m 12 Y s 3 lw 1957 1153 m21 6 lw 1961 1102 m 11 Y s 1961 1124 m 11 Y s 3 lw 1961 1119 m21 6 lw 1966 1133 m 11 Y s 1966 1156 m 11 Y s 3 lw 1966 1150 m21 6 lw 1971 1144 m 12 Y s 1971 1167 m 12 Y s 3 lw
 1971 1162 m21 6 lw 1975 1096 m 12 Y s 1975 1119 m 12 Y s 3 lw 1975 1113 m21 6 lw 1980 1101 m 12 Y s 1980 1124 m 12 Y s 3 lw 1980 1118 m21 6 lw 1985 1107 m 12 Y s 1985 1130 m 12 Y s 3 lw 1985 1125 m21 6 lw 1989 1111 m 12 Y s 1989 1134 m 12 Y s 3 lw
 1989 1128 m21 6 lw 1994 1149 m 12 Y s 1994 1172 m 12 Y s 3 lw 1994 1167 m21 6 lw 1999 1121 m 12 Y s 1999 1145 m 12 Y s 3 lw 1999 1139 m21 6 lw 2004 1119 m 12 Y s 2004 1142 m 12 Y s 3 lw 2004 1137 m21 6 lw 2008 1106 m 12 Y s 2008 1129 m 12 Y s 3 lw
 2008 1123 m21 6 lw 2013 1101 m 12 Y s 2013 1124 m 12 Y s 3 lw 2013 1118 m21 6 lw 2018 1096 m 12 Y s 2018 1120 m 12 Y s 3 lw 2018 1114 m21 6 lw 2022 1094 m 12 Y s 2022 1118 m 12 Y s 3 lw 2022 1112 m21 6 lw 2027 1097 m 12 Y s 2027 1121 m 12 Y s 3 lw
 2027 1115 m21 6 lw 2032 1088 m 13 Y s 2032 1112 m 12 Y s 3 lw 2032 1106 m21 6 lw 2036 1110 m 13 Y s 2036 1134 m 13 Y s 3 lw 2036 1128 m21 6 lw 2041 1103 m 13 Y s 2041 1127 m 13 Y s 3 lw 2041 1121 m21 6 lw 2046 1121 m 13 Y s 2046 1145 m 13 Y s 3 lw
 2046 1140 m21 6 lw 2051 1102 m 13 Y s 2051 1127 m 13 Y s 3 lw 2051 1121 m21 6 lw 2055 1099 m 13 Y s 2055 1123 m 13 Y s 3 lw 2055 1117 m21 6 lw 2060 1117 m 13 Y s 2060 1141 m 14 Y s 3 lw 2060 1136 m21 6 lw 2065 1148 m 14 Y s 2065 1173 m 14 Y s 3 lw
 2065 1167 m21 6 lw 2069 1090 m 14 Y s 2069 1115 m 13 Y s 3 lw 2069 1109 m21 6 lw 2074 1148 m 14 Y s 2074 1173 m 14 Y s 3 lw 2074 1168 m21 6 lw 2079 1112 m 14 Y s 2079 1137 m 14 Y s 3 lw 2079 1132 m21 6 lw 2084 1111 m 13 Y s 2084 1136 m 13 Y s 3 lw
 2084 1130 m21 6 lw 2088 1084 m 14 Y s 2088 1109 m 14 Y s 3 lw 2088 1103 m21 6 lw 2093 1100 m 14 Y s 2093 1125 m 14 Y s 3 lw 2093 1119 m21 6 lw 2098 1084 m 14 Y s 2098 1109 m 14 Y s 3 lw 2098 1104 m21 6 lw 2102 1103 m 15 Y s 2102 1129 m 14 Y s 3 lw
 2102 1123 m21 6 lw 2107 1129 m 14 Y s 2107 1155 m 14 Y s 3 lw 2107 1149 m21 6 lw 2112 1152 m 15 Y s 2112 1178 m 15 Y s 3 lw 2112 1173 m21 6 lw 2116 1127 m 14 Y s 2116 1152 m 15 Y s 3 lw 2116 1147 m21 6 lw 2121 1106 m 14 Y s 2121 1132 m 14 Y s 3 lw
 2121 1126 m21 6 lw 2126 1102 m 14 Y s 2126 1128 m 14 Y s 3 lw 2126 1122 m21 6 lw 2131 1091 m 14 Y s 2131 1117 m 14 Y s 3 lw 2131 1111 m21 6 lw 2135 1068 m 14 Y s 2135 1094 m 14 Y s 3 lw 2135 1088 m21 6 lw 2140 1146 m 15 Y s 2140 1173 m 15 Y s 3 lw
 2140 1167 m21 6 lw 2145 1110 m 15 Y s 2145 1136 m 15 Y s 3 lw 2145 1130 m21 6 lw 2149 1077 m 15 Y s 2149 1103 m 15 Y s 3 lw 2149 1097 m21 6 lw 2154 1083 m 15 Y s 2154 1109 m 15 Y s 3 lw 2154 1104 m21 6 lw 2159 1088 m 16 Y s 2159 1115 m 15 Y s 3 lw
 2159 1109 m21 6 lw 2164 1088 m 15 Y s 2164 1114 m 16 Y s 3 lw 2164 1109 m21 6 lw 2168 1108 m 16 Y s 2168 1135 m 16 Y s 3 lw 2168 1130 m21 6 lw 2173 1102 m 15 Y s 2173 1129 m 15 Y s 3 lw 2173 1123 m21 6 lw 2178 1102 m 16 Y s 2178 1129 m 16 Y s 3 lw
 2178 1124 m21 6 lw 2182 1098 m 16 Y s 2182 1125 m 16 Y s 3 lw 2182 1119 m21 6 lw 2187 1064 m 16 Y s 2187 1091 m 16 Y s 3 lw 2187 1086 m21 6 lw 2192 1074 m 16 Y s 2192 1102 m 16 Y s 3 lw 2192 1096 m21 6 lw 2196 1104 m 16 Y s 2196 1132 m 16 Y s 3 lw
 2196 1126 m21 6 lw 2201 1077 m 16 Y s 2201 1104 m 17 Y s 3 lw 2201 1099 m21 6 lw 2206 1094 m 16 Y s 2206 1121 m 17 Y s 3 lw 2206 1116 m21 6 lw 2211 1108 m 17 Y s 2211 1136 m 17 Y s 3 lw 2211 1130 m21 6 lw 2215 1105 m 17 Y s 2215 1133 m 17 Y s 3 lw
 2215 1128 m21 6 lw 2220 1101 m 17 Y s 2220 1129 m 17 Y s 3 lw 2220 1123 m21 6 lw black 340 223 m 1882 X s
 gsave  2268 2234 0 0 C 1923.86 58.2559 t 0 r /Helvetica findfont 83.8316 sf 0 0 m (Q [GeV]) show NC gr  340 279 m -56 Y s 387 251 m -28 Y s 434 251 m -28 Y s 481 251 m -28 Y s 528 279 m -56 Y s 575 251 m -28 Y s 622 251 m -28 Y s 670 251 m -28 Y s
 717 279 m -56 Y s 764 251 m -28 Y s 811 251 m -28 Y s 858 251 m -28 Y s 905 279 m -56 Y s 952 251 m -28 Y s 999 251 m -28 Y s 1046 251 m -28 Y s 1093 279 m -56 Y s 1140 251 m -28 Y s 1187 251 m -28 Y s 1234 251 m -28 Y s 1281 279 m -56 Y s 1328 251
 m -28 Y s 1375 251 m -28 Y s 1422 251 m -28 Y s 1469 279 m -56 Y s 1517 251 m -28 Y s 1564 251 m -28 Y s 1611 251 m -28 Y s 1658 279 m -56 Y s 1705 251 m -28 Y s 1752 251 m -28 Y s 1799 251 m -28 Y s 1846 279 m -56 Y s 1893 251 m -28 Y s 1940 251 m
 -28 Y s 1987 251 m -28 Y s 2034 279 m -56 Y s 2081 251 m -28 Y s 2128 251 m -28 Y s 2175 251 m -28 Y s 2222 279 m -56 Y s
 gsave  2268 2234 0 0 C 322.539 159.138 t 0 r /Helvetica findfont 62.5185 sf 0 0 m (0) show NC gr 
 gsave  2268 2234 0 0 C 484.518 159.138 t 0 r /Helvetica findfont 62.5185 sf 0 0 m (0.2) show NC gr 
 gsave  2268 2234 0 0 C 673.495 159.138 t 0 r /Helvetica findfont 62.5185 sf 0 0 m (0.4) show NC gr 
 gsave  2268 2234 0 0 C 861.05 159.138 t 0 r /Helvetica findfont 62.5185 sf 0 0 m (0.6) show NC gr 
 gsave  2268 2234 0 0 C 1050.03 159.138 t 0 r /Helvetica findfont 62.5185 sf 0 0 m (0.8) show NC gr 
 gsave  2268 2234 0 0 C 1268.84 159.138 t 0 r /Helvetica findfont 62.5185 sf 0 0 m (1) show NC gr 
 gsave  2268 2234 0 0 C 1426.56 159.138 t 0 r /Helvetica findfont 62.5185 sf 0 0 m (1.2) show NC gr 
 gsave  2268 2234 0 0 C 1614.11 159.138 t 0 r /Helvetica findfont 62.5185 sf 0 0 m (1.4) show NC gr 
 gsave  2268 2234 0 0 C 1803.09 159.138 t 0 r /Helvetica findfont 62.5185 sf 0 0 m (1.6) show NC gr 
 gsave  2268 2234 0 0 C 1990.65 159.138 t 0 r /Helvetica findfont 62.5185 sf 0 0 m (1.8) show NC gr 
 gsave  2268 2234 0 0 C 2205.2 159.138 t 0 r /Helvetica findfont 62.5185 sf 0 0 m (2) show NC gr  340 223 m 1966 Y s
 gsave  2268 2234 0 0 C 152.034 1953.7 t 90 r /Helvetica findfont 83.8316 sf 0 0 m (DR\(Q\)) show NC gr  400 402 m -60 X s 370 491 m -30 X s 370 581 m -30 X s 370 670 m -30 X s 400 759 m -60 X s 370 849 m -30 X s 370 938 m -30 X s 370 1027 m -30 X s
 400 1117 m -60 X s 370 1206 m -30 X s 370 1295 m -30 X s 370 1385 m -30 X s 400 1474 m -60 X s 370 1564 m -30 X s 370 1653 m -30 X s 370 1742 m -30 X s 400 1832 m -60 X s 370 1921 m -30 X s 370 2010 m -30 X s 370 2100 m -30 X s 400 2189 m -60 X s
 400 402 m -60 X s 370 313 m -30 X s 370 223 m -30 X s
 gsave  2268 2234 0 0 C 242.97 379.374 t 0 r /Helvetica findfont 62.5185 sf 0 0 m (0.6) show NC gr 
 gsave  2268 2234 0 0 C 242.97 737.434 t 0 r /Helvetica findfont 62.5185 sf 0 0 m (0.8) show NC gr 
 gsave  2268 2234 0 0 C 305.488 1092.65 t 0 r /Helvetica findfont 62.5185 sf 0 0 m (1) show NC gr 
 gsave  2268 2234 0 0 C 242.97 1450.71 t 0 r /Helvetica findfont 62.5185 sf 0 0 m (1.2) show NC gr 
 gsave  2268 2234 0 0 C 242.97 1808.77 t 0 r /Helvetica findfont 62.5185 sf 0 0 m (1.4) show NC gr 
 gsave  2268 2234 0 0 C 242.97 2166.83 t 0 r /Helvetica findfont 62.5185 sf 0 0 m (1.6) show NC gr 
 gsave  2268 2234 0 0 C 906.518 670.653 t 0 r /Helvetica-Bold findfont 72.4646 sf 0 0 m (DR PIONS) show NC gr 
 gsave  2268 2234 0 0 C 906.518 558.404 t 0 r /Helvetica-Bold findfont 72.4646 sf 0 0 m (ref. sample: EVENT MIX) show NC gr 
 gsave  2268 2234 0 0 C 906.518 447.576 t 0 r /Helvetica-Bold findfont 72.4646 sf 0 0 m (VELO tracks multiplicity: 21 \255 60) show NC gr 
 gr  gr showpage
end
%%EOF
