%!PS-Adobe-2.0 EPSF-2.0
%%BoundingBox:  0 0 567 558
%%Title: ./scalar1_results_DR_corr_DR_pion_0c65_h3015_3_h3401_3_compare.eps: scalar1_results_DR_corr_DR_pion_0c65_h3015_3_h3401_3_compare
%%Creator: ROOT Version 5.34/25
%%CreationDate: Wed Dec 21 16:56:54 2016
%%EndComments
%%BeginProlog
80 dict begin
/s {stroke} def /l {lineto} def /m {moveto} def /t {translate} def
/r {rotate} def /rl {roll}  def /R {repeat} def
/d {rlineto} def /rm {rmoveto} def /gr {grestore} def /f {eofill} def
/c {setrgbcolor} def /black {0 setgray} def /sd {setdash} def
/cl {closepath} def /sf {scalefont setfont} def /lw {setlinewidth} def
/box {m dup 0 exch d exch 0 d 0 exch neg d cl} def
/NC{systemdict begin initclip end}def/C{NC box clip newpath}def
/bl {box s} def /bf {box f} def /Y { 0 exch d} def /X { 0 d} def 
/K {{pop pop 0 moveto} exch kshow} bind def
/ita {/ang 15 def gsave [1 0 ang dup sin exch cos div 1 0 0] concat} def 
/mp {newpath /y exch def /x exch def} def
/side {[w .77 mul w .23 mul] .385 w mul sd w 0 l currentpoint t -144 r} def
/mr {mp x y w2 0 360 arc} def /m24 {mr s} def /m20 {mr f} def
/mb {mp x y w2 add m w2 neg 0 d 0 w neg d w 0 d 0 w d cl} def
/mt {mp x y w2 add m w2 neg w neg d w 0 d cl} def
/m21 {mb f} def /m25 {mb s} def /m22 {mt f} def /m26{mt s} def
/m23 {mp x y w2 sub m w2 w d w neg 0 d cl f} def
/m27 {mp x y w2 add m w3 neg w2 neg d w3 w2 neg d w3 w2 d cl s} def
/m28 {mp x w2 sub y w2 sub w3 add m w3 0 d  0 w3 neg d w3 0 d 0 w3 d w3 0 d  0 w3 d w3 neg 0 d 0 w3 d w3 neg 0 d 0 w3 neg d w3 neg 0 d cl s } def
/m29 {mp gsave x w2 sub y w2 add w3 sub m currentpoint t 4 {side} repeat cl fill gr} def
/m30 {mp gsave x w2 sub y w2 add w3 sub m currentpoint t 4 {side} repeat cl s gr} def
/m31 {mp x y w2 sub m 0 w d x w2 sub y m w 0 d x w2 sub y w2 add m w w neg d x w2 sub y w2 sub m w w d s} def
/m32 {mp x y w2 sub m w2 w d w neg 0 d cl s} def
/m33 {mp x y w2 add m w3 neg w2 neg d w3 w2 neg d w3 w2 d cl f} def
/m34 {mp x w2 sub y w2 sub w3 add m w3 0 d  0 w3 neg d w3 0 d 0 w3 d w3 0 d  0 w3 d w3 neg 0 d 0 w3 d w3 neg 0 d 0 w3 neg d w3 neg 0 d cl f } def
/m2 {mp x y w2 sub m 0 w d x w2 sub y m w 0 d s} def
/m5 {mp x w2 sub y w2 sub m w w d x w2 sub y w2 add m w w neg d s} def
/reEncode {exch findfont dup length dict begin {1 index /FID eq  {pop pop} {def} ifelse } forall /Encoding exch def currentdict end dup /FontName get exch definefont pop } def [/Times-Bold /Times-Italic /Times-BoldItalic /Helvetica /Helvetica-Oblique
 /Helvetica-Bold /Helvetica-BoldOblique /Courier /Courier-Oblique /Courier-Bold /Courier-BoldOblique /Times-Roman /AvantGarde-Book /AvantGarde-BookOblique /AvantGarde-Demi /AvantGarde-DemiOblique /Bookman-Demi /Bookman-DemiItalic /Bookman-Light
 /Bookman-LightItalic /Helvetica-Narrow /Helvetica-Narrow-Bold /Helvetica-Narrow-BoldOblique /Helvetica-Narrow-Oblique /NewCenturySchlbk-Roman /NewCenturySchlbk-Bold /NewCenturySchlbk-BoldItalic /NewCenturySchlbk-Italic /Palatino-Bold
 /Palatino-BoldItalic /Palatino-Italic /Palatino-Roman ] {ISOLatin1Encoding reEncode } forall
%%EndProlog
%%BeginSetup
%%EndSetup
newpath  gsave  .25 .25 scale  gsave  0 0 t black[  ] 0 sd 6 lw 1 1 1 c 2268 2234 0 0 bf black 3 lw 1 1 1 c 1882 1966 340 223 bf black 1882 1966 340 223 bl 1 1 1 c 1882 1966 340 223 bf black 1882 1966 340 223 bl 0 0 1 c 6 lw 1 1 1 c 0 0 1 c 406 1619
 m 7 Y s 406 1643 m 6 Y s 3 lw /w 19 def /w2 {w 2 div} def /w3 {w 3 div} def 406 1634 m21 6 lw 425 1511 m 4 Y s 425 1532 m 3 Y s 3 lw 425 1523 m21 6 lw 444 1421 m 1 Y s 444 1439 m 1 Y s 3 lw 444 1430 m21 6 lw 3 lw 463 1359 m21 6 lw 3 lw 481 1306 m21
 6 lw 3 lw 500 1247 m21 6 lw 3 lw 519 1232 m21 6 lw 3 lw 538 1212 m21 6 lw 3 lw 557 1186 m21 6 lw 3 lw 575 1177 m21 6 lw 3 lw 594 1153 m21 6 lw 3 lw 613 1157 m21 6 lw 3 lw 632 1138 m21 6 lw 3 lw 651 1137 m21 6 lw 3 lw 670 1121 m21 6 lw 3 lw 688 1122
 m21 6 lw 3 lw 707 1105 m21 6 lw 3 lw 726 1104 m21 6 lw 3 lw 745 1110 m21 6 lw 3 lw 764 1108 m21 6 lw 3 lw 782 1098 m21 6 lw 3 lw 801 1096 m21 6 lw 3 lw 820 1100 m21 6 lw 3 lw 839 1094 m21 6 lw 3 lw 858 1090 m21 6 lw 3 lw 877 1079 m21 6 lw 3 lw 895
 1087 m21 6 lw 3 lw 914 1079 m21 6 lw 3 lw 933 1087 m21 6 lw 3 lw 952 1076 m21 6 lw 3 lw 971 1083 m21 6 lw 3 lw 990 1081 m21 6 lw 3 lw 1008 1079 m21 6 lw 3 lw 1027 1084 m21 6 lw 3 lw 1046 1069 m21 6 lw 3 lw 1065 1079 m21 6 lw 3 lw 1084 1084 m21 6 lw
 3 lw 1102 1086 m21 6 lw 3 lw 1121 1093 m21 6 lw 3 lw 1140 1095 m21 6 lw 3 lw 1159 1091 m21 6 lw 3 lw 1178 1090 m21 6 lw 3 lw 1197 1094 m21 6 lw 3 lw 1215 1086 m21 6 lw 3 lw 1234 1085 m21 6 lw 3 lw 1253 1078 m21 6 lw 1272 1069 m s 1272 1086 m 1 Y s 3
 lw 1272 1078 m21 6 lw 1291 1062 m 1 Y s 1291 1080 m 1 Y s 3 lw 1291 1072 m21 6 lw 1309 1097 m 1 Y s 1309 1115 m 2 Y s 3 lw 1309 1107 m21 6 lw 1328 1072 m 2 Y s 1328 1091 m 2 Y s 3 lw 1328 1082 m21 6 lw 1347 1090 m 3 Y s 1347 1110 m 3 Y s 3 lw 1347
 1101 m21 6 lw 1366 1076 m 4 Y s 1366 1097 m 4 Y s 3 lw 1366 1088 m21 6 lw 1385 1089 m 4 Y s 1385 1110 m 5 Y s 3 lw 1385 1102 m21 6 lw 1404 1067 m 5 Y s 1404 1090 m 5 Y s 3 lw 1404 1081 m21 6 lw 1422 1065 m 6 Y s 1422 1088 m 6 Y s 3 lw 1422 1080 m21
 6 lw 1441 1076 m 8 Y s 1441 1101 m 7 Y s 3 lw 1441 1092 m21 6 lw 1460 1058 m 8 Y s 1460 1083 m 8 Y s 3 lw 1460 1075 m21 6 lw 1479 1083 m 10 Y s 1479 1110 m 9 Y s 3 lw 1479 1101 m21 6 lw 1498 1050 m 11 Y s 1498 1078 m 10 Y s 3 lw 1498 1069 m21 6 lw
 1517 1060 m 11 Y s 1517 1088 m 12 Y s 3 lw 1517 1080 m21 6 lw 1535 1082 m 13 Y s 1535 1112 m 13 Y s 3 lw 1535 1104 m21 6 lw 1554 1087 m 15 Y s 1554 1119 m 15 Y s 3 lw 1554 1111 m21 6 lw 1573 1071 m 17 Y s 1573 1105 m 16 Y s 3 lw 1573 1096 m21 6 lw
 1592 1088 m 18 Y s 1592 1123 m 18 Y s 3 lw 1592 1114 m21 6 lw 1611 1080 m 20 Y s 1611 1117 m 20 Y s 3 lw 1611 1109 m21 6 lw 1629 1069 m 22 Y s 1629 1108 m 22 Y s 3 lw 1629 1099 m21 6 lw 1648 1009 m 24 Y s 1648 1050 m 23 Y s 3 lw 1648 1041 m21 6 lw
 1667 1006 m 25 Y s 1667 1048 m 26 Y s 3 lw 1667 1040 m21 6 lw 1686 1030 m 29 Y s 1686 1076 m 29 Y s 3 lw 1686 1067 m21 6 lw 1705 990 m 31 Y s 1705 1038 m 31 Y s 3 lw 1705 1029 m21 6 lw 1724 1107 m 37 Y s 1724 1161 m 37 Y s 3 lw 1724 1153 m21 6 lw
 1742 1032 m 39 Y s 1742 1088 m 38 Y s 3 lw 1742 1079 m21 6 lw 1761 1044 m 42 Y s 1761 1103 m 43 Y s 3 lw 1761 1095 m21 6 lw 1780 1031 m 47 Y s 1780 1095 m 48 Y s 3 lw 1780 1087 m21 6 lw 1799 1091 m 53 Y s 1799 1161 m 54 Y s 3 lw 1799 1153 m21 6 lw
 1818 1043 m 58 Y s 1818 1118 m 58 Y s 3 lw 1818 1110 m21 6 lw 1837 1098 m 66 Y s 1837 1181 m 67 Y s 3 lw 1837 1173 m21 6 lw 1855 1068 m 73 Y s 1855 1158 m 73 Y s 3 lw 1855 1149 m21 6 lw 1874 1019 m 80 Y s 1874 1116 m 79 Y s 3 lw 1874 1107 m21 6 lw
 1893 1053 m 87 Y s 1893 1158 m 87 Y s 3 lw 1893 1149 m21 6 lw 1912 1014 m 98 Y s 1912 1129 m 97 Y s 3 lw 1912 1120 m21 6 lw 1931 998 m 110 Y s 1931 1125 m 111 Y s 3 lw 1931 1117 m21 6 lw 1949 1027 m 128 Y s 1949 1172 m 128 Y s 3 lw 1949 1163 m21 6
 lw 1968 1003 m 140 Y s 1968 1160 m 140 Y s 3 lw 1968 1152 m21 6 lw 1987 869 m 146 Y s 1987 1032 m 146 Y s 3 lw 1987 1023 m21 6 lw 2006 1233 m 207 Y s 2006 1457 m 208 Y s 3 lw 2006 1449 m21 6 lw 2025 712 m 177 Y s 2025 906 m 178 Y s 3 lw 2025 898 m21
 6 lw 2044 1098 m 279 Y s 2044 1394 m 280 Y s 3 lw 2044 1386 m21 6 lw 2062 966 m 296 Y s 2062 1279 m 296 Y s 3 lw 2062 1270 m21 6 lw 2081 1016 m 361 Y s 2081 1394 m 362 Y s 3 lw 2081 1386 m21 6 lw 2100 755 m 370 Y s 2100 1142 m 370 Y s 3 lw 2100 1133
 m21 6 lw 2119 531 m 423 Y s 2119 971 m 424 Y s 3 lw 2119 963 m21 6 lw 2138 789 m 596 Y s 2138 1402 m 596 Y s 3 lw 2138 1394 m21 6 lw 2156 308 m 721 Y s 2156 1046 m 721 Y s 3 lw 2156 1038 m21 6 lw 2194 223 m 1121 Y s 2194 1361 m 828 Y s 3 lw 2194
 1352 m21 6 lw black 340 223 m 1882 X s
 gsave  2268 2234 0 0 C 1923.86 58.2559 t 0 r /Helvetica findfont 83.8316 sf 0 0 m (Q [GeV]) show NC gr  340 279 m -56 Y s 387 251 m -28 Y s 434 251 m -28 Y s 481 251 m -28 Y s 528 279 m -56 Y s 575 251 m -28 Y s 622 251 m -28 Y s 670 251 m -28 Y s
 717 279 m -56 Y s 764 251 m -28 Y s 811 251 m -28 Y s 858 251 m -28 Y s 905 279 m -56 Y s 952 251 m -28 Y s 999 251 m -28 Y s 1046 251 m -28 Y s 1093 279 m -56 Y s 1140 251 m -28 Y s 1187 251 m -28 Y s 1234 251 m -28 Y s 1281 279 m -56 Y s 1328 251
 m -28 Y s 1375 251 m -28 Y s 1422 251 m -28 Y s 1469 279 m -56 Y s 1517 251 m -28 Y s 1564 251 m -28 Y s 1611 251 m -28 Y s 1658 279 m -56 Y s 1705 251 m -28 Y s 1752 251 m -28 Y s 1799 251 m -28 Y s 1846 279 m -56 Y s 1893 251 m -28 Y s 1940 251 m
 -28 Y s 1987 251 m -28 Y s 2034 279 m -56 Y s 2081 251 m -28 Y s 2128 251 m -28 Y s 2175 251 m -28 Y s 2222 279 m -56 Y s
 gsave  2268 2234 0 0 C 322.539 159.138 t 0 r /Helvetica findfont 62.5185 sf 0 0 m (0) show NC gr 
 gsave  2268 2234 0 0 C 484.518 159.138 t 0 r /Helvetica findfont 62.5185 sf 0 0 m (0.2) show NC gr 
 gsave  2268 2234 0 0 C 673.495 159.138 t 0 r /Helvetica findfont 62.5185 sf 0 0 m (0.4) show NC gr 
 gsave  2268 2234 0 0 C 861.05 159.138 t 0 r /Helvetica findfont 62.5185 sf 0 0 m (0.6) show NC gr 
 gsave  2268 2234 0 0 C 1050.03 159.138 t 0 r /Helvetica findfont 62.5185 sf 0 0 m (0.8) show NC gr 
 gsave  2268 2234 0 0 C 1268.84 159.138 t 0 r /Helvetica findfont 62.5185 sf 0 0 m (1) show NC gr 
 gsave  2268 2234 0 0 C 1426.56 159.138 t 0 r /Helvetica findfont 62.5185 sf 0 0 m (1.2) show NC gr 
 gsave  2268 2234 0 0 C 1614.11 159.138 t 0 r /Helvetica findfont 62.5185 sf 0 0 m (1.4) show NC gr 
 gsave  2268 2234 0 0 C 1803.09 159.138 t 0 r /Helvetica findfont 62.5185 sf 0 0 m (1.6) show NC gr 
 gsave  2268 2234 0 0 C 1990.65 159.138 t 0 r /Helvetica findfont 62.5185 sf 0 0 m (1.8) show NC gr 
 gsave  2268 2234 0 0 C 2205.2 159.138 t 0 r /Helvetica findfont 62.5185 sf 0 0 m (2) show NC gr  340 223 m 1966 Y s
 gsave  2268 2234 0 0 C 152.034 1953.7 t 90 r /Helvetica findfont 83.8316 sf 0 0 m (DR\(Q\)) show NC gr  400 402 m -60 X s 370 491 m -30 X s 370 581 m -30 X s 370 670 m -30 X s 400 759 m -60 X s 370 849 m -30 X s 370 938 m -30 X s 370 1027 m -30 X s
 400 1117 m -60 X s 370 1206 m -30 X s 370 1295 m -30 X s 370 1385 m -30 X s 400 1474 m -60 X s 370 1564 m -30 X s 370 1653 m -30 X s 370 1742 m -30 X s 400 1832 m -60 X s 370 1921 m -30 X s 370 2010 m -30 X s 370 2100 m -30 X s 400 2189 m -60 X s
 400 402 m -60 X s 370 313 m -30 X s 370 223 m -30 X s
 gsave  2268 2234 0 0 C 242.97 379.374 t 0 r /Helvetica findfont 62.5185 sf 0 0 m (0.6) show NC gr 
 gsave  2268 2234 0 0 C 242.97 737.434 t 0 r /Helvetica findfont 62.5185 sf 0 0 m (0.8) show NC gr 
 gsave  2268 2234 0 0 C 305.488 1092.65 t 0 r /Helvetica findfont 62.5185 sf 0 0 m (1) show NC gr 
 gsave  2268 2234 0 0 C 242.97 1450.71 t 0 r /Helvetica findfont 62.5185 sf 0 0 m (1.2) show NC gr 
 gsave  2268 2234 0 0 C 242.97 1808.77 t 0 r /Helvetica findfont 62.5185 sf 0 0 m (1.4) show NC gr 
 gsave  2268 2234 0 0 C 242.97 2166.83 t 0 r /Helvetica findfont 62.5185 sf 0 0 m (1.6) show NC gr  1 0 0 c 1 1 1 c 1 0 0 c 406 1677 m 15 Y s 406 1709 m 16 Y s 3 lw 406 1701 m21 6 lw 425 1544 m 9 Y s 425 1570 m 9 Y s 3 lw 425 1562 m21 6 lw 444 1441 m
 5 Y s 444 1463 m 6 Y s 3 lw 444 1455 m21 6 lw 463 1398 m 3 Y s 463 1418 m 3 Y s 3 lw 463 1409 m21 6 lw 481 1320 m 1 Y s 481 1338 m 2 Y s 3 lw 481 1330 m21 6 lw 500 1296 m 1 Y s 500 1314 m s 3 lw 500 1305 m21 6 lw 3 lw 519 1266 m21 6 lw 3 lw 538 1236
 m21 6 lw 3 lw 557 1207 m21 6 lw 3 lw 575 1187 m21 6 lw 3 lw 594 1172 m21 6 lw 3 lw 613 1168 m21 6 lw 3 lw 632 1148 m21 6 lw 3 lw 651 1149 m21 6 lw 3 lw 670 1130 m21 6 lw 3 lw 688 1130 m21 6 lw 3 lw 707 1124 m21 6 lw 3 lw 726 1116 m21 6 lw 3 lw 745
 1118 m21 6 lw 3 lw 764 1107 m21 6 lw 3 lw 782 1100 m21 6 lw 3 lw 801 1109 m21 6 lw 3 lw 820 1096 m21 6 lw 3 lw 839 1098 m21 6 lw 3 lw 858 1096 m21 6 lw 3 lw 877 1089 m21 6 lw 3 lw 895 1096 m21 6 lw 3 lw 914 1092 m21 6 lw 3 lw 933 1084 m21 6 lw 3 lw
 952 1091 m21 6 lw 3 lw 971 1091 m21 6 lw 3 lw 990 1085 m21 6 lw 3 lw 1008 1090 m21 6 lw 3 lw 1027 1091 m21 6 lw 3 lw 1046 1090 m21 6 lw 3 lw 1065 1090 m21 6 lw 3 lw 1084 1091 m21 6 lw 3 lw 1102 1083 m21 6 lw 3 lw 1121 1088 m21 6 lw 3 lw 1140 1098
 m21 6 lw 3 lw 1159 1096 m21 6 lw 3 lw 1178 1097 m21 6 lw 3 lw 1197 1098 m21 6 lw 3 lw 1215 1095 m21 6 lw 3 lw 1234 1105 m21 6 lw 3 lw 1253 1103 m21 6 lw 3 lw 1272 1105 m21 6 lw 3 lw 1291 1103 m21 6 lw 3 lw 1309 1108 m21 6 lw 3 lw 1328 1113 m21 6 lw
 3 lw 1347 1112 m21 6 lw 3 lw 1366 1115 m21 6 lw 3 lw 1385 1109 m21 6 lw 3 lw 1404 1116 m21 6 lw 3 lw 1422 1113 m21 6 lw 3 lw 1441 1115 m21 6 lw 3 lw 1460 1120 m21 6 lw 3 lw 1479 1120 m21 6 lw 3 lw 1498 1124 m21 6 lw 3 lw 1517 1128 m21 6 lw 3 lw 1535
 1127 m21 6 lw 3 lw 1554 1124 m21 6 lw 3 lw 1573 1120 m21 6 lw 3 lw 1592 1129 m21 6 lw 3 lw 1611 1126 m21 6 lw 3 lw 1629 1129 m21 6 lw 3 lw 1648 1126 m21 6 lw 3 lw 1667 1128 m21 6 lw 3 lw 1686 1126 m21 6 lw 3 lw 1705 1130 m21 6 lw 3 lw 1724 1129 m21
 6 lw 3 lw 1742 1126 m21 6 lw 3 lw 1761 1127 m21 6 lw 3 lw 1780 1127 m21 6 lw 3 lw 1799 1122 m21 6 lw 3 lw 1818 1128 m21 6 lw 3 lw 1837 1129 m21 6 lw 3 lw 1855 1134 m21 6 lw 3 lw 1874 1127 m21 6 lw 3 lw 1893 1126 m21 6 lw 3 lw 1912 1130 m21 6 lw 3 lw
 1931 1121 m21 6 lw 3 lw 1949 1129 m21 6 lw 3 lw 1968 1130 m21 6 lw 3 lw 1987 1136 m21 6 lw 3 lw 2006 1129 m21 6 lw 3 lw 2025 1120 m21 6 lw 3 lw 2044 1135 m21 6 lw 3 lw 2062 1129 m21 6 lw 3 lw 2081 1130 m21 6 lw 3 lw 2100 1131 m21 6 lw 3 lw 2119 1142
 m21 6 lw 3 lw 2138 1137 m21 6 lw 3 lw 2156 1116 m21 6 lw 3 lw 2175 1124 m21 6 lw 3 lw 2194 1113 m21 6 lw 3 lw 2213 1134 m21 6 lw black 1 1 1 c 680 447 1474 1675 bf black 1474 1675 m 680 X s 2154 1675 m 447 Y s 2154 2122 m -680 X s 1474 2122 m -447 Y
 s
 gsave  2268 2234 0 0 C 1490.5 2027.59 t 0 r /Helvetica findfont 53.9932 sf 0 0 m (kT \255 scalar sum) show NC gr 
 gsave  2268 2234 0 0 C 1643.95 1879.82 t 0 r /Helvetica findfont 53.9932 sf 0 0 m (2\2554) show NC gr  0 0 1 c 1559 1854 m 89 Y s 3 lw 1559 1899 m21 6 lw black
 gsave  2268 2234 0 0 C 1643.95 1730.63 t 0 r /Helvetica findfont 53.9932 sf 0 0 m (4\2557) show NC gr  1 0 0 c 1559 1705 m 89 Y s 3 lw 1559 1750 m21 6 lw black
 gsave  2268 2234 0 0 C 906.518 670.653 t 0 r /Helvetica-Bold findfont 72.4646 sf 0 0 m (DR PIONS) show NC gr 
 gsave  2268 2234 0 0 C 906.518 558.404 t 0 r /Helvetica-Bold findfont 72.4646 sf 0 0 m (ref. sample: EVENT MIX) show NC gr 
 gsave  2268 2234 0 0 C 906.518 447.576 t 0 r /Helvetica-Bold findfont 72.4646 sf 0 0 m (VELO tracks multiplicity: 21 \255 60) show NC gr 
 gr  gr showpage
end
%%EOF
