%!PS-Adobe-2.0 EPSF-2.0
%%BoundingBox:  0 0 567 558
%%Title: ./DR_pion_0c65_h3001_1_h3401_1.eps: DR_pion_0c65_h3001_1_h3401_1
%%Creator: ROOT Version 6.06/02
%%CreationDate: Wed Dec  7 17:35:32 2016
%%DocumentNeededResources: ProcSet (FontSetInit)
%%EndComments
%%BeginProlog
80 dict begin
/s {stroke} def /l {lineto} def /m {moveto} def /t {translate} def
/r {rotate} def /rl {roll}  def /R {repeat} def
/d {rlineto} def /rm {rmoveto} def /gr {grestore} def /f {eofill} def
/c {setrgbcolor} def /black {0 setgray} def /sd {setdash} def
/cl {closepath} def /sf {scalefont setfont} def /lw {setlinewidth} def
/box {m dup 0 exch d exch 0 d 0 exch neg d cl} def
/NC{systemdict begin initclip end}def/C{NC box clip newpath}def
/bl {box s} def /bf {gsave box gsave f grestore 1 lw [] 0 sd s grestore} def /Y { 0 exch d} def /X { 0 d} def 
/K {{pop pop 0 moveto} exch kshow} bind def
/ita {/ang 15 def gsave [1 0 ang dup sin exch cos div 1 0 0] concat} def 
/mp {newpath /y exch def /x exch def} def
/side {[w .77 mul w .23 mul] .385 w mul sd w 0 l currentpoint t -144 r} def
/mr {mp x y w2 0 360 arc} def /m24 {mr s} def /m20 {mr f} def
/mb {mp x y w2 add m w2 neg 0 d 0 w neg d w 0 d 0 w d cl} def
/mt {mp x y w2 add m w2 neg w neg d w 0 d cl} def
/m21 {mb f} def /m25 {mb s} def /m22 {mt f} def /m26{mt s} def
/m23 {mp x y w2 sub m w2 w d w neg 0 d cl f} def
/m27 {mp x y w2 add m w3 neg w2 neg d w3 w2 neg d w3 w2 d cl s} def
/m28 {mp x w2 sub y w2 sub w3 add m w3 0 d  0 w3 neg d w3 0 d 0 w3 d w3 0 d  0 w3 d w3 neg 0 d 0 w3 d w3 neg 0 d 0 w3 neg d w3 neg 0 d cl s } def
/m29 {mp gsave x w2 sub y w2 add w3 sub m currentpoint t 4 {side} repeat cl fill gr} def
/m30 {mp gsave x w2 sub y w2 add w3 sub m currentpoint t 4 {side} repeat cl s gr} def
/m31 {mp x y w2 sub m 0 w d x w2 sub y m w 0 d x w2 sub y w2 add m w w neg d x w2 sub y w2 sub m w w d s} def
/m32 {mp x y w2 sub m w2 w d w neg 0 d cl s} def
/m33 {mp x y w2 add m w3 neg w2 neg d w3 w2 neg d w3 w2 d cl f} def
/m34 {mp x w2 sub y w2 sub w3 add m w3 0 d  0 w3 neg d w3 0 d 0 w3 d w3 0 d  0 w3 d w3 neg 0 d 0 w3 d w3 neg 0 d 0 w3 neg d w3 neg 0 d cl f } def
/m2 {mp x y w2 sub m 0 w d x w2 sub y m w 0 d s} def
/m5 {mp x w2 sub y w2 sub m w w d x w2 sub y w2 add m w w neg d s} def
%%IncludeResource: ProcSet (FontSetInit)
%%IncludeResource: font Times-Roman
%%IncludeResource: font Times-Italic
%%IncludeResource: font Times-Bold
%%IncludeResource: font Times-BoldItalic
%%IncludeResource: font Helvetica
%%IncludeResource: font Helvetica-Oblique
%%IncludeResource: font Helvetica-Bold
%%IncludeResource: font Helvetica-BoldOblique
%%IncludeResource: font Courier
%%IncludeResource: font Courier-Oblique
%%IncludeResource: font Courier-Bold
%%IncludeResource: font Courier-BoldOblique
%%IncludeResource: font Symbol
%%IncludeResource: font ZapfDingbats
/reEncode {exch findfont dup length dict begin {1 index /FID eq  {pop pop} {def} ifelse } forall /Encoding exch def currentdict end dup /FontName get exch definefont pop } def [/Times-Bold /Times-Italic /Times-BoldItalic /Helvetica /Helvetica-Oblique
 /Helvetica-Bold /Helvetica-BoldOblique /Courier /Courier-Oblique /Courier-Bold /Courier-BoldOblique /Times-Roman /AvantGarde-Book /AvantGarde-BookOblique /AvantGarde-Demi /AvantGarde-DemiOblique /Bookman-Demi /Bookman-DemiItalic /Bookman-Light
 /Bookman-LightItalic /Helvetica-Narrow /Helvetica-Narrow-Bold /Helvetica-Narrow-BoldOblique /Helvetica-Narrow-Oblique /NewCenturySchlbk-Roman /NewCenturySchlbk-Bold /NewCenturySchlbk-BoldItalic /NewCenturySchlbk-Italic /Palatino-Bold
 /Palatino-BoldItalic /Palatino-Italic /Palatino-Roman ] {ISOLatin1Encoding reEncode } forall
%%EndProlog
%%BeginSetup
%%EndSetup
newpath  gsave  .25 .25 scale  gsave  0 0 t black[  ] 0 sd 6 lw 1 1 1 c 2268 2234 0 0 bf black 3 lw 1 1 1 c 1882 1966 340 223 bf black 1882 1966 340 223 bl 1 1 1 c 1882 1966 340 223 bf black 1882 1966 340 223 bl 0 0 1 c 6 lw 1 1 1 c 0 0 1 c 390 1836
 m 95 Y s 390 1942 m 95 Y s 3 lw /w 14 def /w2 {w 2 div} def /w3 {w 3 div} def 390 1937 m21 6 lw 394 1800 m 84 Y s 394 1895 m 84 Y s 3 lw 394 1889 m21 6 lw 399 1803 m 78 Y s 399 1892 m 78 Y s 3 lw 399 1886 m21 6 lw 404 1713 m 69 Y s 404 1793 m 69 Y s
 3 lw 404 1787 m21 6 lw 408 1747 m 65 Y s 408 1823 m 65 Y s 3 lw 408 1817 m21 6 lw 413 1742 m 60 Y s 413 1813 m 61 Y s 3 lw 413 1808 m21 6 lw 418 1707 m 55 Y s 418 1774 m 55 Y s 3 lw 418 1768 m21 6 lw 423 1609 m 50 Y s 423 1670 m 50 Y s 3 lw 423 1664
 m21 6 lw 427 1705 m 49 Y s 427 1765 m 49 Y s 3 lw 427 1759 m21 6 lw 432 1610 m 45 Y s 432 1666 m 45 Y s 3 lw 432 1661 m21 6 lw 437 1614 m 42 Y s 437 1667 m 43 Y s 3 lw 437 1662 m21 6 lw 441 1591 m 40 Y s 441 1642 m 40 Y s 3 lw 441 1636 m21 6 lw 446
 1587 m 38 Y s 446 1636 m 38 Y s 3 lw 446 1630 m21 6 lw 451 1593 m 37 Y s 451 1641 m 36 Y s 3 lw 451 1635 m21 6 lw 455 1556 m 35 Y s 455 1602 m 35 Y s 3 lw 455 1596 m21 6 lw 460 1485 m 31 Y s 460 1528 m 31 Y s 3 lw 460 1522 m21 6 lw 465 1488 m 31 Y s
 465 1530 m 31 Y s 3 lw 465 1525 m21 6 lw 470 1533 m 30 Y s 470 1575 m 30 Y s 3 lw 470 1569 m21 6 lw 474 1480 m 28 Y s 474 1519 m 29 Y s 3 lw 474 1514 m21 6 lw 479 1445 m 27 Y s 479 1483 m 27 Y s 3 lw 479 1477 m21 6 lw 484 1451 m 26 Y s 484 1488 m 26
 Y s 3 lw 484 1483 m21 6 lw 488 1391 m 25 Y s 488 1427 m 25 Y s 3 lw 488 1422 m21 6 lw 493 1442 m 25 Y s 493 1478 m 25 Y s 3 lw 493 1473 m21 6 lw 498 1405 m 23 Y s 498 1440 m 23 Y s 3 lw 498 1434 m21 6 lw 502 1391 m 23 Y s 502 1425 m 23 Y s 3 lw 502
 1419 m21 6 lw 507 1390 m 22 Y s 507 1423 m 22 Y s 3 lw 507 1418 m21 6 lw 512 1378 m 21 Y s 512 1411 m 21 Y s 3 lw 512 1405 m21 6 lw 517 1352 m 20 Y s 517 1384 m 20 Y s 3 lw 517 1378 m21 6 lw 521 1373 m 20 Y s 521 1404 m 20 Y s 3 lw 521 1398 m21 6 lw
 526 1344 m 19 Y s 526 1375 m 19 Y s 3 lw 526 1369 m21 6 lw 531 1278 m 18 Y s 531 1307 m 18 Y s 3 lw 531 1301 m21 6 lw 535 1309 m 18 Y s 535 1339 m 18 Y s 3 lw 535 1333 m21 6 lw 540 1318 m 18 Y s 540 1347 m 18 Y s 3 lw 540 1342 m21 6 lw 545 1321 m 17
 Y s 545 1350 m 17 Y s 3 lw 545 1344 m21 6 lw 550 1313 m 17 Y s 550 1342 m 17 Y s 3 lw 550 1336 m21 6 lw 554 1246 m 16 Y s 554 1274 m 16 Y s 3 lw 554 1268 m21 6 lw 559 1306 m 17 Y s 559 1334 m 17 Y s 3 lw 559 1329 m21 6 lw 564 1250 m 15 Y s 564 1277
 m 15 Y s 3 lw 564 1271 m21 6 lw 568 1250 m 15 Y s 568 1277 m 15 Y s 3 lw 568 1271 m21 6 lw 573 1317 m 16 Y s 573 1344 m 16 Y s 3 lw 573 1338 m21 6 lw 578 1271 m 15 Y s 578 1297 m 15 Y s 3 lw 578 1292 m21 6 lw 582 1230 m 14 Y s 582 1255 m 15 Y s 3 lw
 582 1250 m21 6 lw 587 1210 m 14 Y s 587 1235 m 14 Y s 3 lw 587 1230 m21 6 lw 592 1225 m 14 Y s 592 1250 m 14 Y s 3 lw 592 1245 m21 6 lw 597 1217 m 14 Y s 597 1242 m 14 Y s 3 lw 597 1237 m21 6 lw 601 1214 m 14 Y s 601 1239 m 14 Y s 3 lw 601 1233 m21
 6 lw 606 1237 m 14 Y s 606 1262 m 13 Y s 3 lw 606 1256 m21 6 lw 611 1213 m 13 Y s 611 1238 m 13 Y s 3 lw 611 1232 m21 6 lw 615 1195 m 13 Y s 615 1219 m 13 Y s 3 lw 615 1213 m21 6 lw 620 1180 m 12 Y s 620 1203 m 13 Y s 3 lw 620 1198 m21 6 lw 625 1217
 m 13 Y s 625 1241 m 13 Y s 3 lw 625 1235 m21 6 lw 630 1171 m 12 Y s 630 1195 m 12 Y s 3 lw 630 1189 m21 6 lw 634 1195 m 12 Y s 634 1218 m 12 Y s 3 lw 634 1213 m21 6 lw 639 1196 m 12 Y s 639 1220 m 12 Y s 3 lw 639 1214 m21 6 lw 644 1164 m 12 Y s 644
 1187 m 12 Y s 3 lw 644 1181 m21 6 lw 648 1174 m 12 Y s 648 1197 m 12 Y s 3 lw 648 1191 m21 6 lw 653 1217 m 12 Y s 653 1240 m 12 Y s 3 lw 653 1235 m21 6 lw 658 1168 m 11 Y s 658 1190 m 12 Y s 3 lw 658 1185 m21 6 lw 662 1168 m 11 Y s 662 1191 m 11 Y s
 3 lw 662 1185 m21 6 lw 667 1195 m 11 Y s 667 1218 m 11 Y s 3 lw 667 1212 m21 6 lw 672 1159 m 11 Y s 672 1182 m 10 Y s 3 lw 672 1176 m21 6 lw 677 1151 m 11 Y s 677 1173 m 11 Y s 3 lw 677 1168 m21 6 lw 681 1151 m 11 Y s 681 1173 m 11 Y s 3 lw 681 1167
 m21 6 lw 686 1168 m 10 Y s 686 1190 m 11 Y s 3 lw 686 1184 m21 6 lw 691 1164 m 10 Y s 691 1185 m 11 Y s 3 lw 691 1180 m21 6 lw 695 1158 m 10 Y s 695 1179 m 11 Y s 3 lw 695 1174 m21 6 lw 700 1169 m 10 Y s 700 1191 m 10 Y s 3 lw 700 1185 m21 6 lw 705
 1125 m 10 Y s 705 1147 m 10 Y s 3 lw 705 1141 m21 6 lw 710 1136 m 10 Y s 710 1158 m 10 Y s 3 lw 710 1152 m21 6 lw 714 1105 m 9 Y s 714 1126 m 9 Y s 3 lw 714 1120 m21 6 lw 719 1099 m 10 Y s 719 1120 m 10 Y s 3 lw 719 1114 m21 6 lw 724 1143 m 10 Y s
 724 1164 m 10 Y s 3 lw 724 1158 m21 6 lw 728 1103 m 9 Y s 728 1124 m 9 Y s 3 lw 728 1118 m21 6 lw 733 1119 m 9 Y s 733 1139 m 10 Y s 3 lw 733 1134 m21 6 lw 738 1098 m 10 Y s 738 1119 m 9 Y s 3 lw 738 1113 m21 6 lw 742 1113 m 9 Y s 742 1133 m 9 Y s 3
 lw 742 1128 m21 6 lw 747 1121 m 9 Y s 747 1142 m 9 Y s 3 lw 747 1136 m21 6 lw 752 1099 m 9 Y s 752 1120 m 9 Y s 3 lw 752 1114 m21 6 lw 757 1104 m 9 Y s 757 1124 m 9 Y s 3 lw 757 1118 m21 6 lw 761 1098 m 9 Y s 761 1118 m 9 Y s 3 lw 761 1112 m21 6 lw
 766 1111 m 9 Y s 766 1132 m 9 Y s 3 lw 766 1126 m21 6 lw 771 1099 m 9 Y s 771 1119 m 9 Y s 3 lw 771 1114 m21 6 lw 775 1104 m 9 Y s 775 1124 m 9 Y s 3 lw 775 1119 m21 6 lw 780 1103 m 9 Y s 780 1123 m 9 Y s 3 lw 780 1117 m21 6 lw 785 1101 m 9 Y s 785
 1121 m 9 Y s 3 lw 785 1115 m21 6 lw 790 1113 m 9 Y s 790 1133 m 9 Y s 3 lw 790 1128 m21 6 lw 794 1102 m 9 Y s 794 1122 m 9 Y s 3 lw 794 1117 m21 6 lw 799 1089 m 9 Y s 799 1109 m 9 Y s 3 lw 799 1103 m21 6 lw 804 1092 m 8 Y s 804 1112 m 8 Y s 3 lw 804
 1106 m21 6 lw 808 1102 m 9 Y s 808 1122 m 8 Y s 3 lw 808 1116 m21 6 lw 813 1087 m 8 Y s 813 1106 m 9 Y s 3 lw 813 1101 m21 6 lw 818 1111 m 9 Y s 818 1131 m 8 Y s 3 lw 818 1125 m21 6 lw 822 1079 m 8 Y s 822 1099 m 8 Y s 3 lw 822 1093 m21 6 lw 827
 1092 m 8 Y s 827 1112 m 8 Y s 3 lw 827 1106 m21 6 lw 832 1094 m 8 Y s 832 1113 m 8 Y s 3 lw 832 1107 m21 6 lw 837 1068 m 8 Y s 837 1087 m 8 Y s 3 lw 837 1082 m21 6 lw 841 1091 m 8 Y s 841 1111 m 8 Y s 3 lw 841 1105 m21 6 lw 846 1083 m 8 Y s 846 1102
 m 8 Y s 3 lw 846 1097 m21 6 lw 851 1090 m 7 Y s 851 1109 m 8 Y s 3 lw 851 1103 m21 6 lw 855 1087 m 8 Y s 855 1106 m 8 Y s 3 lw 855 1100 m21 6 lw 860 1060 m 7 Y s 860 1079 m 7 Y s 3 lw 860 1073 m21 6 lw 865 1086 m 8 Y s 865 1105 m 8 Y s 3 lw 865 1099
 m21 6 lw 870 1059 m 8 Y s 870 1078 m 7 Y s 3 lw 870 1072 m21 6 lw 874 1089 m 8 Y s 874 1108 m 8 Y s 3 lw 874 1103 m21 6 lw 879 1064 m 8 Y s 879 1083 m 7 Y s 3 lw 879 1077 m21 6 lw 884 1091 m 7 Y s 884 1110 m 7 Y s 3 lw 884 1104 m21 6 lw 888 1061 m 7
 Y s 888 1080 m 7 Y s 3 lw 888 1074 m21 6 lw 893 1066 m 7 Y s 893 1084 m 7 Y s 3 lw 893 1078 m21 6 lw 898 1083 m 7 Y s 898 1102 m 7 Y s 3 lw 898 1096 m21 6 lw 902 1074 m 7 Y s 902 1093 m 7 Y s 3 lw 902 1087 m21 6 lw 907 1072 m 7 Y s 907 1091 m 7 Y s
 3 lw 907 1085 m21 6 lw 912 1069 m 7 Y s 912 1088 m 7 Y s 3 lw 912 1082 m21 6 lw 917 1075 m 7 Y s 917 1094 m 7 Y s 3 lw 917 1088 m21 6 lw 921 1074 m 7 Y s 921 1092 m 7 Y s 3 lw 921 1087 m21 6 lw 926 1067 m 7 Y s 926 1085 m 7 Y s 3 lw 926 1080 m21 6
 lw 931 1062 m 7 Y s 931 1081 m 6 Y s 3 lw 931 1075 m21 6 lw 935 1063 m 7 Y s 935 1081 m 7 Y s 3 lw 935 1076 m21 6 lw 940 1060 m 7 Y s 940 1078 m 7 Y s 3 lw 940 1073 m21 6 lw 945 1072 m 7 Y s 945 1090 m 7 Y s 3 lw 945 1085 m21 6 lw 950 1076 m 7 Y s
 950 1095 m 6 Y s 3 lw 950 1089 m21 6 lw 954 1069 m 7 Y s 954 1087 m 7 Y s 3 lw 954 1082 m21 6 lw 959 1065 m 6 Y s 959 1083 m 6 Y s 3 lw 959 1077 m21 6 lw 964 1042 m 6 Y s 964 1060 m 6 Y s 3 lw 964 1054 m21 6 lw 968 1054 m 6 Y s 968 1072 m 6 Y s 3 lw
 968 1066 m21 6 lw 973 1060 m 7 Y s 973 1078 m 7 Y s 3 lw 973 1072 m21 6 lw 978 1049 m 6 Y s 978 1067 m 6 Y s 3 lw 978 1061 m21 6 lw 982 1050 m 6 Y s 982 1067 m 7 Y s 3 lw 982 1062 m21 6 lw 987 1059 m 6 Y s 987 1077 m 6 Y s 3 lw 987 1071 m21 6 lw 992
 1031 m 7 Y s 992 1049 m 6 Y s 3 lw 992 1043 m21 6 lw 997 1074 m 7 Y s 997 1092 m 6 Y s 3 lw 997 1086 m21 6 lw 1001 1058 m 6 Y s 1001 1075 m 6 Y s 3 lw 1001 1070 m21 6 lw 1006 1043 m 7 Y s 1006 1061 m 6 Y s 3 lw 1006 1055 m21 6 lw 1011 1018 m 6 Y s
 1011 1035 m 6 Y s 3 lw 1011 1029 m21 6 lw 1015 1034 m 6 Y s 1015 1052 m 6 Y s 3 lw 1015 1046 m21 6 lw 1020 1054 m 6 Y s 1020 1071 m 6 Y s 3 lw 1020 1065 m21 6 lw 1025 1045 m 6 Y s 1025 1062 m 6 Y s 3 lw 1025 1057 m21 6 lw 1030 1050 m 6 Y s 1030 1068
 m 6 Y s 3 lw 1030 1062 m21 6 lw 1034 1051 m 6 Y s 1034 1069 m 6 Y s 3 lw 1034 1063 m21 6 lw 1039 1077 m 6 Y s 1039 1094 m 6 Y s 3 lw 1039 1089 m21 6 lw 1044 1026 m 6 Y s 1044 1043 m 6 Y s 3 lw 1044 1038 m21 6 lw 1048 1060 m 6 Y s 1048 1077 m 6 Y s 3
 lw 1048 1072 m21 6 lw 1053 1053 m 6 Y s 1053 1070 m 6 Y s 3 lw 1053 1064 m21 6 lw 1058 1035 m 6 Y s 1058 1052 m 6 Y s 3 lw 1058 1047 m21 6 lw 1062 1089 m 5 Y s 1062 1106 m 6 Y s 3 lw 1062 1100 m21 6 lw 1067 1065 m 6 Y s 1067 1082 m 6 Y s 3 lw 1067
 1076 m21 6 lw 1072 1054 m 6 Y s 1072 1071 m 6 Y s 3 lw 1072 1066 m21 6 lw 1077 1049 m 6 Y s 1077 1066 m 5 Y s 3 lw 1077 1060 m21 6 lw 1081 1053 m 5 Y s 1081 1070 m 5 Y s 3 lw 1081 1064 m21 6 lw 1086 1076 m 5 Y s 1086 1093 m 5 Y s 3 lw 1086 1087 m21
 6 lw 1091 1055 m 5 Y s 1091 1071 m 6 Y s 3 lw 1091 1066 m21 6 lw 1095 1059 m 5 Y s 1095 1076 m 5 Y s 3 lw 1095 1070 m21 6 lw 1100 1064 m 5 Y s 1100 1081 m 5 Y s 3 lw 1100 1075 m21 6 lw 1105 1065 m 6 Y s 1105 1082 m 6 Y s 3 lw 1105 1077 m21 6 lw 1110
 1050 m 5 Y s 1110 1067 m 5 Y s 3 lw 1110 1061 m21 6 lw 1114 1060 m 5 Y s 1114 1077 m 5 Y s 3 lw 1114 1071 m21 6 lw 1119 1082 m 5 Y s 1119 1099 m 5 Y s 3 lw 1119 1093 m21 6 lw 1124 1077 m 5 Y s 1124 1093 m 6 Y s 3 lw 1124 1088 m21 6 lw 1128 1060 m 5
 Y s 1128 1077 m 5 Y s 3 lw 1128 1071 m21 6 lw 1133 1074 m 6 Y s 1133 1091 m 5 Y s 3 lw 1133 1085 m21 6 lw 1138 1057 m 5 Y s 1138 1074 m 4 Y s 3 lw 1138 1068 m21 6 lw 1142 1052 m 5 Y s 1142 1068 m 5 Y s 3 lw 1142 1062 m21 6 lw 1147 1073 m 5 Y s 1147
 1089 m 5 Y s 3 lw 1147 1084 m21 6 lw 1152 1071 m 5 Y s 1152 1088 m 5 Y s 3 lw 1152 1082 m21 6 lw 1157 1048 m 4 Y s 1157 1064 m 5 Y s 3 lw 1157 1058 m21 6 lw 1161 1038 m 4 Y s 1161 1054 m 4 Y s 3 lw 1161 1048 m21 6 lw 1166 1075 m 5 Y s 1166 1091 m 5
 Y s 3 lw 1166 1085 m21 6 lw 1171 1047 m 5 Y s 1171 1063 m 5 Y s 3 lw 1171 1057 m21 6 lw 1175 1063 m 5 Y s 1175 1079 m 5 Y s 3 lw 1175 1074 m21 6 lw 1180 1074 m 4 Y s 1180 1090 m 4 Y s 3 lw 1180 1084 m21 6 lw 1185 1072 m 5 Y s 1185 1088 m 5 Y s 3 lw
 1185 1083 m21 6 lw 1190 1063 m 5 Y s 1190 1079 m 5 Y s 3 lw 1190 1073 m21 6 lw 1194 1060 m 4 Y s 1194 1076 m 4 Y s 3 lw 1194 1070 m21 6 lw 1199 1052 m 5 Y s 1199 1068 m 5 Y s 3 lw 1199 1063 m21 6 lw 1204 1053 m 4 Y s 1204 1069 m 4 Y s 3 lw 1204 1063
 m21 6 lw 1208 1083 m 5 Y s 1208 1099 m 5 Y s 3 lw 1208 1093 m21 6 lw 1213 1056 m 4 Y s 1213 1072 m 4 Y s 3 lw 1213 1066 m21 6 lw 1218 1068 m 4 Y s 1218 1084 m 4 Y s 3 lw 1218 1078 m21 6 lw 1222 1055 m 4 Y s 1222 1071 m 4 Y s 3 lw 1222 1065 m21 6 lw
 1227 1054 m 5 Y s 1227 1070 m 5 Y s 3 lw 1227 1064 m21 6 lw 1232 1066 m 5 Y s 1232 1082 m 5 Y s 3 lw 1232 1077 m21 6 lw 1237 1075 m 4 Y s 1237 1090 m 5 Y s 3 lw 1237 1085 m21 6 lw 1241 1073 m 4 Y s 1241 1089 m 4 Y s 3 lw 1241 1083 m21 6 lw 1246 1059
 m 5 Y s 1246 1075 m 5 Y s 3 lw 1246 1070 m21 6 lw 1251 1076 m 4 Y s 1251 1092 m 4 Y s 3 lw 1251 1086 m21 6 lw 1255 1051 m 5 Y s 1255 1067 m 5 Y s 3 lw 1255 1062 m21 6 lw 1260 1078 m 5 Y s 1260 1094 m 5 Y s 3 lw 1260 1088 m21 6 lw 1265 1066 m 4 Y s
 1265 1082 m 4 Y s 3 lw 1265 1076 m21 6 lw 1269 1078 m 5 Y s 1269 1094 m 5 Y s 3 lw 1269 1088 m21 6 lw 1274 1070 m 5 Y s 1274 1086 m 5 Y s 3 lw 1274 1081 m21 6 lw 1279 1067 m 4 Y s 1279 1083 m 4 Y s 3 lw 1279 1077 m21 6 lw 1284 1056 m 5 Y s 1284 1072
 m 5 Y s 3 lw 1284 1066 m21 6 lw 1288 1069 m 5 Y s 1288 1085 m 5 Y s 3 lw 1288 1080 m21 6 lw 1293 1066 m 5 Y s 1293 1083 m 4 Y s 3 lw 1293 1077 m21 6 lw 1298 1057 m 5 Y s 1298 1073 m 5 Y s 3 lw 1298 1068 m21 6 lw 1302 1053 m 5 Y s 1302 1069 m 5 Y s 3
 lw 1302 1064 m21 6 lw 1307 1076 m 5 Y s 1307 1092 m 5 Y s 3 lw 1307 1087 m21 6 lw 1312 1090 m 5 Y s 1312 1106 m 5 Y s 3 lw 1312 1100 m21 6 lw 1317 1075 m 4 Y s 1317 1091 m 5 Y s 3 lw 1317 1085 m21 6 lw 1321 1055 m 5 Y s 1321 1072 m 4 Y s 3 lw 1321
 1066 m21 6 lw 1326 1063 m 5 Y s 1326 1079 m 5 Y s 3 lw 1326 1074 m21 6 lw 1331 1081 m 5 Y s 1331 1097 m 5 Y s 3 lw 1331 1092 m21 6 lw 1335 1073 m 5 Y s 1335 1089 m 5 Y s 3 lw 1335 1084 m21 6 lw 1340 1065 m 5 Y s 1340 1081 m 5 Y s 3 lw 1340 1075 m21
 6 lw 1345 1055 m 5 Y s 1345 1071 m 5 Y s 3 lw 1345 1065 m21 6 lw 1349 1059 m 5 Y s 1349 1076 m 5 Y s 3 lw 1349 1070 m21 6 lw 1354 1078 m 5 Y s 1354 1094 m 5 Y s 3 lw 1354 1088 m21 6 lw 1359 1098 m 6 Y s 1359 1115 m 5 Y s 3 lw 1359 1109 m21 6 lw 1364
 1073 m 5 Y s 1364 1090 m 5 Y s 3 lw 1364 1084 m21 6 lw 1368 1081 m 5 Y s 1368 1097 m 5 Y s 3 lw 1368 1091 m21 6 lw 1373 1074 m 5 Y s 1373 1090 m 6 Y s 3 lw 1373 1085 m21 6 lw 1378 1100 m 6 Y s 1378 1117 m 5 Y s 3 lw 1378 1111 m21 6 lw 1382 1089 m 6
 Y s 1382 1106 m 5 Y s 3 lw 1382 1100 m21 6 lw 1387 1084 m 5 Y s 1387 1100 m 6 Y s 3 lw 1387 1095 m21 6 lw 1392 1081 m 6 Y s 1392 1098 m 5 Y s 3 lw 1392 1092 m21 6 lw 1397 1076 m 6 Y s 1397 1093 m 5 Y s 3 lw 1397 1087 m21 6 lw 1401 1095 m 6 Y s 1401
 1112 m 6 Y s 3 lw 1401 1106 m21 6 lw 1406 1100 m 5 Y s 1406 1117 m 5 Y s 3 lw 1406 1111 m21 6 lw 1411 1081 m 6 Y s 1411 1098 m 6 Y s 3 lw 1411 1093 m21 6 lw 1415 1082 m 6 Y s 1415 1099 m 6 Y s 3 lw 1415 1094 m21 6 lw 1420 1086 m 6 Y s 1420 1103 m 6
 Y s 3 lw 1420 1097 m21 6 lw 1425 1081 m 6 Y s 1425 1098 m 6 Y s 3 lw 1425 1093 m21 6 lw 1429 1089 m 6 Y s 1429 1106 m 6 Y s 3 lw 1429 1100 m21 6 lw 1434 1066 m 6 Y s 1434 1083 m 6 Y s 3 lw 1434 1077 m21 6 lw 1439 1077 m 6 Y s 1439 1095 m 5 Y s 3 lw
 1439 1089 m21 6 lw 1444 1093 m 6 Y s 1444 1110 m 6 Y s 3 lw 1444 1104 m21 6 lw 1448 1110 m 6 Y s 1448 1127 m 7 Y s 3 lw 1448 1122 m21 6 lw 1453 1096 m 6 Y s 1453 1113 m 6 Y s 3 lw 1453 1108 m21 6 lw 1458 1106 m 6 Y s 1458 1124 m 6 Y s 3 lw 1458 1118
 m21 6 lw 1462 1094 m 6 Y s 1462 1111 m 6 Y s 3 lw 1462 1105 m21 6 lw 1467 1101 m 7 Y s 1467 1119 m 6 Y s 3 lw 1467 1113 m21 6 lw 1472 1102 m 6 Y s 1472 1119 m 7 Y s 3 lw 1472 1114 m21 6 lw 1477 1089 m 6 Y s 1477 1107 m 6 Y s 3 lw 1477 1101 m21 6 lw
 1481 1111 m 7 Y s 1481 1129 m 7 Y s 3 lw 1481 1123 m21 6 lw 1486 1095 m 6 Y s 1486 1113 m 6 Y s 3 lw 1486 1107 m21 6 lw 1491 1113 m 7 Y s 1491 1131 m 7 Y s 3 lw 1491 1125 m21 6 lw 1495 1089 m 6 Y s 1495 1107 m 6 Y s 3 lw 1495 1101 m21 6 lw 1500 1084
 m 7 Y s 1500 1102 m 7 Y s 3 lw 1500 1097 m21 6 lw 1505 1106 m 6 Y s 1505 1124 m 6 Y s 3 lw 1505 1118 m21 6 lw 1509 1087 m 6 Y s 1509 1105 m 6 Y s 3 lw 1509 1099 m21 6 lw 1514 1111 m 7 Y s 1514 1129 m 7 Y s 3 lw 1514 1123 m21 6 lw 1519 1103 m 7 Y s
 1519 1122 m 6 Y s 3 lw 1519 1116 m21 6 lw 1524 1103 m 6 Y s 1524 1121 m 7 Y s 3 lw 1524 1115 m21 6 lw 1528 1086 m 7 Y s 1528 1104 m 7 Y s 3 lw 1528 1099 m21 6 lw 1533 1104 m 7 Y s 1533 1123 m 7 Y s 3 lw 1533 1117 m21 6 lw 1538 1093 m 7 Y s 1538 1112
 m 7 Y s 3 lw 1538 1106 m21 6 lw 1542 1115 m 8 Y s 1542 1134 m 7 Y s 3 lw 1542 1128 m21 6 lw 1547 1097 m 7 Y s 1547 1115 m 7 Y s 3 lw 1547 1110 m21 6 lw 1552 1092 m 7 Y s 1552 1111 m 7 Y s 3 lw 1552 1105 m21 6 lw 1557 1099 m 7 Y s 1557 1118 m 7 Y s 3
 lw 1557 1112 m21 6 lw 1561 1096 m 7 Y s 1561 1114 m 8 Y s 3 lw 1561 1109 m21 6 lw 1566 1086 m 7 Y s 1566 1104 m 8 Y s 3 lw 1566 1099 m21 6 lw 1571 1114 m 7 Y s 1571 1132 m 8 Y s 3 lw 1571 1127 m21 6 lw 1575 1099 m 7 Y s 1575 1118 m 7 Y s 3 lw 1575
 1112 m21 6 lw 1580 1105 m 7 Y s 1580 1124 m 7 Y s 3 lw 1580 1118 m21 6 lw 1585 1117 m 8 Y s 1585 1136 m 8 Y s 3 lw 1585 1130 m21 6 lw 1589 1088 m 7 Y s 1589 1107 m 7 Y s 3 lw 1589 1101 m21 6 lw 1594 1119 m 8 Y s 1594 1138 m 8 Y s 3 lw 1594 1132 m21
 6 lw 1599 1130 m 8 Y s 1599 1149 m 8 Y s 3 lw 1599 1144 m21 6 lw 1604 1103 m 8 Y s 1604 1123 m 8 Y s 3 lw 1604 1117 m21 6 lw 1608 1120 m 8 Y s 1608 1139 m 9 Y s 3 lw 1608 1134 m21 6 lw 1613 1110 m 8 Y s 1613 1129 m 9 Y s 3 lw 1613 1124 m21 6 lw 1618
 1129 m 9 Y s 1618 1149 m 8 Y s 3 lw 1618 1143 m21 6 lw 1622 1128 m 8 Y s 1622 1148 m 8 Y s 3 lw 1622 1142 m21 6 lw 1627 1091 m 8 Y s 1627 1111 m 8 Y s 3 lw 1627 1105 m21 6 lw 1632 1130 m 8 Y s 1632 1149 m 9 Y s 3 lw 1632 1144 m21 6 lw 1637 1098 m 8
 Y s 1637 1117 m 8 Y s 3 lw 1637 1112 m21 6 lw 1641 1124 m 9 Y s 1641 1144 m 9 Y s 3 lw 1641 1139 m21 6 lw 1646 1119 m 8 Y s 1646 1138 m 9 Y s 3 lw 1646 1133 m21 6 lw 1651 1106 m 8 Y s 1651 1126 m 8 Y s 3 lw 1651 1120 m21 6 lw 1655 1112 m 9 Y s 1655
 1132 m 9 Y s 3 lw 1655 1126 m21 6 lw 1660 1119 m 9 Y s 1660 1139 m 9 Y s 3 lw 1660 1133 m21 6 lw 1665 1132 m 9 Y s 1665 1152 m 9 Y s 3 lw 1665 1147 m21 6 lw 1669 1107 m 9 Y s 1669 1127 m 9 Y s 3 lw 1669 1122 m21 6 lw 1674 1113 m 9 Y s 1674 1133 m 9
 Y s 3 lw 1674 1127 m21 6 lw 1679 1132 m 9 Y s 1679 1152 m 9 Y s 3 lw 1679 1146 m21 6 lw 1684 1154 m 9 Y s 1684 1175 m 9 Y s 3 lw 1684 1169 m21 6 lw 1688 1116 m 10 Y s 1688 1137 m 9 Y s 3 lw 1688 1131 m21 6 lw 1693 1126 m 9 Y s 1693 1146 m 10 Y s 3
 lw 1693 1141 m21 6 lw 1698 1132 m 10 Y s 1698 1153 m 9 Y s 3 lw 1698 1147 m21 6 lw 1702 1132 m 10 Y s 1702 1153 m 9 Y s 3 lw 1702 1147 m21 6 lw 1707 1140 m 9 Y s 1707 1161 m 9 Y s 3 lw 1707 1155 m21 6 lw 1712 1145 m 10 Y s 1712 1166 m 10 Y s 3 lw
 1712 1160 m21 6 lw 1717 1107 m 9 Y s 1717 1128 m 9 Y s 3 lw 1717 1122 m21 6 lw 1721 1113 m 10 Y s 1721 1134 m 10 Y s 3 lw 1721 1128 m21 6 lw 1726 1136 m 10 Y s 1726 1157 m 10 Y s 3 lw 1726 1151 m21 6 lw 1731 1110 m 10 Y s 1731 1131 m 10 Y s 3 lw
 1731 1125 m21 6 lw 1735 1139 m 10 Y s 1735 1161 m 10 Y s 3 lw 1735 1155 m21 6 lw 1740 1138 m 10 Y s 1740 1159 m 10 Y s 3 lw 1740 1153 m21 6 lw 1745 1117 m 10 Y s 1745 1138 m 10 Y s 3 lw 1745 1132 m21 6 lw 1749 1137 m 10 Y s 1749 1159 m 10 Y s 3 lw
 1749 1153 m21 6 lw 1754 1131 m 11 Y s 1754 1153 m 10 Y s 3 lw 1754 1147 m21 6 lw 1759 1141 m 11 Y s 1759 1163 m 11 Y s 3 lw 1759 1157 m21 6 lw 1764 1153 m 11 Y s 1764 1175 m 11 Y s 3 lw 1764 1169 m21 6 lw 1768 1125 m 11 Y s 1768 1147 m 11 Y s 3 lw
 1768 1142 m21 6 lw 1773 1114 m 11 Y s 1773 1136 m 10 Y s 3 lw 1773 1130 m21 6 lw 1778 1125 m 11 Y s 1778 1147 m 11 Y s 3 lw 1778 1142 m21 6 lw 1782 1146 m 11 Y s 1782 1169 m 11 Y s 3 lw 1782 1163 m21 6 lw 1787 1136 m 11 Y s 1787 1158 m 11 Y s 3 lw
 1787 1152 m21 6 lw 1792 1120 m 11 Y s 1792 1142 m 11 Y s 3 lw 1792 1136 m21 6 lw 1797 1145 m 11 Y s 1797 1168 m 11 Y s 3 lw 1797 1162 m21 6 lw 1801 1162 m 11 Y s 1801 1185 m 11 Y s 3 lw 1801 1179 m21 6 lw 1806 1180 m 12 Y s 1806 1203 m 12 Y s 3 lw
 1806 1198 m21 6 lw 1811 1133 m 12 Y s 1811 1156 m 11 Y s 3 lw 1811 1150 m21 6 lw 1815 1154 m 12 Y s 1815 1177 m 12 Y s 3 lw 1815 1172 m21 6 lw 1820 1120 m 11 Y s 1820 1143 m 11 Y s 3 lw 1820 1137 m21 6 lw 1825 1115 m 11 Y s 1825 1137 m 12 Y s 3 lw
 1825 1132 m21 6 lw 1829 1141 m 11 Y s 1829 1164 m 12 Y s 3 lw 1829 1158 m21 6 lw 1834 1125 m 12 Y s 1834 1148 m 12 Y s 3 lw 1834 1142 m21 6 lw 1839 1144 m 12 Y s 1839 1167 m 12 Y s 3 lw 1839 1161 m21 6 lw 1844 1130 m 12 Y s 1844 1153 m 12 Y s 3 lw
 1844 1148 m21 6 lw 1848 1143 m 12 Y s 1848 1166 m 13 Y s 3 lw 1848 1161 m21 6 lw 1853 1125 m 12 Y s 1853 1149 m 12 Y s 3 lw 1853 1143 m21 6 lw 1858 1117 m 12 Y s 1858 1141 m 12 Y s 3 lw 1858 1135 m21 6 lw 1862 1128 m 12 Y s 1862 1152 m 12 Y s 3 lw
 1862 1146 m21 6 lw 1867 1140 m 13 Y s 1867 1164 m 13 Y s 3 lw 1867 1158 m21 6 lw 1872 1165 m 12 Y s 1872 1189 m 12 Y s 3 lw 1872 1183 m21 6 lw 1877 1127 m 12 Y s 1877 1151 m 12 Y s 3 lw 1877 1145 m21 6 lw 1881 1162 m 13 Y s 1881 1187 m 13 Y s 3 lw
 1881 1181 m21 6 lw 1886 1119 m 13 Y s 1886 1143 m 13 Y s 3 lw 1886 1138 m21 6 lw 1891 1152 m 14 Y s 1891 1177 m 13 Y s 3 lw 1891 1171 m21 6 lw 1895 1129 m 13 Y s 1895 1153 m 13 Y s 3 lw 1895 1148 m21 6 lw 1900 1138 m 13 Y s 1900 1163 m 13 Y s 3 lw
 1900 1157 m21 6 lw 1905 1135 m 13 Y s 1905 1160 m 13 Y s 3 lw 1905 1154 m21 6 lw 1909 1169 m 14 Y s 1909 1194 m 14 Y s 3 lw 1909 1189 m21 6 lw 1914 1141 m 13 Y s 1914 1166 m 13 Y s 3 lw 1914 1160 m21 6 lw 1919 1161 m 14 Y s 1919 1186 m 14 Y s 3 lw
 1919 1181 m21 6 lw 1924 1149 m 14 Y s 1924 1174 m 14 Y s 3 lw 1924 1169 m21 6 lw 1928 1165 m 14 Y s 1928 1191 m 14 Y s 3 lw 1928 1185 m21 6 lw 1933 1141 m 14 Y s 1933 1166 m 14 Y s 3 lw 1933 1161 m21 6 lw 1938 1171 m 15 Y s 1938 1197 m 14 Y s 3 lw
 1938 1191 m21 6 lw 1942 1138 m 14 Y s 1942 1164 m 14 Y s 3 lw 1942 1158 m21 6 lw 1947 1157 m 14 Y s 1947 1183 m 14 Y s 3 lw 1947 1177 m21 6 lw 1952 1169 m 14 Y s 1952 1195 m 14 Y s 3 lw 1952 1189 m21 6 lw 1957 1154 m 14 Y s 1957 1180 m 14 Y s 3 lw
 1957 1174 m21 6 lw 1961 1155 m 14 Y s 1961 1181 m 14 Y s 3 lw 1961 1175 m21 6 lw 1966 1172 m 15 Y s 1966 1198 m 15 Y s 3 lw 1966 1192 m21 6 lw 1971 1164 m 15 Y s 1971 1190 m 15 Y s 3 lw 1971 1185 m21 6 lw 1975 1139 m 15 Y s 1975 1165 m 15 Y s 3 lw
 1975 1159 m21 6 lw 1980 1135 m 15 Y s 1980 1162 m 15 Y s 3 lw 1980 1156 m21 6 lw 1985 1151 m 15 Y s 1985 1177 m 15 Y s 3 lw 1985 1171 m21 6 lw 1989 1151 m 15 Y s 1989 1178 m 15 Y s 3 lw 1989 1172 m21 6 lw 1994 1195 m 15 Y s 1994 1222 m 16 Y s 3 lw
 1994 1216 m21 6 lw 1999 1153 m 15 Y s 1999 1179 m 16 Y s 3 lw 1999 1174 m21 6 lw 2004 1161 m 16 Y s 2004 1188 m 16 Y s 3 lw 2004 1183 m21 6 lw 2008 1124 m 15 Y s 2008 1150 m 16 Y s 3 lw 2008 1145 m21 6 lw 2013 1147 m 16 Y s 2013 1174 m 16 Y s 3 lw
 2013 1168 m21 6 lw 2018 1116 m 15 Y s 2018 1143 m 15 Y s 3 lw 2018 1137 m21 6 lw 2022 1168 m 17 Y s 2022 1196 m 16 Y s 3 lw 2022 1190 m21 6 lw 2027 1212 m 17 Y s 2027 1240 m 17 Y s 3 lw 2027 1235 m21 6 lw 2032 1163 m 16 Y s 2032 1190 m 17 Y s 3 lw
 2032 1185 m21 6 lw 2036 1177 m 17 Y s 2036 1205 m 17 Y s 3 lw 2036 1199 m21 6 lw 2041 1171 m 16 Y s 2041 1199 m 16 Y s 3 lw 2041 1193 m21 6 lw 2046 1156 m 17 Y s 2046 1184 m 17 Y s 3 lw 2046 1178 m21 6 lw 2051 1132 m 17 Y s 2051 1160 m 16 Y s 3 lw
 2051 1154 m21 6 lw 2055 1145 m 17 Y s 2055 1173 m 17 Y s 3 lw 2055 1168 m21 6 lw 2060 1159 m 17 Y s 2060 1187 m 17 Y s 3 lw 2060 1181 m21 6 lw 2065 1147 m 17 Y s 2065 1176 m 17 Y s 3 lw 2065 1170 m21 6 lw 2069 1162 m 17 Y s 2069 1191 m 17 Y s 3 lw
 2069 1185 m21 6 lw 2074 1169 m 18 Y s 2074 1198 m 17 Y s 3 lw 2074 1192 m21 6 lw 2079 1171 m 18 Y s 2079 1200 m 18 Y s 3 lw 2079 1195 m21 6 lw 2084 1161 m 18 Y s 2084 1190 m 18 Y s 3 lw 2084 1185 m21 6 lw 2088 1172 m 18 Y s 2088 1201 m 18 Y s 3 lw
 2088 1195 m21 6 lw 2093 1141 m 18 Y s 2093 1170 m 18 Y s 3 lw 2093 1165 m21 6 lw 2098 1148 m 18 Y s 2098 1177 m 18 Y s 3 lw 2098 1172 m21 6 lw 2102 1164 m 19 Y s 2102 1194 m 18 Y s 3 lw 2102 1188 m21 6 lw 2107 1163 m 18 Y s 2107 1193 m 18 Y s 3 lw
 2107 1187 m21 6 lw 2112 1149 m 18 Y s 2112 1179 m 18 Y s 3 lw 2112 1173 m21 6 lw 2116 1146 m 18 Y s 2116 1176 m 18 Y s 3 lw 2116 1170 m21 6 lw 2121 1185 m 19 Y s 2121 1215 m 19 Y s 3 lw 2121 1209 m21 6 lw 2126 1182 m 19 Y s 2126 1212 m 19 Y s 3 lw
 2126 1206 m21 6 lw 2131 1135 m 18 Y s 2131 1165 m 18 Y s 3 lw 2131 1159 m21 6 lw 2135 1144 m 19 Y s 2135 1174 m 19 Y s 3 lw 2135 1168 m21 6 lw 2140 1179 m 20 Y s 2140 1210 m 20 Y s 3 lw 2140 1205 m21 6 lw 2145 1142 m 19 Y s 2145 1172 m 19 Y s 3 lw
 2145 1166 m21 6 lw 2149 1183 m 20 Y s 2149 1214 m 20 Y s 3 lw 2149 1209 m21 6 lw 2154 1140 m 19 Y s 2154 1171 m 19 Y s 3 lw 2154 1165 m21 6 lw 2159 1142 m 19 Y s 2159 1173 m 19 Y s 3 lw 2159 1167 m21 6 lw 2164 1111 m 19 Y s 2164 1142 m 19 Y s 3 lw
 2164 1136 m21 6 lw 2168 1161 m 20 Y s 2168 1192 m 20 Y s 3 lw 2168 1187 m21 6 lw 2173 1116 m 19 Y s 2173 1147 m 19 Y s 3 lw 2173 1141 m21 6 lw 2178 1143 m 20 Y s 2178 1174 m 20 Y s 3 lw 2178 1168 m21 6 lw 2182 1176 m 21 Y s 2182 1208 m 21 Y s 3 lw
 2182 1203 m21 6 lw 2187 1178 m 20 Y s 2187 1210 m 20 Y s 3 lw 2187 1204 m21 6 lw 2192 1068 m 19 Y s 2192 1099 m 19 Y s 3 lw 2192 1093 m21 6 lw 2196 1149 m 21 Y s 2196 1181 m 21 Y s 3 lw 2196 1176 m21 6 lw 2201 1163 m 21 Y s 2201 1195 m 21 Y s 3 lw
 2201 1190 m21 6 lw 2206 1198 m 21 Y s 2206 1231 m 21 Y s 3 lw 2206 1225 m21 6 lw 2211 1148 m 21 Y s 2211 1180 m 21 Y s 3 lw 2211 1175 m21 6 lw 2215 1164 m 21 Y s 2215 1196 m 22 Y s 3 lw 2215 1191 m21 6 lw 2220 1189 m 22 Y s 2220 1223 m 21 Y s 3 lw
 2220 1217 m21 6 lw black 340 223 m 1882 X s
 gsave  2268 2234 0 0 C 1923.86 58.2559 t 0 r /Helvetica findfont 83.8316 sf 0 0 m (Q [GeV]) show NC gr  340 279 m -56 Y s 387 251 m -28 Y s 434 251 m -28 Y s 481 251 m -28 Y s 528 279 m -56 Y s 575 251 m -28 Y s 622 251 m -28 Y s 670 251 m -28 Y s
 717 279 m -56 Y s 764 251 m -28 Y s 811 251 m -28 Y s 858 251 m -28 Y s 905 279 m -56 Y s 952 251 m -28 Y s 999 251 m -28 Y s 1046 251 m -28 Y s 1093 279 m -56 Y s 1140 251 m -28 Y s 1187 251 m -28 Y s 1234 251 m -28 Y s 1281 279 m -56 Y s 1328 251
 m -28 Y s 1375 251 m -28 Y s 1422 251 m -28 Y s 1469 279 m -56 Y s 1517 251 m -28 Y s 1564 251 m -28 Y s 1611 251 m -28 Y s 1658 279 m -56 Y s 1705 251 m -28 Y s 1752 251 m -28 Y s 1799 251 m -28 Y s 1846 279 m -56 Y s 1893 251 m -28 Y s 1940 251 m
 -28 Y s 1987 251 m -28 Y s 2034 279 m -56 Y s 2081 251 m -28 Y s 2128 251 m -28 Y s 2175 251 m -28 Y s 2222 279 m -56 Y s
 gsave  2268 2234 0 0 C 322.539 159.138 t 0 r /Helvetica findfont 62.5185 sf 0 0 m (0) show NC gr 
 gsave  2268 2234 0 0 C 484.518 159.138 t 0 r /Helvetica findfont 62.5185 sf 0 0 m (0.2) show NC gr 
 gsave  2268 2234 0 0 C 673.495 159.138 t 0 r /Helvetica findfont 62.5185 sf 0 0 m (0.4) show NC gr 
 gsave  2268 2234 0 0 C 861.05 159.138 t 0 r /Helvetica findfont 62.5185 sf 0 0 m (0.6) show NC gr 
 gsave  2268 2234 0 0 C 1050.03 159.138 t 0 r /Helvetica findfont 62.5185 sf 0 0 m (0.8) show NC gr 
 gsave  2268 2234 0 0 C 1268.84 159.138 t 0 r /Helvetica findfont 62.5185 sf 0 0 m (1) show NC gr 
 gsave  2268 2234 0 0 C 1426.56 159.138 t 0 r /Helvetica findfont 62.5185 sf 0 0 m (1.2) show NC gr 
 gsave  2268 2234 0 0 C 1614.11 159.138 t 0 r /Helvetica findfont 62.5185 sf 0 0 m (1.4) show NC gr 
 gsave  2268 2234 0 0 C 1803.09 159.138 t 0 r /Helvetica findfont 62.5185 sf 0 0 m (1.6) show NC gr 
 gsave  2268 2234 0 0 C 1990.65 159.138 t 0 r /Helvetica findfont 62.5185 sf 0 0 m (1.8) show NC gr 
 gsave  2268 2234 0 0 C 2205.2 159.138 t 0 r /Helvetica findfont 62.5185 sf 0 0 m (2) show NC gr  340 223 m 1966 Y s
 gsave  2268 2234 0 0 C 152.034 1953.7 t 90 r /Helvetica findfont 83.8316 sf 0 0 m (DR\(Q\)) show NC gr  400 402 m -60 X s 370 491 m -30 X s 370 581 m -30 X s 370 670 m -30 X s 400 759 m -60 X s 370 849 m -30 X s 370 938 m -30 X s 370 1027 m -30 X s
 400 1117 m -60 X s 370 1206 m -30 X s 370 1295 m -30 X s 370 1385 m -30 X s 400 1474 m -60 X s 370 1564 m -30 X s 370 1653 m -30 X s 370 1742 m -30 X s 400 1832 m -60 X s 370 1921 m -30 X s 370 2010 m -30 X s 370 2100 m -30 X s 400 2189 m -60 X s
 400 402 m -60 X s 370 313 m -30 X s 370 223 m -30 X s
 gsave  2268 2234 0 0 C 242.97 379.374 t 0 r /Helvetica findfont 62.5185 sf 0 0 m (0.6) show NC gr 
 gsave  2268 2234 0 0 C 242.97 737.434 t 0 r /Helvetica findfont 62.5185 sf 0 0 m (0.8) show NC gr 
 gsave  2268 2234 0 0 C 305.488 1092.65 t 0 r /Helvetica findfont 62.5185 sf 0 0 m (1) show NC gr 
 gsave  2268 2234 0 0 C 242.97 1450.71 t 0 r /Helvetica findfont 62.5185 sf 0 0 m (1.2) show NC gr 
 gsave  2268 2234 0 0 C 242.97 1808.77 t 0 r /Helvetica findfont 62.5185 sf 0 0 m (1.4) show NC gr 
 gsave  2268 2234 0 0 C 242.97 2166.83 t 0 r /Helvetica findfont 62.5185 sf 0 0 m (1.6) show NC gr 
 gsave  2268 2234 0 0 C 906.518 670.653 t 0 r /Helvetica-Bold findfont 72.4646 sf 0 0 m (DR PIONS) show NC gr 
 gsave  2268 2234 0 0 C 906.518 558.404 t 0 r /Helvetica-Bold findfont 72.4646 sf 0 0 m (ref. sample: EVENT MIX) show NC gr 
 gsave  2268 2234 0 0 C 906.518 447.576 t 0 r /Helvetica-Bold findfont 72.4646 sf 0 0 m (VELO tracks multiplicity: < 10) show NC gr 
 gr  gr showpage
end
%%EOF
