%!PS-Adobe-2.0 EPSF-2.0
%%BoundingBox:  0 0 567 558
%%Title: ./DR_pion_0c65_h3001_3_h3401_3.eps: DR_pion_0c65_h3001_3_h3401_3
%%Creator: ROOT Version 6.06/02
%%CreationDate: Wed Dec  7 17:35:33 2016
%%DocumentNeededResources: ProcSet (FontSetInit)
%%EndComments
%%BeginProlog
80 dict begin
/s {stroke} def /l {lineto} def /m {moveto} def /t {translate} def
/r {rotate} def /rl {roll}  def /R {repeat} def
/d {rlineto} def /rm {rmoveto} def /gr {grestore} def /f {eofill} def
/c {setrgbcolor} def /black {0 setgray} def /sd {setdash} def
/cl {closepath} def /sf {scalefont setfont} def /lw {setlinewidth} def
/box {m dup 0 exch d exch 0 d 0 exch neg d cl} def
/NC{systemdict begin initclip end}def/C{NC box clip newpath}def
/bl {box s} def /bf {gsave box gsave f grestore 1 lw [] 0 sd s grestore} def /Y { 0 exch d} def /X { 0 d} def 
/K {{pop pop 0 moveto} exch kshow} bind def
/ita {/ang 15 def gsave [1 0 ang dup sin exch cos div 1 0 0] concat} def 
/mp {newpath /y exch def /x exch def} def
/side {[w .77 mul w .23 mul] .385 w mul sd w 0 l currentpoint t -144 r} def
/mr {mp x y w2 0 360 arc} def /m24 {mr s} def /m20 {mr f} def
/mb {mp x y w2 add m w2 neg 0 d 0 w neg d w 0 d 0 w d cl} def
/mt {mp x y w2 add m w2 neg w neg d w 0 d cl} def
/m21 {mb f} def /m25 {mb s} def /m22 {mt f} def /m26{mt s} def
/m23 {mp x y w2 sub m w2 w d w neg 0 d cl f} def
/m27 {mp x y w2 add m w3 neg w2 neg d w3 w2 neg d w3 w2 d cl s} def
/m28 {mp x w2 sub y w2 sub w3 add m w3 0 d  0 w3 neg d w3 0 d 0 w3 d w3 0 d  0 w3 d w3 neg 0 d 0 w3 d w3 neg 0 d 0 w3 neg d w3 neg 0 d cl s } def
/m29 {mp gsave x w2 sub y w2 add w3 sub m currentpoint t 4 {side} repeat cl fill gr} def
/m30 {mp gsave x w2 sub y w2 add w3 sub m currentpoint t 4 {side} repeat cl s gr} def
/m31 {mp x y w2 sub m 0 w d x w2 sub y m w 0 d x w2 sub y w2 add m w w neg d x w2 sub y w2 sub m w w d s} def
/m32 {mp x y w2 sub m w2 w d w neg 0 d cl s} def
/m33 {mp x y w2 add m w3 neg w2 neg d w3 w2 neg d w3 w2 d cl f} def
/m34 {mp x w2 sub y w2 sub w3 add m w3 0 d  0 w3 neg d w3 0 d 0 w3 d w3 0 d  0 w3 d w3 neg 0 d 0 w3 d w3 neg 0 d 0 w3 neg d w3 neg 0 d cl f } def
/m2 {mp x y w2 sub m 0 w d x w2 sub y m w 0 d s} def
/m5 {mp x w2 sub y w2 sub m w w d x w2 sub y w2 add m w w neg d s} def
%%IncludeResource: ProcSet (FontSetInit)
%%IncludeResource: font Times-Roman
%%IncludeResource: font Times-Italic
%%IncludeResource: font Times-Bold
%%IncludeResource: font Times-BoldItalic
%%IncludeResource: font Helvetica
%%IncludeResource: font Helvetica-Oblique
%%IncludeResource: font Helvetica-Bold
%%IncludeResource: font Helvetica-BoldOblique
%%IncludeResource: font Courier
%%IncludeResource: font Courier-Oblique
%%IncludeResource: font Courier-Bold
%%IncludeResource: font Courier-BoldOblique
%%IncludeResource: font Symbol
%%IncludeResource: font ZapfDingbats
/reEncode {exch findfont dup length dict begin {1 index /FID eq  {pop pop} {def} ifelse } forall /Encoding exch def currentdict end dup /FontName get exch definefont pop } def [/Times-Bold /Times-Italic /Times-BoldItalic /Helvetica /Helvetica-Oblique
 /Helvetica-Bold /Helvetica-BoldOblique /Courier /Courier-Oblique /Courier-Bold /Courier-BoldOblique /Times-Roman /AvantGarde-Book /AvantGarde-BookOblique /AvantGarde-Demi /AvantGarde-DemiOblique /Bookman-Demi /Bookman-DemiItalic /Bookman-Light
 /Bookman-LightItalic /Helvetica-Narrow /Helvetica-Narrow-Bold /Helvetica-Narrow-BoldOblique /Helvetica-Narrow-Oblique /NewCenturySchlbk-Roman /NewCenturySchlbk-Bold /NewCenturySchlbk-BoldItalic /NewCenturySchlbk-Italic /Palatino-Bold
 /Palatino-BoldItalic /Palatino-Italic /Palatino-Roman ] {ISOLatin1Encoding reEncode } forall
%%EndProlog
%%BeginSetup
%%EndSetup
newpath  gsave  .25 .25 scale  gsave  0 0 t black[  ] 0 sd 6 lw 1 1 1 c 2268 2234 0 0 bf black 3 lw 1 1 1 c 1882 1966 340 223 bf black 1882 1966 340 223 bl 1 1 1 c 1882 1966 340 223 bf black 1882 1966 340 223 bl 0 0 1 c 6 lw 1 1 1 c 0 0 1 c 390 1574
 m 56 Y s 390 1641 m 56 Y s 3 lw /w 14 def /w2 {w 2 div} def /w3 {w 3 div} def 390 1636 m21 6 lw 394 1649 m 52 Y s 394 1712 m 52 Y s 3 lw 394 1707 m21 6 lw 399 1666 m 48 Y s 399 1725 m 48 Y s 3 lw 399 1720 m21 6 lw 404 1515 m 40 Y s 404 1567 m 40 Y s
 3 lw 404 1561 m21 6 lw 408 1522 m 38 Y s 408 1572 m 37 Y s 3 lw 408 1566 m21 6 lw 413 1523 m 35 Y s 413 1570 m 34 Y s 3 lw 413 1564 m21 6 lw 418 1510 m 32 Y s 418 1553 m 33 Y s 3 lw 418 1548 m21 6 lw 423 1482 m 30 Y s 423 1523 m 30 Y s 3 lw 423 1518
 m21 6 lw 427 1461 m 28 Y s 427 1500 m 27 Y s 3 lw 427 1494 m21 6 lw 432 1377 m 25 Y s 432 1413 m 25 Y s 3 lw 432 1408 m21 6 lw 437 1381 m 23 Y s 437 1416 m 23 Y s 3 lw 437 1410 m21 6 lw 441 1388 m 22 Y s 441 1421 m 22 Y s 3 lw 441 1416 m21 6 lw 446
 1382 m 21 Y s 446 1415 m 21 Y s 3 lw 446 1409 m21 6 lw 451 1349 m 19 Y s 451 1380 m 19 Y s 3 lw 451 1374 m21 6 lw 455 1376 m 19 Y s 455 1406 m 19 Y s 3 lw 455 1401 m21 6 lw 460 1332 m 18 Y s 460 1361 m 18 Y s 3 lw 460 1355 m21 6 lw 465 1316 m 16 Y s
 465 1344 m 16 Y s 3 lw 465 1338 m21 6 lw 470 1351 m 17 Y s 470 1379 m 16 Y s 3 lw 470 1373 m21 6 lw 474 1309 m 15 Y s 474 1336 m 15 Y s 3 lw 474 1330 m21 6 lw 479 1260 m 14 Y s 479 1285 m 14 Y s 3 lw 479 1279 m21 6 lw 484 1259 m 14 Y s 484 1284 m 13
 Y s 3 lw 484 1278 m21 6 lw 488 1276 m 13 Y s 488 1300 m 13 Y s 3 lw 488 1294 m21 6 lw 493 1273 m 12 Y s 493 1297 m 12 Y s 3 lw 493 1291 m21 6 lw 498 1269 m 12 Y s 498 1293 m 12 Y s 3 lw 498 1287 m21 6 lw 502 1245 m 12 Y s 502 1268 m 12 Y s 3 lw 502
 1262 m21 6 lw 507 1248 m 11 Y s 507 1271 m 11 Y s 3 lw 507 1265 m21 6 lw 512 1215 m 11 Y s 512 1237 m 11 Y s 3 lw 512 1232 m21 6 lw 517 1256 m 10 Y s 517 1278 m 10 Y s 3 lw 517 1272 m21 6 lw 521 1208 m 10 Y s 521 1229 m 10 Y s 3 lw 521 1223 m21 6 lw
 526 1224 m 10 Y s 526 1245 m 10 Y s 3 lw 526 1239 m21 6 lw 531 1193 m 9 Y s 531 1214 m 9 Y s 3 lw 531 1208 m21 6 lw 535 1224 m 9 Y s 535 1244 m 9 Y s 3 lw 535 1239 m21 6 lw 540 1175 m 9 Y s 540 1195 m 9 Y s 3 lw 540 1190 m21 6 lw 545 1210 m 8 Y s
 545 1229 m 9 Y s 3 lw 545 1224 m21 6 lw 550 1189 m 8 Y s 550 1209 m 8 Y s 3 lw 550 1203 m21 6 lw 554 1208 m 8 Y s 554 1227 m 8 Y s 3 lw 554 1222 m21 6 lw 559 1151 m 8 Y s 559 1170 m 7 Y s 3 lw 559 1164 m21 6 lw 564 1153 m 8 Y s 564 1172 m 7 Y s 3 lw
 564 1166 m21 6 lw 568 1148 m 7 Y s 568 1166 m 7 Y s 3 lw 568 1160 m21 6 lw 573 1175 m 7 Y s 573 1193 m 7 Y s 3 lw 573 1187 m21 6 lw 578 1163 m 7 Y s 578 1181 m 7 Y s 3 lw 578 1176 m21 6 lw 582 1150 m 7 Y s 582 1168 m 7 Y s 3 lw 582 1163 m21 6 lw 587
 1163 m 6 Y s 587 1181 m 6 Y s 3 lw 587 1175 m21 6 lw 592 1142 m 7 Y s 592 1160 m 6 Y s 3 lw 592 1154 m21 6 lw 597 1142 m 7 Y s 597 1160 m 6 Y s 3 lw 597 1154 m21 6 lw 601 1137 m 6 Y s 601 1155 m 6 Y s 3 lw 601 1149 m21 6 lw 606 1157 m 6 Y s 606 1174
 m 6 Y s 3 lw 606 1169 m21 6 lw 611 1148 m 6 Y s 611 1165 m 6 Y s 3 lw 611 1159 m21 6 lw 615 1143 m 6 Y s 615 1160 m 6 Y s 3 lw 615 1154 m21 6 lw 620 1130 m 5 Y s 620 1147 m 5 Y s 3 lw 620 1141 m21 6 lw 625 1120 m 6 Y s 625 1137 m 5 Y s 3 lw 625 1131
 m21 6 lw 630 1149 m 5 Y s 630 1166 m 5 Y s 3 lw 630 1160 m21 6 lw 634 1123 m 5 Y s 634 1139 m 5 Y s 3 lw 634 1134 m21 6 lw 639 1111 m 5 Y s 639 1127 m 5 Y s 3 lw 639 1122 m21 6 lw 644 1137 m 5 Y s 644 1153 m 5 Y s 3 lw 644 1147 m21 6 lw 648 1139 m 5
 Y s 648 1156 m 5 Y s 3 lw 648 1150 m21 6 lw 653 1115 m 5 Y s 653 1131 m 5 Y s 3 lw 653 1126 m21 6 lw 658 1121 m 4 Y s 658 1137 m 5 Y s 3 lw 658 1131 m21 6 lw 662 1102 m 4 Y s 662 1118 m 4 Y s 3 lw 662 1112 m21 6 lw 667 1107 m 4 Y s 667 1122 m 5 Y s
 3 lw 667 1117 m21 6 lw 672 1124 m 5 Y s 672 1140 m 5 Y s 3 lw 672 1135 m21 6 lw 677 1112 m 4 Y s 677 1128 m 4 Y s 3 lw 677 1122 m21 6 lw 681 1118 m 5 Y s 681 1134 m 5 Y s 3 lw 681 1129 m21 6 lw 686 1113 m 4 Y s 686 1129 m 4 Y s 3 lw 686 1123 m21 6
 lw 691 1120 m 4 Y s 691 1136 m 4 Y s 3 lw 691 1130 m21 6 lw 695 1096 m 4 Y s 695 1111 m 4 Y s 3 lw 695 1105 m21 6 lw 700 1106 m 4 Y s 700 1122 m 4 Y s 3 lw 700 1116 m21 6 lw 705 1104 m 4 Y s 705 1119 m 4 Y s 3 lw 705 1113 m21 6 lw 710 1119 m 4 Y s
 710 1135 m 4 Y s 3 lw 710 1129 m21 6 lw 714 1099 m 4 Y s 714 1114 m 4 Y s 3 lw 714 1109 m21 6 lw 719 1090 m 4 Y s 719 1105 m 4 Y s 3 lw 719 1100 m21 6 lw 724 1102 m 4 Y s 724 1118 m 3 Y s 3 lw 724 1112 m21 6 lw 728 1106 m 3 Y s 728 1121 m 3 Y s 3 lw
 728 1115 m21 6 lw 733 1102 m 3 Y s 733 1117 m 3 Y s 3 lw 733 1111 m21 6 lw 738 1091 m 4 Y s 738 1106 m 4 Y s 3 lw 738 1101 m21 6 lw 742 1118 m 3 Y s 742 1133 m 3 Y s 3 lw 742 1127 m21 6 lw 747 1100 m 3 Y s 747 1114 m 4 Y s 3 lw 747 1109 m21 6 lw 752
 1105 m 3 Y s 752 1120 m 3 Y s 3 lw 752 1114 m21 6 lw 757 1097 m 3 Y s 757 1112 m 3 Y s 3 lw 757 1106 m21 6 lw 761 1086 m 3 Y s 761 1100 m 4 Y s 3 lw 761 1095 m21 6 lw 766 1104 m 3 Y s 766 1119 m 3 Y s 3 lw 766 1113 m21 6 lw 771 1083 m 4 Y s 771 1098
 m 3 Y s 3 lw 771 1092 m21 6 lw 775 1085 m 3 Y s 775 1100 m 3 Y s 3 lw 775 1094 m21 6 lw 780 1082 m 4 Y s 780 1097 m 3 Y s 3 lw 780 1091 m21 6 lw 785 1088 m 3 Y s 785 1102 m 4 Y s 3 lw 785 1097 m21 6 lw 790 1091 m 3 Y s 790 1105 m 3 Y s 3 lw 790 1100
 m21 6 lw 794 1095 m 3 Y s 794 1110 m 3 Y s 3 lw 794 1104 m21 6 lw 799 1108 m 3 Y s 799 1122 m 3 Y s 3 lw 799 1116 m21 6 lw 804 1098 m 3 Y s 804 1112 m 3 Y s 3 lw 804 1106 m21 6 lw 808 1083 m 3 Y s 808 1098 m 3 Y s 3 lw 808 1092 m21 6 lw 813 1071 m 3
 Y s 813 1085 m 3 Y s 3 lw 813 1080 m21 6 lw 818 1091 m 3 Y s 818 1105 m 3 Y s 3 lw 818 1099 m21 6 lw 822 1091 m 3 Y s 822 1106 m 3 Y s 3 lw 822 1100 m21 6 lw 827 1083 m 3 Y s 827 1098 m 2 Y s 3 lw 827 1092 m21 6 lw 832 1078 m 2 Y s 832 1092 m 3 Y s
 3 lw 832 1086 m21 6 lw 837 1088 m 3 Y s 837 1102 m 3 Y s 3 lw 837 1096 m21 6 lw 841 1095 m 3 Y s 841 1109 m 3 Y s 3 lw 841 1103 m21 6 lw 846 1083 m 3 Y s 846 1097 m 3 Y s 3 lw 846 1091 m21 6 lw 851 1075 m 3 Y s 851 1089 m 3 Y s 3 lw 851 1084 m21 6
 lw 855 1084 m 3 Y s 855 1098 m 3 Y s 3 lw 855 1093 m21 6 lw 860 1082 m 2 Y s 860 1096 m 2 Y s 3 lw 860 1090 m21 6 lw 865 1096 m 3 Y s 865 1110 m 3 Y s 3 lw 865 1104 m21 6 lw 870 1098 m 3 Y s 870 1112 m 3 Y s 3 lw 870 1106 m21 6 lw 874 1071 m 3 Y s
 874 1085 m 3 Y s 3 lw 874 1079 m21 6 lw 879 1064 m 2 Y s 879 1077 m 3 Y s 3 lw 879 1072 m21 6 lw 884 1080 m 2 Y s 884 1094 m 2 Y s 3 lw 884 1088 m21 6 lw 888 1089 m 3 Y s 888 1103 m 2 Y s 3 lw 888 1097 m21 6 lw 893 1095 m 3 Y s 893 1109 m 2 Y s 3 lw
 893 1103 m21 6 lw 898 1083 m 2 Y s 898 1097 m 2 Y s 3 lw 898 1091 m21 6 lw 902 1074 m 2 Y s 902 1088 m 2 Y s 3 lw 902 1082 m21 6 lw 907 1075 m 2 Y s 907 1088 m 3 Y s 3 lw 907 1083 m21 6 lw 912 1088 m 2 Y s 912 1102 m 2 Y s 3 lw 912 1096 m21 6 lw 917
 1076 m 2 Y s 917 1089 m 3 Y s 3 lw 917 1084 m21 6 lw 921 1090 m 2 Y s 921 1104 m 2 Y s 3 lw 921 1098 m21 6 lw 926 1086 m 2 Y s 926 1099 m 3 Y s 3 lw 926 1094 m21 6 lw 931 1056 m 2 Y s 931 1070 m 2 Y s 3 lw 931 1064 m21 6 lw 935 1070 m 2 Y s 935 1083
 m 3 Y s 3 lw 935 1078 m21 6 lw 940 1086 m 3 Y s 940 1100 m 2 Y s 3 lw 940 1094 m21 6 lw 945 1081 m 2 Y s 945 1094 m 2 Y s 3 lw 945 1088 m21 6 lw 950 1088 m 3 Y s 950 1102 m 2 Y s 3 lw 950 1096 m21 6 lw 954 1081 m 2 Y s 954 1094 m 2 Y s 3 lw 954 1088
 m21 6 lw 959 1078 m 2 Y s 959 1091 m 2 Y s 3 lw 959 1086 m21 6 lw 964 1087 m 2 Y s 964 1100 m 2 Y s 3 lw 964 1095 m21 6 lw 968 1083 m 2 Y s 968 1096 m 2 Y s 3 lw 968 1091 m21 6 lw 973 1084 m 2 Y s 973 1097 m 2 Y s 3 lw 973 1091 m21 6 lw 978 1075 m 2
 Y s 978 1088 m 2 Y s 3 lw 978 1083 m21 6 lw 982 1076 m 2 Y s 982 1089 m 2 Y s 3 lw 982 1083 m21 6 lw 987 1075 m 2 Y s 987 1088 m 2 Y s 3 lw 987 1082 m21 6 lw 992 1078 m 2 Y s 992 1092 m 1 Y s 3 lw 992 1086 m21 6 lw 997 1077 m 2 Y s 997 1091 m 1 Y s
 3 lw 997 1085 m21 6 lw 1001 1074 m 1 Y s 1001 1087 m 1 Y s 3 lw 1001 1081 m21 6 lw 1006 1090 m 2 Y s 1006 1103 m 2 Y s 3 lw 1006 1097 m21 6 lw 1011 1076 m 2 Y s 1011 1089 m 2 Y s 3 lw 1011 1083 m21 6 lw 1015 1087 m 2 Y s 1015 1100 m 2 Y s 3 lw 1015
 1095 m21 6 lw 1020 1081 m 2 Y s 1020 1094 m 2 Y s 3 lw 1020 1088 m21 6 lw 1025 1084 m 2 Y s 1025 1097 m 2 Y s 3 lw 1025 1092 m21 6 lw 1030 1078 m 1 Y s 1030 1091 m 1 Y s 3 lw 1030 1085 m21 6 lw 1034 1089 m 1 Y s 1034 1102 m 1 Y s 3 lw 1034 1096 m21
 6 lw 1039 1076 m 2 Y s 1039 1089 m 2 Y s 3 lw 1039 1084 m21 6 lw 1044 1091 m 1 Y s 1044 1103 m 2 Y s 3 lw 1044 1098 m21 6 lw 1048 1090 m 1 Y s 1048 1103 m 1 Y s 3 lw 1048 1097 m21 6 lw 1053 1074 m 1 Y s 1053 1087 m 1 Y s 3 lw 1053 1081 m21 6 lw 1058
 1087 m 1 Y s 1058 1100 m 1 Y s 3 lw 1058 1094 m21 6 lw 1062 1084 m 1 Y s 1062 1096 m 2 Y s 3 lw 1062 1091 m21 6 lw 1067 1083 m 1 Y s 1067 1096 m 1 Y s 3 lw 1067 1090 m21 6 lw 1072 1078 m 1 Y s 1072 1091 m 1 Y s 3 lw 1072 1085 m21 6 lw 1077 1078 m 1
 Y s 1077 1090 m 2 Y s 3 lw 1077 1085 m21 6 lw 1081 1081 m 2 Y s 1081 1094 m 1 Y s 3 lw 1081 1088 m21 6 lw 1086 1088 m 1 Y s 1086 1101 m 1 Y s 3 lw 1086 1095 m21 6 lw 1091 1088 m 1 Y s 1091 1101 m 1 Y s 3 lw 1091 1095 m21 6 lw 1095 1081 m 1 Y s 1095
 1094 m 1 Y s 3 lw 1095 1088 m21 6 lw 1100 1069 m 2 Y s 1100 1082 m 1 Y s 3 lw 1100 1076 m21 6 lw 1105 1082 m 1 Y s 1105 1095 m 1 Y s 3 lw 1105 1089 m21 6 lw 1110 1073 m 1 Y s 1110 1085 m 2 Y s 3 lw 1110 1080 m21 6 lw 1114 1081 m 1 Y s 1114 1094 m 1
 Y s 3 lw 1114 1088 m21 6 lw 1119 1080 m 1 Y s 1119 1092 m 2 Y s 3 lw 1119 1087 m21 6 lw 1124 1078 m 1 Y s 1124 1090 m 1 Y s 3 lw 1124 1085 m21 6 lw 1128 1086 m 1 Y s 1128 1099 m 1 Y s 3 lw 1128 1093 m21 6 lw 1133 1083 m 1 Y s 1133 1095 m 1 Y s 3 lw
 1133 1089 m21 6 lw 1138 1093 m 1 Y s 1138 1105 m 1 Y s 3 lw 1138 1100 m21 6 lw 1142 1088 m 1 Y s 1142 1101 m 1 Y s 3 lw 1142 1095 m21 6 lw 1147 1105 m 1 Y s 1147 1118 m 1 Y s 3 lw 1147 1112 m21 6 lw 1152 1086 m 1 Y s 1152 1098 m 1 Y s 3 lw 1152 1092
 m21 6 lw 1157 1089 m 1 Y s 1157 1102 m 1 Y s 3 lw 1157 1096 m21 6 lw 1161 1086 m 1 Y s 1161 1098 m 1 Y s 3 lw 1161 1092 m21 6 lw 1166 1101 m 1 Y s 1166 1113 m 1 Y s 3 lw 1166 1108 m21 6 lw 1171 1095 m 1 Y s 1171 1107 m 1 Y s 3 lw 1171 1101 m21 6 lw
 1175 1092 m 1 Y s 1175 1104 m 1 Y s 3 lw 1175 1099 m21 6 lw 1180 1091 m s 1180 1103 m 1 Y s 3 lw 1180 1097 m21 6 lw 1185 1090 m 1 Y s 1185 1103 m s 3 lw 1185 1097 m21 6 lw 1190 1086 m s 1190 1098 m s 3 lw 1190 1092 m21 6 lw 1194 1089 m s 1194 1101 m
 1 Y s 3 lw 1194 1095 m21 6 lw 1199 1090 m s 1199 1102 m s 3 lw 1199 1096 m21 6 lw 1204 1108 m 1 Y s 1204 1120 m 1 Y s 3 lw 1204 1114 m21 6 lw 1208 1085 m s 1208 1097 m s 3 lw 1208 1091 m21 6 lw 1213 1095 m 1 Y s 1213 1107 m 1 Y s 3 lw 1213 1102 m21
 6 lw 1218 1090 m 1 Y s 1218 1102 m 1 Y s 3 lw 1218 1097 m21 6 lw 1222 1090 m 1 Y s 1222 1102 m 1 Y s 3 lw 1222 1096 m21 6 lw 1227 1098 m 1 Y s 1227 1111 m s 3 lw 1227 1105 m21 6 lw 1232 1098 m 1 Y s 1232 1110 m 1 Y s 3 lw 1232 1104 m21 6 lw 1237
 1108 m 1 Y s 1237 1120 m 1 Y s 3 lw 1237 1115 m21 6 lw 1241 1094 m s 1241 1106 m s 3 lw 1241 1100 m21 6 lw 1246 1090 m 1 Y s 1246 1102 m 1 Y s 3 lw 1246 1097 m21 6 lw 1251 1100 m 1 Y s 1251 1112 m 1 Y s 3 lw 1251 1107 m21 6 lw 1255 1097 m 1 Y s 1255
 1109 m 1 Y s 3 lw 1255 1104 m21 6 lw 1260 1104 m 1 Y s 1260 1116 m 1 Y s 3 lw 1260 1111 m21 6 lw 1265 1088 m 1 Y s 1265 1100 m 1 Y s 3 lw 1265 1094 m21 6 lw 1269 1102 m 1 Y s 1269 1114 m 1 Y s 3 lw 1269 1108 m21 6 lw 1274 1100 m s 1274 1112 m s 3 lw
 1274 1106 m21 6 lw 1279 1111 m 1 Y s 1279 1123 m 1 Y s 3 lw 1279 1117 m21 6 lw 1284 1101 m s 1284 1113 m s 3 lw 1284 1107 m21 6 lw 1288 1101 m 1 Y s 1288 1113 m 1 Y s 3 lw 1288 1107 m21 6 lw 1293 1097 m s 1293 1109 m s 3 lw 1293 1103 m21 6 lw 1298
 1096 m 1 Y s 1298 1108 m 1 Y s 3 lw 1298 1102 m21 6 lw 1302 1101 m 1 Y s 1302 1113 m 1 Y s 3 lw 1302 1108 m21 6 lw 1307 1096 m 1 Y s 1307 1108 m 1 Y s 3 lw 1307 1102 m21 6 lw 1312 1109 m 1 Y s 1312 1121 m 1 Y s 3 lw 1312 1116 m21 6 lw 1317 1106 m s
 1317 1118 m 1 Y s 3 lw 1317 1112 m21 6 lw 1321 1113 m 1 Y s 1321 1125 m 1 Y s 3 lw 1321 1120 m21 6 lw 1326 1108 m 1 Y s 1326 1120 m 1 Y s 3 lw 1326 1114 m21 6 lw 1331 1110 m 1 Y s 1331 1122 m 1 Y s 3 lw 1331 1116 m21 6 lw 1335 1102 m s 1335 1114 m 1
 Y s 3 lw 1335 1108 m21 6 lw 1340 1108 m 1 Y s 1340 1121 m s 3 lw 1340 1115 m21 6 lw 1345 1106 m 1 Y s 1345 1118 m 1 Y s 3 lw 1345 1112 m21 6 lw 1349 1112 m 1 Y s 1349 1124 m 1 Y s 3 lw 1349 1118 m21 6 lw 1354 1103 m 1 Y s 1354 1116 m 1 Y s 3 lw 1354
 1110 m21 6 lw 1359 1108 m 1 Y s 1359 1121 m 1 Y s 3 lw 1359 1115 m21 6 lw 1364 1102 m 1 Y s 1364 1114 m 1 Y s 3 lw 1364 1108 m21 6 lw 1368 1115 m 1 Y s 1368 1128 m 1 Y s 3 lw 1368 1122 m21 6 lw 1373 1118 m 1 Y s 1373 1131 m 1 Y s 3 lw 1373 1125 m21
 6 lw 1378 1107 m 1 Y s 1378 1119 m 1 Y s 3 lw 1378 1113 m21 6 lw 1382 1114 m 1 Y s 1382 1127 m 1 Y s 3 lw 1382 1121 m21 6 lw 1387 1104 m 1 Y s 1387 1116 m 1 Y s 3 lw 1387 1111 m21 6 lw 1392 1092 m 1 Y s 1392 1104 m 1 Y s 3 lw 1392 1099 m21 6 lw 1397
 1107 m 1 Y s 1397 1120 m 1 Y s 3 lw 1397 1114 m21 6 lw 1401 1104 m 1 Y s 1401 1116 m 1 Y s 3 lw 1401 1110 m21 6 lw 1406 1117 m 2 Y s 1406 1130 m 1 Y s 3 lw 1406 1124 m21 6 lw 1411 1118 m 1 Y s 1411 1131 m 1 Y s 3 lw 1411 1125 m21 6 lw 1415 1112 m 1
 Y s 1415 1125 m 1 Y s 3 lw 1415 1119 m21 6 lw 1420 1112 m 1 Y s 1420 1125 m 1 Y s 3 lw 1420 1119 m21 6 lw 1425 1113 m 2 Y s 1425 1126 m 1 Y s 3 lw 1425 1120 m21 6 lw 1429 1097 m 1 Y s 1429 1109 m 1 Y s 3 lw 1429 1103 m21 6 lw 1434 1105 m 1 Y s 1434
 1118 m 1 Y s 3 lw 1434 1112 m21 6 lw 1439 1114 m 2 Y s 1439 1127 m 1 Y s 3 lw 1439 1121 m21 6 lw 1444 1109 m 1 Y s 1444 1121 m 2 Y s 3 lw 1444 1116 m21 6 lw 1448 1115 m 2 Y s 1448 1128 m 1 Y s 3 lw 1448 1122 m21 6 lw 1453 1130 m 2 Y s 1453 1143 m 2
 Y s 3 lw 1453 1138 m21 6 lw 1458 1101 m 1 Y s 1458 1113 m 2 Y s 3 lw 1458 1108 m21 6 lw 1462 1115 m 1 Y s 1462 1127 m 2 Y s 3 lw 1462 1122 m21 6 lw 1467 1115 m 1 Y s 1467 1128 m 1 Y s 3 lw 1467 1122 m21 6 lw 1472 1110 m 1 Y s 1472 1122 m 2 Y s 3 lw
 1472 1117 m21 6 lw 1477 1118 m 2 Y s 1477 1131 m 2 Y s 3 lw 1477 1125 m21 6 lw 1481 1117 m 2 Y s 1481 1130 m 2 Y s 3 lw 1481 1124 m21 6 lw 1486 1116 m 1 Y s 1486 1129 m 1 Y s 3 lw 1486 1123 m21 6 lw 1491 1136 m 1 Y s 1491 1148 m 2 Y s 3 lw 1491 1143
 m21 6 lw 1495 1122 m 2 Y s 1495 1135 m 2 Y s 3 lw 1495 1129 m21 6 lw 1500 1106 m 1 Y s 1500 1119 m 1 Y s 3 lw 1500 1113 m21 6 lw 1505 1114 m 1 Y s 1505 1126 m 2 Y s 3 lw 1505 1121 m21 6 lw 1509 1121 m 2 Y s 1509 1134 m 2 Y s 3 lw 1509 1128 m21 6 lw
 1514 1120 m 2 Y s 1514 1133 m 2 Y s 3 lw 1514 1128 m21 6 lw 1519 1123 m 1 Y s 1519 1136 m 1 Y s 3 lw 1519 1130 m21 6 lw 1524 1129 m 2 Y s 1524 1142 m 2 Y s 3 lw 1524 1137 m21 6 lw 1528 1107 m 2 Y s 1528 1120 m 2 Y s 3 lw 1528 1114 m21 6 lw 1533 1125
 m 2 Y s 1533 1138 m 2 Y s 3 lw 1533 1132 m21 6 lw 1538 1131 m 1 Y s 1538 1144 m 2 Y s 3 lw 1538 1138 m21 6 lw 1542 1129 m 2 Y s 1542 1142 m 2 Y s 3 lw 1542 1136 m21 6 lw 1547 1133 m 1 Y s 1547 1146 m 1 Y s 3 lw 1547 1140 m21 6 lw 1552 1120 m 2 Y s
 1552 1133 m 2 Y s 3 lw 1552 1127 m21 6 lw 1557 1115 m 2 Y s 1557 1128 m 2 Y s 3 lw 1557 1123 m21 6 lw 1561 1112 m 2 Y s 1561 1125 m 2 Y s 3 lw 1561 1119 m21 6 lw 1566 1112 m 1 Y s 1566 1125 m 2 Y s 3 lw 1566 1119 m21 6 lw 1571 1113 m 2 Y s 1571 1127
 m 1 Y s 3 lw 1571 1121 m21 6 lw 1575 1123 m 2 Y s 1575 1136 m 2 Y s 3 lw 1575 1130 m21 6 lw 1580 1116 m 2 Y s 1580 1129 m 2 Y s 3 lw 1580 1124 m21 6 lw 1585 1126 m 2 Y s 1585 1139 m 2 Y s 3 lw 1585 1134 m21 6 lw 1589 1120 m 2 Y s 1589 1134 m 2 Y s 3
 lw 1589 1128 m21 6 lw 1594 1117 m 2 Y s 1594 1131 m 2 Y s 3 lw 1594 1125 m21 6 lw 1599 1134 m 2 Y s 1599 1147 m 2 Y s 3 lw 1599 1141 m21 6 lw 1604 1112 m 2 Y s 1604 1125 m 2 Y s 3 lw 1604 1120 m21 6 lw 1608 1120 m 2 Y s 1608 1134 m 2 Y s 3 lw 1608
 1128 m21 6 lw 1613 1127 m 2 Y s 1613 1140 m 2 Y s 3 lw 1613 1134 m21 6 lw 1618 1125 m 2 Y s 1618 1138 m 2 Y s 3 lw 1618 1133 m21 6 lw 1622 1123 m 2 Y s 1622 1136 m 3 Y s 3 lw 1622 1131 m21 6 lw 1627 1115 m 2 Y s 1627 1128 m 2 Y s 3 lw 1627 1122 m21
 6 lw 1632 1122 m 2 Y s 1632 1135 m 3 Y s 3 lw 1632 1130 m21 6 lw 1637 1137 m 2 Y s 1637 1151 m 2 Y s 3 lw 1637 1145 m21 6 lw 1641 1117 m 2 Y s 1641 1130 m 3 Y s 3 lw 1641 1125 m21 6 lw 1646 1117 m 3 Y s 1646 1131 m 2 Y s 3 lw 1646 1125 m21 6 lw 1651
 1116 m 2 Y s 1651 1129 m 3 Y s 3 lw 1651 1124 m21 6 lw 1655 1134 m 2 Y s 1655 1148 m 2 Y s 3 lw 1655 1142 m21 6 lw 1660 1131 m 3 Y s 1660 1145 m 3 Y s 3 lw 1660 1139 m21 6 lw 1665 1120 m 2 Y s 1665 1133 m 3 Y s 3 lw 1665 1128 m21 6 lw 1669 1114 m 3
 Y s 1669 1128 m 3 Y s 3 lw 1669 1122 m21 6 lw 1674 1129 m 2 Y s 1674 1142 m 3 Y s 3 lw 1674 1137 m21 6 lw 1679 1124 m 3 Y s 1679 1138 m 3 Y s 3 lw 1679 1133 m21 6 lw 1684 1113 m 2 Y s 1684 1126 m 3 Y s 3 lw 1684 1121 m21 6 lw 1688 1129 m 3 Y s 1688
 1143 m 3 Y s 3 lw 1688 1137 m21 6 lw 1693 1120 m 3 Y s 1693 1134 m 3 Y s 3 lw 1693 1128 m21 6 lw 1698 1135 m 3 Y s 1698 1149 m 3 Y s 3 lw 1698 1144 m21 6 lw 1702 1125 m 2 Y s 1702 1139 m 2 Y s 3 lw 1702 1133 m21 6 lw 1707 1114 m 3 Y s 1707 1128 m 3
 Y s 3 lw 1707 1123 m21 6 lw 1712 1126 m 2 Y s 1712 1140 m 3 Y s 3 lw 1712 1134 m21 6 lw 1717 1120 m 3 Y s 1717 1135 m 2 Y s 3 lw 1717 1129 m21 6 lw 1721 1127 m 3 Y s 1721 1141 m 3 Y s 3 lw 1721 1135 m21 6 lw 1726 1125 m 3 Y s 1726 1140 m 2 Y s 3 lw
 1726 1134 m21 6 lw 1731 1122 m 3 Y s 1731 1136 m 3 Y s 3 lw 1731 1130 m21 6 lw 1735 1113 m 3 Y s 1735 1127 m 3 Y s 3 lw 1735 1121 m21 6 lw 1740 1120 m 2 Y s 1740 1134 m 3 Y s 3 lw 1740 1128 m21 6 lw 1745 1126 m 3 Y s 1745 1140 m 3 Y s 3 lw 1745 1135
 m21 6 lw 1749 1127 m 3 Y s 1749 1142 m 3 Y s 3 lw 1749 1136 m21 6 lw 1754 1144 m 3 Y s 1754 1159 m 3 Y s 3 lw 1754 1153 m21 6 lw 1759 1115 m 3 Y s 1759 1129 m 3 Y s 3 lw 1759 1123 m21 6 lw 1764 1122 m 4 Y s 1764 1137 m 3 Y s 3 lw 1764 1131 m21 6 lw
 1768 1106 m 3 Y s 1768 1120 m 3 Y s 3 lw 1768 1115 m21 6 lw 1773 1122 m 3 Y s 1773 1137 m 3 Y s 3 lw 1773 1131 m21 6 lw 1778 1115 m 3 Y s 1778 1129 m 4 Y s 3 lw 1778 1124 m21 6 lw 1782 1132 m 3 Y s 1782 1147 m 3 Y s 3 lw 1782 1141 m21 6 lw 1787 1117
 m 3 Y s 1787 1132 m 3 Y s 3 lw 1787 1126 m21 6 lw 1792 1109 m 3 Y s 1792 1124 m 3 Y s 3 lw 1792 1118 m21 6 lw 1797 1114 m 3 Y s 1797 1128 m 4 Y s 3 lw 1797 1123 m21 6 lw 1801 1108 m 4 Y s 1801 1123 m 4 Y s 3 lw 1801 1118 m21 6 lw 1806 1134 m 3 Y s
 1806 1149 m 3 Y s 3 lw 1806 1143 m21 6 lw 1811 1117 m 3 Y s 1811 1131 m 4 Y s 3 lw 1811 1126 m21 6 lw 1815 1127 m 3 Y s 1815 1142 m 3 Y s 3 lw 1815 1136 m21 6 lw 1820 1118 m 3 Y s 1820 1133 m 3 Y s 3 lw 1820 1127 m21 6 lw 1825 1130 m 4 Y s 1825 1145
 m 4 Y s 3 lw 1825 1139 m21 6 lw 1829 1122 m 4 Y s 1829 1137 m 4 Y s 3 lw 1829 1132 m21 6 lw 1834 1116 m 3 Y s 1834 1131 m 3 Y s 3 lw 1834 1125 m21 6 lw 1839 1124 m 3 Y s 1839 1139 m 4 Y s 3 lw 1839 1133 m21 6 lw 1844 1132 m 4 Y s 1844 1147 m 4 Y s 3
 lw 1844 1142 m21 6 lw 1848 1133 m 4 Y s 1848 1149 m 3 Y s 3 lw 1848 1143 m21 6 lw 1853 1136 m 4 Y s 1853 1152 m 3 Y s 3 lw 1853 1146 m21 6 lw 1858 1123 m 4 Y s 1858 1138 m 4 Y s 3 lw 1858 1132 m21 6 lw 1862 1123 m 4 Y s 1862 1138 m 4 Y s 3 lw 1862
 1133 m21 6 lw 1867 1128 m 4 Y s 1867 1144 m 4 Y s 3 lw 1867 1138 m21 6 lw 1872 1119 m 4 Y s 1872 1134 m 4 Y s 3 lw 1872 1129 m21 6 lw 1877 1114 m 4 Y s 1877 1130 m 4 Y s 3 lw 1877 1124 m21 6 lw 1881 1123 m 4 Y s 1881 1138 m 4 Y s 3 lw 1881 1132 m21
 6 lw 1886 1141 m 4 Y s 1886 1157 m 4 Y s 3 lw 1886 1151 m21 6 lw 1891 1120 m 4 Y s 1891 1135 m 4 Y s 3 lw 1891 1130 m21 6 lw 1895 1117 m 5 Y s 1895 1133 m 4 Y s 3 lw 1895 1127 m21 6 lw 1900 1103 m 4 Y s 1900 1118 m 5 Y s 3 lw 1900 1113 m21 6 lw 1905
 1111 m 4 Y s 1905 1126 m 5 Y s 3 lw 1905 1121 m21 6 lw 1909 1141 m 4 Y s 1909 1157 m 4 Y s 3 lw 1909 1151 m21 6 lw 1914 1111 m 4 Y s 1914 1126 m 5 Y s 3 lw 1914 1121 m21 6 lw 1919 1133 m 4 Y s 1919 1148 m 5 Y s 3 lw 1919 1143 m21 6 lw 1924 1109 m 4
 Y s 1924 1125 m 4 Y s 3 lw 1924 1119 m21 6 lw 1928 1127 m 4 Y s 1928 1143 m 4 Y s 3 lw 1928 1137 m21 6 lw 1933 1108 m 5 Y s 1933 1124 m 5 Y s 3 lw 1933 1118 m21 6 lw 1938 1116 m 4 Y s 1938 1131 m 5 Y s 3 lw 1938 1126 m21 6 lw 1942 1117 m 5 Y s 1942
 1133 m 5 Y s 3 lw 1942 1128 m21 6 lw 1947 1124 m 5 Y s 1947 1140 m 5 Y s 3 lw 1947 1135 m21 6 lw 1952 1124 m 5 Y s 1952 1140 m 5 Y s 3 lw 1952 1135 m21 6 lw 1957 1127 m 4 Y s 1957 1143 m 4 Y s 3 lw 1957 1137 m21 6 lw 1961 1129 m 5 Y s 1961 1145 m 5
 Y s 3 lw 1961 1139 m21 6 lw 1966 1121 m 5 Y s 1966 1137 m 5 Y s 3 lw 1966 1132 m21 6 lw 1971 1132 m 5 Y s 1971 1148 m 5 Y s 3 lw 1971 1142 m21 6 lw 1975 1112 m 5 Y s 1975 1129 m 4 Y s 3 lw 1975 1123 m21 6 lw 1980 1128 m 5 Y s 1980 1144 m 5 Y s 3 lw
 1980 1138 m21 6 lw 1985 1135 m 5 Y s 1985 1151 m 5 Y s 3 lw 1985 1146 m21 6 lw 1989 1122 m 5 Y s 1989 1138 m 5 Y s 3 lw 1989 1133 m21 6 lw 1994 1135 m 5 Y s 1994 1151 m 6 Y s 3 lw 1994 1146 m21 6 lw 1999 1111 m 5 Y s 1999 1128 m 5 Y s 3 lw 1999 1122
 m21 6 lw 2004 1137 m 5 Y s 2004 1153 m 5 Y s 3 lw 2004 1147 m21 6 lw 2008 1129 m 5 Y s 2008 1145 m 6 Y s 3 lw 2008 1140 m21 6 lw 2013 1113 m 5 Y s 2013 1130 m 5 Y s 3 lw 2013 1124 m21 6 lw 2018 1113 m 5 Y s 2018 1130 m 5 Y s 3 lw 2018 1124 m21 6 lw
 2022 1115 m 5 Y s 2022 1131 m 6 Y s 3 lw 2022 1126 m21 6 lw 2027 1117 m 5 Y s 2027 1134 m 5 Y s 3 lw 2027 1128 m21 6 lw 2032 1109 m 6 Y s 2032 1126 m 5 Y s 3 lw 2032 1120 m21 6 lw 2036 1129 m 5 Y s 2036 1146 m 5 Y s 3 lw 2036 1140 m21 6 lw 2041 1115
 m 6 Y s 2041 1132 m 6 Y s 3 lw 2041 1126 m21 6 lw 2046 1138 m 6 Y s 2046 1155 m 6 Y s 3 lw 2046 1150 m21 6 lw 2051 1129 m 5 Y s 2051 1146 m 5 Y s 3 lw 2051 1140 m21 6 lw 2055 1117 m 6 Y s 2055 1134 m 6 Y s 3 lw 2055 1128 m21 6 lw 2060 1114 m 5 Y s
 2060 1131 m 5 Y s 3 lw 2060 1125 m21 6 lw 2065 1137 m 6 Y s 2065 1154 m 6 Y s 3 lw 2065 1148 m21 6 lw 2069 1119 m 6 Y s 2069 1136 m 6 Y s 3 lw 2069 1130 m21 6 lw 2074 1136 m 6 Y s 2074 1154 m 6 Y s 3 lw 2074 1148 m21 6 lw 2079 1120 m 6 Y s 2079 1138
 m 6 Y s 3 lw 2079 1132 m21 6 lw 2084 1126 m 6 Y s 2084 1143 m 6 Y s 3 lw 2084 1138 m21 6 lw 2088 1106 m 6 Y s 2088 1124 m 6 Y s 3 lw 2088 1118 m21 6 lw 2093 1120 m 7 Y s 2093 1138 m 6 Y s 3 lw 2093 1132 m21 6 lw 2098 1126 m 6 Y s 2098 1144 m 6 Y s 3
 lw 2098 1138 m21 6 lw 2102 1128 m 6 Y s 2102 1146 m 6 Y s 3 lw 2102 1140 m21 6 lw 2107 1118 m 6 Y s 2107 1135 m 6 Y s 3 lw 2107 1130 m21 6 lw 2112 1142 m 7 Y s 2112 1160 m 6 Y s 3 lw 2112 1154 m21 6 lw 2116 1144 m 6 Y s 2116 1162 m 6 Y s 3 lw 2116
 1156 m21 6 lw 2121 1123 m 6 Y s 2121 1141 m 6 Y s 3 lw 2121 1135 m21 6 lw 2126 1130 m 7 Y s 2126 1148 m 6 Y s 3 lw 2126 1142 m21 6 lw 2131 1136 m 7 Y s 2131 1154 m 7 Y s 3 lw 2131 1149 m21 6 lw 2135 1114 m 6 Y s 2135 1131 m 7 Y s 3 lw 2135 1126 m21
 6 lw 2140 1140 m 7 Y s 2140 1158 m 7 Y s 3 lw 2140 1152 m21 6 lw 2145 1128 m 7 Y s 2145 1146 m 7 Y s 3 lw 2145 1141 m21 6 lw 2149 1109 m 7 Y s 2149 1127 m 7 Y s 3 lw 2149 1121 m21 6 lw 2154 1110 m 7 Y s 2154 1128 m 7 Y s 3 lw 2154 1122 m21 6 lw 2159
 1105 m 7 Y s 2159 1123 m 7 Y s 3 lw 2159 1117 m21 6 lw 2164 1108 m 7 Y s 2164 1126 m 7 Y s 3 lw 2164 1121 m21 6 lw 2168 1119 m 7 Y s 2168 1137 m 7 Y s 3 lw 2168 1131 m21 6 lw 2173 1131 m 7 Y s 2173 1149 m 7 Y s 3 lw 2173 1144 m21 6 lw 2178 1099 m 7
 Y s 2178 1118 m 7 Y s 3 lw 2178 1112 m21 6 lw 2182 1112 m 7 Y s 2182 1131 m 7 Y s 3 lw 2182 1125 m21 6 lw 2187 1105 m 7 Y s 2187 1124 m 7 Y s 3 lw 2187 1118 m21 6 lw 2192 1094 m 7 Y s 2192 1113 m 6 Y s 3 lw 2192 1107 m21 6 lw 2196 1109 m 7 Y s 2196
 1127 m 7 Y s 3 lw 2196 1121 m21 6 lw 2201 1110 m 7 Y s 2201 1129 m 7 Y s 3 lw 2201 1123 m21 6 lw 2206 1097 m 7 Y s 2206 1116 m 7 Y s 3 lw 2206 1110 m21 6 lw 2211 1141 m 8 Y s 2211 1160 m 7 Y s 3 lw 2211 1154 m21 6 lw 2215 1129 m 7 Y s 2215 1147 m 8
 Y s 3 lw 2215 1142 m21 6 lw 2220 1134 m 8 Y s 2220 1153 m 8 Y s 3 lw 2220 1148 m21 6 lw black 340 223 m 1882 X s
 gsave  2268 2234 0 0 C 1923.86 58.2559 t 0 r /Helvetica findfont 83.8316 sf 0 0 m (Q [GeV]) show NC gr  340 279 m -56 Y s 387 251 m -28 Y s 434 251 m -28 Y s 481 251 m -28 Y s 528 279 m -56 Y s 575 251 m -28 Y s 622 251 m -28 Y s 670 251 m -28 Y s
 717 279 m -56 Y s 764 251 m -28 Y s 811 251 m -28 Y s 858 251 m -28 Y s 905 279 m -56 Y s 952 251 m -28 Y s 999 251 m -28 Y s 1046 251 m -28 Y s 1093 279 m -56 Y s 1140 251 m -28 Y s 1187 251 m -28 Y s 1234 251 m -28 Y s 1281 279 m -56 Y s 1328 251
 m -28 Y s 1375 251 m -28 Y s 1422 251 m -28 Y s 1469 279 m -56 Y s 1517 251 m -28 Y s 1564 251 m -28 Y s 1611 251 m -28 Y s 1658 279 m -56 Y s 1705 251 m -28 Y s 1752 251 m -28 Y s 1799 251 m -28 Y s 1846 279 m -56 Y s 1893 251 m -28 Y s 1940 251 m
 -28 Y s 1987 251 m -28 Y s 2034 279 m -56 Y s 2081 251 m -28 Y s 2128 251 m -28 Y s 2175 251 m -28 Y s 2222 279 m -56 Y s
 gsave  2268 2234 0 0 C 322.539 159.138 t 0 r /Helvetica findfont 62.5185 sf 0 0 m (0) show NC gr 
 gsave  2268 2234 0 0 C 484.518 159.138 t 0 r /Helvetica findfont 62.5185 sf 0 0 m (0.2) show NC gr 
 gsave  2268 2234 0 0 C 673.495 159.138 t 0 r /Helvetica findfont 62.5185 sf 0 0 m (0.4) show NC gr 
 gsave  2268 2234 0 0 C 861.05 159.138 t 0 r /Helvetica findfont 62.5185 sf 0 0 m (0.6) show NC gr 
 gsave  2268 2234 0 0 C 1050.03 159.138 t 0 r /Helvetica findfont 62.5185 sf 0 0 m (0.8) show NC gr 
 gsave  2268 2234 0 0 C 1268.84 159.138 t 0 r /Helvetica findfont 62.5185 sf 0 0 m (1) show NC gr 
 gsave  2268 2234 0 0 C 1426.56 159.138 t 0 r /Helvetica findfont 62.5185 sf 0 0 m (1.2) show NC gr 
 gsave  2268 2234 0 0 C 1614.11 159.138 t 0 r /Helvetica findfont 62.5185 sf 0 0 m (1.4) show NC gr 
 gsave  2268 2234 0 0 C 1803.09 159.138 t 0 r /Helvetica findfont 62.5185 sf 0 0 m (1.6) show NC gr 
 gsave  2268 2234 0 0 C 1990.65 159.138 t 0 r /Helvetica findfont 62.5185 sf 0 0 m (1.8) show NC gr 
 gsave  2268 2234 0 0 C 2205.2 159.138 t 0 r /Helvetica findfont 62.5185 sf 0 0 m (2) show NC gr  340 223 m 1966 Y s
 gsave  2268 2234 0 0 C 152.034 1953.7 t 90 r /Helvetica findfont 83.8316 sf 0 0 m (DR\(Q\)) show NC gr  400 402 m -60 X s 370 491 m -30 X s 370 581 m -30 X s 370 670 m -30 X s 400 759 m -60 X s 370 849 m -30 X s 370 938 m -30 X s 370 1027 m -30 X s
 400 1117 m -60 X s 370 1206 m -30 X s 370 1295 m -30 X s 370 1385 m -30 X s 400 1474 m -60 X s 370 1564 m -30 X s 370 1653 m -30 X s 370 1742 m -30 X s 400 1832 m -60 X s 370 1921 m -30 X s 370 2010 m -30 X s 370 2100 m -30 X s 400 2189 m -60 X s
 400 402 m -60 X s 370 313 m -30 X s 370 223 m -30 X s
 gsave  2268 2234 0 0 C 242.97 379.374 t 0 r /Helvetica findfont 62.5185 sf 0 0 m (0.6) show NC gr 
 gsave  2268 2234 0 0 C 242.97 737.434 t 0 r /Helvetica findfont 62.5185 sf 0 0 m (0.8) show NC gr 
 gsave  2268 2234 0 0 C 305.488 1092.65 t 0 r /Helvetica findfont 62.5185 sf 0 0 m (1) show NC gr 
 gsave  2268 2234 0 0 C 242.97 1450.71 t 0 r /Helvetica findfont 62.5185 sf 0 0 m (1.2) show NC gr 
 gsave  2268 2234 0 0 C 242.97 1808.77 t 0 r /Helvetica findfont 62.5185 sf 0 0 m (1.4) show NC gr 
 gsave  2268 2234 0 0 C 242.97 2166.83 t 0 r /Helvetica findfont 62.5185 sf 0 0 m (1.6) show NC gr 
 gsave  2268 2234 0 0 C 906.518 670.653 t 0 r /Helvetica-Bold findfont 72.4646 sf 0 0 m (DR PIONS) show NC gr 
 gsave  2268 2234 0 0 C 906.518 558.404 t 0 r /Helvetica-Bold findfont 72.4646 sf 0 0 m (ref. sample: EVENT MIX) show NC gr 
 gsave  2268 2234 0 0 C 906.518 447.576 t 0 r /Helvetica-Bold findfont 72.4646 sf 0 0 m (VELO tracks multiplicity: 21 \255 60) show NC gr 
 gr  gr showpage
end
%%EOF
