%!PS-Adobe-2.0 EPSF-2.0
%%BoundingBox:  0 0 567 558
%%Title: ./DR_pion_0c65_h3001_2_h3401_2.eps: DR_pion_0c65_h3001_2_h3401_2
%%Creator: ROOT Version 6.06/02
%%CreationDate: Wed Dec  7 17:36:12 2016
%%DocumentNeededResources: ProcSet (FontSetInit)
%%EndComments
%%BeginProlog
80 dict begin
/s {stroke} def /l {lineto} def /m {moveto} def /t {translate} def
/r {rotate} def /rl {roll}  def /R {repeat} def
/d {rlineto} def /rm {rmoveto} def /gr {grestore} def /f {eofill} def
/c {setrgbcolor} def /black {0 setgray} def /sd {setdash} def
/cl {closepath} def /sf {scalefont setfont} def /lw {setlinewidth} def
/box {m dup 0 exch d exch 0 d 0 exch neg d cl} def
/NC{systemdict begin initclip end}def/C{NC box clip newpath}def
/bl {box s} def /bf {gsave box gsave f grestore 1 lw [] 0 sd s grestore} def /Y { 0 exch d} def /X { 0 d} def 
/K {{pop pop 0 moveto} exch kshow} bind def
/ita {/ang 15 def gsave [1 0 ang dup sin exch cos div 1 0 0] concat} def 
/mp {newpath /y exch def /x exch def} def
/side {[w .77 mul w .23 mul] .385 w mul sd w 0 l currentpoint t -144 r} def
/mr {mp x y w2 0 360 arc} def /m24 {mr s} def /m20 {mr f} def
/mb {mp x y w2 add m w2 neg 0 d 0 w neg d w 0 d 0 w d cl} def
/mt {mp x y w2 add m w2 neg w neg d w 0 d cl} def
/m21 {mb f} def /m25 {mb s} def /m22 {mt f} def /m26{mt s} def
/m23 {mp x y w2 sub m w2 w d w neg 0 d cl f} def
/m27 {mp x y w2 add m w3 neg w2 neg d w3 w2 neg d w3 w2 d cl s} def
/m28 {mp x w2 sub y w2 sub w3 add m w3 0 d  0 w3 neg d w3 0 d 0 w3 d w3 0 d  0 w3 d w3 neg 0 d 0 w3 d w3 neg 0 d 0 w3 neg d w3 neg 0 d cl s } def
/m29 {mp gsave x w2 sub y w2 add w3 sub m currentpoint t 4 {side} repeat cl fill gr} def
/m30 {mp gsave x w2 sub y w2 add w3 sub m currentpoint t 4 {side} repeat cl s gr} def
/m31 {mp x y w2 sub m 0 w d x w2 sub y m w 0 d x w2 sub y w2 add m w w neg d x w2 sub y w2 sub m w w d s} def
/m32 {mp x y w2 sub m w2 w d w neg 0 d cl s} def
/m33 {mp x y w2 add m w3 neg w2 neg d w3 w2 neg d w3 w2 d cl f} def
/m34 {mp x w2 sub y w2 sub w3 add m w3 0 d  0 w3 neg d w3 0 d 0 w3 d w3 0 d  0 w3 d w3 neg 0 d 0 w3 d w3 neg 0 d 0 w3 neg d w3 neg 0 d cl f } def
/m2 {mp x y w2 sub m 0 w d x w2 sub y m w 0 d s} def
/m5 {mp x w2 sub y w2 sub m w w d x w2 sub y w2 add m w w neg d s} def
%%IncludeResource: ProcSet (FontSetInit)
%%IncludeResource: font Times-Roman
%%IncludeResource: font Times-Italic
%%IncludeResource: font Times-Bold
%%IncludeResource: font Times-BoldItalic
%%IncludeResource: font Helvetica
%%IncludeResource: font Helvetica-Oblique
%%IncludeResource: font Helvetica-Bold
%%IncludeResource: font Helvetica-BoldOblique
%%IncludeResource: font Courier
%%IncludeResource: font Courier-Oblique
%%IncludeResource: font Courier-Bold
%%IncludeResource: font Courier-BoldOblique
%%IncludeResource: font Symbol
%%IncludeResource: font ZapfDingbats
/reEncode {exch findfont dup length dict begin {1 index /FID eq  {pop pop} {def} ifelse } forall /Encoding exch def currentdict end dup /FontName get exch definefont pop } def [/Times-Bold /Times-Italic /Times-BoldItalic /Helvetica /Helvetica-Oblique
 /Helvetica-Bold /Helvetica-BoldOblique /Courier /Courier-Oblique /Courier-Bold /Courier-BoldOblique /Times-Roman /AvantGarde-Book /AvantGarde-BookOblique /AvantGarde-Demi /AvantGarde-DemiOblique /Bookman-Demi /Bookman-DemiItalic /Bookman-Light
 /Bookman-LightItalic /Helvetica-Narrow /Helvetica-Narrow-Bold /Helvetica-Narrow-BoldOblique /Helvetica-Narrow-Oblique /NewCenturySchlbk-Roman /NewCenturySchlbk-Bold /NewCenturySchlbk-BoldItalic /NewCenturySchlbk-Italic /Palatino-Bold
 /Palatino-BoldItalic /Palatino-Italic /Palatino-Roman ] {ISOLatin1Encoding reEncode } forall
%%EndProlog
%%BeginSetup
%%EndSetup
newpath  gsave  .25 .25 scale  gsave  0 0 t black[  ] 0 sd 6 lw 1 1 1 c 2268 2234 0 0 bf black 3 lw 1 1 1 c 1882 1966 340 223 bf black 1882 1966 340 223 bl 1 1 1 c 1882 1966 340 223 bf black 1882 1966 340 223 bl 0 0 1 c 6 lw 1 1 1 c 0 0 1 c 390 1787
 m 34 Y s 390 1833 m 34 Y s 3 lw /w 14 def /w2 {w 2 div} def /w3 {w 3 div} def 390 1827 m21 6 lw 394 1663 m 30 Y s 394 1704 m 30 Y s 3 lw 394 1699 m21 6 lw 399 1649 m 27 Y s 399 1687 m 27 Y s 3 lw 399 1681 m21 6 lw 404 1650 m 25 Y s 404 1686 m 25 Y s
 3 lw 404 1681 m21 6 lw 408 1616 m 23 Y s 408 1650 m 22 Y s 3 lw 408 1644 m21 6 lw 413 1588 m 20 Y s 413 1619 m 21 Y s 3 lw 413 1614 m21 6 lw 418 1523 m 18 Y s 418 1553 m 18 Y s 3 lw 418 1547 m21 6 lw 423 1535 m 17 Y s 423 1564 m 17 Y s 3 lw 423 1558
 m21 6 lw 427 1519 m 16 Y s 427 1547 m 16 Y s 3 lw 427 1541 m21 6 lw 432 1519 m 16 Y s 432 1546 m 16 Y s 3 lw 432 1541 m21 6 lw 437 1518 m 14 Y s 437 1544 m 14 Y s 3 lw 437 1538 m21 6 lw 441 1444 m 14 Y s 441 1469 m 13 Y s 3 lw 441 1463 m21 6 lw 446
 1429 m 13 Y s 446 1453 m 13 Y s 3 lw 446 1448 m21 6 lw 451 1436 m 12 Y s 451 1459 m 12 Y s 3 lw 451 1454 m21 6 lw 455 1393 m 12 Y s 455 1416 m 11 Y s 3 lw 455 1410 m21 6 lw 460 1367 m 10 Y s 460 1389 m 10 Y s 3 lw 460 1383 m21 6 lw 465 1351 m 10 Y s
 465 1372 m 10 Y s 3 lw 465 1366 m21 6 lw 470 1347 m 10 Y s 470 1368 m 10 Y s 3 lw 470 1363 m21 6 lw 474 1347 m 10 Y s 474 1368 m 9 Y s 3 lw 474 1362 m21 6 lw 479 1329 m 8 Y s 479 1349 m 9 Y s 3 lw 479 1343 m21 6 lw 484 1320 m 8 Y s 484 1339 m 9 Y s
 3 lw 484 1334 m21 6 lw 488 1296 m 8 Y s 488 1315 m 8 Y s 3 lw 488 1309 m21 6 lw 493 1306 m 8 Y s 493 1325 m 8 Y s 3 lw 493 1319 m21 6 lw 498 1291 m 7 Y s 498 1310 m 7 Y s 3 lw 498 1304 m21 6 lw 502 1264 m 8 Y s 502 1283 m 7 Y s 3 lw 502 1277 m21 6
 lw 507 1250 m 7 Y s 507 1268 m 7 Y s 3 lw 507 1263 m21 6 lw 512 1254 m 7 Y s 512 1272 m 7 Y s 3 lw 512 1266 m21 6 lw 517 1255 m 7 Y s 517 1273 m 7 Y s 3 lw 517 1268 m21 6 lw 521 1246 m 6 Y s 521 1264 m 6 Y s 3 lw 521 1258 m21 6 lw 526 1252 m 6 Y s
 526 1270 m 6 Y s 3 lw 526 1264 m21 6 lw 531 1233 m 6 Y s 531 1250 m 6 Y s 3 lw 531 1245 m21 6 lw 535 1221 m 6 Y s 535 1239 m 6 Y s 3 lw 535 1233 m21 6 lw 540 1227 m 6 Y s 540 1244 m 6 Y s 3 lw 540 1239 m21 6 lw 545 1234 m 5 Y s 545 1251 m 5 Y s 3 lw
 545 1245 m21 6 lw 550 1219 m 6 Y s 550 1236 m 5 Y s 3 lw 550 1230 m21 6 lw 554 1191 m 6 Y s 554 1208 m 5 Y s 3 lw 554 1202 m21 6 lw 559 1204 m 5 Y s 559 1220 m 5 Y s 3 lw 559 1214 m21 6 lw 564 1200 m 5 Y s 564 1216 m 6 Y s 3 lw 564 1211 m21 6 lw 568
 1192 m 5 Y s 568 1208 m 5 Y s 3 lw 568 1202 m21 6 lw 573 1197 m 5 Y s 573 1213 m 5 Y s 3 lw 573 1207 m21 6 lw 578 1173 m 4 Y s 578 1189 m 4 Y s 3 lw 578 1183 m21 6 lw 582 1177 m 5 Y s 582 1193 m 4 Y s 3 lw 582 1187 m21 6 lw 587 1191 m 5 Y s 587 1207
 m 5 Y s 3 lw 587 1202 m21 6 lw 592 1158 m 4 Y s 592 1174 m 4 Y s 3 lw 592 1168 m21 6 lw 597 1163 m 5 Y s 597 1179 m 4 Y s 3 lw 597 1173 m21 6 lw 601 1152 m 5 Y s 601 1168 m 4 Y s 3 lw 601 1162 m21 6 lw 606 1157 m 4 Y s 606 1172 m 4 Y s 3 lw 606 1167
 m21 6 lw 611 1145 m 4 Y s 611 1160 m 4 Y s 3 lw 611 1155 m21 6 lw 615 1162 m 4 Y s 615 1178 m 4 Y s 3 lw 615 1172 m21 6 lw 620 1138 m 3 Y s 620 1153 m 3 Y s 3 lw 620 1147 m21 6 lw 625 1155 m 4 Y s 625 1171 m 3 Y s 3 lw 625 1165 m21 6 lw 630 1139 m 4
 Y s 630 1154 m 4 Y s 3 lw 630 1148 m21 6 lw 634 1130 m 3 Y s 634 1144 m 4 Y s 3 lw 634 1139 m21 6 lw 639 1141 m 3 Y s 639 1156 m 3 Y s 3 lw 639 1150 m21 6 lw 644 1142 m 3 Y s 644 1156 m 4 Y s 3 lw 644 1151 m21 6 lw 648 1115 m 3 Y s 648 1129 m 4 Y s
 3 lw 648 1124 m21 6 lw 653 1139 m 3 Y s 653 1153 m 4 Y s 3 lw 653 1148 m21 6 lw 658 1123 m 3 Y s 658 1138 m 3 Y s 3 lw 658 1132 m21 6 lw 662 1135 m 3 Y s 662 1149 m 4 Y s 3 lw 662 1144 m21 6 lw 667 1132 m 3 Y s 667 1147 m 3 Y s 3 lw 667 1141 m21 6
 lw 672 1136 m 3 Y s 672 1151 m 3 Y s 3 lw 672 1145 m21 6 lw 677 1134 m 3 Y s 677 1148 m 3 Y s 3 lw 677 1142 m21 6 lw 681 1119 m 3 Y s 681 1134 m 3 Y s 3 lw 681 1128 m21 6 lw 686 1112 m 3 Y s 686 1126 m 3 Y s 3 lw 686 1120 m21 6 lw 691 1112 m 2 Y s
 691 1126 m 2 Y s 3 lw 691 1120 m21 6 lw 695 1116 m 3 Y s 695 1130 m 3 Y s 3 lw 695 1125 m21 6 lw 700 1112 m 2 Y s 700 1126 m 2 Y s 3 lw 700 1120 m21 6 lw 705 1102 m 3 Y s 705 1116 m 3 Y s 3 lw 705 1111 m21 6 lw 710 1102 m 3 Y s 710 1116 m 3 Y s 3 lw
 710 1111 m21 6 lw 714 1100 m 3 Y s 714 1114 m 3 Y s 3 lw 714 1109 m21 6 lw 719 1104 m 2 Y s 719 1118 m 2 Y s 3 lw 719 1112 m21 6 lw 724 1112 m 2 Y s 724 1126 m 2 Y s 3 lw 724 1120 m21 6 lw 728 1113 m 2 Y s 728 1126 m 3 Y s 3 lw 728 1121 m21 6 lw 733
 1100 m 2 Y s 733 1113 m 2 Y s 3 lw 733 1108 m21 6 lw 738 1105 m 3 Y s 738 1119 m 2 Y s 3 lw 738 1113 m21 6 lw 742 1095 m 2 Y s 742 1108 m 2 Y s 3 lw 742 1103 m21 6 lw 747 1118 m 2 Y s 747 1131 m 2 Y s 3 lw 747 1125 m21 6 lw 752 1093 m 3 Y s 752 1107
 m 2 Y s 3 lw 752 1101 m21 6 lw 757 1097 m 2 Y s 757 1110 m 2 Y s 3 lw 757 1105 m21 6 lw 761 1081 m 2 Y s 761 1094 m 2 Y s 3 lw 761 1088 m21 6 lw 766 1097 m 2 Y s 766 1110 m 2 Y s 3 lw 766 1104 m21 6 lw 771 1088 m 2 Y s 771 1102 m 2 Y s 3 lw 771 1096
 m21 6 lw 775 1106 m 2 Y s 775 1119 m 2 Y s 3 lw 775 1113 m21 6 lw 780 1082 m 1 Y s 780 1095 m 2 Y s 3 lw 780 1089 m21 6 lw 785 1088 m 2 Y s 785 1102 m 1 Y s 3 lw 785 1096 m21 6 lw 790 1093 m 2 Y s 790 1106 m 2 Y s 3 lw 790 1100 m21 6 lw 794 1094 m 2
 Y s 794 1107 m 2 Y s 3 lw 794 1101 m21 6 lw 799 1100 m 2 Y s 799 1114 m 1 Y s 3 lw 799 1108 m21 6 lw 804 1086 m 1 Y s 804 1099 m 1 Y s 3 lw 804 1093 m21 6 lw 808 1086 m 1 Y s 808 1099 m 1 Y s 3 lw 808 1093 m21 6 lw 813 1085 m 2 Y s 813 1098 m 2 Y s
 3 lw 813 1093 m21 6 lw 818 1085 m 1 Y s 818 1098 m 1 Y s 3 lw 818 1092 m21 6 lw 822 1075 m 1 Y s 822 1087 m 2 Y s 3 lw 822 1082 m21 6 lw 827 1084 m 2 Y s 827 1097 m 2 Y s 3 lw 827 1092 m21 6 lw 832 1078 m 2 Y s 832 1091 m 2 Y s 3 lw 832 1085 m21 6
 lw 837 1084 m 2 Y s 837 1097 m 2 Y s 3 lw 837 1092 m21 6 lw 841 1072 m 2 Y s 841 1085 m 2 Y s 3 lw 841 1079 m21 6 lw 846 1083 m 1 Y s 846 1096 m 1 Y s 3 lw 846 1090 m21 6 lw 851 1071 m 2 Y s 851 1084 m 2 Y s 3 lw 851 1079 m21 6 lw 855 1077 m 1 Y s
 855 1090 m 1 Y s 3 lw 855 1084 m21 6 lw 860 1076 m 1 Y s 860 1089 m 1 Y s 3 lw 860 1083 m21 6 lw 865 1067 m 1 Y s 865 1079 m 2 Y s 3 lw 865 1074 m21 6 lw 870 1077 m 2 Y s 870 1090 m 1 Y s 3 lw 870 1084 m21 6 lw 874 1076 m 1 Y s 874 1088 m 2 Y s 3 lw
 874 1083 m21 6 lw 879 1081 m 1 Y s 879 1093 m 2 Y s 3 lw 879 1088 m21 6 lw 884 1080 m 1 Y s 884 1093 m 1 Y s 3 lw 884 1087 m21 6 lw 888 1076 m 1 Y s 888 1088 m 2 Y s 3 lw 888 1083 m21 6 lw 893 1080 m 2 Y s 893 1093 m 1 Y s 3 lw 893 1087 m21 6 lw 898
 1068 m 1 Y s 898 1081 m 1 Y s 3 lw 898 1075 m21 6 lw 902 1075 m 1 Y s 902 1088 m 1 Y s 3 lw 902 1082 m21 6 lw 907 1070 m 2 Y s 907 1083 m 1 Y s 3 lw 907 1077 m21 6 lw 912 1077 m 1 Y s 912 1089 m 2 Y s 3 lw 912 1084 m21 6 lw 917 1072 m 1 Y s 917 1085
 m 1 Y s 3 lw 917 1079 m21 6 lw 921 1072 m 1 Y s 921 1085 m 1 Y s 3 lw 921 1079 m21 6 lw 926 1074 m 1 Y s 926 1087 m 1 Y s 3 lw 926 1081 m21 6 lw 931 1074 m 1 Y s 931 1087 m 1 Y s 3 lw 931 1081 m21 6 lw 935 1084 m 2 Y s 935 1097 m 1 Y s 3 lw 935 1091
 m21 6 lw 940 1073 m 1 Y s 940 1086 m 1 Y s 3 lw 940 1080 m21 6 lw 945 1063 m 1 Y s 945 1076 m 1 Y s 3 lw 945 1070 m21 6 lw 950 1068 m 2 Y s 950 1081 m 1 Y s 3 lw 950 1075 m21 6 lw 954 1062 m 1 Y s 954 1074 m 2 Y s 3 lw 954 1069 m21 6 lw 959 1066 m 1
 Y s 959 1079 m 1 Y s 3 lw 959 1073 m21 6 lw 964 1072 m 2 Y s 964 1085 m 1 Y s 3 lw 964 1079 m21 6 lw 968 1065 m 1 Y s 968 1078 m 1 Y s 3 lw 968 1072 m21 6 lw 973 1060 m 2 Y s 973 1073 m 1 Y s 3 lw 973 1067 m21 6 lw 978 1068 m 1 Y s 978 1080 m 2 Y s
 3 lw 978 1075 m21 6 lw 982 1076 m 1 Y s 982 1089 m 1 Y s 3 lw 982 1083 m21 6 lw 987 1070 m 1 Y s 987 1083 m 1 Y s 3 lw 987 1077 m21 6 lw 992 1069 m 1 Y s 992 1081 m 1 Y s 3 lw 992 1076 m21 6 lw 997 1067 m 1 Y s 997 1080 m 1 Y s 3 lw 997 1074 m21 6
 lw 1001 1080 m 1 Y s 1001 1093 m 1 Y s 3 lw 1001 1087 m21 6 lw 1006 1081 m 1 Y s 1006 1094 m 1 Y s 3 lw 1006 1088 m21 6 lw 1011 1067 m 1 Y s 1011 1079 m 2 Y s 3 lw 1011 1074 m21 6 lw 1015 1072 m 1 Y s 1015 1085 m 1 Y s 3 lw 1015 1079 m21 6 lw 1020
 1073 m 1 Y s 1020 1085 m 2 Y s 3 lw 1020 1080 m21 6 lw 1025 1063 m 2 Y s 1025 1076 m 1 Y s 3 lw 1025 1070 m21 6 lw 1030 1071 m 1 Y s 1030 1084 m 1 Y s 3 lw 1030 1078 m21 6 lw 1034 1073 m 1 Y s 1034 1085 m 2 Y s 3 lw 1034 1080 m21 6 lw 1039 1075 m 2
 Y s 1039 1088 m 1 Y s 3 lw 1039 1082 m21 6 lw 1044 1065 m 1 Y s 1044 1077 m 2 Y s 3 lw 1044 1072 m21 6 lw 1048 1070 m 1 Y s 1048 1082 m 2 Y s 3 lw 1048 1077 m21 6 lw 1053 1073 m 1 Y s 1053 1086 m 1 Y s 3 lw 1053 1080 m21 6 lw 1058 1072 m 1 Y s 1058
 1084 m 2 Y s 3 lw 1058 1079 m21 6 lw 1062 1060 m 1 Y s 1062 1073 m 1 Y s 3 lw 1062 1067 m21 6 lw 1067 1075 m 1 Y s 1067 1087 m 2 Y s 3 lw 1067 1082 m21 6 lw 1072 1069 m 1 Y s 1072 1082 m 1 Y s 3 lw 1072 1076 m21 6 lw 1077 1065 m 1 Y s 1077 1078 m 1
 Y s 3 lw 1077 1072 m21 6 lw 1081 1067 m 2 Y s 1081 1080 m 1 Y s 3 lw 1081 1074 m21 6 lw 1086 1071 m 1 Y s 1086 1083 m 2 Y s 3 lw 1086 1078 m21 6 lw 1091 1073 m 1 Y s 1091 1086 m 1 Y s 3 lw 1091 1080 m21 6 lw 1095 1074 m 2 Y s 1095 1087 m 1 Y s 3 lw
 1095 1081 m21 6 lw 1100 1073 m 1 Y s 1100 1085 m 2 Y s 3 lw 1100 1080 m21 6 lw 1105 1079 m 2 Y s 1105 1092 m 1 Y s 3 lw 1105 1086 m21 6 lw 1110 1066 m 1 Y s 1110 1079 m 1 Y s 3 lw 1110 1073 m21 6 lw 1114 1064 m 2 Y s 1114 1077 m 1 Y s 3 lw 1114 1071
 m21 6 lw 1119 1075 m 2 Y s 1119 1088 m 2 Y s 3 lw 1119 1082 m21 6 lw 1124 1070 m 2 Y s 1124 1083 m 2 Y s 3 lw 1124 1078 m21 6 lw 1128 1067 m 2 Y s 1128 1080 m 1 Y s 3 lw 1128 1074 m21 6 lw 1133 1063 m 2 Y s 1133 1076 m 2 Y s 3 lw 1133 1071 m21 6 lw
 1138 1079 m 2 Y s 1138 1092 m 2 Y s 3 lw 1138 1087 m21 6 lw 1142 1075 m 2 Y s 1142 1088 m 2 Y s 3 lw 1142 1083 m21 6 lw 1147 1080 m 2 Y s 1147 1094 m 1 Y s 3 lw 1147 1088 m21 6 lw 1152 1094 m 1 Y s 1152 1107 m 2 Y s 3 lw 1152 1101 m21 6 lw 1157 1082
 m 2 Y s 1157 1095 m 2 Y s 3 lw 1157 1090 m21 6 lw 1161 1084 m 2 Y s 1161 1097 m 2 Y s 3 lw 1161 1092 m21 6 lw 1166 1082 m 2 Y s 1166 1096 m 2 Y s 3 lw 1166 1090 m21 6 lw 1171 1079 m 2 Y s 1171 1092 m 2 Y s 3 lw 1171 1086 m21 6 lw 1175 1075 m 2 Y s
 1175 1088 m 2 Y s 3 lw 1175 1082 m21 6 lw 1180 1081 m 2 Y s 1180 1094 m 2 Y s 3 lw 1180 1088 m21 6 lw 1185 1090 m 2 Y s 1185 1104 m 2 Y s 3 lw 1185 1098 m21 6 lw 1190 1088 m 2 Y s 1190 1101 m 2 Y s 3 lw 1190 1096 m21 6 lw 1194 1081 m 2 Y s 1194 1094
 m 2 Y s 3 lw 1194 1088 m21 6 lw 1199 1082 m 2 Y s 1199 1096 m 2 Y s 3 lw 1199 1090 m21 6 lw 1204 1085 m 2 Y s 1204 1099 m 2 Y s 3 lw 1204 1093 m21 6 lw 1208 1068 m 2 Y s 1208 1082 m 2 Y s 3 lw 1208 1076 m21 6 lw 1213 1090 m 2 Y s 1213 1104 m 2 Y s 3
 lw 1213 1098 m21 6 lw 1218 1074 m 2 Y s 1218 1087 m 2 Y s 3 lw 1218 1081 m21 6 lw 1222 1077 m 2 Y s 1222 1091 m 2 Y s 3 lw 1222 1085 m21 6 lw 1227 1089 m 3 Y s 1227 1103 m 2 Y s 3 lw 1227 1097 m21 6 lw 1232 1083 m 2 Y s 1232 1096 m 3 Y s 3 lw 1232
 1091 m21 6 lw 1237 1086 m 2 Y s 1237 1100 m 2 Y s 3 lw 1237 1094 m21 6 lw 1241 1095 m 3 Y s 1241 1109 m 2 Y s 3 lw 1241 1103 m21 6 lw 1246 1091 m 3 Y s 1246 1105 m 2 Y s 3 lw 1246 1099 m21 6 lw 1251 1088 m 2 Y s 1251 1102 m 2 Y s 3 lw 1251 1096 m21
 6 lw 1255 1088 m 2 Y s 1255 1102 m 2 Y s 3 lw 1255 1096 m21 6 lw 1260 1102 m 2 Y s 1260 1116 m 2 Y s 3 lw 1260 1110 m21 6 lw 1265 1099 m 3 Y s 1265 1113 m 3 Y s 3 lw 1265 1108 m21 6 lw 1269 1088 m 2 Y s 1269 1102 m 2 Y s 3 lw 1269 1096 m21 6 lw 1274
 1082 m 3 Y s 1274 1096 m 3 Y s 3 lw 1274 1091 m21 6 lw 1279 1082 m 3 Y s 1279 1096 m 3 Y s 3 lw 1279 1090 m21 6 lw 1284 1092 m 2 Y s 1284 1106 m 2 Y s 3 lw 1284 1100 m21 6 lw 1288 1099 m 3 Y s 1288 1113 m 3 Y s 3 lw 1288 1107 m21 6 lw 1293 1091 m 3
 Y s 1293 1105 m 3 Y s 3 lw 1293 1099 m21 6 lw 1298 1117 m 3 Y s 1298 1131 m 3 Y s 3 lw 1298 1126 m21 6 lw 1302 1097 m 3 Y s 1302 1111 m 3 Y s 3 lw 1302 1106 m21 6 lw 1307 1096 m 3 Y s 1307 1110 m 3 Y s 3 lw 1307 1105 m21 6 lw 1312 1078 m 2 Y s 1312
 1092 m 3 Y s 3 lw 1312 1086 m21 6 lw 1317 1107 m 3 Y s 1317 1121 m 3 Y s 3 lw 1317 1116 m21 6 lw 1321 1103 m 3 Y s 1321 1117 m 3 Y s 3 lw 1321 1111 m21 6 lw 1326 1097 m 3 Y s 1326 1111 m 4 Y s 3 lw 1326 1106 m21 6 lw 1331 1097 m 3 Y s 1331 1111 m 3
 Y s 3 lw 1331 1105 m21 6 lw 1335 1083 m 3 Y s 1335 1097 m 3 Y s 3 lw 1335 1092 m21 6 lw 1340 1092 m 3 Y s 1340 1107 m 3 Y s 3 lw 1340 1101 m21 6 lw 1345 1096 m 3 Y s 1345 1110 m 3 Y s 3 lw 1345 1104 m21 6 lw 1349 1104 m 3 Y s 1349 1118 m 4 Y s 3 lw
 1349 1113 m21 6 lw 1354 1098 m 3 Y s 1354 1112 m 4 Y s 3 lw 1354 1107 m21 6 lw 1359 1088 m 4 Y s 1359 1103 m 3 Y s 3 lw 1359 1097 m21 6 lw 1364 1097 m 3 Y s 1364 1111 m 4 Y s 3 lw 1364 1106 m21 6 lw 1368 1104 m 4 Y s 1368 1119 m 4 Y s 3 lw 1368 1113
 m21 6 lw 1373 1114 m 3 Y s 1373 1129 m 3 Y s 3 lw 1373 1123 m21 6 lw 1378 1098 m 4 Y s 1378 1113 m 3 Y s 3 lw 1378 1107 m21 6 lw 1382 1110 m 3 Y s 1382 1125 m 3 Y s 3 lw 1382 1119 m21 6 lw 1387 1093 m 3 Y s 1387 1108 m 3 Y s 3 lw 1387 1102 m21 6 lw
 1392 1093 m 3 Y s 1392 1108 m 3 Y s 3 lw 1392 1102 m21 6 lw 1397 1101 m 3 Y s 1397 1116 m 3 Y s 3 lw 1397 1110 m21 6 lw 1401 1097 m 4 Y s 1401 1112 m 4 Y s 3 lw 1401 1107 m21 6 lw 1406 1095 m 4 Y s 1406 1110 m 4 Y s 3 lw 1406 1105 m21 6 lw 1411 1109
 m 4 Y s 1411 1124 m 4 Y s 3 lw 1411 1119 m21 6 lw 1415 1117 m 4 Y s 1415 1132 m 4 Y s 3 lw 1415 1127 m21 6 lw 1420 1102 m 4 Y s 1420 1118 m 4 Y s 3 lw 1420 1112 m21 6 lw 1425 1107 m 4 Y s 1425 1123 m 4 Y s 3 lw 1425 1117 m21 6 lw 1429 1121 m 4 Y s
 1429 1136 m 5 Y s 3 lw 1429 1131 m21 6 lw 1434 1112 m 4 Y s 1434 1128 m 4 Y s 3 lw 1434 1122 m21 6 lw 1439 1108 m 4 Y s 1439 1124 m 4 Y s 3 lw 1439 1118 m21 6 lw 1444 1121 m 5 Y s 1444 1137 m 4 Y s 3 lw 1444 1131 m21 6 lw 1448 1106 m 4 Y s 1448 1121
 m 5 Y s 3 lw 1448 1116 m21 6 lw 1453 1108 m 5 Y s 1453 1124 m 4 Y s 3 lw 1453 1118 m21 6 lw 1458 1121 m 5 Y s 1458 1137 m 4 Y s 3 lw 1458 1131 m21 6 lw 1462 1112 m 4 Y s 1462 1128 m 4 Y s 3 lw 1462 1122 m21 6 lw 1467 1121 m 5 Y s 1467 1137 m 5 Y s 3
 lw 1467 1132 m21 6 lw 1472 1102 m 5 Y s 1472 1118 m 5 Y s 3 lw 1472 1113 m21 6 lw 1477 1117 m 5 Y s 1477 1133 m 5 Y s 3 lw 1477 1128 m21 6 lw 1481 1125 m 5 Y s 1481 1142 m 4 Y s 3 lw 1481 1136 m21 6 lw 1486 1108 m 5 Y s 1486 1124 m 5 Y s 3 lw 1486
 1119 m21 6 lw 1491 1106 m 4 Y s 1491 1122 m 5 Y s 3 lw 1491 1116 m21 6 lw 1495 1100 m 5 Y s 1495 1116 m 5 Y s 3 lw 1495 1110 m21 6 lw 1500 1094 m 5 Y s 1500 1110 m 5 Y s 3 lw 1500 1104 m21 6 lw 1505 1136 m 5 Y s 1505 1153 m 5 Y s 3 lw 1505 1147 m21
 6 lw 1509 1149 m 5 Y s 1509 1165 m 6 Y s 3 lw 1509 1160 m21 6 lw 1514 1121 m 5 Y s 1514 1137 m 6 Y s 3 lw 1514 1132 m21 6 lw 1519 1118 m 5 Y s 1519 1134 m 5 Y s 3 lw 1519 1129 m21 6 lw 1524 1112 m 5 Y s 1524 1128 m 5 Y s 3 lw 1524 1122 m21 6 lw 1528
 1103 m 5 Y s 1528 1119 m 6 Y s 3 lw 1528 1114 m21 6 lw 1533 1105 m 6 Y s 1533 1122 m 5 Y s 3 lw 1533 1116 m21 6 lw 1538 1116 m 5 Y s 1538 1132 m 6 Y s 3 lw 1538 1127 m21 6 lw 1542 1132 m 6 Y s 1542 1149 m 6 Y s 3 lw 1542 1144 m21 6 lw 1547 1110 m 5
 Y s 1547 1127 m 5 Y s 3 lw 1547 1121 m21 6 lw 1552 1131 m 6 Y s 1552 1148 m 6 Y s 3 lw 1552 1142 m21 6 lw 1557 1124 m 5 Y s 1557 1141 m 5 Y s 3 lw 1557 1135 m21 6 lw 1561 1104 m 5 Y s 1561 1121 m 5 Y s 3 lw 1561 1115 m21 6 lw 1566 1111 m 6 Y s 1566
 1128 m 6 Y s 3 lw 1566 1123 m21 6 lw 1571 1115 m 5 Y s 1571 1132 m 6 Y s 3 lw 1571 1126 m21 6 lw 1575 1112 m 6 Y s 1575 1129 m 6 Y s 3 lw 1575 1123 m21 6 lw 1580 1130 m 6 Y s 1580 1147 m 6 Y s 3 lw 1580 1141 m21 6 lw 1585 1122 m 6 Y s 1585 1139 m 6
 Y s 3 lw 1585 1133 m21 6 lw 1589 1121 m 6 Y s 1589 1138 m 6 Y s 3 lw 1589 1133 m21 6 lw 1594 1137 m 6 Y s 1594 1154 m 7 Y s 3 lw 1594 1149 m21 6 lw 1599 1110 m 6 Y s 1599 1127 m 6 Y s 3 lw 1599 1121 m21 6 lw 1604 1099 m 6 Y s 1604 1117 m 6 Y s 3 lw
 1604 1111 m21 6 lw 1608 1098 m 6 Y s 1608 1116 m 6 Y s 3 lw 1608 1110 m21 6 lw 1613 1116 m 6 Y s 1613 1134 m 6 Y s 3 lw 1613 1128 m21 6 lw 1618 1124 m 7 Y s 1618 1142 m 7 Y s 3 lw 1618 1137 m21 6 lw 1622 1117 m 7 Y s 1622 1135 m 7 Y s 3 lw 1622 1130
 m21 6 lw 1627 1117 m 7 Y s 1627 1135 m 7 Y s 3 lw 1627 1130 m21 6 lw 1632 1147 m 7 Y s 1632 1165 m 7 Y s 3 lw 1632 1160 m21 6 lw 1637 1117 m 7 Y s 1637 1136 m 6 Y s 3 lw 1637 1130 m21 6 lw 1641 1109 m 7 Y s 1641 1127 m 7 Y s 3 lw 1641 1122 m21 6 lw
 1646 1117 m 7 Y s 1646 1135 m 7 Y s 3 lw 1646 1130 m21 6 lw 1651 1097 m 7 Y s 1651 1115 m 7 Y s 3 lw 1651 1109 m21 6 lw 1655 1113 m 7 Y s 1655 1131 m 7 Y s 3 lw 1655 1126 m21 6 lw 1660 1117 m 7 Y s 1660 1135 m 7 Y s 3 lw 1660 1129 m21 6 lw 1665 1101
 m 7 Y s 1665 1119 m 8 Y s 3 lw 1665 1114 m21 6 lw 1669 1111 m 7 Y s 1669 1129 m 8 Y s 3 lw 1669 1124 m21 6 lw 1674 1134 m 8 Y s 1674 1153 m 8 Y s 3 lw 1674 1147 m21 6 lw 1679 1128 m 7 Y s 1679 1147 m 7 Y s 3 lw 1679 1141 m21 6 lw 1684 1108 m 8 Y s
 1684 1127 m 8 Y s 3 lw 1684 1121 m21 6 lw 1688 1097 m 7 Y s 1688 1116 m 7 Y s 3 lw 1688 1110 m21 6 lw 1693 1132 m 8 Y s 1693 1151 m 8 Y s 3 lw 1693 1146 m21 6 lw 1698 1113 m 8 Y s 1698 1132 m 8 Y s 3 lw 1698 1127 m21 6 lw 1702 1133 m 8 Y s 1702 1152
 m 8 Y s 3 lw 1702 1147 m21 6 lw 1707 1122 m 8 Y s 1707 1141 m 8 Y s 3 lw 1707 1135 m21 6 lw 1712 1114 m 8 Y s 1712 1133 m 8 Y s 3 lw 1712 1127 m21 6 lw 1717 1127 m 8 Y s 1717 1147 m 8 Y s 3 lw 1717 1141 m21 6 lw 1721 1112 m 8 Y s 1721 1131 m 8 Y s 3
 lw 1721 1126 m21 6 lw 1726 1114 m 8 Y s 1726 1133 m 8 Y s 3 lw 1726 1127 m21 6 lw 1731 1134 m 8 Y s 1731 1154 m 8 Y s 3 lw 1731 1148 m21 6 lw 1735 1125 m 9 Y s 1735 1145 m 8 Y s 3 lw 1735 1139 m21 6 lw 1740 1140 m 9 Y s 1740 1160 m 9 Y s 3 lw 1740
 1154 m21 6 lw 1745 1129 m 9 Y s 1745 1149 m 9 Y s 3 lw 1745 1143 m21 6 lw 1749 1127 m 9 Y s 1749 1147 m 9 Y s 3 lw 1749 1142 m21 6 lw 1754 1120 m 9 Y s 1754 1140 m 9 Y s 3 lw 1754 1135 m21 6 lw 1759 1122 m 9 Y s 1759 1142 m 9 Y s 3 lw 1759 1136 m21
 6 lw 1764 1129 m 9 Y s 1764 1149 m 9 Y s 3 lw 1764 1143 m21 6 lw 1768 1119 m 9 Y s 1768 1140 m 9 Y s 3 lw 1768 1134 m21 6 lw 1773 1094 m 9 Y s 1773 1114 m 9 Y s 3 lw 1773 1108 m21 6 lw 1778 1153 m 10 Y s 1778 1174 m 9 Y s 3 lw 1778 1168 m21 6 lw
 1782 1131 m 9 Y s 1782 1151 m 10 Y s 3 lw 1782 1146 m21 6 lw 1787 1116 m 9 Y s 1787 1137 m 9 Y s 3 lw 1787 1131 m21 6 lw 1792 1104 m 10 Y s 1792 1125 m 9 Y s 3 lw 1792 1119 m21 6 lw 1797 1090 m 9 Y s 1797 1111 m 9 Y s 3 lw 1797 1105 m21 6 lw 1801
 1133 m 10 Y s 1801 1155 m 9 Y s 3 lw 1801 1149 m21 6 lw 1806 1095 m 10 Y s 1806 1116 m 10 Y s 3 lw 1806 1110 m21 6 lw 1811 1097 m 10 Y s 1811 1118 m 10 Y s 3 lw 1811 1113 m21 6 lw 1815 1107 m 10 Y s 1815 1128 m 10 Y s 3 lw 1815 1122 m21 6 lw 1820
 1117 m 10 Y s 1820 1138 m 10 Y s 3 lw 1820 1132 m21 6 lw 1825 1135 m 10 Y s 1825 1157 m 10 Y s 3 lw 1825 1151 m21 6 lw 1829 1121 m 10 Y s 1829 1142 m 10 Y s 3 lw 1829 1136 m21 6 lw 1834 1123 m 10 Y s 1834 1144 m 11 Y s 3 lw 1834 1139 m21 6 lw 1839
 1122 m 11 Y s 1839 1144 m 10 Y s 3 lw 1839 1138 m21 6 lw 1844 1129 m 11 Y s 1844 1151 m 11 Y s 3 lw 1844 1145 m21 6 lw 1848 1126 m 11 Y s 1848 1148 m 11 Y s 3 lw 1848 1143 m21 6 lw 1853 1103 m 10 Y s 1853 1124 m 11 Y s 3 lw 1853 1119 m21 6 lw 1858
 1112 m 11 Y s 1858 1134 m 11 Y s 3 lw 1858 1128 m21 6 lw 1862 1104 m 10 Y s 1862 1126 m 11 Y s 3 lw 1862 1120 m21 6 lw 1867 1122 m 11 Y s 1867 1144 m 11 Y s 3 lw 1867 1139 m21 6 lw 1872 1135 m 11 Y s 1872 1157 m 12 Y s 3 lw 1872 1152 m21 6 lw 1877
 1121 m 11 Y s 1877 1144 m 11 Y s 3 lw 1877 1138 m21 6 lw 1881 1119 m 11 Y s 1881 1141 m 11 Y s 3 lw 1881 1136 m21 6 lw 1886 1093 m 11 Y s 1886 1116 m 11 Y s 3 lw 1886 1110 m21 6 lw 1891 1160 m 11 Y s 1891 1183 m 11 Y s 3 lw 1891 1177 m21 6 lw 1895
 1118 m 12 Y s 1895 1141 m 11 Y s 3 lw 1895 1135 m21 6 lw 1900 1130 m 11 Y s 1900 1153 m 12 Y s 3 lw 1900 1147 m21 6 lw 1905 1083 m 11 Y s 1905 1106 m 11 Y s 3 lw 1905 1100 m21 6 lw 1909 1129 m 12 Y s 1909 1153 m 12 Y s 3 lw 1909 1147 m21 6 lw 1914
 1118 m 12 Y s 1914 1141 m 12 Y s 3 lw 1914 1136 m21 6 lw 1919 1105 m 12 Y s 1919 1128 m 12 Y s 3 lw 1919 1122 m21 6 lw 1924 1134 m 12 Y s 1924 1158 m 12 Y s 3 lw 1924 1152 m21 6 lw 1928 1145 m 12 Y s 1928 1169 m 12 Y s 3 lw 1928 1163 m21 6 lw 1933
 1135 m 12 Y s 1933 1159 m 12 Y s 3 lw 1933 1153 m21 6 lw 1938 1125 m 13 Y s 1938 1149 m 12 Y s 3 lw 1938 1143 m21 6 lw 1942 1090 m 13 Y s 1942 1114 m 12 Y s 3 lw 1942 1108 m21 6 lw 1947 1139 m 13 Y s 1947 1163 m 13 Y s 3 lw 1947 1158 m21 6 lw 1952
 1120 m 12 Y s 1952 1144 m 13 Y s 3 lw 1952 1138 m21 6 lw 1957 1105 m 13 Y s 1957 1129 m 13 Y s 3 lw 1957 1124 m21 6 lw 1961 1111 m 13 Y s 1961 1135 m 13 Y s 3 lw 1961 1129 m21 6 lw 1966 1122 m 13 Y s 1966 1147 m 13 Y s 3 lw 1966 1141 m21 6 lw 1971
 1116 m 13 Y s 1971 1141 m 13 Y s 3 lw 1971 1135 m21 6 lw 1975 1107 m 13 Y s 1975 1132 m 13 Y s 3 lw 1975 1126 m21 6 lw 1980 1117 m 13 Y s 1980 1142 m 13 Y s 3 lw 1980 1136 m21 6 lw 1985 1127 m 13 Y s 1985 1152 m 13 Y s 3 lw 1985 1146 m21 6 lw 1989
 1103 m 13 Y s 1989 1128 m 13 Y s 3 lw 1989 1122 m21 6 lw 1994 1127 m 14 Y s 1994 1152 m 14 Y s 3 lw 1994 1147 m21 6 lw 1999 1081 m 13 Y s 1999 1105 m 14 Y s 3 lw 1999 1100 m21 6 lw 2004 1128 m 14 Y s 2004 1153 m 14 Y s 3 lw 2004 1148 m21 6 lw 2008
 1129 m 14 Y s 2008 1154 m 14 Y s 3 lw 2008 1149 m21 6 lw 2013 1145 m 14 Y s 2013 1171 m 14 Y s 3 lw 2013 1165 m21 6 lw 2018 1132 m 14 Y s 2018 1158 m 14 Y s 3 lw 2018 1152 m21 6 lw 2022 1073 m 14 Y s 2022 1099 m 14 Y s 3 lw 2022 1093 m21 6 lw 2027
 1107 m 15 Y s 2027 1133 m 14 Y s 3 lw 2027 1127 m21 6 lw 2032 1142 m 15 Y s 2032 1168 m 15 Y s 3 lw 2032 1162 m21 6 lw 2036 1123 m 15 Y s 2036 1149 m 15 Y s 3 lw 2036 1143 m21 6 lw 2041 1085 m 14 Y s 2041 1111 m 14 Y s 3 lw 2041 1105 m21 6 lw 2046
 1131 m 15 Y s 2046 1157 m 15 Y s 3 lw 2046 1152 m21 6 lw 2051 1079 m 15 Y s 2051 1105 m 15 Y s 3 lw 2051 1100 m21 6 lw 2055 1126 m 15 Y s 2055 1153 m 15 Y s 3 lw 2055 1147 m21 6 lw 2060 1092 m 15 Y s 2060 1118 m 15 Y s 3 lw 2060 1112 m21 6 lw 2065
 1107 m 15 Y s 2065 1134 m 15 Y s 3 lw 2065 1128 m21 6 lw 2069 1126 m 16 Y s 2069 1153 m 16 Y s 3 lw 2069 1147 m21 6 lw 2074 1120 m 15 Y s 2074 1147 m 15 Y s 3 lw 2074 1141 m21 6 lw 2079 1078 m 16 Y s 2079 1105 m 16 Y s 3 lw 2079 1100 m21 6 lw 2084
 1131 m 16 Y s 2084 1158 m 16 Y s 3 lw 2084 1152 m21 6 lw 2088 1120 m 16 Y s 2088 1148 m 16 Y s 3 lw 2088 1142 m21 6 lw 2093 1145 m 16 Y s 2093 1173 m 16 Y s 3 lw 2093 1167 m21 6 lw 2098 1080 m 16 Y s 2098 1107 m 16 Y s 3 lw 2098 1102 m21 6 lw 2102
 1113 m 16 Y s 2102 1140 m 17 Y s 3 lw 2102 1135 m21 6 lw 2107 1127 m 17 Y s 2107 1155 m 17 Y s 3 lw 2107 1150 m21 6 lw 2112 1139 m 17 Y s 2112 1167 m 17 Y s 3 lw 2112 1162 m21 6 lw 2116 1128 m 17 Y s 2116 1157 m 17 Y s 3 lw 2116 1151 m21 6 lw 2121
 1155 m 18 Y s 2121 1184 m 18 Y s 3 lw 2121 1178 m21 6 lw 2126 1129 m 17 Y s 2126 1157 m 17 Y s 3 lw 2126 1152 m21 6 lw 2131 1098 m 17 Y s 2131 1127 m 17 Y s 3 lw 2131 1121 m21 6 lw 2135 1108 m 18 Y s 2135 1137 m 17 Y s 3 lw 2135 1131 m21 6 lw 2140
 1114 m 18 Y s 2140 1143 m 18 Y s 3 lw 2140 1138 m21 6 lw 2145 1093 m 18 Y s 2145 1122 m 17 Y s 3 lw 2145 1116 m21 6 lw 2149 1145 m 18 Y s 2149 1175 m 18 Y s 3 lw 2149 1169 m21 6 lw 2154 1088 m 17 Y s 2154 1117 m 17 Y s 3 lw 2154 1111 m21 6 lw 2159
 1122 m 18 Y s 2159 1151 m 18 Y s 3 lw 2159 1145 m21 6 lw 2164 1083 m 18 Y s 2164 1112 m 18 Y s 3 lw 2164 1106 m21 6 lw 2168 1103 m 18 Y s 2168 1133 m 18 Y s 3 lw 2168 1127 m21 6 lw 2173 1121 m 19 Y s 2173 1151 m 19 Y s 3 lw 2173 1146 m21 6 lw 2178
 1082 m 18 Y s 2178 1111 m 19 Y s 3 lw 2178 1106 m21 6 lw 2182 1043 m 18 Y s 2182 1072 m 18 Y s 3 lw 2182 1067 m21 6 lw 2187 1128 m 19 Y s 2187 1158 m 19 Y s 3 lw 2187 1152 m21 6 lw 2192 1109 m 19 Y s 2192 1139 m 19 Y s 3 lw 2192 1133 m21 6 lw 2196
 1153 m 19 Y s 2196 1184 m 19 Y s 3 lw 2196 1178 m21 6 lw 2201 1115 m 20 Y s 2201 1146 m 19 Y s 3 lw 2201 1140 m21 6 lw 2206 1097 m 19 Y s 2206 1127 m 19 Y s 3 lw 2206 1121 m21 6 lw 2211 1120 m 19 Y s 2211 1151 m 19 Y s 3 lw 2211 1145 m21 6 lw 2215
 1087 m 20 Y s 2215 1118 m 19 Y s 3 lw 2215 1112 m21 6 lw 2220 1125 m 20 Y s 2220 1156 m 20 Y s 3 lw 2220 1150 m21 6 lw black 340 223 m 1882 X s
 gsave  2268 2234 0 0 C 1923.86 58.2559 t 0 r /Helvetica findfont 83.8316 sf 0 0 m (Q [GeV]) show NC gr  340 279 m -56 Y s 387 251 m -28 Y s 434 251 m -28 Y s 481 251 m -28 Y s 528 279 m -56 Y s 575 251 m -28 Y s 622 251 m -28 Y s 670 251 m -28 Y s
 717 279 m -56 Y s 764 251 m -28 Y s 811 251 m -28 Y s 858 251 m -28 Y s 905 279 m -56 Y s 952 251 m -28 Y s 999 251 m -28 Y s 1046 251 m -28 Y s 1093 279 m -56 Y s 1140 251 m -28 Y s 1187 251 m -28 Y s 1234 251 m -28 Y s 1281 279 m -56 Y s 1328 251
 m -28 Y s 1375 251 m -28 Y s 1422 251 m -28 Y s 1469 279 m -56 Y s 1517 251 m -28 Y s 1564 251 m -28 Y s 1611 251 m -28 Y s 1658 279 m -56 Y s 1705 251 m -28 Y s 1752 251 m -28 Y s 1799 251 m -28 Y s 1846 279 m -56 Y s 1893 251 m -28 Y s 1940 251 m
 -28 Y s 1987 251 m -28 Y s 2034 279 m -56 Y s 2081 251 m -28 Y s 2128 251 m -28 Y s 2175 251 m -28 Y s 2222 279 m -56 Y s
 gsave  2268 2234 0 0 C 322.539 159.138 t 0 r /Helvetica findfont 62.5185 sf 0 0 m (0) show NC gr 
 gsave  2268 2234 0 0 C 484.518 159.138 t 0 r /Helvetica findfont 62.5185 sf 0 0 m (0.2) show NC gr 
 gsave  2268 2234 0 0 C 673.495 159.138 t 0 r /Helvetica findfont 62.5185 sf 0 0 m (0.4) show NC gr 
 gsave  2268 2234 0 0 C 861.05 159.138 t 0 r /Helvetica findfont 62.5185 sf 0 0 m (0.6) show NC gr 
 gsave  2268 2234 0 0 C 1050.03 159.138 t 0 r /Helvetica findfont 62.5185 sf 0 0 m (0.8) show NC gr 
 gsave  2268 2234 0 0 C 1268.84 159.138 t 0 r /Helvetica findfont 62.5185 sf 0 0 m (1) show NC gr 
 gsave  2268 2234 0 0 C 1426.56 159.138 t 0 r /Helvetica findfont 62.5185 sf 0 0 m (1.2) show NC gr 
 gsave  2268 2234 0 0 C 1614.11 159.138 t 0 r /Helvetica findfont 62.5185 sf 0 0 m (1.4) show NC gr 
 gsave  2268 2234 0 0 C 1803.09 159.138 t 0 r /Helvetica findfont 62.5185 sf 0 0 m (1.6) show NC gr 
 gsave  2268 2234 0 0 C 1990.65 159.138 t 0 r /Helvetica findfont 62.5185 sf 0 0 m (1.8) show NC gr 
 gsave  2268 2234 0 0 C 2205.2 159.138 t 0 r /Helvetica findfont 62.5185 sf 0 0 m (2) show NC gr  340 223 m 1966 Y s
 gsave  2268 2234 0 0 C 152.034 1953.7 t 90 r /Helvetica findfont 83.8316 sf 0 0 m (DR\(Q\)) show NC gr  400 402 m -60 X s 370 491 m -30 X s 370 581 m -30 X s 370 670 m -30 X s 400 759 m -60 X s 370 849 m -30 X s 370 938 m -30 X s 370 1027 m -30 X s
 400 1117 m -60 X s 370 1206 m -30 X s 370 1295 m -30 X s 370 1385 m -30 X s 400 1474 m -60 X s 370 1564 m -30 X s 370 1653 m -30 X s 370 1742 m -30 X s 400 1832 m -60 X s 370 1921 m -30 X s 370 2010 m -30 X s 370 2100 m -30 X s 400 2189 m -60 X s
 400 402 m -60 X s 370 313 m -30 X s 370 223 m -30 X s
 gsave  2268 2234 0 0 C 242.97 379.374 t 0 r /Helvetica findfont 62.5185 sf 0 0 m (0.6) show NC gr 
 gsave  2268 2234 0 0 C 242.97 737.434 t 0 r /Helvetica findfont 62.5185 sf 0 0 m (0.8) show NC gr 
 gsave  2268 2234 0 0 C 305.488 1092.65 t 0 r /Helvetica findfont 62.5185 sf 0 0 m (1) show NC gr 
 gsave  2268 2234 0 0 C 242.97 1450.71 t 0 r /Helvetica findfont 62.5185 sf 0 0 m (1.2) show NC gr 
 gsave  2268 2234 0 0 C 242.97 1808.77 t 0 r /Helvetica findfont 62.5185 sf 0 0 m (1.4) show NC gr 
 gsave  2268 2234 0 0 C 242.97 2166.83 t 0 r /Helvetica findfont 62.5185 sf 0 0 m (1.6) show NC gr 
 gsave  2268 2234 0 0 C 906.518 670.653 t 0 r /Helvetica-Bold findfont 72.4646 sf 0 0 m (DR PIONS) show NC gr 
 gsave  2268 2234 0 0 C 906.518 558.404 t 0 r /Helvetica-Bold findfont 72.4646 sf 0 0 m (ref. sample: EVENT MIX) show NC gr 
 gsave  2268 2234 0 0 C 906.518 447.576 t 0 r /Helvetica-Bold findfont 72.4646 sf 0 0 m (VELO tracks multiplicity: 11 \255 20) show NC gr 
 gr  gr showpage
end
%%EOF
