%!PS-Adobe-2.0 EPSF-2.0
%%BoundingBox:  0 0 567 558
%%Title: ./DR_pion_0c65_h3001_1_h3401_1.eps: DR_pion_0c65_h3001_1_h3401_1
%%Creator: ROOT Version 6.06/02
%%CreationDate: Wed Dec  7 17:36:12 2016
%%DocumentNeededResources: ProcSet (FontSetInit)
%%EndComments
%%BeginProlog
80 dict begin
/s {stroke} def /l {lineto} def /m {moveto} def /t {translate} def
/r {rotate} def /rl {roll}  def /R {repeat} def
/d {rlineto} def /rm {rmoveto} def /gr {grestore} def /f {eofill} def
/c {setrgbcolor} def /black {0 setgray} def /sd {setdash} def
/cl {closepath} def /sf {scalefont setfont} def /lw {setlinewidth} def
/box {m dup 0 exch d exch 0 d 0 exch neg d cl} def
/NC{systemdict begin initclip end}def/C{NC box clip newpath}def
/bl {box s} def /bf {gsave box gsave f grestore 1 lw [] 0 sd s grestore} def /Y { 0 exch d} def /X { 0 d} def 
/K {{pop pop 0 moveto} exch kshow} bind def
/ita {/ang 15 def gsave [1 0 ang dup sin exch cos div 1 0 0] concat} def 
/mp {newpath /y exch def /x exch def} def
/side {[w .77 mul w .23 mul] .385 w mul sd w 0 l currentpoint t -144 r} def
/mr {mp x y w2 0 360 arc} def /m24 {mr s} def /m20 {mr f} def
/mb {mp x y w2 add m w2 neg 0 d 0 w neg d w 0 d 0 w d cl} def
/mt {mp x y w2 add m w2 neg w neg d w 0 d cl} def
/m21 {mb f} def /m25 {mb s} def /m22 {mt f} def /m26{mt s} def
/m23 {mp x y w2 sub m w2 w d w neg 0 d cl f} def
/m27 {mp x y w2 add m w3 neg w2 neg d w3 w2 neg d w3 w2 d cl s} def
/m28 {mp x w2 sub y w2 sub w3 add m w3 0 d  0 w3 neg d w3 0 d 0 w3 d w3 0 d  0 w3 d w3 neg 0 d 0 w3 d w3 neg 0 d 0 w3 neg d w3 neg 0 d cl s } def
/m29 {mp gsave x w2 sub y w2 add w3 sub m currentpoint t 4 {side} repeat cl fill gr} def
/m30 {mp gsave x w2 sub y w2 add w3 sub m currentpoint t 4 {side} repeat cl s gr} def
/m31 {mp x y w2 sub m 0 w d x w2 sub y m w 0 d x w2 sub y w2 add m w w neg d x w2 sub y w2 sub m w w d s} def
/m32 {mp x y w2 sub m w2 w d w neg 0 d cl s} def
/m33 {mp x y w2 add m w3 neg w2 neg d w3 w2 neg d w3 w2 d cl f} def
/m34 {mp x w2 sub y w2 sub w3 add m w3 0 d  0 w3 neg d w3 0 d 0 w3 d w3 0 d  0 w3 d w3 neg 0 d 0 w3 d w3 neg 0 d 0 w3 neg d w3 neg 0 d cl f } def
/m2 {mp x y w2 sub m 0 w d x w2 sub y m w 0 d s} def
/m5 {mp x w2 sub y w2 sub m w w d x w2 sub y w2 add m w w neg d s} def
%%IncludeResource: ProcSet (FontSetInit)
%%IncludeResource: font Times-Roman
%%IncludeResource: font Times-Italic
%%IncludeResource: font Times-Bold
%%IncludeResource: font Times-BoldItalic
%%IncludeResource: font Helvetica
%%IncludeResource: font Helvetica-Oblique
%%IncludeResource: font Helvetica-Bold
%%IncludeResource: font Helvetica-BoldOblique
%%IncludeResource: font Courier
%%IncludeResource: font Courier-Oblique
%%IncludeResource: font Courier-Bold
%%IncludeResource: font Courier-BoldOblique
%%IncludeResource: font Symbol
%%IncludeResource: font ZapfDingbats
/reEncode {exch findfont dup length dict begin {1 index /FID eq  {pop pop} {def} ifelse } forall /Encoding exch def currentdict end dup /FontName get exch definefont pop } def [/Times-Bold /Times-Italic /Times-BoldItalic /Helvetica /Helvetica-Oblique
 /Helvetica-Bold /Helvetica-BoldOblique /Courier /Courier-Oblique /Courier-Bold /Courier-BoldOblique /Times-Roman /AvantGarde-Book /AvantGarde-BookOblique /AvantGarde-Demi /AvantGarde-DemiOblique /Bookman-Demi /Bookman-DemiItalic /Bookman-Light
 /Bookman-LightItalic /Helvetica-Narrow /Helvetica-Narrow-Bold /Helvetica-Narrow-BoldOblique /Helvetica-Narrow-Oblique /NewCenturySchlbk-Roman /NewCenturySchlbk-Bold /NewCenturySchlbk-BoldItalic /NewCenturySchlbk-Italic /Palatino-Bold
 /Palatino-BoldItalic /Palatino-Italic /Palatino-Roman ] {ISOLatin1Encoding reEncode } forall
%%EndProlog
%%BeginSetup
%%EndSetup
newpath  gsave  .25 .25 scale  gsave  0 0 t black[  ] 0 sd 6 lw 1 1 1 c 2268 2234 0 0 bf black 3 lw 1 1 1 c 1882 1966 340 223 bf black 1882 1966 340 223 bl 1 1 1 c 1882 1966 340 223 bf black 1882 1966 340 223 bl 0 0 1 c 6 lw 1 1 1 c 0 0 1 c 390 1745
 m 45 Y s 390 1802 m 45 Y s 3 lw /w 14 def /w2 {w 2 div} def /w3 {w 3 div} def 390 1796 m21 6 lw 394 1852 m 44 Y s 394 1907 m 44 Y s 3 lw 394 1901 m21 6 lw 399 1873 m 41 Y s 399 1925 m 41 Y s 3 lw 399 1920 m21 6 lw 404 1786 m 36 Y s 404 1833 m 37 Y s
 3 lw 404 1828 m21 6 lw 408 1784 m 33 Y s 408 1829 m 33 Y s 3 lw 408 1823 m21 6 lw 413 1729 m 31 Y s 413 1771 m 31 Y s 3 lw 413 1766 m21 6 lw 418 1620 m 27 Y s 418 1659 m 27 Y s 3 lw 418 1653 m21 6 lw 423 1618 m 26 Y s 423 1655 m 26 Y s 3 lw 423 1649
 m21 6 lw 427 1590 m 24 Y s 427 1625 m 24 Y s 3 lw 427 1619 m21 6 lw 432 1560 m 22 Y s 432 1594 m 22 Y s 3 lw 432 1588 m21 6 lw 437 1609 m 22 Y s 437 1642 m 22 Y s 3 lw 437 1636 m21 6 lw 441 1517 m 20 Y s 441 1548 m 20 Y s 3 lw 441 1543 m21 6 lw 446
 1543 m 20 Y s 446 1574 m 19 Y s 3 lw 446 1568 m21 6 lw 451 1570 m 19 Y s 451 1601 m 19 Y s 3 lw 451 1595 m21 6 lw 455 1509 m 18 Y s 455 1538 m 18 Y s 3 lw 455 1533 m21 6 lw 460 1490 m 17 Y s 460 1518 m 17 Y s 3 lw 460 1512 m21 6 lw 465 1491 m 17 Y s
 465 1519 m 17 Y s 3 lw 465 1514 m21 6 lw 470 1454 m 15 Y s 470 1481 m 15 Y s 3 lw 470 1475 m21 6 lw 474 1505 m 16 Y s 474 1532 m 16 Y s 3 lw 474 1527 m21 6 lw 479 1447 m 14 Y s 479 1473 m 14 Y s 3 lw 479 1467 m21 6 lw 484 1440 m 15 Y s 484 1466 m 14
 Y s 3 lw 484 1460 m21 6 lw 488 1426 m 14 Y s 488 1451 m 14 Y s 3 lw 488 1445 m21 6 lw 493 1420 m 14 Y s 493 1445 m 13 Y s 3 lw 493 1439 m21 6 lw 498 1374 m 12 Y s 498 1398 m 12 Y s 3 lw 498 1392 m21 6 lw 502 1389 m 13 Y s 502 1413 m 13 Y s 3 lw 502
 1407 m21 6 lw 507 1404 m 12 Y s 507 1428 m 12 Y s 3 lw 507 1422 m21 6 lw 512 1379 m 12 Y s 512 1403 m 12 Y s 3 lw 512 1397 m21 6 lw 517 1345 m 12 Y s 517 1368 m 11 Y s 3 lw 517 1362 m21 6 lw 521 1356 m 12 Y s 521 1379 m 11 Y s 3 lw 521 1373 m21 6 lw
 526 1339 m 11 Y s 526 1362 m 11 Y s 3 lw 526 1356 m21 6 lw 531 1327 m 10 Y s 531 1349 m 11 Y s 3 lw 531 1343 m21 6 lw 535 1343 m 11 Y s 535 1365 m 11 Y s 3 lw 535 1359 m21 6 lw 540 1322 m 10 Y s 540 1343 m 11 Y s 3 lw 540 1338 m21 6 lw 545 1297 m 10
 Y s 545 1318 m 10 Y s 3 lw 545 1312 m21 6 lw 550 1310 m 10 Y s 550 1331 m 10 Y s 3 lw 550 1326 m21 6 lw 554 1306 m 10 Y s 554 1327 m 10 Y s 3 lw 554 1321 m21 6 lw 559 1283 m 10 Y s 559 1304 m 9 Y s 3 lw 559 1298 m21 6 lw 564 1290 m 9 Y s 564 1311 m
 9 Y s 3 lw 564 1305 m21 6 lw 568 1258 m 9 Y s 568 1279 m 9 Y s 3 lw 568 1273 m21 6 lw 573 1255 m 8 Y s 573 1275 m 9 Y s 3 lw 573 1269 m21 6 lw 578 1263 m 9 Y s 578 1283 m 9 Y s 3 lw 578 1278 m21 6 lw 582 1251 m 8 Y s 582 1271 m 8 Y s 3 lw 582 1265
 m21 6 lw 587 1235 m 8 Y s 587 1255 m 8 Y s 3 lw 587 1249 m21 6 lw 592 1253 m 8 Y s 592 1273 m 8 Y s 3 lw 592 1267 m21 6 lw 597 1224 m 8 Y s 597 1244 m 8 Y s 3 lw 597 1238 m21 6 lw 601 1212 m 8 Y s 601 1231 m 8 Y s 3 lw 601 1225 m21 6 lw 606 1210 m 7
 Y s 606 1229 m 7 Y s 3 lw 606 1223 m21 6 lw 611 1177 m 7 Y s 611 1195 m 8 Y s 3 lw 611 1190 m21 6 lw 615 1249 m 8 Y s 615 1268 m 8 Y s 3 lw 615 1263 m21 6 lw 620 1211 m 8 Y s 620 1230 m 7 Y s 3 lw 620 1224 m21 6 lw 625 1209 m 7 Y s 625 1227 m 7 Y s
 3 lw 625 1221 m21 6 lw 630 1219 m 7 Y s 630 1238 m 7 Y s 3 lw 630 1232 m21 6 lw 634 1181 m 7 Y s 634 1200 m 7 Y s 3 lw 634 1194 m21 6 lw 639 1148 m 7 Y s 639 1166 m 7 Y s 3 lw 639 1161 m21 6 lw 644 1180 m 7 Y s 644 1198 m 7 Y s 3 lw 644 1193 m21 6
 lw 648 1186 m 7 Y s 648 1204 m 7 Y s 3 lw 648 1198 m21 6 lw 653 1192 m 7 Y s 653 1210 m 7 Y s 3 lw 653 1205 m21 6 lw 658 1161 m 6 Y s 658 1179 m 6 Y s 3 lw 658 1173 m21 6 lw 662 1164 m 7 Y s 662 1182 m 6 Y s 3 lw 662 1176 m21 6 lw 667 1168 m 6 Y s
 667 1186 m 6 Y s 3 lw 667 1180 m21 6 lw 672 1156 m 6 Y s 672 1173 m 6 Y s 3 lw 672 1167 m21 6 lw 677 1162 m 6 Y s 677 1179 m 6 Y s 3 lw 677 1173 m21 6 lw 681 1152 m 6 Y s 681 1170 m 6 Y s 3 lw 681 1164 m21 6 lw 686 1138 m 6 Y s 686 1155 m 6 Y s 3 lw
 686 1150 m21 6 lw 691 1147 m 6 Y s 691 1164 m 6 Y s 3 lw 691 1159 m21 6 lw 695 1162 m 6 Y s 695 1179 m 6 Y s 3 lw 695 1173 m21 6 lw 700 1162 m 6 Y s 700 1179 m 6 Y s 3 lw 700 1174 m21 6 lw 705 1132 m 6 Y s 705 1149 m 5 Y s 3 lw 705 1143 m21 6 lw 710
 1138 m 5 Y s 710 1154 m 6 Y s 3 lw 710 1149 m21 6 lw 714 1133 m 5 Y s 714 1150 m 5 Y s 3 lw 714 1144 m21 6 lw 719 1132 m 6 Y s 719 1149 m 5 Y s 3 lw 719 1143 m21 6 lw 724 1131 m 5 Y s 724 1147 m 6 Y s 3 lw 724 1142 m21 6 lw 728 1098 m 5 Y s 728 1114
 m 5 Y s 3 lw 728 1109 m21 6 lw 733 1145 m 5 Y s 733 1161 m 6 Y s 3 lw 733 1156 m21 6 lw 738 1112 m 5 Y s 738 1128 m 5 Y s 3 lw 738 1122 m21 6 lw 742 1128 m 5 Y s 742 1145 m 5 Y s 3 lw 742 1139 m21 6 lw 747 1113 m 5 Y s 747 1129 m 5 Y s 3 lw 747 1124
 m21 6 lw 752 1105 m 5 Y s 752 1121 m 5 Y s 3 lw 752 1116 m21 6 lw 757 1126 m 5 Y s 757 1142 m 5 Y s 3 lw 757 1136 m21 6 lw 761 1135 m 5 Y s 761 1151 m 5 Y s 3 lw 761 1145 m21 6 lw 766 1119 m 5 Y s 766 1135 m 5 Y s 3 lw 766 1130 m21 6 lw 771 1094 m 4
 Y s 771 1110 m 4 Y s 3 lw 771 1104 m21 6 lw 775 1089 m 4 Y s 775 1105 m 4 Y s 3 lw 775 1099 m21 6 lw 780 1096 m 5 Y s 780 1112 m 5 Y s 3 lw 780 1106 m21 6 lw 785 1119 m 4 Y s 785 1135 m 4 Y s 3 lw 785 1129 m21 6 lw 790 1114 m 4 Y s 790 1130 m 4 Y s
 3 lw 790 1124 m21 6 lw 794 1111 m 4 Y s 794 1126 m 5 Y s 3 lw 794 1121 m21 6 lw 799 1084 m 4 Y s 799 1100 m 4 Y s 3 lw 799 1094 m21 6 lw 804 1095 m 5 Y s 804 1111 m 4 Y s 3 lw 804 1105 m21 6 lw 808 1080 m 4 Y s 808 1096 m 4 Y s 3 lw 808 1090 m21 6
 lw 813 1086 m 4 Y s 813 1101 m 5 Y s 3 lw 813 1096 m21 6 lw 818 1091 m 4 Y s 818 1107 m 4 Y s 3 lw 818 1101 m21 6 lw 822 1082 m 4 Y s 822 1097 m 5 Y s 3 lw 822 1092 m21 6 lw 827 1081 m 4 Y s 827 1096 m 4 Y s 3 lw 827 1091 m21 6 lw 832 1086 m 4 Y s
 832 1102 m 4 Y s 3 lw 832 1096 m21 6 lw 837 1070 m 4 Y s 837 1085 m 4 Y s 3 lw 837 1080 m21 6 lw 841 1096 m 4 Y s 841 1112 m 4 Y s 3 lw 841 1106 m21 6 lw 846 1072 m 4 Y s 846 1088 m 4 Y s 3 lw 846 1082 m21 6 lw 851 1086 m 4 Y s 851 1101 m 4 Y s 3 lw
 851 1096 m21 6 lw 855 1065 m 4 Y s 855 1080 m 4 Y s 3 lw 855 1075 m21 6 lw 860 1073 m 4 Y s 860 1088 m 4 Y s 3 lw 860 1082 m21 6 lw 865 1079 m 4 Y s 865 1095 m 4 Y s 3 lw 865 1089 m21 6 lw 870 1078 m 3 Y s 870 1093 m 4 Y s 3 lw 870 1087 m21 6 lw 874
 1066 m 4 Y s 874 1081 m 4 Y s 3 lw 874 1075 m21 6 lw 879 1052 m 3 Y s 879 1067 m 4 Y s 3 lw 879 1061 m21 6 lw 884 1065 m 4 Y s 884 1080 m 4 Y s 3 lw 884 1075 m21 6 lw 888 1081 m 3 Y s 888 1096 m 4 Y s 3 lw 888 1090 m21 6 lw 893 1047 m 4 Y s 893 1062
 m 4 Y s 3 lw 893 1056 m21 6 lw 898 1073 m 4 Y s 898 1088 m 4 Y s 3 lw 898 1083 m21 6 lw 902 1061 m 3 Y s 902 1076 m 3 Y s 3 lw 902 1070 m21 6 lw 907 1044 m 3 Y s 907 1059 m 3 Y s 3 lw 907 1053 m21 6 lw 912 1058 m 4 Y s 912 1073 m 4 Y s 3 lw 912 1068
 m21 6 lw 917 1051 m 4 Y s 917 1066 m 4 Y s 3 lw 917 1060 m21 6 lw 921 1055 m 4 Y s 921 1071 m 3 Y s 3 lw 921 1065 m21 6 lw 926 1065 m 3 Y s 926 1080 m 4 Y s 3 lw 926 1074 m21 6 lw 931 1060 m 4 Y s 931 1075 m 4 Y s 3 lw 931 1069 m21 6 lw 935 1067 m 4
 Y s 935 1082 m 4 Y s 3 lw 935 1077 m21 6 lw 940 1050 m 4 Y s 940 1065 m 4 Y s 3 lw 940 1059 m21 6 lw 945 1045 m 4 Y s 945 1060 m 4 Y s 3 lw 945 1055 m21 6 lw 950 1041 m 4 Y s 950 1056 m 4 Y s 3 lw 950 1050 m21 6 lw 954 1049 m 4 Y s 954 1065 m 3 Y s
 3 lw 954 1059 m21 6 lw 959 1040 m 3 Y s 959 1055 m 3 Y s 3 lw 959 1049 m21 6 lw 964 1045 m 4 Y s 964 1060 m 4 Y s 3 lw 964 1055 m21 6 lw 968 1047 m 3 Y s 968 1062 m 3 Y s 3 lw 968 1056 m21 6 lw 973 1047 m 4 Y s 973 1063 m 3 Y s 3 lw 973 1057 m21 6
 lw 978 1050 m 4 Y s 978 1066 m 3 Y s 3 lw 978 1060 m21 6 lw 982 1037 m 4 Y s 982 1052 m 4 Y s 3 lw 982 1047 m21 6 lw 987 1026 m 4 Y s 987 1041 m 4 Y s 3 lw 987 1036 m21 6 lw 992 1040 m 4 Y s 992 1055 m 4 Y s 3 lw 992 1049 m21 6 lw 997 1052 m 4 Y s
 997 1067 m 4 Y s 3 lw 997 1062 m21 6 lw 1001 1042 m 4 Y s 1001 1057 m 4 Y s 3 lw 1001 1052 m21 6 lw 1006 1041 m 4 Y s 1006 1056 m 4 Y s 3 lw 1006 1050 m21 6 lw 1011 1025 m 4 Y s 1011 1040 m 4 Y s 3 lw 1011 1034 m21 6 lw 1015 1032 m 3 Y s 1015 1047 m
 3 Y s 3 lw 1015 1041 m21 6 lw 1020 1047 m 4 Y s 1020 1062 m 4 Y s 3 lw 1020 1056 m21 6 lw 1025 1032 m 3 Y s 1025 1047 m 4 Y s 3 lw 1025 1041 m21 6 lw 1030 1038 m 4 Y s 1030 1053 m 4 Y s 3 lw 1030 1048 m21 6 lw 1034 1049 m 4 Y s 1034 1065 m 4 Y s 3
 lw 1034 1059 m21 6 lw 1039 1058 m 4 Y s 1039 1073 m 4 Y s 3 lw 1039 1068 m21 6 lw 1044 1036 m 3 Y s 1044 1051 m 4 Y s 3 lw 1044 1045 m21 6 lw 1048 1061 m 4 Y s 1048 1076 m 4 Y s 3 lw 1048 1070 m21 6 lw 1053 1040 m 4 Y s 1053 1055 m 4 Y s 3 lw 1053
 1049 m21 6 lw 1058 1048 m 4 Y s 1058 1064 m 4 Y s 3 lw 1058 1058 m21 6 lw 1062 1059 m 4 Y s 1062 1075 m 4 Y s 3 lw 1062 1069 m21 6 lw 1067 1054 m 4 Y s 1067 1070 m 4 Y s 3 lw 1067 1064 m21 6 lw 1072 1054 m 4 Y s 1072 1069 m 4 Y s 3 lw 1072 1064 m21
 6 lw 1077 1044 m 4 Y s 1077 1059 m 4 Y s 3 lw 1077 1054 m21 6 lw 1081 1033 m 4 Y s 1081 1049 m 4 Y s 3 lw 1081 1043 m21 6 lw 1086 1054 m 4 Y s 1086 1069 m 4 Y s 3 lw 1086 1064 m21 6 lw 1091 1027 m 4 Y s 1091 1042 m 4 Y s 3 lw 1091 1037 m21 6 lw 1095
 1046 m 4 Y s 1095 1062 m 4 Y s 3 lw 1095 1056 m21 6 lw 1100 1042 m 4 Y s 1100 1057 m 5 Y s 3 lw 1100 1052 m21 6 lw 1105 1036 m 4 Y s 1105 1052 m 4 Y s 3 lw 1105 1046 m21 6 lw 1110 1032 m 4 Y s 1110 1047 m 4 Y s 3 lw 1110 1041 m21 6 lw 1114 1047 m 5
 Y s 1114 1063 m 4 Y s 3 lw 1114 1057 m21 6 lw 1119 1052 m 4 Y s 1119 1067 m 5 Y s 3 lw 1119 1062 m21 6 lw 1124 1040 m 4 Y s 1124 1056 m 4 Y s 3 lw 1124 1050 m21 6 lw 1128 1052 m 4 Y s 1128 1067 m 5 Y s 3 lw 1128 1062 m21 6 lw 1133 1054 m 5 Y s 1133
 1070 m 5 Y s 3 lw 1133 1065 m21 6 lw 1138 1046 m 4 Y s 1138 1061 m 5 Y s 3 lw 1138 1056 m21 6 lw 1142 1046 m 5 Y s 1142 1062 m 5 Y s 3 lw 1142 1057 m21 6 lw 1147 1055 m 4 Y s 1147 1071 m 4 Y s 3 lw 1147 1065 m21 6 lw 1152 1059 m 5 Y s 1152 1075 m 5
 Y s 3 lw 1152 1069 m21 6 lw 1157 1047 m 5 Y s 1157 1064 m 4 Y s 3 lw 1157 1058 m21 6 lw 1161 1048 m 5 Y s 1161 1064 m 5 Y s 3 lw 1161 1059 m21 6 lw 1166 1053 m 5 Y s 1166 1069 m 5 Y s 3 lw 1166 1064 m21 6 lw 1171 1060 m 5 Y s 1171 1076 m 5 Y s 3 lw
 1171 1070 m21 6 lw 1175 1042 m 5 Y s 1175 1058 m 5 Y s 3 lw 1175 1052 m21 6 lw 1180 1051 m 5 Y s 1180 1068 m 5 Y s 3 lw 1180 1062 m21 6 lw 1185 1066 m 5 Y s 1185 1082 m 5 Y s 3 lw 1185 1077 m21 6 lw 1190 1047 m 5 Y s 1190 1064 m 5 Y s 3 lw 1190 1058
 m21 6 lw 1194 1045 m 5 Y s 1194 1061 m 5 Y s 3 lw 1194 1055 m21 6 lw 1199 1041 m 5 Y s 1199 1057 m 5 Y s 3 lw 1199 1051 m21 6 lw 1204 1039 m 5 Y s 1204 1055 m 5 Y s 3 lw 1204 1050 m21 6 lw 1208 1057 m 5 Y s 1208 1073 m 5 Y s 3 lw 1208 1068 m21 6 lw
 1213 1046 m 5 Y s 1213 1063 m 5 Y s 3 lw 1213 1057 m21 6 lw 1218 1059 m 5 Y s 1218 1075 m 6 Y s 3 lw 1218 1070 m21 6 lw 1222 1050 m 5 Y s 1222 1066 m 6 Y s 3 lw 1222 1061 m21 6 lw 1227 1048 m 6 Y s 1227 1065 m 6 Y s 3 lw 1227 1059 m21 6 lw 1232 1048
 m 6 Y s 1232 1065 m 6 Y s 3 lw 1232 1059 m21 6 lw 1237 1054 m 5 Y s 1237 1070 m 6 Y s 3 lw 1237 1065 m21 6 lw 1241 1057 m 6 Y s 1241 1074 m 6 Y s 3 lw 1241 1068 m21 6 lw 1246 1058 m 6 Y s 1246 1075 m 6 Y s 3 lw 1246 1069 m21 6 lw 1251 1079 m 6 Y s
 1251 1096 m 6 Y s 3 lw 1251 1091 m21 6 lw 1255 1026 m 5 Y s 1255 1043 m 5 Y s 3 lw 1255 1037 m21 6 lw 1260 1064 m 6 Y s 1260 1081 m 6 Y s 3 lw 1260 1076 m21 6 lw 1265 1048 m 6 Y s 1265 1065 m 6 Y s 3 lw 1265 1059 m21 6 lw 1269 1070 m 6 Y s 1269 1088
 m 6 Y s 3 lw 1269 1082 m21 6 lw 1274 1057 m 6 Y s 1274 1075 m 6 Y s 3 lw 1274 1069 m21 6 lw 1279 1054 m 6 Y s 1279 1071 m 6 Y s 3 lw 1279 1066 m21 6 lw 1284 1040 m 6 Y s 1284 1058 m 6 Y s 3 lw 1284 1052 m21 6 lw 1288 1062 m 6 Y s 1288 1079 m 7 Y s 3
 lw 1288 1074 m21 6 lw 1293 1064 m 6 Y s 1293 1081 m 6 Y s 3 lw 1293 1076 m21 6 lw 1298 1049 m 6 Y s 1298 1067 m 6 Y s 3 lw 1298 1061 m21 6 lw 1302 1047 m 6 Y s 1302 1065 m 6 Y s 3 lw 1302 1059 m21 6 lw 1307 1075 m 6 Y s 1307 1093 m 6 Y s 3 lw 1307
 1087 m21 6 lw 1312 1065 m 7 Y s 1312 1083 m 7 Y s 3 lw 1312 1077 m21 6 lw 1317 1081 m 7 Y s 1317 1099 m 7 Y s 3 lw 1317 1093 m21 6 lw 1321 1053 m 6 Y s 1321 1071 m 6 Y s 3 lw 1321 1065 m21 6 lw 1326 1052 m 7 Y s 1326 1070 m 7 Y s 3 lw 1326 1065 m21
 6 lw 1331 1050 m 7 Y s 1331 1068 m 7 Y s 3 lw 1331 1063 m21 6 lw 1335 1061 m 7 Y s 1335 1079 m 7 Y s 3 lw 1335 1073 m21 6 lw 1340 1068 m 6 Y s 1340 1086 m 7 Y s 3 lw 1340 1080 m21 6 lw 1345 1042 m 7 Y s 1345 1060 m 7 Y s 3 lw 1345 1055 m21 6 lw 1349
 1051 m 7 Y s 1349 1069 m 7 Y s 3 lw 1349 1063 m21 6 lw 1354 1064 m 7 Y s 1354 1083 m 7 Y s 3 lw 1354 1077 m21 6 lw 1359 1067 m 7 Y s 1359 1086 m 7 Y s 3 lw 1359 1080 m21 6 lw 1364 1057 m 8 Y s 1364 1076 m 7 Y s 3 lw 1364 1070 m21 6 lw 1368 1073 m 7
 Y s 1368 1092 m 7 Y s 3 lw 1368 1086 m21 6 lw 1373 1079 m 8 Y s 1373 1098 m 8 Y s 3 lw 1373 1093 m21 6 lw 1378 1094 m 8 Y s 1378 1113 m 8 Y s 3 lw 1378 1107 m21 6 lw 1382 1082 m 8 Y s 1382 1102 m 7 Y s 3 lw 1382 1096 m21 6 lw 1387 1073 m 8 Y s 1387
 1092 m 8 Y s 3 lw 1387 1087 m21 6 lw 1392 1060 m 7 Y s 1392 1079 m 7 Y s 3 lw 1392 1073 m21 6 lw 1397 1063 m 8 Y s 1397 1082 m 8 Y s 3 lw 1397 1077 m21 6 lw 1401 1081 m 8 Y s 1401 1100 m 8 Y s 3 lw 1401 1095 m21 6 lw 1406 1100 m 8 Y s 1406 1119 m 9
 Y s 3 lw 1406 1114 m21 6 lw 1411 1069 m 8 Y s 1411 1089 m 8 Y s 3 lw 1411 1083 m21 6 lw 1415 1070 m 8 Y s 1415 1090 m 8 Y s 3 lw 1415 1084 m21 6 lw 1420 1080 m 8 Y s 1420 1099 m 9 Y s 3 lw 1420 1094 m21 6 lw 1425 1081 m 8 Y s 1425 1101 m 8 Y s 3 lw
 1425 1095 m21 6 lw 1429 1083 m 9 Y s 1429 1103 m 8 Y s 3 lw 1429 1097 m21 6 lw 1434 1039 m 8 Y s 1434 1059 m 8 Y s 3 lw 1434 1053 m21 6 lw 1439 1064 m 9 Y s 1439 1084 m 8 Y s 3 lw 1439 1078 m21 6 lw 1444 1086 m 9 Y s 1444 1106 m 9 Y s 3 lw 1444 1100
 m21 6 lw 1448 1100 m 9 Y s 1448 1121 m 9 Y s 3 lw 1448 1115 m21 6 lw 1453 1079 m 9 Y s 1453 1100 m 8 Y s 3 lw 1453 1094 m21 6 lw 1458 1095 m 9 Y s 1458 1116 m 9 Y s 3 lw 1458 1110 m21 6 lw 1462 1078 m 9 Y s 1462 1098 m 9 Y s 3 lw 1462 1093 m21 6 lw
 1467 1082 m 9 Y s 1467 1102 m 10 Y s 3 lw 1467 1097 m21 6 lw 1472 1073 m 9 Y s 1472 1093 m 9 Y s 3 lw 1472 1088 m21 6 lw 1477 1079 m 9 Y s 1477 1100 m 9 Y s 3 lw 1477 1094 m21 6 lw 1481 1081 m 9 Y s 1481 1102 m 9 Y s 3 lw 1481 1096 m21 6 lw 1486
 1079 m 9 Y s 1486 1100 m 9 Y s 3 lw 1486 1094 m21 6 lw 1491 1119 m 10 Y s 1491 1141 m 10 Y s 3 lw 1491 1135 m21 6 lw 1495 1072 m 10 Y s 1495 1093 m 10 Y s 3 lw 1495 1087 m21 6 lw 1500 1056 m 9 Y s 1500 1077 m 9 Y s 3 lw 1500 1071 m21 6 lw 1505 1089
 m 10 Y s 1505 1111 m 10 Y s 3 lw 1505 1105 m21 6 lw 1509 1066 m 10 Y s 1509 1087 m 10 Y s 3 lw 1509 1082 m21 6 lw 1514 1095 m 10 Y s 1514 1116 m 10 Y s 3 lw 1514 1110 m21 6 lw 1519 1081 m 10 Y s 1519 1102 m 10 Y s 3 lw 1519 1096 m21 6 lw 1524 1089 m
 10 Y s 1524 1111 m 10 Y s 3 lw 1524 1105 m21 6 lw 1528 1064 m 11 Y s 1528 1086 m 10 Y s 3 lw 1528 1080 m21 6 lw 1533 1087 m 11 Y s 1533 1109 m 11 Y s 3 lw 1533 1104 m21 6 lw 1538 1053 m 10 Y s 1538 1074 m 11 Y s 3 lw 1538 1069 m21 6 lw 1542 1107 m
 11 Y s 1542 1129 m 11 Y s 3 lw 1542 1123 m21 6 lw 1547 1080 m 11 Y s 1547 1102 m 11 Y s 3 lw 1547 1096 m21 6 lw 1552 1095 m 11 Y s 1552 1117 m 11 Y s 3 lw 1552 1112 m21 6 lw 1557 1082 m 12 Y s 1557 1105 m 11 Y s 3 lw 1557 1099 m21 6 lw 1561 1094 m
 12 Y s 1561 1117 m 11 Y s 3 lw 1561 1111 m21 6 lw 1566 1062 m 11 Y s 1566 1084 m 11 Y s 3 lw 1566 1078 m21 6 lw 1571 1116 m 12 Y s 1571 1139 m 12 Y s 3 lw 1571 1133 m21 6 lw 1575 1066 m 11 Y s 1575 1088 m 12 Y s 3 lw 1575 1083 m21 6 lw 1580 1091 m
 11 Y s 1580 1114 m 11 Y s 3 lw 1580 1108 m21 6 lw 1585 1113 m 12 Y s 1585 1137 m 12 Y s 3 lw 1585 1131 m21 6 lw 1589 1072 m 12 Y s 1589 1095 m 12 Y s 3 lw 1589 1090 m21 6 lw 1594 1102 m 12 Y s 1594 1125 m 12 Y s 3 lw 1594 1120 m21 6 lw 1599 1128 m
 13 Y s 1599 1152 m 13 Y s 3 lw 1599 1147 m21 6 lw 1604 1082 m 12 Y s 1604 1105 m 12 Y s 3 lw 1604 1100 m21 6 lw 1608 1103 m 12 Y s 1608 1127 m 12 Y s 3 lw 1608 1121 m21 6 lw 1613 1119 m 13 Y s 1613 1143 m 13 Y s 3 lw 1613 1137 m21 6 lw 1618 1115 m
 13 Y s 1618 1139 m 13 Y s 3 lw 1618 1133 m21 6 lw 1622 1109 m 13 Y s 1622 1134 m 12 Y s 3 lw 1622 1128 m21 6 lw 1627 1069 m 13 Y s 1627 1093 m 13 Y s 3 lw 1627 1087 m21 6 lw 1632 1115 m 13 Y s 1632 1140 m 13 Y s 3 lw 1632 1134 m21 6 lw 1637 1085 m
 13 Y s 1637 1109 m 13 Y s 3 lw 1637 1103 m21 6 lw 1641 1111 m 13 Y s 1641 1135 m 14 Y s 3 lw 1641 1130 m21 6 lw 1646 1112 m 13 Y s 1646 1137 m 13 Y s 3 lw 1646 1131 m21 6 lw 1651 1089 m 14 Y s 1651 1114 m 13 Y s 3 lw 1651 1108 m21 6 lw 1655 1079 m
 14 Y s 1655 1104 m 13 Y s 3 lw 1655 1098 m21 6 lw 1660 1088 m 14 Y s 1660 1113 m 14 Y s 3 lw 1660 1108 m21 6 lw 1665 1094 m 14 Y s 1665 1119 m 14 Y s 3 lw 1665 1114 m21 6 lw 1669 1089 m 14 Y s 1669 1114 m 14 Y s 3 lw 1669 1109 m21 6 lw 1674 1087 m
 14 Y s 1674 1112 m 14 Y s 3 lw 1674 1107 m21 6 lw 1679 1112 m 15 Y s 1679 1138 m 15 Y s 3 lw 1679 1133 m21 6 lw 1684 1150 m 15 Y s 1684 1177 m 15 Y s 3 lw 1684 1171 m21 6 lw 1688 1097 m 14 Y s 1688 1123 m 14 Y s 3 lw 1688 1117 m21 6 lw 1693 1117 m
 15 Y s 1693 1143 m 15 Y s 3 lw 1693 1137 m21 6 lw 1698 1124 m 16 Y s 1698 1151 m 15 Y s 3 lw 1698 1145 m21 6 lw 1702 1095 m 15 Y s 1702 1121 m 15 Y s 3 lw 1702 1115 m21 6 lw 1707 1140 m 15 Y s 1707 1167 m 15 Y s 3 lw 1707 1161 m21 6 lw 1712 1107 m
 16 Y s 1712 1134 m 15 Y s 3 lw 1712 1128 m21 6 lw 1717 1098 m 15 Y s 1717 1125 m 15 Y s 3 lw 1717 1119 m21 6 lw 1721 1097 m 16 Y s 1721 1124 m 15 Y s 3 lw 1721 1118 m21 6 lw 1726 1136 m 16 Y s 1726 1163 m 16 Y s 3 lw 1726 1158 m21 6 lw 1731 1097 m
 16 Y s 1731 1124 m 16 Y s 3 lw 1731 1119 m21 6 lw 1735 1129 m 16 Y s 1735 1156 m 16 Y s 3 lw 1735 1150 m21 6 lw 1740 1115 m 16 Y s 1740 1142 m 17 Y s 3 lw 1740 1137 m21 6 lw 1745 1111 m 16 Y s 1745 1138 m 16 Y s 3 lw 1745 1133 m21 6 lw 1749 1111 m
 16 Y s 1749 1139 m 16 Y s 3 lw 1749 1133 m21 6 lw 1754 1126 m 16 Y s 1754 1154 m 16 Y s 3 lw 1754 1148 m21 6 lw 1759 1120 m 16 Y s 1759 1148 m 16 Y s 3 lw 1759 1142 m21 6 lw 1764 1138 m 17 Y s 1764 1166 m 17 Y s 3 lw 1764 1161 m21 6 lw 1768 1117 m
 17 Y s 1768 1145 m 18 Y s 3 lw 1768 1140 m21 6 lw 1773 1103 m 17 Y s 1773 1131 m 17 Y s 3 lw 1773 1126 m21 6 lw 1778 1089 m 17 Y s 1778 1117 m 17 Y s 3 lw 1778 1111 m21 6 lw 1782 1123 m 18 Y s 1782 1152 m 18 Y s 3 lw 1782 1147 m21 6 lw 1787 1105 m
 18 Y s 1787 1134 m 18 Y s 3 lw 1787 1129 m21 6 lw 1792 1095 m 18 Y s 1792 1124 m 17 Y s 3 lw 1792 1118 m21 6 lw 1797 1142 m 18 Y s 1797 1172 m 18 Y s 3 lw 1797 1166 m21 6 lw 1801 1126 m 18 Y s 1801 1155 m 18 Y s 3 lw 1801 1150 m21 6 lw 1806 1141 m
 19 Y s 1806 1171 m 19 Y s 3 lw 1806 1166 m21 6 lw 1811 1102 m 18 Y s 1811 1132 m 18 Y s 3 lw 1811 1126 m21 6 lw 1815 1161 m 19 Y s 1815 1191 m 19 Y s 3 lw 1815 1186 m21 6 lw 1820 1076 m 18 Y s 1820 1106 m 18 Y s 3 lw 1820 1100 m21 6 lw 1825 1083 m
 18 Y s 1825 1112 m 19 Y s 3 lw 1825 1107 m21 6 lw 1829 1064 m 18 Y s 1829 1094 m 18 Y s 3 lw 1829 1088 m21 6 lw 1834 1087 m 19 Y s 1834 1117 m 19 Y s 3 lw 1834 1112 m21 6 lw 1839 1118 m 19 Y s 1839 1149 m 19 Y s 3 lw 1839 1143 m21 6 lw 1844 1114 m
 19 Y s 1844 1145 m 19 Y s 3 lw 1844 1139 m21 6 lw 1848 1102 m 20 Y s 1848 1133 m 19 Y s 3 lw 1848 1127 m21 6 lw 1853 1118 m 20 Y s 1853 1150 m 19 Y s 3 lw 1853 1144 m21 6 lw 1858 1072 m 19 Y s 1858 1102 m 20 Y s 3 lw 1858 1097 m21 6 lw 1862 1093 m
 20 Y s 1862 1124 m 20 Y s 3 lw 1862 1118 m21 6 lw 1867 1124 m 20 Y s 1867 1155 m 21 Y s 3 lw 1867 1150 m21 6 lw 1872 1132 m 21 Y s 1872 1164 m 21 Y s 3 lw 1872 1158 m21 6 lw 1877 1085 m 20 Y s 1877 1116 m 20 Y s 3 lw 1877 1110 m21 6 lw 1881 1124 m
 21 Y s 1881 1156 m 21 Y s 3 lw 1881 1150 m21 6 lw 1886 1079 m 21 Y s 1886 1111 m 20 Y s 3 lw 1886 1105 m21 6 lw 1891 1124 m 22 Y s 1891 1157 m 21 Y s 3 lw 1891 1151 m21 6 lw 1895 1096 m 21 Y s 1895 1129 m 21 Y s 3 lw 1895 1123 m21 6 lw 1900 1114 m
 21 Y s 1900 1146 m 22 Y s 3 lw 1900 1141 m21 6 lw 1905 1128 m 21 Y s 1905 1161 m 22 Y s 3 lw 1905 1155 m21 6 lw 1909 1163 m 23 Y s 1909 1197 m 23 Y s 3 lw 1909 1191 m21 6 lw 1914 1115 m 22 Y s 1914 1148 m 22 Y s 3 lw 1914 1143 m21 6 lw 1919 1123 m
 22 Y s 1919 1157 m 22 Y s 3 lw 1919 1151 m21 6 lw 1924 1086 m 22 Y s 1924 1120 m 22 Y s 3 lw 1924 1114 m21 6 lw 1928 1185 m 24 Y s 1928 1220 m 24 Y s 3 lw 1928 1215 m21 6 lw 1933 1125 m 23 Y s 1933 1160 m 23 Y s 3 lw 1933 1154 m21 6 lw 1938 1151 m
 23 Y s 1938 1186 m 23 Y s 3 lw 1938 1180 m21 6 lw 1942 1107 m 23 Y s 1942 1141 m 23 Y s 3 lw 1942 1135 m21 6 lw 1947 1161 m 24 Y s 1947 1196 m 25 Y s 3 lw 1947 1191 m21 6 lw 1952 1152 m 24 Y s 1952 1188 m 24 Y s 3 lw 1952 1182 m21 6 lw 1957 1149 m
 25 Y s 1957 1185 m 24 Y s 3 lw 1957 1179 m21 6 lw 1961 1131 m 24 Y s 1961 1166 m 24 Y s 3 lw 1961 1161 m21 6 lw 1966 1150 m 25 Y s 1966 1187 m 24 Y s 3 lw 1966 1181 m21 6 lw 1971 1142 m 25 Y s 1971 1178 m 25 Y s 3 lw 1971 1173 m21 6 lw 1975 1176 m
 25 Y s 1975 1212 m 26 Y s 3 lw 1975 1207 m21 6 lw 1980 1063 m 24 Y s 1980 1098 m 24 Y s 3 lw 1980 1092 m21 6 lw 1985 1108 m 25 Y s 1985 1144 m 25 Y s 3 lw 1985 1138 m21 6 lw 1989 1109 m 25 Y s 1989 1146 m 25 Y s 3 lw 1989 1140 m21 6 lw 1994 1151 m
 26 Y s 1994 1188 m 26 Y s 3 lw 1994 1183 m21 6 lw 1999 1136 m 25 Y s 1999 1173 m 26 Y s 3 lw 1999 1167 m21 6 lw 2004 1139 m 26 Y s 2004 1177 m 26 Y s 3 lw 2004 1171 m21 6 lw 2008 1074 m 25 Y s 2008 1110 m 25 Y s 3 lw 2008 1104 m21 6 lw 2013 1155 m
 27 Y s 2013 1193 m 27 Y s 3 lw 2013 1188 m21 6 lw 2018 1078 m 25 Y s 2018 1115 m 25 Y s 3 lw 2018 1109 m21 6 lw 2022 1117 m 27 Y s 2022 1155 m 26 Y s 3 lw 2022 1149 m21 6 lw 2027 1208 m 29 Y s 2027 1248 m 29 Y s 3 lw 2027 1242 m21 6 lw 2032 1139 m
 27 Y s 2032 1177 m 28 Y s 3 lw 2032 1172 m21 6 lw 2036 1099 m 27 Y s 2036 1137 m 27 Y s 3 lw 2036 1132 m21 6 lw 2041 1119 m 28 Y s 2041 1158 m 27 Y s 3 lw 2041 1152 m21 6 lw 2046 1076 m 27 Y s 2046 1115 m 26 Y s 3 lw 2046 1109 m21 6 lw 2051 1106 m
 27 Y s 2051 1145 m 27 Y s 3 lw 2051 1139 m21 6 lw 2055 1140 m 28 Y s 2055 1180 m 28 Y s 3 lw 2055 1174 m21 6 lw 2060 1151 m 29 Y s 2060 1191 m 29 Y s 3 lw 2060 1185 m21 6 lw 2065 1107 m 28 Y s 2065 1146 m 29 Y s 3 lw 2065 1141 m21 6 lw 2069 1088 m
 28 Y s 2069 1128 m 28 Y s 3 lw 2069 1122 m21 6 lw 2074 1108 m 28 Y s 2074 1148 m 29 Y s 3 lw 2074 1142 m21 6 lw 2079 1180 m 31 Y s 2079 1222 m 30 Y s 3 lw 2079 1216 m21 6 lw 2084 1176 m 31 Y s 2084 1218 m 31 Y s 3 lw 2084 1213 m21 6 lw 2088 1104 m
 29 Y s 2088 1145 m 29 Y s 3 lw 2088 1139 m21 6 lw 2093 1100 m 29 Y s 2093 1140 m 30 Y s 3 lw 2093 1135 m21 6 lw 2098 1111 m 30 Y s 2098 1152 m 30 Y s 3 lw 2098 1147 m21 6 lw 2102 1139 m 30 Y s 2102 1181 m 30 Y s 3 lw 2102 1175 m21 6 lw 2107 1135 m
 31 Y s 2107 1177 m 31 Y s 3 lw 2107 1171 m21 6 lw 2112 1113 m 31 Y s 2112 1155 m 31 Y s 3 lw 2112 1149 m21 6 lw 2116 1133 m 31 Y s 2116 1176 m 31 Y s 3 lw 2116 1170 m21 6 lw 2121 1119 m 31 Y s 2121 1162 m 31 Y s 3 lw 2121 1156 m21 6 lw 2126 1116 m
 31 Y s 2126 1159 m 31 Y s 3 lw 2126 1153 m21 6 lw 2131 1115 m 32 Y s 2131 1158 m 32 Y s 3 lw 2131 1153 m21 6 lw 2135 1110 m 31 Y s 2135 1152 m 32 Y s 3 lw 2135 1147 m21 6 lw 2140 1163 m 34 Y s 2140 1208 m 34 Y s 3 lw 2140 1203 m21 6 lw 2145 1153 m
 34 Y s 2145 1198 m 34 Y s 3 lw 2145 1193 m21 6 lw 2149 1204 m 34 Y s 2149 1249 m 35 Y s 3 lw 2149 1244 m21 6 lw 2154 1115 m 32 Y s 2154 1159 m 32 Y s 3 lw 2154 1153 m21 6 lw 2159 1124 m 34 Y s 2159 1169 m 33 Y s 3 lw 2159 1163 m21 6 lw 2164 1099 m
 33 Y s 2164 1144 m 33 Y s 3 lw 2164 1138 m21 6 lw 2168 1178 m 35 Y s 2168 1224 m 35 Y s 3 lw 2168 1219 m21 6 lw 2173 1083 m 33 Y s 2173 1127 m 33 Y s 3 lw 2173 1122 m21 6 lw 2178 1121 m 34 Y s 2178 1166 m 35 Y s 3 lw 2178 1161 m21 6 lw 2182 1096 m
 34 Y s 2182 1141 m 34 Y s 3 lw 2182 1136 m21 6 lw 2187 1152 m 35 Y s 2187 1199 m 35 Y s 3 lw 2187 1193 m21 6 lw 2192 1009 m 32 Y s 2192 1053 m 32 Y s 3 lw 2192 1047 m21 6 lw 2196 1102 m 35 Y s 2196 1149 m 35 Y s 3 lw 2196 1143 m21 6 lw 2201 1159 m
 37 Y s 2201 1207 m 36 Y s 3 lw 2201 1201 m21 6 lw 2206 1115 m 35 Y s 2206 1162 m 35 Y s 3 lw 2206 1156 m21 6 lw 2211 1090 m 36 Y s 2211 1137 m 35 Y s 3 lw 2211 1131 m21 6 lw 2215 1109 m 36 Y s 2215 1156 m 36 Y s 3 lw 2215 1151 m21 6 lw 2220 1195 m
 38 Y s 2220 1244 m 38 Y s 3 lw 2220 1239 m21 6 lw black 340 223 m 1882 X s
 gsave  2268 2234 0 0 C 1923.86 58.2559 t 0 r /Helvetica findfont 83.8316 sf 0 0 m (Q [GeV]) show NC gr  340 279 m -56 Y s 387 251 m -28 Y s 434 251 m -28 Y s 481 251 m -28 Y s 528 279 m -56 Y s 575 251 m -28 Y s 622 251 m -28 Y s 670 251 m -28 Y s
 717 279 m -56 Y s 764 251 m -28 Y s 811 251 m -28 Y s 858 251 m -28 Y s 905 279 m -56 Y s 952 251 m -28 Y s 999 251 m -28 Y s 1046 251 m -28 Y s 1093 279 m -56 Y s 1140 251 m -28 Y s 1187 251 m -28 Y s 1234 251 m -28 Y s 1281 279 m -56 Y s 1328 251
 m -28 Y s 1375 251 m -28 Y s 1422 251 m -28 Y s 1469 279 m -56 Y s 1517 251 m -28 Y s 1564 251 m -28 Y s 1611 251 m -28 Y s 1658 279 m -56 Y s 1705 251 m -28 Y s 1752 251 m -28 Y s 1799 251 m -28 Y s 1846 279 m -56 Y s 1893 251 m -28 Y s 1940 251 m
 -28 Y s 1987 251 m -28 Y s 2034 279 m -56 Y s 2081 251 m -28 Y s 2128 251 m -28 Y s 2175 251 m -28 Y s 2222 279 m -56 Y s
 gsave  2268 2234 0 0 C 322.539 159.138 t 0 r /Helvetica findfont 62.5185 sf 0 0 m (0) show NC gr 
 gsave  2268 2234 0 0 C 484.518 159.138 t 0 r /Helvetica findfont 62.5185 sf 0 0 m (0.2) show NC gr 
 gsave  2268 2234 0 0 C 673.495 159.138 t 0 r /Helvetica findfont 62.5185 sf 0 0 m (0.4) show NC gr 
 gsave  2268 2234 0 0 C 861.05 159.138 t 0 r /Helvetica findfont 62.5185 sf 0 0 m (0.6) show NC gr 
 gsave  2268 2234 0 0 C 1050.03 159.138 t 0 r /Helvetica findfont 62.5185 sf 0 0 m (0.8) show NC gr 
 gsave  2268 2234 0 0 C 1268.84 159.138 t 0 r /Helvetica findfont 62.5185 sf 0 0 m (1) show NC gr 
 gsave  2268 2234 0 0 C 1426.56 159.138 t 0 r /Helvetica findfont 62.5185 sf 0 0 m (1.2) show NC gr 
 gsave  2268 2234 0 0 C 1614.11 159.138 t 0 r /Helvetica findfont 62.5185 sf 0 0 m (1.4) show NC gr 
 gsave  2268 2234 0 0 C 1803.09 159.138 t 0 r /Helvetica findfont 62.5185 sf 0 0 m (1.6) show NC gr 
 gsave  2268 2234 0 0 C 1990.65 159.138 t 0 r /Helvetica findfont 62.5185 sf 0 0 m (1.8) show NC gr 
 gsave  2268 2234 0 0 C 2205.2 159.138 t 0 r /Helvetica findfont 62.5185 sf 0 0 m (2) show NC gr  340 223 m 1966 Y s
 gsave  2268 2234 0 0 C 152.034 1953.7 t 90 r /Helvetica findfont 83.8316 sf 0 0 m (DR\(Q\)) show NC gr  400 402 m -60 X s 370 491 m -30 X s 370 581 m -30 X s 370 670 m -30 X s 400 759 m -60 X s 370 849 m -30 X s 370 938 m -30 X s 370 1027 m -30 X s
 400 1117 m -60 X s 370 1206 m -30 X s 370 1295 m -30 X s 370 1385 m -30 X s 400 1474 m -60 X s 370 1564 m -30 X s 370 1653 m -30 X s 370 1742 m -30 X s 400 1832 m -60 X s 370 1921 m -30 X s 370 2010 m -30 X s 370 2100 m -30 X s 400 2189 m -60 X s
 400 402 m -60 X s 370 313 m -30 X s 370 223 m -30 X s
 gsave  2268 2234 0 0 C 242.97 379.374 t 0 r /Helvetica findfont 62.5185 sf 0 0 m (0.6) show NC gr 
 gsave  2268 2234 0 0 C 242.97 737.434 t 0 r /Helvetica findfont 62.5185 sf 0 0 m (0.8) show NC gr 
 gsave  2268 2234 0 0 C 305.488 1092.65 t 0 r /Helvetica findfont 62.5185 sf 0 0 m (1) show NC gr 
 gsave  2268 2234 0 0 C 242.97 1450.71 t 0 r /Helvetica findfont 62.5185 sf 0 0 m (1.2) show NC gr 
 gsave  2268 2234 0 0 C 242.97 1808.77 t 0 r /Helvetica findfont 62.5185 sf 0 0 m (1.4) show NC gr 
 gsave  2268 2234 0 0 C 242.97 2166.83 t 0 r /Helvetica findfont 62.5185 sf 0 0 m (1.6) show NC gr 
 gsave  2268 2234 0 0 C 906.518 670.653 t 0 r /Helvetica-Bold findfont 72.4646 sf 0 0 m (DR PIONS) show NC gr 
 gsave  2268 2234 0 0 C 906.518 558.404 t 0 r /Helvetica-Bold findfont 72.4646 sf 0 0 m (ref. sample: EVENT MIX) show NC gr 
 gsave  2268 2234 0 0 C 906.518 447.576 t 0 r /Helvetica-Bold findfont 72.4646 sf 0 0 m (VELO tracks multiplicity: < 10) show NC gr 
 gr  gr showpage
end
%%EOF
