%!PS-Adobe-2.0 EPSF-2.0
%%BoundingBox:  0 0 567 558
%%Title: ./DR_pion_0c65_h3001_1_h3401_1.eps: DR_pion_0c65_h3001_1_h3401_1
%%Creator: ROOT Version 6.06/02
%%CreationDate: Wed Dec  7 17:33:34 2016
%%DocumentNeededResources: ProcSet (FontSetInit)
%%EndComments
%%BeginProlog
80 dict begin
/s {stroke} def /l {lineto} def /m {moveto} def /t {translate} def
/r {rotate} def /rl {roll}  def /R {repeat} def
/d {rlineto} def /rm {rmoveto} def /gr {grestore} def /f {eofill} def
/c {setrgbcolor} def /black {0 setgray} def /sd {setdash} def
/cl {closepath} def /sf {scalefont setfont} def /lw {setlinewidth} def
/box {m dup 0 exch d exch 0 d 0 exch neg d cl} def
/NC{systemdict begin initclip end}def/C{NC box clip newpath}def
/bl {box s} def /bf {gsave box gsave f grestore 1 lw [] 0 sd s grestore} def /Y { 0 exch d} def /X { 0 d} def 
/K {{pop pop 0 moveto} exch kshow} bind def
/ita {/ang 15 def gsave [1 0 ang dup sin exch cos div 1 0 0] concat} def 
/mp {newpath /y exch def /x exch def} def
/side {[w .77 mul w .23 mul] .385 w mul sd w 0 l currentpoint t -144 r} def
/mr {mp x y w2 0 360 arc} def /m24 {mr s} def /m20 {mr f} def
/mb {mp x y w2 add m w2 neg 0 d 0 w neg d w 0 d 0 w d cl} def
/mt {mp x y w2 add m w2 neg w neg d w 0 d cl} def
/m21 {mb f} def /m25 {mb s} def /m22 {mt f} def /m26{mt s} def
/m23 {mp x y w2 sub m w2 w d w neg 0 d cl f} def
/m27 {mp x y w2 add m w3 neg w2 neg d w3 w2 neg d w3 w2 d cl s} def
/m28 {mp x w2 sub y w2 sub w3 add m w3 0 d  0 w3 neg d w3 0 d 0 w3 d w3 0 d  0 w3 d w3 neg 0 d 0 w3 d w3 neg 0 d 0 w3 neg d w3 neg 0 d cl s } def
/m29 {mp gsave x w2 sub y w2 add w3 sub m currentpoint t 4 {side} repeat cl fill gr} def
/m30 {mp gsave x w2 sub y w2 add w3 sub m currentpoint t 4 {side} repeat cl s gr} def
/m31 {mp x y w2 sub m 0 w d x w2 sub y m w 0 d x w2 sub y w2 add m w w neg d x w2 sub y w2 sub m w w d s} def
/m32 {mp x y w2 sub m w2 w d w neg 0 d cl s} def
/m33 {mp x y w2 add m w3 neg w2 neg d w3 w2 neg d w3 w2 d cl f} def
/m34 {mp x w2 sub y w2 sub w3 add m w3 0 d  0 w3 neg d w3 0 d 0 w3 d w3 0 d  0 w3 d w3 neg 0 d 0 w3 d w3 neg 0 d 0 w3 neg d w3 neg 0 d cl f } def
/m2 {mp x y w2 sub m 0 w d x w2 sub y m w 0 d s} def
/m5 {mp x w2 sub y w2 sub m w w d x w2 sub y w2 add m w w neg d s} def
%%IncludeResource: ProcSet (FontSetInit)
%%IncludeResource: font Times-Roman
%%IncludeResource: font Times-Italic
%%IncludeResource: font Times-Bold
%%IncludeResource: font Times-BoldItalic
%%IncludeResource: font Helvetica
%%IncludeResource: font Helvetica-Oblique
%%IncludeResource: font Helvetica-Bold
%%IncludeResource: font Helvetica-BoldOblique
%%IncludeResource: font Courier
%%IncludeResource: font Courier-Oblique
%%IncludeResource: font Courier-Bold
%%IncludeResource: font Courier-BoldOblique
%%IncludeResource: font Symbol
%%IncludeResource: font ZapfDingbats
/reEncode {exch findfont dup length dict begin {1 index /FID eq  {pop pop} {def} ifelse } forall /Encoding exch def currentdict end dup /FontName get exch definefont pop } def [/Times-Bold /Times-Italic /Times-BoldItalic /Helvetica /Helvetica-Oblique
 /Helvetica-Bold /Helvetica-BoldOblique /Courier /Courier-Oblique /Courier-Bold /Courier-BoldOblique /Times-Roman /AvantGarde-Book /AvantGarde-BookOblique /AvantGarde-Demi /AvantGarde-DemiOblique /Bookman-Demi /Bookman-DemiItalic /Bookman-Light
 /Bookman-LightItalic /Helvetica-Narrow /Helvetica-Narrow-Bold /Helvetica-Narrow-BoldOblique /Helvetica-Narrow-Oblique /NewCenturySchlbk-Roman /NewCenturySchlbk-Bold /NewCenturySchlbk-BoldItalic /NewCenturySchlbk-Italic /Palatino-Bold
 /Palatino-BoldItalic /Palatino-Italic /Palatino-Roman ] {ISOLatin1Encoding reEncode } forall
%%EndProlog
%%BeginSetup
%%EndSetup
newpath  gsave  .25 .25 scale  gsave  0 0 t black[  ] 0 sd 6 lw 1 1 1 c 2268 2234 0 0 bf black 3 lw 1 1 1 c 1882 1966 340 223 bf black 1882 1966 340 223 bl 1 1 1 c 1882 1966 340 223 bf black 1882 1966 340 223 bl 0 0 1 c 6 lw 1 1 1 c 0 0 1 c 390 1732
 m 45 Y s 390 1789 m 45 Y s 3 lw /w 14 def /w2 {w 2 div} def /w3 {w 3 div} def 390 1783 m21 6 lw 394 1839 m 44 Y s 394 1894 m 44 Y s 3 lw 394 1888 m21 6 lw 399 1859 m 41 Y s 399 1911 m 40 Y s 3 lw 399 1905 m21 6 lw 404 1773 m 36 Y s 404 1821 m 36 Y s
 3 lw 404 1815 m21 6 lw 408 1773 m 33 Y s 408 1818 m 33 Y s 3 lw 408 1812 m21 6 lw 413 1717 m 31 Y s 413 1759 m 31 Y s 3 lw 413 1754 m21 6 lw 418 1610 m 27 Y s 418 1648 m 27 Y s 3 lw 418 1643 m21 6 lw 423 1607 m 26 Y s 423 1644 m 26 Y s 3 lw 423 1639
 m21 6 lw 427 1579 m 24 Y s 427 1614 m 24 Y s 3 lw 427 1608 m21 6 lw 432 1549 m 22 Y s 432 1582 m 23 Y s 3 lw 432 1577 m21 6 lw 437 1595 m 22 Y s 437 1629 m 22 Y s 3 lw 437 1623 m21 6 lw 441 1509 m 19 Y s 441 1540 m 20 Y s 3 lw 441 1534 m21 6 lw 446
 1531 m 20 Y s 446 1562 m 20 Y s 3 lw 446 1556 m21 6 lw 451 1556 m 19 Y s 451 1587 m 19 Y s 3 lw 451 1581 m21 6 lw 455 1499 m 17 Y s 455 1528 m 18 Y s 3 lw 455 1522 m21 6 lw 460 1482 m 17 Y s 460 1510 m 17 Y s 3 lw 460 1504 m21 6 lw 465 1480 m 17 Y s
 465 1508 m 16 Y s 3 lw 465 1502 m21 6 lw 470 1445 m 15 Y s 470 1471 m 16 Y s 3 lw 470 1466 m21 6 lw 474 1495 m 16 Y s 474 1522 m 16 Y s 3 lw 474 1516 m21 6 lw 479 1436 m 15 Y s 479 1462 m 15 Y s 3 lw 479 1456 m21 6 lw 484 1428 m 14 Y s 484 1454 m 14
 Y s 3 lw 484 1448 m21 6 lw 488 1419 m 14 Y s 488 1444 m 14 Y s 3 lw 488 1438 m21 6 lw 493 1410 m 14 Y s 493 1435 m 13 Y s 3 lw 493 1429 m21 6 lw 498 1363 m 13 Y s 498 1387 m 13 Y s 3 lw 498 1382 m21 6 lw 502 1380 m 13 Y s 502 1404 m 13 Y s 3 lw 502
 1399 m21 6 lw 507 1395 m 12 Y s 507 1419 m 12 Y s 3 lw 507 1413 m21 6 lw 512 1369 m 12 Y s 512 1393 m 12 Y s 3 lw 512 1387 m21 6 lw 517 1334 m 11 Y s 517 1356 m 12 Y s 3 lw 517 1351 m21 6 lw 521 1345 m 11 Y s 521 1367 m 12 Y s 3 lw 521 1362 m21 6 lw
 526 1325 m 11 Y s 526 1347 m 11 Y s 3 lw 526 1341 m21 6 lw 531 1318 m 11 Y s 531 1340 m 11 Y s 3 lw 531 1335 m21 6 lw 535 1333 m 11 Y s 535 1355 m 11 Y s 3 lw 535 1350 m21 6 lw 540 1311 m 10 Y s 540 1333 m 10 Y s 3 lw 540 1327 m21 6 lw 545 1287 m 10
 Y s 545 1309 m 10 Y s 3 lw 545 1303 m21 6 lw 550 1298 m 10 Y s 550 1319 m 10 Y s 3 lw 550 1313 m21 6 lw 554 1295 m 10 Y s 554 1316 m 10 Y s 3 lw 554 1311 m21 6 lw 559 1271 m 10 Y s 559 1292 m 9 Y s 3 lw 559 1286 m21 6 lw 564 1279 m 9 Y s 564 1299 m
 10 Y s 3 lw 564 1294 m21 6 lw 568 1247 m 9 Y s 568 1267 m 9 Y s 3 lw 568 1261 m21 6 lw 573 1244 m 8 Y s 573 1264 m 9 Y s 3 lw 573 1258 m21 6 lw 578 1255 m 8 Y s 578 1275 m 8 Y s 3 lw 578 1269 m21 6 lw 582 1237 m 8 Y s 582 1257 m 8 Y s 3 lw 582 1251
 m21 6 lw 587 1224 m 8 Y s 587 1243 m 9 Y s 3 lw 587 1238 m21 6 lw 592 1240 m 8 Y s 592 1260 m 8 Y s 3 lw 592 1254 m21 6 lw 597 1211 m 8 Y s 597 1231 m 8 Y s 3 lw 597 1225 m21 6 lw 601 1203 m 8 Y s 601 1222 m 8 Y s 3 lw 601 1216 m21 6 lw 606 1200 m 8
 Y s 606 1219 m 8 Y s 3 lw 606 1214 m21 6 lw 611 1168 m 8 Y s 611 1187 m 7 Y s 3 lw 611 1181 m21 6 lw 615 1240 m 8 Y s 615 1259 m 8 Y s 3 lw 615 1254 m21 6 lw 620 1198 m 7 Y s 620 1216 m 8 Y s 3 lw 620 1211 m21 6 lw 625 1196 m 8 Y s 625 1215 m 8 Y s
 3 lw 625 1209 m21 6 lw 630 1208 m 7 Y s 630 1226 m 8 Y s 3 lw 630 1221 m21 6 lw 634 1170 m 7 Y s 634 1188 m 7 Y s 3 lw 634 1182 m21 6 lw 639 1135 m 7 Y s 639 1153 m 7 Y s 3 lw 639 1147 m21 6 lw 644 1162 m 7 Y s 644 1180 m 7 Y s 3 lw 644 1174 m21 6
 lw 648 1172 m 7 Y s 648 1191 m 6 Y s 3 lw 648 1185 m21 6 lw 653 1179 m 7 Y s 653 1198 m 6 Y s 3 lw 653 1192 m21 6 lw 658 1153 m 6 Y s 658 1170 m 7 Y s 3 lw 658 1165 m21 6 lw 662 1149 m 6 Y s 662 1167 m 6 Y s 3 lw 662 1161 m21 6 lw 667 1154 m 7 Y s
 667 1172 m 6 Y s 3 lw 667 1166 m21 6 lw 672 1147 m 6 Y s 672 1164 m 7 Y s 3 lw 672 1159 m21 6 lw 677 1155 m 6 Y s 677 1172 m 7 Y s 3 lw 677 1167 m21 6 lw 681 1146 m 6 Y s 681 1164 m 6 Y s 3 lw 681 1158 m21 6 lw 686 1121 m 6 Y s 686 1138 m 6 Y s 3 lw
 686 1132 m21 6 lw 691 1135 m 6 Y s 691 1152 m 6 Y s 3 lw 691 1146 m21 6 lw 695 1146 m 6 Y s 695 1163 m 6 Y s 3 lw 695 1158 m21 6 lw 700 1144 m 5 Y s 700 1161 m 6 Y s 3 lw 700 1155 m21 6 lw 705 1121 m 5 Y s 705 1138 m 5 Y s 3 lw 705 1132 m21 6 lw 710
 1123 m 6 Y s 710 1140 m 6 Y s 3 lw 710 1135 m21 6 lw 714 1124 m 6 Y s 714 1141 m 6 Y s 3 lw 714 1136 m21 6 lw 719 1124 m 6 Y s 719 1141 m 6 Y s 3 lw 719 1135 m21 6 lw 724 1119 m 5 Y s 724 1136 m 5 Y s 3 lw 724 1130 m21 6 lw 728 1092 m 5 Y s 728 1108
 m 6 Y s 3 lw 728 1103 m21 6 lw 733 1130 m 5 Y s 733 1146 m 6 Y s 3 lw 733 1141 m21 6 lw 738 1099 m 5 Y s 738 1116 m 5 Y s 3 lw 738 1110 m21 6 lw 742 1114 m 5 Y s 742 1131 m 5 Y s 3 lw 742 1125 m21 6 lw 747 1108 m 5 Y s 747 1124 m 5 Y s 3 lw 747 1119
 m21 6 lw 752 1091 m 5 Y s 752 1108 m 5 Y s 3 lw 752 1102 m21 6 lw 757 1111 m 5 Y s 757 1127 m 5 Y s 3 lw 757 1122 m21 6 lw 761 1121 m 5 Y s 761 1137 m 5 Y s 3 lw 761 1131 m21 6 lw 766 1106 m 5 Y s 766 1123 m 4 Y s 3 lw 766 1117 m21 6 lw 771 1076 m 4
 Y s 771 1092 m 4 Y s 3 lw 771 1086 m21 6 lw 775 1073 m 5 Y s 775 1089 m 5 Y s 3 lw 775 1084 m21 6 lw 780 1085 m 5 Y s 780 1101 m 5 Y s 3 lw 780 1095 m21 6 lw 785 1103 m 4 Y s 785 1119 m 4 Y s 3 lw 785 1113 m21 6 lw 790 1094 m 5 Y s 790 1111 m 4 Y s
 3 lw 790 1105 m21 6 lw 794 1100 m 5 Y s 794 1117 m 4 Y s 3 lw 794 1111 m21 6 lw 799 1071 m 5 Y s 799 1087 m 5 Y s 3 lw 799 1082 m21 6 lw 804 1076 m 5 Y s 804 1092 m 5 Y s 3 lw 804 1087 m21 6 lw 808 1064 m 5 Y s 808 1080 m 4 Y s 3 lw 808 1074 m21 6
 lw 813 1074 m 4 Y s 813 1089 m 5 Y s 3 lw 813 1084 m21 6 lw 818 1083 m 5 Y s 818 1099 m 5 Y s 3 lw 818 1094 m21 6 lw 822 1075 m 4 Y s 822 1091 m 4 Y s 3 lw 822 1085 m21 6 lw 827 1071 m 5 Y s 827 1087 m 5 Y s 3 lw 827 1081 m21 6 lw 832 1070 m 4 Y s
 832 1086 m 4 Y s 3 lw 832 1080 m21 6 lw 837 1058 m 4 Y s 837 1073 m 4 Y s 3 lw 837 1067 m21 6 lw 841 1083 m 5 Y s 841 1099 m 5 Y s 3 lw 841 1093 m21 6 lw 846 1059 m 5 Y s 846 1075 m 4 Y s 3 lw 846 1069 m21 6 lw 851 1076 m 4 Y s 851 1092 m 4 Y s 3 lw
 851 1086 m21 6 lw 855 1048 m 5 Y s 855 1064 m 4 Y s 3 lw 855 1058 m21 6 lw 860 1061 m 4 Y s 860 1076 m 5 Y s 3 lw 860 1071 m21 6 lw 865 1061 m 5 Y s 865 1077 m 4 Y s 3 lw 865 1071 m21 6 lw 870 1062 m 4 Y s 870 1078 m 4 Y s 3 lw 870 1072 m21 6 lw 874
 1044 m 5 Y s 874 1060 m 4 Y s 3 lw 874 1054 m21 6 lw 879 1040 m 4 Y s 879 1056 m 4 Y s 3 lw 879 1050 m21 6 lw 884 1045 m 4 Y s 884 1061 m 4 Y s 3 lw 884 1055 m21 6 lw 888 1062 m 5 Y s 888 1078 m 4 Y s 3 lw 888 1072 m21 6 lw 893 1032 m 4 Y s 893 1047
 m 4 Y s 3 lw 893 1041 m21 6 lw 898 1053 m 4 Y s 898 1069 m 4 Y s 3 lw 898 1063 m21 6 lw 902 1043 m 4 Y s 902 1058 m 4 Y s 3 lw 902 1052 m21 6 lw 907 1027 m 4 Y s 907 1042 m 4 Y s 3 lw 907 1037 m21 6 lw 912 1043 m 4 Y s 912 1058 m 4 Y s 3 lw 912 1052
 m21 6 lw 917 1028 m 4 Y s 917 1044 m 4 Y s 3 lw 917 1038 m21 6 lw 921 1038 m 4 Y s 921 1053 m 4 Y s 3 lw 921 1048 m21 6 lw 926 1053 m 4 Y s 926 1069 m 4 Y s 3 lw 926 1063 m21 6 lw 931 1047 m 4 Y s 931 1063 m 4 Y s 3 lw 931 1057 m21 6 lw 935 1042 m 4
 Y s 935 1058 m 4 Y s 3 lw 935 1052 m21 6 lw 940 1040 m 5 Y s 940 1056 m 4 Y s 3 lw 940 1050 m21 6 lw 945 1029 m 5 Y s 945 1045 m 4 Y s 3 lw 945 1039 m21 6 lw 950 1020 m 4 Y s 950 1035 m 5 Y s 3 lw 950 1030 m21 6 lw 954 1027 m 4 Y s 954 1043 m 4 Y s
 3 lw 954 1037 m21 6 lw 959 1026 m 5 Y s 959 1042 m 4 Y s 3 lw 959 1036 m21 6 lw 964 1027 m 4 Y s 964 1042 m 5 Y s 3 lw 964 1037 m21 6 lw 968 1032 m 4 Y s 968 1048 m 4 Y s 3 lw 968 1042 m21 6 lw 973 1029 m 5 Y s 973 1045 m 5 Y s 3 lw 973 1040 m21 6
 lw 978 1041 m 5 Y s 978 1057 m 5 Y s 3 lw 978 1051 m21 6 lw 982 1026 m 4 Y s 982 1042 m 4 Y s 3 lw 982 1036 m21 6 lw 987 1000 m 5 Y s 987 1016 m 4 Y s 3 lw 987 1010 m21 6 lw 992 1031 m 5 Y s 992 1047 m 5 Y s 3 lw 992 1042 m21 6 lw 997 1028 m 5 Y s
 997 1044 m 5 Y s 3 lw 997 1039 m21 6 lw 1001 1021 m 5 Y s 1001 1037 m 5 Y s 3 lw 1001 1031 m21 6 lw 1006 1023 m 5 Y s 1006 1039 m 5 Y s 3 lw 1006 1033 m21 6 lw 1011 1014 m 5 Y s 1011 1030 m 5 Y s 3 lw 1011 1024 m21 6 lw 1015 1011 m 5 Y s 1015 1027 m
 5 Y s 3 lw 1015 1022 m21 6 lw 1020 1028 m 5 Y s 1020 1045 m 5 Y s 3 lw 1020 1039 m21 6 lw 1025 1013 m 4 Y s 1025 1029 m 5 Y s 3 lw 1025 1023 m21 6 lw 1030 1017 m 5 Y s 1030 1034 m 5 Y s 3 lw 1030 1028 m21 6 lw 1034 1040 m 5 Y s 1034 1056 m 5 Y s 3
 lw 1034 1050 m21 6 lw 1039 1036 m 6 Y s 1039 1053 m 5 Y s 3 lw 1039 1047 m21 6 lw 1044 1029 m 6 Y s 1044 1046 m 5 Y s 3 lw 1044 1040 m21 6 lw 1048 1030 m 6 Y s 1048 1047 m 6 Y s 3 lw 1048 1041 m21 6 lw 1053 1017 m 5 Y s 1053 1034 m 5 Y s 3 lw 1053
 1028 m21 6 lw 1058 1032 m 6 Y s 1058 1049 m 6 Y s 3 lw 1058 1044 m21 6 lw 1062 1039 m 6 Y s 1062 1056 m 6 Y s 3 lw 1062 1050 m21 6 lw 1067 1033 m 5 Y s 1067 1050 m 6 Y s 3 lw 1067 1044 m21 6 lw 1072 1037 m 6 Y s 1072 1054 m 6 Y s 3 lw 1072 1048 m21
 6 lw 1077 1018 m 6 Y s 1077 1035 m 6 Y s 3 lw 1077 1030 m21 6 lw 1081 1011 m 6 Y s 1081 1028 m 6 Y s 3 lw 1081 1022 m21 6 lw 1086 1026 m 6 Y s 1086 1044 m 6 Y s 3 lw 1086 1038 m21 6 lw 1091 996 m 6 Y s 1091 1013 m 6 Y s 3 lw 1091 1008 m21 6 lw 1095
 1021 m 7 Y s 1095 1039 m 7 Y s 3 lw 1095 1033 m21 6 lw 1100 1014 m 7 Y s 1100 1032 m 7 Y s 3 lw 1100 1027 m21 6 lw 1105 1008 m 6 Y s 1105 1026 m 6 Y s 3 lw 1105 1020 m21 6 lw 1110 1010 m 6 Y s 1110 1028 m 7 Y s 3 lw 1110 1022 m21 6 lw 1114 1014 m 7
 Y s 1114 1032 m 7 Y s 3 lw 1114 1026 m21 6 lw 1119 1012 m 7 Y s 1119 1031 m 7 Y s 3 lw 1119 1025 m21 6 lw 1124 1009 m 8 Y s 1124 1028 m 7 Y s 3 lw 1124 1022 m21 6 lw 1128 1032 m 8 Y s 1128 1051 m 8 Y s 3 lw 1128 1046 m21 6 lw 1133 1017 m 7 Y s 1133
 1036 m 8 Y s 3 lw 1133 1030 m21 6 lw 1138 1022 m 8 Y s 1138 1041 m 8 Y s 3 lw 1138 1035 m21 6 lw 1142 1004 m 8 Y s 1142 1023 m 8 Y s 3 lw 1142 1017 m21 6 lw 1147 1017 m 8 Y s 1147 1037 m 8 Y s 3 lw 1147 1031 m21 6 lw 1152 1016 m 9 Y s 1152 1036 m 9
 Y s 3 lw 1152 1030 m21 6 lw 1157 1036 m 9 Y s 1157 1056 m 9 Y s 3 lw 1157 1051 m21 6 lw 1161 1046 m 9 Y s 1161 1067 m 9 Y s 3 lw 1161 1061 m21 6 lw 1166 1001 m 10 Y s 1166 1022 m 9 Y s 3 lw 1166 1016 m21 6 lw 1171 1042 m 10 Y s 1171 1063 m 10 Y s 3
 lw 1171 1057 m21 6 lw 1175 1000 m 10 Y s 1175 1021 m 10 Y s 3 lw 1175 1015 m21 6 lw 1180 1026 m 11 Y s 1180 1048 m 10 Y s 3 lw 1180 1042 m21 6 lw 1185 1046 m 11 Y s 1185 1068 m 11 Y s 3 lw 1185 1062 m21 6 lw 1190 1013 m 11 Y s 1190 1035 m 11 Y s 3
 lw 1190 1029 m21 6 lw 1194 1016 m 11 Y s 1194 1039 m 11 Y s 3 lw 1194 1033 m21 6 lw 1199 1016 m 12 Y s 1199 1039 m 12 Y s 3 lw 1199 1033 m21 6 lw 1204 1017 m 12 Y s 1204 1040 m 12 Y s 3 lw 1204 1035 m21 6 lw 1208 1025 m 13 Y s 1208 1049 m 13 Y s 3
 lw 1208 1044 m21 6 lw 1213 999 m 13 Y s 1213 1023 m 13 Y s 3 lw 1213 1018 m21 6 lw 1218 1025 m 13 Y s 1218 1050 m 13 Y s 3 lw 1218 1044 m21 6 lw 1222 1033 m 13 Y s 1222 1057 m 14 Y s 3 lw 1222 1052 m21 6 lw 1227 1021 m 14 Y s 1227 1046 m 14 Y s 3 lw
 1227 1041 m21 6 lw 1232 1025 m 14 Y s 1232 1050 m 15 Y s 3 lw 1232 1045 m21 6 lw 1237 1012 m 15 Y s 1237 1038 m 14 Y s 3 lw 1237 1032 m21 6 lw 1241 1034 m 15 Y s 1241 1060 m 15 Y s 3 lw 1241 1054 m21 6 lw 1246 1049 m 16 Y s 1246 1076 m 16 Y s 3 lw
 1246 1071 m21 6 lw 1251 1045 m 15 Y s 1251 1072 m 15 Y s 3 lw 1251 1066 m21 6 lw 1255 990 m 16 Y s 1255 1017 m 15 Y s 3 lw 1255 1011 m21 6 lw 1260 1024 m 16 Y s 1260 1051 m 16 Y s 3 lw 1260 1045 m21 6 lw 1265 1027 m 17 Y s 1265 1055 m 17 Y s 3 lw
 1265 1050 m21 6 lw 1269 1035 m 17 Y s 1269 1064 m 17 Y s 3 lw 1269 1058 m21 6 lw 1274 1014 m 17 Y s 1274 1043 m 17 Y s 3 lw 1274 1037 m21 6 lw 1279 1024 m 18 Y s 1279 1053 m 17 Y s 3 lw 1279 1047 m21 6 lw 1284 1008 m 17 Y s 1284 1037 m 17 Y s 3 lw
 1284 1031 m21 6 lw 1288 1016 m 18 Y s 1288 1045 m 19 Y s 3 lw 1288 1040 m21 6 lw 1293 1061 m 20 Y s 1293 1092 m 19 Y s 3 lw 1293 1086 m21 6 lw 1298 1041 m 19 Y s 1298 1072 m 19 Y s 3 lw 1298 1066 m21 6 lw 1302 1023 m 20 Y s 1302 1054 m 20 Y s 3 lw
 1302 1049 m21 6 lw 1307 1050 m 20 Y s 1307 1081 m 20 Y s 3 lw 1307 1075 m21 6 lw 1312 1014 m 20 Y s 1312 1046 m 20 Y s 3 lw 1312 1040 m21 6 lw 1317 1092 m 22 Y s 1317 1125 m 22 Y s 3 lw 1317 1119 m21 6 lw 1321 997 m 20 Y s 1321 1028 m 21 Y s 3 lw
 1321 1023 m21 6 lw 1326 1038 m 22 Y s 1326 1071 m 22 Y s 3 lw 1326 1065 m21 6 lw 1331 1008 m 21 Y s 1331 1041 m 21 Y s 3 lw 1331 1035 m21 6 lw 1335 1052 m 23 Y s 1335 1086 m 23 Y s 3 lw 1335 1081 m21 6 lw 1340 1058 m 23 Y s 1340 1092 m 23 Y s 3 lw
 1340 1086 m21 6 lw 1345 1034 m 23 Y s 1345 1069 m 23 Y s 3 lw 1345 1063 m21 6 lw 1349 1083 m 25 Y s 1349 1119 m 24 Y s 3 lw 1349 1113 m21 6 lw 1354 998 m 24 Y s 1354 1033 m 23 Y s 3 lw 1354 1027 m21 6 lw 1359 996 m 24 Y s 1359 1032 m 23 Y s 3 lw
 1359 1026 m21 6 lw 1364 1045 m 25 Y s 1364 1082 m 25 Y s 3 lw 1364 1076 m21 6 lw 1368 994 m 25 Y s 1368 1030 m 25 Y s 3 lw 1368 1025 m21 6 lw 1373 1014 m 25 Y s 1373 1051 m 25 Y s 3 lw 1373 1045 m21 6 lw 1378 1045 m 27 Y s 1378 1083 m 27 Y s 3 lw
 1378 1078 m21 6 lw 1382 1070 m 27 Y s 1382 1109 m 27 Y s 3 lw 1382 1103 m21 6 lw 1387 1039 m 28 Y s 1387 1078 m 27 Y s 3 lw 1387 1072 m21 6 lw 1392 984 m 27 Y s 1392 1023 m 26 Y s 3 lw 1392 1017 m21 6 lw 1397 1017 m 28 Y s 1397 1056 m 28 Y s 3 lw
 1397 1051 m21 6 lw 1401 1002 m 28 Y s 1401 1041 m 29 Y s 3 lw 1401 1036 m21 6 lw 1406 1050 m 30 Y s 1406 1091 m 30 Y s 3 lw 1406 1085 m21 6 lw 1411 1045 m 30 Y s 1411 1087 m 30 Y s 3 lw 1411 1081 m21 6 lw 1415 1008 m 30 Y s 1415 1049 m 30 Y s 3 lw
 1415 1044 m21 6 lw 1420 1076 m 31 Y s 1420 1118 m 32 Y s 3 lw 1420 1113 m21 6 lw 1425 1039 m 32 Y s 1425 1082 m 32 Y s 3 lw 1425 1077 m21 6 lw 1429 1094 m 33 Y s 1429 1138 m 34 Y s 3 lw 1429 1133 m21 6 lw 1434 1048 m 33 Y s 1434 1093 m 33 Y s 3 lw
 1434 1087 m21 6 lw 1439 1069 m 34 Y s 1439 1114 m 34 Y s 3 lw 1439 1108 m21 6 lw 1444 1049 m 34 Y s 1444 1095 m 34 Y s 3 lw 1444 1089 m21 6 lw 1448 1051 m 35 Y s 1448 1097 m 35 Y s 3 lw 1448 1091 m21 6 lw 1453 1017 m 34 Y s 1453 1063 m 34 Y s 3 lw
 1453 1057 m21 6 lw 1458 1125 m 38 Y s 1458 1174 m 38 Y s 3 lw 1458 1169 m21 6 lw 1462 971 m 34 Y s 1462 1017 m 34 Y s 3 lw 1462 1011 m21 6 lw 1467 1059 m 38 Y s 1467 1108 m 37 Y s 3 lw 1467 1102 m21 6 lw 1472 957 m 35 Y s 1472 1004 m 35 Y s 3 lw
 1472 998 m21 6 lw 1477 1048 m 38 Y s 1477 1098 m 38 Y s 3 lw 1477 1092 m21 6 lw 1481 1010 m 38 Y s 1481 1060 m 38 Y s 3 lw 1481 1054 m21 6 lw 1486 1058 m 40 Y s 1486 1109 m 40 Y s 3 lw 1486 1103 m21 6 lw 1491 1088 m 42 Y s 1491 1141 m 42 Y s 3 lw
 1491 1135 m21 6 lw 1495 1027 m 41 Y s 1495 1079 m 41 Y s 3 lw 1495 1073 m21 6 lw 1500 1007 m 41 Y s 1500 1060 m 41 Y s 3 lw 1500 1054 m21 6 lw 1505 1014 m 42 Y s 1505 1067 m 42 Y s 3 lw 1505 1062 m21 6 lw 1509 1037 m 43 Y s 1509 1092 m 43 Y s 3 lw
 1509 1086 m21 6 lw 1514 1066 m 45 Y s 1514 1122 m 45 Y s 3 lw 1514 1116 m21 6 lw 1519 1046 m 45 Y s 1519 1102 m 45 Y s 3 lw 1519 1096 m21 6 lw 1524 1001 m 45 Y s 1524 1057 m 45 Y s 3 lw 1524 1052 m21 6 lw 1528 953 m 44 Y s 1528 1008 m 44 Y s 3 lw
 1528 1003 m21 6 lw 1533 978 m 46 Y s 1533 1035 m 46 Y s 3 lw 1533 1030 m21 6 lw 1538 997 m 47 Y s 1538 1055 m 48 Y s 3 lw 1538 1050 m21 6 lw 1542 978 m 46 Y s 1542 1036 m 47 Y s 3 lw 1542 1030 m21 6 lw 1547 1113 m 52 Y s 1547 1177 m 52 Y s 3 lw 1547
 1171 m21 6 lw 1552 1027 m 50 Y s 1552 1089 m 50 Y s 3 lw 1552 1083 m21 6 lw 1557 1079 m 54 Y s 1557 1144 m 53 Y s 3 lw 1557 1138 m21 6 lw 1561 1008 m 53 Y s 1561 1072 m 52 Y s 3 lw 1561 1066 m21 6 lw 1566 1004 m 52 Y s 1566 1068 m 52 Y s 3 lw 1566
 1062 m21 6 lw 1571 1041 m 55 Y s 1571 1107 m 55 Y s 3 lw 1571 1101 m21 6 lw 1575 921 m 52 Y s 1575 984 m 52 Y s 3 lw 1575 978 m21 6 lw 1580 1030 m 56 Y s 1580 1098 m 56 Y s 3 lw 1580 1092 m21 6 lw 1585 1079 m 60 Y s 1585 1150 m 59 Y s 3 lw 1585 1144
 m21 6 lw 1589 1044 m 59 Y s 1589 1114 m 59 Y s 3 lw 1589 1108 m21 6 lw 1594 1060 m 60 Y s 1594 1131 m 61 Y s 3 lw 1594 1126 m21 6 lw 1599 1052 m 61 Y s 1599 1125 m 61 Y s 3 lw 1599 1119 m21 6 lw 1604 1100 m 64 Y s 1604 1176 m 64 Y s 3 lw 1604 1170
 m21 6 lw 1608 1046 m 64 Y s 1608 1121 m 63 Y s 3 lw 1608 1115 m21 6 lw 1613 1044 m 65 Y s 1613 1120 m 65 Y s 3 lw 1613 1115 m21 6 lw 1618 1031 m 65 Y s 1618 1108 m 65 Y s 3 lw 1618 1102 m21 6 lw 1622 1038 m 67 Y s 1622 1117 m 67 Y s 3 lw 1622 1111
 m21 6 lw 1627 861 m 61 Y s 1627 933 m 61 Y s 3 lw 1627 928 m21 6 lw 1632 1098 m 72 Y s 1632 1181 m 73 Y s 3 lw 1632 1176 m21 6 lw 1637 897 m 65 Y s 1637 973 m 64 Y s 3 lw 1637 967 m21 6 lw 1641 994 m 71 Y s 1641 1076 m 71 Y s 3 lw 1641 1071 m21 6 lw
 1646 1056 m 76 Y s 1646 1143 m 76 Y s 3 lw 1646 1138 m21 6 lw 1651 1044 m 76 Y s 1651 1131 m 75 Y s 3 lw 1651 1125 m21 6 lw 1655 1011 m 75 Y s 1655 1098 m 75 Y s 3 lw 1655 1092 m21 6 lw 1660 968 m 74 Y s 1660 1053 m 75 Y s 3 lw 1660 1048 m21 6 lw
 1665 1032 m 79 Y s 1665 1123 m 79 Y s 3 lw 1665 1117 m21 6 lw 1669 1001 m 79 Y s 1669 1092 m 79 Y s 3 lw 1669 1086 m21 6 lw 1674 868 m 75 Y s 1674 954 m 74 Y s 3 lw 1674 948 m21 6 lw 1679 910 m 78 Y s 1679 1000 m 78 Y s 3 lw 1679 994 m21 6 lw 1684
 922 m 80 Y s 1684 1014 m 80 Y s 3 lw 1684 1008 m21 6 lw 1688 1053 m 88 Y s 1688 1152 m 88 Y s 3 lw 1688 1146 m21 6 lw 1693 977 m 85 Y s 1693 1073 m 85 Y s 3 lw 1693 1068 m21 6 lw 1698 1079 m 92 Y s 1698 1183 m 92 Y s 3 lw 1698 1177 m21 6 lw 1702 893
 m 85 Y s 1702 989 m 85 Y s 3 lw 1702 983 m21 6 lw 1707 1080 m 97 Y s 1707 1188 m 97 Y s 3 lw 1707 1183 m21 6 lw 1712 1076 m 98 Y s 1712 1185 m 99 Y s 3 lw 1712 1180 m21 6 lw 1717 1021 m 99 Y s 1717 1131 m 100 Y s 3 lw 1717 1126 m21 6 lw 1721 892 m
 91 Y s 1721 994 m 91 Y s 3 lw 1721 988 m21 6 lw 1726 1223 m 115 Y s 1726 1349 m 114 Y s 3 lw 1726 1343 m21 6 lw 1731 971 m 101 Y s 1731 1084 m 100 Y s 3 lw 1731 1078 m21 6 lw 1735 1062 m 109 Y s 1735 1182 m 109 Y s 3 lw 1735 1176 m21 6 lw 1740 969 m
 106 Y s 1740 1086 m 106 Y s 3 lw 1740 1080 m21 6 lw 1745 941 m 104 Y s 1745 1056 m 104 Y s 3 lw 1745 1050 m21 6 lw 1749 1057 m 115 Y s 1749 1184 m 115 Y s 3 lw 1749 1178 m21 6 lw 1754 1162 m 126 Y s 1754 1300 m 125 Y s 3 lw 1754 1294 m21 6 lw 1759
 809 m 102 Y s 1759 923 m 102 Y s 3 lw 1759 917 m21 6 lw 1764 940 m 113 Y s 1764 1065 m 114 Y s 3 lw 1764 1059 m21 6 lw 1768 816 m 107 Y s 1768 935 m 107 Y s 3 lw 1768 929 m21 6 lw 1773 923 m 117 Y s 1773 1051 m 118 Y s 3 lw 1773 1046 m21 6 lw 1778
 1173 m 139 Y s 1778 1324 m 139 Y s 3 lw 1778 1318 m21 6 lw 1782 1149 m 142 Y s 1782 1302 m 142 Y s 3 lw 1782 1296 m21 6 lw 1787 1006 m 132 Y s 1787 1150 m 132 Y s 3 lw 1787 1144 m21 6 lw 1792 1059 m 140 Y s 1792 1210 m 140 Y s 3 lw 1792 1204 m21 6
 lw 1797 1176 m 157 Y s 1797 1344 m 157 Y s 3 lw 1797 1338 m21 6 lw 1801 1078 m 149 Y s 1801 1239 m 149 Y s 3 lw 1801 1233 m21 6 lw 1806 854 m 133 Y s 1806 998 m 133 Y s 3 lw 1806 992 m21 6 lw 1811 912 m 139 Y s 1811 1063 m 138 Y s 3 lw 1811 1057 m21
 6 lw 1815 815 m 132 Y s 1815 959 m 132 Y s 3 lw 1815 953 m21 6 lw 1820 756 m 134 Y s 1820 901 m 134 Y s 3 lw 1820 895 m21 6 lw 1825 814 m 137 Y s 1825 963 m 136 Y s 3 lw 1825 957 m21 6 lw 1829 686 m 136 Y s 1829 833 m 135 Y s 3 lw 1829 827 m21 6 lw
 1834 871 m 153 Y s 1834 1035 m 153 Y s 3 lw 1834 1030 m21 6 lw 1839 845 m 155 Y s 1839 1011 m 154 Y s 3 lw 1839 1005 m21 6 lw 1844 679 m 138 Y s 1844 828 m 138 Y s 3 lw 1844 823 m21 6 lw 1848 819 m 157 Y s 1848 987 m 157 Y s 3 lw 1848 981 m21 6 lw
 1853 999 m 195 Y s 1853 1206 m 195 Y s 3 lw 1853 1200 m21 6 lw 1858 1126 m 210 Y s 1858 1347 m 211 Y s 3 lw 1858 1342 m21 6 lw 1862 770 m 163 Y s 1862 944 m 163 Y s 3 lw 1862 938 m21 6 lw 1867 970 m 190 Y s 1867 1172 m 190 Y s 3 lw 1867 1166 m21 6
 lw 1872 1059 m 217 Y s 1872 1287 m 216 Y s 3 lw 1872 1281 m21 6 lw 1877 1130 m 232 Y s 1877 1374 m 231 Y s 3 lw 1877 1368 m21 6 lw 1881 895 m 197 Y s 1881 1103 m 196 Y s 3 lw 1881 1097 m21 6 lw 1886 794 m 190 Y s 1886 996 m 190 Y s 3 lw 1886 990 m21
 6 lw 1891 802 m 198 Y s 1891 1011 m 198 Y s 3 lw 1891 1005 m21 6 lw 1895 540 m 165 Y s 1895 716 m 165 Y s 3 lw 1895 710 m21 6 lw 1900 862 m 221 Y s 1900 1094 m 221 Y s 3 lw 1900 1088 m21 6 lw 1905 579 m 186 Y s 1905 776 m 186 Y s 3 lw 1905 771 m21 6
 lw 1909 676 m 199 Y s 1909 886 m 199 Y s 3 lw 1909 881 m21 6 lw 1914 1187 m 280 Y s 1914 1478 m 280 Y s 3 lw 1914 1472 m21 6 lw 1919 613 m 204 Y s 1919 828 m 204 Y s 3 lw 1919 822 m21 6 lw 1924 518 m 193 Y s 1924 722 m 192 Y s 3 lw 1924 716 m21 6 lw
 1928 805 m 253 Y s 1928 1069 m 253 Y s 3 lw 1928 1064 m21 6 lw 1933 958 m 289 Y s 1933 1258 m 289 Y s 3 lw 1933 1252 m21 6 lw 1938 577 m 227 Y s 1938 816 m 227 Y s 3 lw 1938 810 m21 6 lw 1942 715 m 241 Y s 1942 968 m 241 Y s 3 lw 1942 962 m21 6 lw
 1947 964 m 316 Y s 1947 1292 m 316 Y s 3 lw 1947 1286 m21 6 lw 1952 744 m 266 Y s 1952 1021 m 267 Y s 3 lw 1952 1016 m21 6 lw 1957 681 m 271 Y s 1957 964 m 271 Y s 3 lw 1957 958 m21 6 lw 1961 955 m 356 Y s 1961 1323 m 356 Y s 3 lw 1961 1317 m21 6 lw
 1966 613 m 274 Y s 1966 899 m 274 Y s 3 lw 1966 893 m21 6 lw 1971 1030 m 385 Y s 1971 1426 m 385 Y s 3 lw 1971 1421 m21 6 lw 1975 486 m 276 Y s 1975 774 m 276 Y s 3 lw 1975 768 m21 6 lw 1980 861 m 365 Y s 1980 1237 m 365 Y s 3 lw 1980 1231 m21 6 lw
 1985 719 m 336 Y s 1985 1066 m 336 Y s 3 lw 1985 1060 m21 6 lw 1989 1080 m 432 Y s 1989 1523 m 433 Y s 3 lw 1989 1518 m21 6 lw 1994 828 m 388 Y s 1994 1227 m 388 Y s 3 lw 1994 1221 m21 6 lw 1999 556 m 353 Y s 1999 921 m 353 Y s 3 lw 1999 915 m21 6
 lw 2004 646 m 377 Y s 2004 1034 m 377 Y s 3 lw 2004 1029 m21 6 lw 2008 903 m 470 Y s 2008 1385 m 470 Y s 3 lw 2008 1379 m21 6 lw 2013 805 m 493 Y s 2013 1309 m 493 Y s 3 lw 2013 1303 m21 6 lw 2018 537 m 418 Y s 2018 967 m 418 Y s 3 lw 2018 961 m21 6
 lw 2022 397 m 338 Y s 2022 746 m 339 Y s 3 lw 2022 741 m21 6 lw 2027 1058 m 592 Y s 2027 1662 m 527 Y s 3 lw 2027 1656 m21 6 lw 2032 515 m 464 Y s 2032 991 m 464 Y s 3 lw 2032 985 m21 6 lw 2036 554 m 473 Y s 2036 1039 m 473 Y s 3 lw 2036 1033 m21 6
 lw 2041 793 m 578 Y s 2041 1383 m 578 Y s 3 lw 2041 1377 m21 6 lw 2046 687 m 517 Y s 2046 1215 m 517 Y s 3 lw 2046 1209 m21 6 lw 2051 334 m 467 Y s 2051 813 m 467 Y s 3 lw 2051 807 m21 6 lw 2055 892 m 794 Y s 2055 1698 m 491 Y s 3 lw 2055 1692 m21 6
 lw 2060 647 m 728 Y s 2060 1387 m 728 Y s 3 lw 2060 1381 m21 6 lw 2065 565 m 609 Y s 2065 1185 m 608 Y s 3 lw 2065 1179 m21 6 lw 2069 230 m 502 Y s 2069 743 m 503 Y s 3 lw 2069 738 m21 6 lw 2074 442 m 662 Y s 2074 1115 m 662 Y s 3 lw 2074 1109 m21 6
 lw 2084 285 m 777 Y s 2084 1073 m 777 Y s 3 lw 2084 1067 m21 6 lw 2088 541 m 760 Y s 2088 1312 m 760 Y s 3 lw 2088 1306 m21 6 lw 2093 281 m 600 Y s 2093 893 m 600 Y s 3 lw 2093 887 m21 6 lw 2098 486 m 807 Y s 2098 1304 m 807 Y s 3 lw 2098 1298 m21 6
 lw 2102 223 m 277 Y s 2102 512 m 591 Y s 3 lw 2102 506 m21 6 lw 2116 223 m 1078 Y s 2116 1313 m 876 Y s 3 lw 2116 1307 m21 6 lw 2121 223 m 385 Y s 2121 619 m 710 Y s 3 lw 2121 613 m21 6 lw 2135 306 m 1386 Y s 2135 1704 m 485 Y s 3 lw 2135 1698 m21 6
 lw 2145 223 m 1152 Y s 2145 1386 m 803 Y s 3 lw 2145 1380 m21 6 lw 2173 223 m 156 Y s 2173 390 m 893 Y s 3 lw 2173 384 m21 6 lw 2182 223 m 1869 Y s 2182 2104 m 85 Y s 3 lw 2182 2098 m21 6 lw black 340 223 m 1882 X s
 gsave  2268 2234 0 0 C 1923.86 58.2559 t 0 r /Helvetica findfont 83.8316 sf 0 0 m (Q [GeV]) show NC gr  340 279 m -56 Y s 387 251 m -28 Y s 434 251 m -28 Y s 481 251 m -28 Y s 528 279 m -56 Y s 575 251 m -28 Y s 622 251 m -28 Y s 670 251 m -28 Y s
 717 279 m -56 Y s 764 251 m -28 Y s 811 251 m -28 Y s 858 251 m -28 Y s 905 279 m -56 Y s 952 251 m -28 Y s 999 251 m -28 Y s 1046 251 m -28 Y s 1093 279 m -56 Y s 1140 251 m -28 Y s 1187 251 m -28 Y s 1234 251 m -28 Y s 1281 279 m -56 Y s 1328 251
 m -28 Y s 1375 251 m -28 Y s 1422 251 m -28 Y s 1469 279 m -56 Y s 1517 251 m -28 Y s 1564 251 m -28 Y s 1611 251 m -28 Y s 1658 279 m -56 Y s 1705 251 m -28 Y s 1752 251 m -28 Y s 1799 251 m -28 Y s 1846 279 m -56 Y s 1893 251 m -28 Y s 1940 251 m
 -28 Y s 1987 251 m -28 Y s 2034 279 m -56 Y s 2081 251 m -28 Y s 2128 251 m -28 Y s 2175 251 m -28 Y s 2222 279 m -56 Y s
 gsave  2268 2234 0 0 C 322.539 159.138 t 0 r /Helvetica findfont 62.5185 sf 0 0 m (0) show NC gr 
 gsave  2268 2234 0 0 C 484.518 159.138 t 0 r /Helvetica findfont 62.5185 sf 0 0 m (0.2) show NC gr 
 gsave  2268 2234 0 0 C 673.495 159.138 t 0 r /Helvetica findfont 62.5185 sf 0 0 m (0.4) show NC gr 
 gsave  2268 2234 0 0 C 861.05 159.138 t 0 r /Helvetica findfont 62.5185 sf 0 0 m (0.6) show NC gr 
 gsave  2268 2234 0 0 C 1050.03 159.138 t 0 r /Helvetica findfont 62.5185 sf 0 0 m (0.8) show NC gr 
 gsave  2268 2234 0 0 C 1268.84 159.138 t 0 r /Helvetica findfont 62.5185 sf 0 0 m (1) show NC gr 
 gsave  2268 2234 0 0 C 1426.56 159.138 t 0 r /Helvetica findfont 62.5185 sf 0 0 m (1.2) show NC gr 
 gsave  2268 2234 0 0 C 1614.11 159.138 t 0 r /Helvetica findfont 62.5185 sf 0 0 m (1.4) show NC gr 
 gsave  2268 2234 0 0 C 1803.09 159.138 t 0 r /Helvetica findfont 62.5185 sf 0 0 m (1.6) show NC gr 
 gsave  2268 2234 0 0 C 1990.65 159.138 t 0 r /Helvetica findfont 62.5185 sf 0 0 m (1.8) show NC gr 
 gsave  2268 2234 0 0 C 2205.2 159.138 t 0 r /Helvetica findfont 62.5185 sf 0 0 m (2) show NC gr  340 223 m 1966 Y s
 gsave  2268 2234 0 0 C 152.034 1953.7 t 90 r /Helvetica findfont 83.8316 sf 0 0 m (DR\(Q\)) show NC gr  400 402 m -60 X s 370 491 m -30 X s 370 581 m -30 X s 370 670 m -30 X s 400 759 m -60 X s 370 849 m -30 X s 370 938 m -30 X s 370 1027 m -30 X s
 400 1117 m -60 X s 370 1206 m -30 X s 370 1295 m -30 X s 370 1385 m -30 X s 400 1474 m -60 X s 370 1564 m -30 X s 370 1653 m -30 X s 370 1742 m -30 X s 400 1832 m -60 X s 370 1921 m -30 X s 370 2010 m -30 X s 370 2100 m -30 X s 400 2189 m -60 X s
 400 402 m -60 X s 370 313 m -30 X s 370 223 m -30 X s
 gsave  2268 2234 0 0 C 242.97 379.374 t 0 r /Helvetica findfont 62.5185 sf 0 0 m (0.6) show NC gr 
 gsave  2268 2234 0 0 C 242.97 737.434 t 0 r /Helvetica findfont 62.5185 sf 0 0 m (0.8) show NC gr 
 gsave  2268 2234 0 0 C 305.488 1092.65 t 0 r /Helvetica findfont 62.5185 sf 0 0 m (1) show NC gr 
 gsave  2268 2234 0 0 C 242.97 1450.71 t 0 r /Helvetica findfont 62.5185 sf 0 0 m (1.2) show NC gr 
 gsave  2268 2234 0 0 C 242.97 1808.77 t 0 r /Helvetica findfont 62.5185 sf 0 0 m (1.4) show NC gr 
 gsave  2268 2234 0 0 C 242.97 2166.83 t 0 r /Helvetica findfont 62.5185 sf 0 0 m (1.6) show NC gr 
 gsave  2268 2234 0 0 C 906.518 670.653 t 0 r /Helvetica-Bold findfont 72.4646 sf 0 0 m (DR PIONS) show NC gr 
 gsave  2268 2234 0 0 C 906.518 558.404 t 0 r /Helvetica-Bold findfont 72.4646 sf 0 0 m (ref. sample: EVENT MIX) show NC gr 
 gsave  2268 2234 0 0 C 906.518 447.576 t 0 r /Helvetica-Bold findfont 72.4646 sf 0 0 m (VELO tracks multiplicity: < 10) show NC gr 
 gr  gr showpage
end
%%EOF
