%!PS-Adobe-2.0 EPSF-2.0
%%BoundingBox:  0 0 567 558
%%Title: ./DR_pion_0c65_h3001_1_h3401_1.eps: DR_pion_0c65_h3001_1_h3401_1
%%Creator: ROOT Version 6.06/02
%%CreationDate: Wed Dec  7 17:36:48 2016
%%DocumentNeededResources: ProcSet (FontSetInit)
%%EndComments
%%BeginProlog
80 dict begin
/s {stroke} def /l {lineto} def /m {moveto} def /t {translate} def
/r {rotate} def /rl {roll}  def /R {repeat} def
/d {rlineto} def /rm {rmoveto} def /gr {grestore} def /f {eofill} def
/c {setrgbcolor} def /black {0 setgray} def /sd {setdash} def
/cl {closepath} def /sf {scalefont setfont} def /lw {setlinewidth} def
/box {m dup 0 exch d exch 0 d 0 exch neg d cl} def
/NC{systemdict begin initclip end}def/C{NC box clip newpath}def
/bl {box s} def /bf {gsave box gsave f grestore 1 lw [] 0 sd s grestore} def /Y { 0 exch d} def /X { 0 d} def 
/K {{pop pop 0 moveto} exch kshow} bind def
/ita {/ang 15 def gsave [1 0 ang dup sin exch cos div 1 0 0] concat} def 
/mp {newpath /y exch def /x exch def} def
/side {[w .77 mul w .23 mul] .385 w mul sd w 0 l currentpoint t -144 r} def
/mr {mp x y w2 0 360 arc} def /m24 {mr s} def /m20 {mr f} def
/mb {mp x y w2 add m w2 neg 0 d 0 w neg d w 0 d 0 w d cl} def
/mt {mp x y w2 add m w2 neg w neg d w 0 d cl} def
/m21 {mb f} def /m25 {mb s} def /m22 {mt f} def /m26{mt s} def
/m23 {mp x y w2 sub m w2 w d w neg 0 d cl f} def
/m27 {mp x y w2 add m w3 neg w2 neg d w3 w2 neg d w3 w2 d cl s} def
/m28 {mp x w2 sub y w2 sub w3 add m w3 0 d  0 w3 neg d w3 0 d 0 w3 d w3 0 d  0 w3 d w3 neg 0 d 0 w3 d w3 neg 0 d 0 w3 neg d w3 neg 0 d cl s } def
/m29 {mp gsave x w2 sub y w2 add w3 sub m currentpoint t 4 {side} repeat cl fill gr} def
/m30 {mp gsave x w2 sub y w2 add w3 sub m currentpoint t 4 {side} repeat cl s gr} def
/m31 {mp x y w2 sub m 0 w d x w2 sub y m w 0 d x w2 sub y w2 add m w w neg d x w2 sub y w2 sub m w w d s} def
/m32 {mp x y w2 sub m w2 w d w neg 0 d cl s} def
/m33 {mp x y w2 add m w3 neg w2 neg d w3 w2 neg d w3 w2 d cl f} def
/m34 {mp x w2 sub y w2 sub w3 add m w3 0 d  0 w3 neg d w3 0 d 0 w3 d w3 0 d  0 w3 d w3 neg 0 d 0 w3 d w3 neg 0 d 0 w3 neg d w3 neg 0 d cl f } def
/m2 {mp x y w2 sub m 0 w d x w2 sub y m w 0 d s} def
/m5 {mp x w2 sub y w2 sub m w w d x w2 sub y w2 add m w w neg d s} def
%%IncludeResource: ProcSet (FontSetInit)
%%IncludeResource: font Times-Roman
%%IncludeResource: font Times-Italic
%%IncludeResource: font Times-Bold
%%IncludeResource: font Times-BoldItalic
%%IncludeResource: font Helvetica
%%IncludeResource: font Helvetica-Oblique
%%IncludeResource: font Helvetica-Bold
%%IncludeResource: font Helvetica-BoldOblique
%%IncludeResource: font Courier
%%IncludeResource: font Courier-Oblique
%%IncludeResource: font Courier-Bold
%%IncludeResource: font Courier-BoldOblique
%%IncludeResource: font Symbol
%%IncludeResource: font ZapfDingbats
/reEncode {exch findfont dup length dict begin {1 index /FID eq  {pop pop} {def} ifelse } forall /Encoding exch def currentdict end dup /FontName get exch definefont pop } def [/Times-Bold /Times-Italic /Times-BoldItalic /Helvetica /Helvetica-Oblique
 /Helvetica-Bold /Helvetica-BoldOblique /Courier /Courier-Oblique /Courier-Bold /Courier-BoldOblique /Times-Roman /AvantGarde-Book /AvantGarde-BookOblique /AvantGarde-Demi /AvantGarde-DemiOblique /Bookman-Demi /Bookman-DemiItalic /Bookman-Light
 /Bookman-LightItalic /Helvetica-Narrow /Helvetica-Narrow-Bold /Helvetica-Narrow-BoldOblique /Helvetica-Narrow-Oblique /NewCenturySchlbk-Roman /NewCenturySchlbk-Bold /NewCenturySchlbk-BoldItalic /NewCenturySchlbk-Italic /Palatino-Bold
 /Palatino-BoldItalic /Palatino-Italic /Palatino-Roman ] {ISOLatin1Encoding reEncode } forall
%%EndProlog
%%BeginSetup
%%EndSetup
newpath  gsave  .25 .25 scale  gsave  0 0 t black[  ] 0 sd 6 lw 1 1 1 c 2268 2234 0 0 bf black 3 lw 1 1 1 c 1882 1966 340 223 bf black 1882 1966 340 223 bl 1 1 1 c 1882 1966 340 223 bf black 1882 1966 340 223 bl 0 0 1 c 6 lw 1 1 1 c 0 0 1 c 390 1837
 m 95 Y s 390 1943 m 95 Y s 3 lw /w 14 def /w2 {w 2 div} def /w3 {w 3 div} def 390 1937 m21 6 lw 394 1802 m 85 Y s 394 1898 m 84 Y s 3 lw 394 1892 m21 6 lw 399 1801 m 77 Y s 399 1890 m 78 Y s 3 lw 399 1884 m21 6 lw 404 1716 m 69 Y s 404 1796 m 69 Y s
 3 lw 404 1791 m21 6 lw 408 1754 m 66 Y s 408 1831 m 66 Y s 3 lw 408 1826 m21 6 lw 413 1745 m 60 Y s 413 1817 m 60 Y s 3 lw 413 1811 m21 6 lw 418 1713 m 56 Y s 418 1780 m 56 Y s 3 lw 418 1774 m21 6 lw 423 1616 m 49 Y s 423 1677 m 50 Y s 3 lw 423 1671
 m21 6 lw 427 1709 m 49 Y s 427 1769 m 50 Y s 3 lw 427 1764 m21 6 lw 432 1613 m 45 Y s 432 1670 m 45 Y s 3 lw 432 1664 m21 6 lw 437 1611 m 43 Y s 437 1665 m 43 Y s 3 lw 437 1660 m21 6 lw 441 1601 m 41 Y s 441 1653 m 41 Y s 3 lw 441 1647 m21 6 lw 446
 1589 m 38 Y s 446 1638 m 38 Y s 3 lw 446 1632 m21 6 lw 451 1589 m 37 Y s 451 1637 m 37 Y s 3 lw 451 1631 m21 6 lw 455 1561 m 35 Y s 455 1607 m 35 Y s 3 lw 455 1601 m21 6 lw 460 1494 m 32 Y s 460 1538 m 32 Y s 3 lw 460 1532 m21 6 lw 465 1490 m 31 Y s
 465 1533 m 31 Y s 3 lw 465 1527 m21 6 lw 470 1541 m 31 Y s 470 1583 m 31 Y s 3 lw 470 1577 m21 6 lw 474 1484 m 29 Y s 474 1524 m 29 Y s 3 lw 474 1518 m21 6 lw 479 1447 m 27 Y s 479 1486 m 27 Y s 3 lw 479 1480 m21 6 lw 484 1450 m 26 Y s 484 1487 m 27
 Y s 3 lw 484 1482 m21 6 lw 488 1403 m 25 Y s 488 1439 m 25 Y s 3 lw 488 1433 m21 6 lw 493 1448 m 25 Y s 493 1484 m 25 Y s 3 lw 493 1478 m21 6 lw 498 1409 m 23 Y s 498 1444 m 23 Y s 3 lw 498 1438 m21 6 lw 502 1398 m 23 Y s 502 1432 m 23 Y s 3 lw 502
 1426 m21 6 lw 507 1396 m 22 Y s 507 1429 m 23 Y s 3 lw 507 1424 m21 6 lw 512 1381 m 22 Y s 512 1414 m 22 Y s 3 lw 512 1408 m21 6 lw 517 1351 m 21 Y s 517 1383 m 21 Y s 3 lw 517 1378 m21 6 lw 521 1371 m 20 Y s 521 1403 m 20 Y s 3 lw 521 1397 m21 6 lw
 526 1336 m 20 Y s 526 1367 m 20 Y s 3 lw 526 1362 m21 6 lw 531 1281 m 19 Y s 531 1311 m 19 Y s 3 lw 531 1305 m21 6 lw 535 1311 m 18 Y s 535 1341 m 18 Y s 3 lw 535 1335 m21 6 lw 540 1319 m 18 Y s 540 1348 m 19 Y s 3 lw 540 1343 m21 6 lw 545 1326 m 18
 Y s 545 1355 m 18 Y s 3 lw 545 1349 m21 6 lw 550 1310 m 18 Y s 550 1339 m 18 Y s 3 lw 550 1333 m21 6 lw 554 1245 m 16 Y s 554 1273 m 16 Y s 3 lw 554 1267 m21 6 lw 559 1306 m 17 Y s 559 1334 m 17 Y s 3 lw 559 1328 m21 6 lw 564 1247 m 16 Y s 564 1274
 m 16 Y s 3 lw 564 1268 m21 6 lw 568 1248 m 15 Y s 568 1275 m 15 Y s 3 lw 568 1269 m21 6 lw 573 1319 m 16 Y s 573 1347 m 16 Y s 3 lw 573 1341 m21 6 lw 578 1275 m 15 Y s 578 1302 m 15 Y s 3 lw 578 1296 m21 6 lw 582 1224 m 14 Y s 582 1250 m 15 Y s 3 lw
 582 1244 m21 6 lw 587 1205 m 14 Y s 587 1231 m 14 Y s 3 lw 587 1225 m21 6 lw 592 1217 m 15 Y s 592 1243 m 14 Y s 3 lw 592 1237 m21 6 lw 597 1212 m 15 Y s 597 1238 m 14 Y s 3 lw 597 1232 m21 6 lw 601 1215 m 14 Y s 601 1240 m 14 Y s 3 lw 601 1235 m21
 6 lw 606 1240 m 14 Y s 606 1266 m 14 Y s 3 lw 606 1260 m21 6 lw 611 1216 m 13 Y s 611 1241 m 13 Y s 3 lw 611 1235 m21 6 lw 615 1192 m 13 Y s 615 1216 m 14 Y s 3 lw 615 1211 m21 6 lw 620 1172 m 12 Y s 620 1196 m 13 Y s 3 lw 620 1190 m21 6 lw 625 1216
 m 13 Y s 625 1240 m 14 Y s 3 lw 625 1235 m21 6 lw 630 1167 m 13 Y s 630 1191 m 13 Y s 3 lw 630 1186 m21 6 lw 634 1189 m 13 Y s 634 1213 m 13 Y s 3 lw 634 1208 m21 6 lw 639 1193 m 13 Y s 639 1217 m 13 Y s 3 lw 639 1212 m21 6 lw 644 1149 m 12 Y s 644
 1172 m 13 Y s 3 lw 644 1167 m21 6 lw 648 1167 m 12 Y s 648 1191 m 12 Y s 3 lw 648 1185 m21 6 lw 653 1215 m 12 Y s 653 1239 m 12 Y s 3 lw 653 1233 m21 6 lw 658 1174 m 12 Y s 658 1197 m 12 Y s 3 lw 658 1191 m21 6 lw 662 1160 m 12 Y s 662 1183 m 12 Y s
 3 lw 662 1177 m21 6 lw 667 1193 m 12 Y s 667 1217 m 12 Y s 3 lw 667 1211 m21 6 lw 672 1161 m 12 Y s 672 1184 m 12 Y s 3 lw 672 1179 m21 6 lw 677 1149 m 11 Y s 677 1172 m 11 Y s 3 lw 677 1166 m21 6 lw 681 1151 m 12 Y s 681 1174 m 12 Y s 3 lw 681 1168
 m21 6 lw 686 1154 m 11 Y s 686 1176 m 12 Y s 3 lw 686 1171 m21 6 lw 691 1162 m 12 Y s 691 1185 m 12 Y s 3 lw 691 1179 m21 6 lw 695 1146 m 12 Y s 695 1169 m 11 Y s 3 lw 695 1163 m21 6 lw 700 1153 m 11 Y s 700 1176 m 11 Y s 3 lw 700 1170 m21 6 lw 705
 1119 m 11 Y s 705 1142 m 11 Y s 3 lw 705 1136 m21 6 lw 710 1125 m 11 Y s 710 1147 m 11 Y s 3 lw 710 1142 m21 6 lw 714 1102 m 11 Y s 714 1124 m 10 Y s 3 lw 714 1118 m21 6 lw 719 1097 m 11 Y s 719 1119 m 10 Y s 3 lw 719 1113 m21 6 lw 724 1144 m 11 Y s
 724 1166 m 11 Y s 3 lw 724 1160 m21 6 lw 728 1113 m 11 Y s 728 1135 m 11 Y s 3 lw 728 1130 m21 6 lw 733 1106 m 10 Y s 733 1127 m 11 Y s 3 lw 733 1122 m21 6 lw 738 1090 m 10 Y s 738 1111 m 10 Y s 3 lw 738 1106 m21 6 lw 742 1101 m 10 Y s 742 1122 m 11
 Y s 3 lw 742 1117 m21 6 lw 747 1124 m 10 Y s 747 1146 m 10 Y s 3 lw 747 1140 m21 6 lw 752 1091 m 10 Y s 752 1113 m 10 Y s 3 lw 752 1107 m21 6 lw 757 1092 m 10 Y s 757 1113 m 10 Y s 3 lw 757 1107 m21 6 lw 761 1080 m 10 Y s 761 1101 m 10 Y s 3 lw 761
 1095 m21 6 lw 766 1108 m 10 Y s 766 1130 m 10 Y s 3 lw 766 1124 m21 6 lw 771 1086 m 10 Y s 771 1107 m 10 Y s 3 lw 771 1102 m21 6 lw 775 1097 m 10 Y s 775 1118 m 10 Y s 3 lw 775 1112 m21 6 lw 780 1095 m 10 Y s 780 1116 m 10 Y s 3 lw 780 1110 m21 6 lw
 785 1083 m 10 Y s 785 1104 m 10 Y s 3 lw 785 1099 m21 6 lw 790 1092 m 10 Y s 790 1114 m 9 Y s 3 lw 790 1108 m21 6 lw 794 1090 m 10 Y s 794 1111 m 10 Y s 3 lw 794 1105 m21 6 lw 799 1079 m 9 Y s 799 1100 m 9 Y s 3 lw 799 1094 m21 6 lw 804 1074 m 9 Y s
 804 1095 m 9 Y s 3 lw 804 1089 m21 6 lw 808 1087 m 10 Y s 808 1108 m 10 Y s 3 lw 808 1102 m21 6 lw 813 1071 m 10 Y s 813 1092 m 10 Y s 3 lw 813 1087 m21 6 lw 818 1111 m 10 Y s 818 1132 m 10 Y s 3 lw 818 1126 m21 6 lw 822 1083 m 10 Y s 822 1104 m 10
 Y s 3 lw 822 1098 m21 6 lw 827 1089 m 10 Y s 827 1110 m 10 Y s 3 lw 827 1105 m21 6 lw 832 1078 m 9 Y s 832 1098 m 10 Y s 3 lw 832 1093 m21 6 lw 837 1062 m 10 Y s 837 1083 m 9 Y s 3 lw 837 1077 m21 6 lw 841 1077 m 9 Y s 841 1097 m 10 Y s 3 lw 841
 1092 m21 6 lw 846 1075 m 10 Y s 846 1096 m 9 Y s 3 lw 846 1090 m21 6 lw 851 1090 m 10 Y s 851 1111 m 10 Y s 3 lw 851 1105 m21 6 lw 855 1075 m 10 Y s 855 1096 m 9 Y s 3 lw 855 1090 m21 6 lw 860 1047 m 9 Y s 860 1068 m 9 Y s 3 lw 860 1062 m21 6 lw 865
 1066 m 10 Y s 865 1087 m 9 Y s 3 lw 865 1081 m21 6 lw 870 1038 m 9 Y s 870 1058 m 9 Y s 3 lw 870 1053 m21 6 lw 874 1072 m 10 Y s 874 1093 m 9 Y s 3 lw 874 1087 m21 6 lw 879 1060 m 9 Y s 879 1080 m 9 Y s 3 lw 879 1075 m21 6 lw 884 1076 m 9 Y s 884
 1097 m 9 Y s 3 lw 884 1091 m21 6 lw 888 1043 m 9 Y s 888 1064 m 9 Y s 3 lw 888 1058 m21 6 lw 893 1057 m 9 Y s 893 1078 m 9 Y s 3 lw 893 1072 m21 6 lw 898 1053 m 10 Y s 898 1074 m 9 Y s 3 lw 898 1068 m21 6 lw 902 1058 m 9 Y s 902 1078 m 10 Y s 3 lw
 902 1073 m21 6 lw 907 1057 m 9 Y s 907 1077 m 10 Y s 3 lw 907 1072 m21 6 lw 912 1059 m 9 Y s 912 1079 m 9 Y s 3 lw 912 1073 m21 6 lw 917 1050 m 9 Y s 917 1070 m 9 Y s 3 lw 917 1065 m21 6 lw 921 1058 m 9 Y s 921 1079 m 9 Y s 3 lw 921 1073 m21 6 lw
 926 1054 m 9 Y s 926 1075 m 9 Y s 3 lw 926 1069 m21 6 lw 931 1049 m 9 Y s 931 1070 m 9 Y s 3 lw 931 1064 m21 6 lw 935 1030 m 9 Y s 935 1050 m 9 Y s 3 lw 935 1044 m21 6 lw 940 1052 m 9 Y s 940 1072 m 10 Y s 3 lw 940 1067 m21 6 lw 945 1062 m 10 Y s
 945 1083 m 9 Y s 3 lw 945 1077 m21 6 lw 950 1060 m 9 Y s 950 1080 m 10 Y s 3 lw 950 1075 m21 6 lw 954 1049 m 9 Y s 954 1069 m 9 Y s 3 lw 954 1064 m21 6 lw 959 1059 m 9 Y s 959 1079 m 10 Y s 3 lw 959 1074 m21 6 lw 964 1017 m 9 Y s 964 1038 m 9 Y s 3
 lw 964 1032 m21 6 lw 968 1036 m 9 Y s 968 1056 m 9 Y s 3 lw 968 1050 m21 6 lw 973 1041 m 9 Y s 973 1061 m 9 Y s 3 lw 973 1056 m21 6 lw 978 1038 m 9 Y s 978 1059 m 9 Y s 3 lw 978 1053 m21 6 lw 982 1040 m 10 Y s 982 1061 m 9 Y s 3 lw 982 1055 m21 6 lw
 987 1034 m 9 Y s 987 1054 m 9 Y s 3 lw 987 1049 m21 6 lw 992 1018 m 9 Y s 992 1038 m 9 Y s 3 lw 992 1033 m21 6 lw 997 1053 m 9 Y s 997 1073 m 9 Y s 3 lw 997 1068 m21 6 lw 1001 1041 m 9 Y s 1001 1061 m 9 Y s 3 lw 1001 1055 m21 6 lw 1006 1019 m 9 Y s
 1006 1039 m 9 Y s 3 lw 1006 1034 m21 6 lw 1011 1009 m 9 Y s 1011 1029 m 9 Y s 3 lw 1011 1023 m21 6 lw 1015 1011 m 8 Y s 1015 1031 m 9 Y s 3 lw 1015 1025 m21 6 lw 1020 1036 m 9 Y s 1020 1056 m 9 Y s 3 lw 1020 1050 m21 6 lw 1025 1021 m 9 Y s 1025 1041
 m 9 Y s 3 lw 1025 1035 m21 6 lw 1030 1022 m 9 Y s 1030 1042 m 9 Y s 3 lw 1030 1037 m21 6 lw 1034 1036 m 9 Y s 1034 1056 m 9 Y s 3 lw 1034 1050 m21 6 lw 1039 1064 m 9 Y s 1039 1085 m 9 Y s 3 lw 1039 1079 m21 6 lw 1044 1011 m 9 Y s 1044 1032 m 9 Y s 3
 lw 1044 1026 m21 6 lw 1048 1023 m 9 Y s 1048 1043 m 9 Y s 3 lw 1048 1038 m21 6 lw 1053 1026 m 9 Y s 1053 1047 m 9 Y s 3 lw 1053 1041 m21 6 lw 1058 1000 m 9 Y s 1058 1021 m 9 Y s 3 lw 1058 1015 m21 6 lw 1062 1074 m 10 Y s 1062 1095 m 10 Y s 3 lw 1062
 1089 m21 6 lw 1067 1041 m 9 Y s 1067 1062 m 9 Y s 3 lw 1067 1056 m21 6 lw 1072 1032 m 10 Y s 1072 1053 m 9 Y s 3 lw 1072 1047 m21 6 lw 1077 1013 m 9 Y s 1077 1033 m 9 Y s 3 lw 1077 1028 m21 6 lw 1081 1039 m 9 Y s 1081 1060 m 9 Y s 3 lw 1081 1054 m21
 6 lw 1086 1059 m 9 Y s 1086 1079 m 10 Y s 3 lw 1086 1074 m21 6 lw 1091 1032 m 10 Y s 1091 1053 m 9 Y s 3 lw 1091 1047 m21 6 lw 1095 1037 m 10 Y s 1095 1058 m 9 Y s 3 lw 1095 1052 m21 6 lw 1100 1047 m 9 Y s 1100 1067 m 10 Y s 3 lw 1100 1062 m21 6 lw
 1105 1051 m 10 Y s 1105 1072 m 9 Y s 3 lw 1105 1066 m21 6 lw 1110 1033 m 10 Y s 1110 1054 m 10 Y s 3 lw 1110 1048 m21 6 lw 1114 1024 m 9 Y s 1114 1044 m 10 Y s 3 lw 1114 1039 m21 6 lw 1119 1062 m 10 Y s 1119 1083 m 10 Y s 3 lw 1119 1077 m21 6 lw
 1124 1069 m 10 Y s 1124 1091 m 9 Y s 3 lw 1124 1085 m21 6 lw 1128 1041 m 10 Y s 1128 1062 m 10 Y s 3 lw 1128 1057 m21 6 lw 1133 1046 m 10 Y s 1133 1067 m 10 Y s 3 lw 1133 1061 m21 6 lw 1138 1038 m 9 Y s 1138 1058 m 10 Y s 3 lw 1138 1053 m21 6 lw
 1142 1003 m 9 Y s 1142 1024 m 9 Y s 3 lw 1142 1018 m21 6 lw 1147 1048 m 10 Y s 1147 1069 m 10 Y s 3 lw 1147 1064 m21 6 lw 1152 1031 m 9 Y s 1152 1052 m 9 Y s 3 lw 1152 1046 m21 6 lw 1157 1028 m 10 Y s 1157 1049 m 10 Y s 3 lw 1157 1044 m21 6 lw 1161
 1011 m 9 Y s 1161 1031 m 10 Y s 3 lw 1161 1026 m21 6 lw 1166 1049 m 10 Y s 1166 1070 m 10 Y s 3 lw 1166 1064 m21 6 lw 1171 1009 m 9 Y s 1171 1029 m 10 Y s 3 lw 1171 1024 m21 6 lw 1175 1045 m 10 Y s 1175 1066 m 10 Y s 3 lw 1175 1061 m21 6 lw 1180
 1067 m 10 Y s 1180 1089 m 10 Y s 3 lw 1180 1083 m21 6 lw 1185 1046 m 10 Y s 1185 1068 m 9 Y s 3 lw 1185 1062 m21 6 lw 1190 1046 m 10 Y s 1190 1067 m 10 Y s 3 lw 1190 1062 m21 6 lw 1194 1042 m 10 Y s 1194 1063 m 10 Y s 3 lw 1194 1057 m21 6 lw 1199
 1034 m 10 Y s 1199 1055 m 10 Y s 3 lw 1199 1050 m21 6 lw 1204 1050 m 10 Y s 1204 1072 m 10 Y s 3 lw 1204 1066 m21 6 lw 1208 1080 m 10 Y s 1208 1102 m 10 Y s 3 lw 1208 1096 m21 6 lw 1213 1027 m 10 Y s 1213 1048 m 10 Y s 3 lw 1213 1042 m21 6 lw 1218
 1041 m 10 Y s 1218 1062 m 10 Y s 3 lw 1218 1057 m21 6 lw 1222 1037 m 10 Y s 1222 1058 m 10 Y s 3 lw 1222 1052 m21 6 lw 1227 1032 m 10 Y s 1227 1053 m 10 Y s 3 lw 1227 1048 m21 6 lw 1232 1054 m 10 Y s 1232 1075 m 11 Y s 3 lw 1232 1070 m21 6 lw 1237
 1066 m 10 Y s 1237 1087 m 10 Y s 3 lw 1237 1081 m21 6 lw 1241 1065 m 10 Y s 1241 1086 m 11 Y s 3 lw 1241 1081 m21 6 lw 1246 1040 m 10 Y s 1246 1061 m 11 Y s 3 lw 1246 1056 m21 6 lw 1251 1036 m 10 Y s 1251 1057 m 10 Y s 3 lw 1251 1051 m21 6 lw 1255
 1052 m 11 Y s 1255 1074 m 10 Y s 3 lw 1255 1068 m21 6 lw 1260 1061 m 10 Y s 1260 1082 m 11 Y s 3 lw 1260 1077 m21 6 lw 1265 1066 m 10 Y s 1265 1088 m 10 Y s 3 lw 1265 1082 m21 6 lw 1269 1052 m 10 Y s 1269 1074 m 10 Y s 3 lw 1269 1068 m21 6 lw 1274
 1058 m 10 Y s 1274 1080 m 10 Y s 3 lw 1274 1074 m21 6 lw 1279 1056 m 10 Y s 1279 1077 m 11 Y s 3 lw 1279 1072 m21 6 lw 1284 1049 m 10 Y s 1284 1070 m 11 Y s 3 lw 1284 1065 m21 6 lw 1288 1044 m 10 Y s 1288 1066 m 10 Y s 3 lw 1288 1060 m21 6 lw 1293
 1052 m 11 Y s 1293 1074 m 11 Y s 3 lw 1293 1068 m21 6 lw 1298 1043 m 11 Y s 1298 1065 m 11 Y s 3 lw 1298 1060 m21 6 lw 1302 1032 m 10 Y s 1302 1053 m 11 Y s 3 lw 1302 1048 m21 6 lw 1307 1055 m 11 Y s 1307 1077 m 11 Y s 3 lw 1307 1071 m21 6 lw 1312
 1080 m 11 Y s 1312 1102 m 11 Y s 3 lw 1312 1096 m21 6 lw 1317 1049 m 11 Y s 1317 1071 m 11 Y s 3 lw 1317 1066 m21 6 lw 1321 1020 m 10 Y s 1321 1042 m 10 Y s 3 lw 1321 1036 m21 6 lw 1326 1053 m 11 Y s 1326 1076 m 10 Y s 3 lw 1326 1070 m21 6 lw 1331
 1087 m 12 Y s 1331 1110 m 11 Y s 3 lw 1331 1104 m21 6 lw 1335 1071 m 11 Y s 1335 1093 m 11 Y s 3 lw 1335 1087 m21 6 lw 1340 1038 m 10 Y s 1340 1060 m 11 Y s 3 lw 1340 1054 m21 6 lw 1345 1050 m 11 Y s 1345 1072 m 11 Y s 3 lw 1345 1066 m21 6 lw 1349
 1062 m 11 Y s 1349 1085 m 11 Y s 3 lw 1349 1079 m21 6 lw 1354 1060 m 11 Y s 1354 1082 m 12 Y s 3 lw 1354 1077 m21 6 lw 1359 1107 m 11 Y s 1359 1130 m 11 Y s 3 lw 1359 1124 m21 6 lw 1364 1077 m 12 Y s 1364 1100 m 11 Y s 3 lw 1364 1094 m21 6 lw 1368
 1052 m 11 Y s 1368 1074 m 11 Y s 3 lw 1368 1069 m21 6 lw 1373 1038 m 11 Y s 1373 1060 m 11 Y s 3 lw 1373 1055 m21 6 lw 1378 1078 m 12 Y s 1378 1101 m 12 Y s 3 lw 1378 1095 m21 6 lw 1382 1076 m 12 Y s 1382 1099 m 11 Y s 3 lw 1382 1093 m21 6 lw 1387
 1070 m 11 Y s 1387 1092 m 12 Y s 3 lw 1387 1087 m21 6 lw 1392 1070 m 11 Y s 1392 1093 m 11 Y s 3 lw 1392 1087 m21 6 lw 1397 1067 m 11 Y s 1397 1090 m 11 Y s 3 lw 1397 1084 m21 6 lw 1401 1069 m 11 Y s 1401 1092 m 11 Y s 3 lw 1401 1086 m21 6 lw 1406
 1069 m 11 Y s 1406 1092 m 11 Y s 3 lw 1406 1086 m21 6 lw 1411 1072 m 12 Y s 1411 1095 m 12 Y s 3 lw 1411 1089 m21 6 lw 1415 1071 m 11 Y s 1415 1094 m 12 Y s 3 lw 1415 1088 m21 6 lw 1420 1065 m 12 Y s 1420 1088 m 12 Y s 3 lw 1420 1083 m21 6 lw 1425
 1048 m 12 Y s 1425 1072 m 11 Y s 3 lw 1425 1066 m21 6 lw 1429 1079 m 12 Y s 1429 1103 m 12 Y s 3 lw 1429 1097 m21 6 lw 1434 1081 m 13 Y s 1434 1105 m 12 Y s 3 lw 1434 1099 m21 6 lw 1439 1075 m 12 Y s 1439 1099 m 12 Y s 3 lw 1439 1093 m21 6 lw 1444
 1073 m 12 Y s 1444 1096 m 12 Y s 3 lw 1444 1090 m21 6 lw 1448 1097 m 12 Y s 1448 1121 m 12 Y s 3 lw 1448 1115 m21 6 lw 1453 1088 m 12 Y s 1453 1112 m 12 Y s 3 lw 1453 1106 m21 6 lw 1458 1105 m 13 Y s 1458 1129 m 13 Y s 3 lw 1458 1123 m21 6 lw 1462
 1076 m 13 Y s 1462 1100 m 13 Y s 3 lw 1462 1095 m21 6 lw 1467 1105 m 13 Y s 1467 1129 m 13 Y s 3 lw 1467 1123 m21 6 lw 1472 1098 m 12 Y s 1472 1122 m 12 Y s 3 lw 1472 1116 m21 6 lw 1477 1074 m 12 Y s 1477 1097 m 13 Y s 3 lw 1477 1092 m21 6 lw 1481
 1121 m 13 Y s 1481 1145 m 13 Y s 3 lw 1481 1140 m21 6 lw 1486 1090 m 13 Y s 1486 1114 m 13 Y s 3 lw 1486 1109 m21 6 lw 1491 1083 m 13 Y s 1491 1107 m 13 Y s 3 lw 1491 1102 m21 6 lw 1495 1090 m 13 Y s 1495 1115 m 13 Y s 3 lw 1495 1109 m21 6 lw 1500
 1094 m 13 Y s 1500 1118 m 13 Y s 3 lw 1500 1113 m21 6 lw 1505 1095 m 13 Y s 1505 1119 m 14 Y s 3 lw 1505 1114 m21 6 lw 1509 1090 m 13 Y s 1509 1114 m 13 Y s 3 lw 1509 1109 m21 6 lw 1514 1110 m 14 Y s 1514 1135 m 13 Y s 3 lw 1514 1129 m21 6 lw 1519
 1097 m 13 Y s 1519 1122 m 13 Y s 3 lw 1519 1116 m21 6 lw 1524 1093 m 13 Y s 1524 1118 m 13 Y s 3 lw 1524 1112 m21 6 lw 1528 1084 m 13 Y s 1528 1108 m 13 Y s 3 lw 1528 1102 m21 6 lw 1533 1094 m 13 Y s 1533 1118 m 14 Y s 3 lw 1533 1113 m21 6 lw 1538
 1122 m 14 Y s 1538 1147 m 14 Y s 3 lw 1538 1141 m21 6 lw 1542 1087 m 14 Y s 1542 1112 m 14 Y s 3 lw 1542 1106 m21 6 lw 1547 1100 m 13 Y s 1547 1125 m 13 Y s 3 lw 1547 1119 m21 6 lw 1552 1065 m 13 Y s 1552 1090 m 13 Y s 3 lw 1552 1084 m21 6 lw 1557
 1106 m 13 Y s 1557 1131 m 13 Y s 3 lw 1557 1125 m21 6 lw 1561 1069 m 13 Y s 1561 1094 m 13 Y s 3 lw 1561 1088 m21 6 lw 1566 1088 m 14 Y s 1566 1114 m 13 Y s 3 lw 1566 1108 m21 6 lw 1571 1092 m 13 Y s 1571 1117 m 14 Y s 3 lw 1571 1111 m21 6 lw 1575
 1113 m 14 Y s 1575 1138 m 15 Y s 3 lw 1575 1133 m21 6 lw 1580 1096 m 14 Y s 1580 1122 m 14 Y s 3 lw 1580 1116 m21 6 lw 1585 1098 m 14 Y s 1585 1123 m 14 Y s 3 lw 1585 1118 m21 6 lw 1589 1089 m 14 Y s 1589 1114 m 14 Y s 3 lw 1589 1109 m21 6 lw 1594
 1119 m 14 Y s 1594 1145 m 14 Y s 3 lw 1594 1139 m21 6 lw 1599 1114 m 14 Y s 1599 1139 m 15 Y s 3 lw 1599 1134 m21 6 lw 1604 1111 m 14 Y s 1604 1137 m 14 Y s 3 lw 1604 1131 m21 6 lw 1608 1118 m 15 Y s 1608 1144 m 15 Y s 3 lw 1608 1138 m21 6 lw 1613
 1075 m 15 Y s 1613 1101 m 14 Y s 3 lw 1613 1095 m21 6 lw 1618 1125 m 15 Y s 1618 1152 m 15 Y s 3 lw 1618 1146 m21 6 lw 1622 1126 m 15 Y s 1622 1153 m 15 Y s 3 lw 1622 1147 m21 6 lw 1627 1086 m 15 Y s 1627 1112 m 15 Y s 3 lw 1627 1106 m21 6 lw 1632
 1129 m 15 Y s 1632 1155 m 15 Y s 3 lw 1632 1149 m21 6 lw 1637 1087 m 14 Y s 1637 1113 m 14 Y s 3 lw 1637 1107 m21 6 lw 1641 1113 m 15 Y s 1641 1140 m 15 Y s 3 lw 1641 1134 m21 6 lw 1646 1106 m 15 Y s 1646 1132 m 15 Y s 3 lw 1646 1127 m21 6 lw 1651
 1106 m 15 Y s 1651 1132 m 15 Y s 3 lw 1651 1126 m21 6 lw 1655 1128 m 16 Y s 1655 1155 m 15 Y s 3 lw 1655 1149 m21 6 lw 1660 1129 m 15 Y s 1660 1156 m 15 Y s 3 lw 1660 1150 m21 6 lw 1665 1159 m 16 Y s 1665 1186 m 16 Y s 3 lw 1665 1180 m21 6 lw 1669
 1108 m 15 Y s 1669 1135 m 15 Y s 3 lw 1669 1129 m21 6 lw 1674 1106 m 16 Y s 1674 1133 m 16 Y s 3 lw 1674 1128 m21 6 lw 1679 1131 m 16 Y s 1679 1159 m 15 Y s 3 lw 1679 1153 m21 6 lw 1684 1119 m 16 Y s 1684 1147 m 15 Y s 3 lw 1684 1141 m21 6 lw 1688
 1109 m 16 Y s 1688 1137 m 15 Y s 3 lw 1688 1131 m21 6 lw 1693 1119 m 15 Y s 1693 1146 m 16 Y s 3 lw 1693 1140 m21 6 lw 1698 1126 m 16 Y s 1698 1154 m 16 Y s 3 lw 1698 1148 m21 6 lw 1702 1146 m 17 Y s 1702 1174 m 17 Y s 3 lw 1702 1168 m21 6 lw 1707
 1113 m 16 Y s 1707 1140 m 16 Y s 3 lw 1707 1135 m21 6 lw 1712 1162 m 17 Y s 1712 1190 m 17 Y s 3 lw 1712 1185 m21 6 lw 1717 1097 m 16 Y s 1717 1125 m 16 Y s 3 lw 1717 1119 m21 6 lw 1721 1106 m 17 Y s 1721 1134 m 16 Y s 3 lw 1721 1128 m21 6 lw 1726
 1121 m 16 Y s 1726 1149 m 16 Y s 3 lw 1726 1143 m21 6 lw 1731 1099 m 17 Y s 1731 1127 m 16 Y s 3 lw 1731 1121 m21 6 lw 1735 1131 m 17 Y s 1735 1160 m 16 Y s 3 lw 1735 1154 m21 6 lw 1740 1132 m 17 Y s 1740 1160 m 17 Y s 3 lw 1740 1155 m21 6 lw 1745
 1104 m 16 Y s 1745 1132 m 16 Y s 3 lw 1745 1126 m21 6 lw 1749 1144 m 17 Y s 1749 1172 m 18 Y s 3 lw 1749 1167 m21 6 lw 1754 1124 m 17 Y s 1754 1152 m 17 Y s 3 lw 1754 1146 m21 6 lw 1759 1140 m 17 Y s 1759 1169 m 17 Y s 3 lw 1759 1163 m21 6 lw 1764
 1146 m 18 Y s 1764 1175 m 18 Y s 3 lw 1764 1169 m21 6 lw 1768 1110 m 17 Y s 1768 1138 m 17 Y s 3 lw 1768 1133 m21 6 lw 1773 1106 m 17 Y s 1773 1135 m 17 Y s 3 lw 1773 1129 m21 6 lw 1778 1146 m 18 Y s 1778 1175 m 18 Y s 3 lw 1778 1170 m21 6 lw 1782
 1163 m 18 Y s 1782 1192 m 18 Y s 3 lw 1782 1187 m21 6 lw 1787 1150 m 18 Y s 1787 1179 m 18 Y s 3 lw 1787 1174 m21 6 lw 1792 1134 m 18 Y s 1792 1163 m 18 Y s 3 lw 1792 1158 m21 6 lw 1797 1130 m 18 Y s 1797 1159 m 18 Y s 3 lw 1797 1153 m21 6 lw 1801
 1182 m 19 Y s 1801 1212 m 19 Y s 3 lw 1801 1206 m21 6 lw 1806 1187 m 19 Y s 1806 1218 m 19 Y s 3 lw 1806 1212 m21 6 lw 1811 1149 m 18 Y s 1811 1178 m 19 Y s 3 lw 1811 1173 m21 6 lw 1815 1123 m 18 Y s 1815 1152 m 18 Y s 3 lw 1815 1146 m21 6 lw 1820
 1134 m 19 Y s 1820 1164 m 18 Y s 3 lw 1820 1158 m21 6 lw 1825 1124 m 18 Y s 1825 1153 m 18 Y s 3 lw 1825 1147 m21 6 lw 1829 1187 m 20 Y s 1829 1218 m 19 Y s 3 lw 1829 1212 m21 6 lw 1834 1130 m 19 Y s 1834 1160 m 19 Y s 3 lw 1834 1155 m21 6 lw 1839
 1148 m 19 Y s 1839 1178 m 19 Y s 3 lw 1839 1173 m21 6 lw 1844 1119 m 19 Y s 1844 1150 m 18 Y s 3 lw 1844 1144 m21 6 lw 1848 1166 m 19 Y s 1848 1196 m 20 Y s 3 lw 1848 1191 m21 6 lw 1853 1115 m 19 Y s 1853 1145 m 19 Y s 3 lw 1853 1139 m21 6 lw 1858
 1148 m 19 Y s 1858 1179 m 19 Y s 3 lw 1858 1173 m21 6 lw 1862 1134 m 19 Y s 1862 1164 m 19 Y s 3 lw 1862 1159 m21 6 lw 1867 1140 m 19 Y s 1867 1171 m 19 Y s 3 lw 1867 1165 m21 6 lw 1872 1173 m 20 Y s 1872 1204 m 20 Y s 3 lw 1872 1199 m21 6 lw 1877
 1155 m 20 Y s 1877 1186 m 20 Y s 3 lw 1877 1180 m21 6 lw 1881 1175 m 20 Y s 1881 1206 m 21 Y s 3 lw 1881 1201 m21 6 lw 1886 1125 m 19 Y s 1886 1156 m 19 Y s 3 lw 1886 1150 m21 6 lw 1891 1162 m 20 Y s 1891 1193 m 21 Y s 3 lw 1891 1188 m21 6 lw 1895
 1134 m 21 Y s 1895 1166 m 20 Y s 3 lw 1895 1160 m21 6 lw 1900 1144 m 20 Y s 1900 1176 m 20 Y s 3 lw 1900 1170 m21 6 lw 1905 1120 m 20 Y s 1905 1151 m 20 Y s 3 lw 1905 1145 m21 6 lw 1909 1162 m 20 Y s 1909 1194 m 20 Y s 3 lw 1909 1188 m21 6 lw 1914
 1150 m 21 Y s 1914 1182 m 21 Y s 3 lw 1914 1177 m21 6 lw 1919 1170 m 21 Y s 1919 1202 m 21 Y s 3 lw 1919 1197 m21 6 lw 1924 1175 m 22 Y s 1924 1208 m 21 Y s 3 lw 1924 1202 m21 6 lw 1928 1143 m 21 Y s 1928 1175 m 21 Y s 3 lw 1928 1170 m21 6 lw 1933
 1146 m 21 Y s 1933 1178 m 21 Y s 3 lw 1933 1173 m21 6 lw 1938 1171 m 22 Y s 1938 1204 m 22 Y s 3 lw 1938 1198 m21 6 lw 1942 1153 m 21 Y s 1942 1186 m 21 Y s 3 lw 1942 1180 m21 6 lw 1947 1139 m 22 Y s 1947 1172 m 21 Y s 3 lw 1947 1166 m21 6 lw 1952
 1169 m 22 Y s 1952 1202 m 22 Y s 3 lw 1952 1196 m21 6 lw 1957 1134 m 22 Y s 1957 1167 m 21 Y s 3 lw 1957 1161 m21 6 lw 1961 1158 m 22 Y s 1961 1191 m 22 Y s 3 lw 1961 1185 m21 6 lw 1966 1171 m 22 Y s 1966 1205 m 22 Y s 3 lw 1966 1199 m21 6 lw 1971
 1164 m 22 Y s 1971 1198 m 22 Y s 3 lw 1971 1192 m21 6 lw 1975 1081 m 21 Y s 1975 1114 m 20 Y s 3 lw 1975 1108 m21 6 lw 1980 1179 m 23 Y s 1980 1213 m 23 Y s 3 lw 1980 1208 m21 6 lw 1985 1167 m 23 Y s 1985 1201 m 23 Y s 3 lw 1985 1196 m21 6 lw 1989
 1166 m 22 Y s 1989 1200 m 22 Y s 3 lw 1989 1194 m21 6 lw 1994 1214 m 24 Y s 1994 1249 m 23 Y s 3 lw 1994 1243 m21 6 lw 1999 1142 m 22 Y s 1999 1176 m 22 Y s 3 lw 1999 1170 m21 6 lw 2004 1167 m 23 Y s 2004 1201 m 23 Y s 3 lw 2004 1196 m21 6 lw 2008
 1152 m 23 Y s 2008 1187 m 22 Y s 3 lw 2008 1181 m21 6 lw 2013 1122 m 22 Y s 2013 1155 m 23 Y s 3 lw 2013 1150 m21 6 lw 2018 1141 m 23 Y s 2018 1175 m 23 Y s 3 lw 2018 1170 m21 6 lw 2022 1191 m 24 Y s 2022 1226 m 24 Y s 3 lw 2022 1221 m21 6 lw 2027
 1196 m 24 Y s 2027 1231 m 24 Y s 3 lw 2027 1226 m21 6 lw 2032 1171 m 24 Y s 2032 1206 m 24 Y s 3 lw 2032 1201 m21 6 lw 2036 1214 m 25 Y s 2036 1250 m 25 Y s 3 lw 2036 1244 m21 6 lw 2041 1192 m 25 Y s 2041 1228 m 24 Y s 3 lw 2041 1222 m21 6 lw 2046
 1209 m 25 Y s 2046 1245 m 25 Y s 3 lw 2046 1240 m21 6 lw 2051 1130 m 24 Y s 2051 1165 m 23 Y s 3 lw 2051 1159 m21 6 lw 2055 1131 m 23 Y s 2055 1166 m 23 Y s 3 lw 2055 1160 m21 6 lw 2060 1157 m 24 Y s 2060 1192 m 24 Y s 3 lw 2060 1187 m21 6 lw 2065
 1164 m 25 Y s 2065 1200 m 25 Y s 3 lw 2065 1195 m21 6 lw 2069 1191 m 25 Y s 2069 1228 m 25 Y s 3 lw 2069 1222 m21 6 lw 2074 1212 m 25 Y s 2074 1249 m 25 Y s 3 lw 2074 1243 m21 6 lw 2079 1146 m 25 Y s 2079 1182 m 24 Y s 3 lw 2079 1176 m21 6 lw 2084
 1136 m 24 Y s 2084 1172 m 24 Y s 3 lw 2084 1166 m21 6 lw 2088 1208 m 26 Y s 2088 1245 m 26 Y s 3 lw 2088 1239 m21 6 lw 2093 1149 m 25 Y s 2093 1185 m 25 Y s 3 lw 2093 1179 m21 6 lw 2098 1153 m 25 Y s 2098 1189 m 25 Y s 3 lw 2098 1183 m21 6 lw 2102
 1161 m 26 Y s 2102 1198 m 25 Y s 3 lw 2102 1192 m21 6 lw 2107 1173 m 26 Y s 2107 1210 m 26 Y s 3 lw 2107 1204 m21 6 lw 2112 1175 m 26 Y s 2112 1213 m 26 Y s 3 lw 2112 1207 m21 6 lw 2116 1139 m 25 Y s 2116 1175 m 26 Y s 3 lw 2116 1170 m21 6 lw 2121
 1211 m 26 Y s 2121 1249 m 26 Y s 3 lw 2121 1243 m21 6 lw 2126 1210 m 27 Y s 2126 1248 m 27 Y s 3 lw 2126 1242 m21 6 lw 2131 1125 m 26 Y s 2131 1162 m 26 Y s 3 lw 2131 1156 m21 6 lw 2135 1147 m 26 Y s 2135 1185 m 26 Y s 3 lw 2135 1179 m21 6 lw 2140
 1173 m 27 Y s 2140 1211 m 27 Y s 3 lw 2140 1205 m21 6 lw 2145 1105 m 26 Y s 2145 1142 m 26 Y s 3 lw 2145 1136 m21 6 lw 2149 1158 m 27 Y s 2149 1197 m 26 Y s 3 lw 2149 1191 m21 6 lw 2154 1149 m 26 Y s 2154 1187 m 26 Y s 3 lw 2154 1181 m21 6 lw 2159
 1128 m 26 Y s 2159 1165 m 27 Y s 3 lw 2159 1160 m21 6 lw 2164 1110 m 27 Y s 2164 1148 m 26 Y s 3 lw 2164 1142 m21 6 lw 2168 1132 m 27 Y s 2168 1170 m 27 Y s 3 lw 2168 1164 m21 6 lw 2173 1131 m 27 Y s 2173 1169 m 27 Y s 3 lw 2173 1164 m21 6 lw 2178
 1137 m 28 Y s 2178 1176 m 27 Y s 3 lw 2178 1170 m21 6 lw 2182 1226 m 29 Y s 2182 1266 m 29 Y s 3 lw 2182 1260 m21 6 lw 2187 1177 m 29 Y s 2187 1217 m 28 Y s 3 lw 2187 1211 m21 6 lw 2192 1092 m 27 Y s 2192 1130 m 27 Y s 3 lw 2192 1125 m21 6 lw 2196
 1173 m 29 Y s 2196 1213 m 29 Y s 3 lw 2196 1207 m21 6 lw 2201 1119 m 27 Y s 2201 1158 m 27 Y s 3 lw 2201 1152 m21 6 lw 2206 1233 m 30 Y s 2206 1274 m 30 Y s 3 lw 2206 1269 m21 6 lw 2211 1178 m 29 Y s 2211 1219 m 29 Y s 3 lw 2211 1213 m21 6 lw 2215
 1190 m 30 Y s 2215 1231 m 29 Y s 3 lw 2215 1225 m21 6 lw 2220 1161 m 29 Y s 2220 1201 m 29 Y s 3 lw 2220 1196 m21 6 lw black 340 223 m 1882 X s
 gsave  2268 2234 0 0 C 1923.86 58.2559 t 0 r /Helvetica findfont 83.8316 sf 0 0 m (Q [GeV]) show NC gr  340 279 m -56 Y s 387 251 m -28 Y s 434 251 m -28 Y s 481 251 m -28 Y s 528 279 m -56 Y s 575 251 m -28 Y s 622 251 m -28 Y s 670 251 m -28 Y s
 717 279 m -56 Y s 764 251 m -28 Y s 811 251 m -28 Y s 858 251 m -28 Y s 905 279 m -56 Y s 952 251 m -28 Y s 999 251 m -28 Y s 1046 251 m -28 Y s 1093 279 m -56 Y s 1140 251 m -28 Y s 1187 251 m -28 Y s 1234 251 m -28 Y s 1281 279 m -56 Y s 1328 251
 m -28 Y s 1375 251 m -28 Y s 1422 251 m -28 Y s 1469 279 m -56 Y s 1517 251 m -28 Y s 1564 251 m -28 Y s 1611 251 m -28 Y s 1658 279 m -56 Y s 1705 251 m -28 Y s 1752 251 m -28 Y s 1799 251 m -28 Y s 1846 279 m -56 Y s 1893 251 m -28 Y s 1940 251 m
 -28 Y s 1987 251 m -28 Y s 2034 279 m -56 Y s 2081 251 m -28 Y s 2128 251 m -28 Y s 2175 251 m -28 Y s 2222 279 m -56 Y s
 gsave  2268 2234 0 0 C 322.539 159.138 t 0 r /Helvetica findfont 62.5185 sf 0 0 m (0) show NC gr 
 gsave  2268 2234 0 0 C 484.518 159.138 t 0 r /Helvetica findfont 62.5185 sf 0 0 m (0.2) show NC gr 
 gsave  2268 2234 0 0 C 673.495 159.138 t 0 r /Helvetica findfont 62.5185 sf 0 0 m (0.4) show NC gr 
 gsave  2268 2234 0 0 C 861.05 159.138 t 0 r /Helvetica findfont 62.5185 sf 0 0 m (0.6) show NC gr 
 gsave  2268 2234 0 0 C 1050.03 159.138 t 0 r /Helvetica findfont 62.5185 sf 0 0 m (0.8) show NC gr 
 gsave  2268 2234 0 0 C 1268.84 159.138 t 0 r /Helvetica findfont 62.5185 sf 0 0 m (1) show NC gr 
 gsave  2268 2234 0 0 C 1426.56 159.138 t 0 r /Helvetica findfont 62.5185 sf 0 0 m (1.2) show NC gr 
 gsave  2268 2234 0 0 C 1614.11 159.138 t 0 r /Helvetica findfont 62.5185 sf 0 0 m (1.4) show NC gr 
 gsave  2268 2234 0 0 C 1803.09 159.138 t 0 r /Helvetica findfont 62.5185 sf 0 0 m (1.6) show NC gr 
 gsave  2268 2234 0 0 C 1990.65 159.138 t 0 r /Helvetica findfont 62.5185 sf 0 0 m (1.8) show NC gr 
 gsave  2268 2234 0 0 C 2205.2 159.138 t 0 r /Helvetica findfont 62.5185 sf 0 0 m (2) show NC gr  340 223 m 1966 Y s
 gsave  2268 2234 0 0 C 152.034 1953.7 t 90 r /Helvetica findfont 83.8316 sf 0 0 m (DR\(Q\)) show NC gr  400 402 m -60 X s 370 491 m -30 X s 370 581 m -30 X s 370 670 m -30 X s 400 759 m -60 X s 370 849 m -30 X s 370 938 m -30 X s 370 1027 m -30 X s
 400 1117 m -60 X s 370 1206 m -30 X s 370 1295 m -30 X s 370 1385 m -30 X s 400 1474 m -60 X s 370 1564 m -30 X s 370 1653 m -30 X s 370 1742 m -30 X s 400 1832 m -60 X s 370 1921 m -30 X s 370 2010 m -30 X s 370 2100 m -30 X s 400 2189 m -60 X s
 400 402 m -60 X s 370 313 m -30 X s 370 223 m -30 X s
 gsave  2268 2234 0 0 C 242.97 379.374 t 0 r /Helvetica findfont 62.5185 sf 0 0 m (0.6) show NC gr 
 gsave  2268 2234 0 0 C 242.97 737.434 t 0 r /Helvetica findfont 62.5185 sf 0 0 m (0.8) show NC gr 
 gsave  2268 2234 0 0 C 305.488 1092.65 t 0 r /Helvetica findfont 62.5185 sf 0 0 m (1) show NC gr 
 gsave  2268 2234 0 0 C 242.97 1450.71 t 0 r /Helvetica findfont 62.5185 sf 0 0 m (1.2) show NC gr 
 gsave  2268 2234 0 0 C 242.97 1808.77 t 0 r /Helvetica findfont 62.5185 sf 0 0 m (1.4) show NC gr 
 gsave  2268 2234 0 0 C 242.97 2166.83 t 0 r /Helvetica findfont 62.5185 sf 0 0 m (1.6) show NC gr 
 gsave  2268 2234 0 0 C 906.518 670.653 t 0 r /Helvetica-Bold findfont 72.4646 sf 0 0 m (DR PIONS) show NC gr 
 gsave  2268 2234 0 0 C 906.518 558.404 t 0 r /Helvetica-Bold findfont 72.4646 sf 0 0 m (ref. sample: EVENT MIX) show NC gr 
 gsave  2268 2234 0 0 C 906.518 447.576 t 0 r /Helvetica-Bold findfont 72.4646 sf 0 0 m (VELO tracks multiplicity: < 10) show NC gr 
 gr  gr showpage
end
%%EOF
