%!PS-Adobe-2.0 EPSF-2.0
%%BoundingBox:  0 0 567 558
%%Title: ./DR_pion_0c65_h3001_2_h3401_2.eps: DR_pion_0c65_h3001_2_h3401_2
%%Creator: ROOT Version 6.06/02
%%CreationDate: Wed Dec  7 17:35:33 2016
%%DocumentNeededResources: ProcSet (FontSetInit)
%%EndComments
%%BeginProlog
80 dict begin
/s {stroke} def /l {lineto} def /m {moveto} def /t {translate} def
/r {rotate} def /rl {roll}  def /R {repeat} def
/d {rlineto} def /rm {rmoveto} def /gr {grestore} def /f {eofill} def
/c {setrgbcolor} def /black {0 setgray} def /sd {setdash} def
/cl {closepath} def /sf {scalefont setfont} def /lw {setlinewidth} def
/box {m dup 0 exch d exch 0 d 0 exch neg d cl} def
/NC{systemdict begin initclip end}def/C{NC box clip newpath}def
/bl {box s} def /bf {gsave box gsave f grestore 1 lw [] 0 sd s grestore} def /Y { 0 exch d} def /X { 0 d} def 
/K {{pop pop 0 moveto} exch kshow} bind def
/ita {/ang 15 def gsave [1 0 ang dup sin exch cos div 1 0 0] concat} def 
/mp {newpath /y exch def /x exch def} def
/side {[w .77 mul w .23 mul] .385 w mul sd w 0 l currentpoint t -144 r} def
/mr {mp x y w2 0 360 arc} def /m24 {mr s} def /m20 {mr f} def
/mb {mp x y w2 add m w2 neg 0 d 0 w neg d w 0 d 0 w d cl} def
/mt {mp x y w2 add m w2 neg w neg d w 0 d cl} def
/m21 {mb f} def /m25 {mb s} def /m22 {mt f} def /m26{mt s} def
/m23 {mp x y w2 sub m w2 w d w neg 0 d cl f} def
/m27 {mp x y w2 add m w3 neg w2 neg d w3 w2 neg d w3 w2 d cl s} def
/m28 {mp x w2 sub y w2 sub w3 add m w3 0 d  0 w3 neg d w3 0 d 0 w3 d w3 0 d  0 w3 d w3 neg 0 d 0 w3 d w3 neg 0 d 0 w3 neg d w3 neg 0 d cl s } def
/m29 {mp gsave x w2 sub y w2 add w3 sub m currentpoint t 4 {side} repeat cl fill gr} def
/m30 {mp gsave x w2 sub y w2 add w3 sub m currentpoint t 4 {side} repeat cl s gr} def
/m31 {mp x y w2 sub m 0 w d x w2 sub y m w 0 d x w2 sub y w2 add m w w neg d x w2 sub y w2 sub m w w d s} def
/m32 {mp x y w2 sub m w2 w d w neg 0 d cl s} def
/m33 {mp x y w2 add m w3 neg w2 neg d w3 w2 neg d w3 w2 d cl f} def
/m34 {mp x w2 sub y w2 sub w3 add m w3 0 d  0 w3 neg d w3 0 d 0 w3 d w3 0 d  0 w3 d w3 neg 0 d 0 w3 d w3 neg 0 d 0 w3 neg d w3 neg 0 d cl f } def
/m2 {mp x y w2 sub m 0 w d x w2 sub y m w 0 d s} def
/m5 {mp x w2 sub y w2 sub m w w d x w2 sub y w2 add m w w neg d s} def
%%IncludeResource: ProcSet (FontSetInit)
%%IncludeResource: font Times-Roman
%%IncludeResource: font Times-Italic
%%IncludeResource: font Times-Bold
%%IncludeResource: font Times-BoldItalic
%%IncludeResource: font Helvetica
%%IncludeResource: font Helvetica-Oblique
%%IncludeResource: font Helvetica-Bold
%%IncludeResource: font Helvetica-BoldOblique
%%IncludeResource: font Courier
%%IncludeResource: font Courier-Oblique
%%IncludeResource: font Courier-Bold
%%IncludeResource: font Courier-BoldOblique
%%IncludeResource: font Symbol
%%IncludeResource: font ZapfDingbats
/reEncode {exch findfont dup length dict begin {1 index /FID eq  {pop pop} {def} ifelse } forall /Encoding exch def currentdict end dup /FontName get exch definefont pop } def [/Times-Bold /Times-Italic /Times-BoldItalic /Helvetica /Helvetica-Oblique
 /Helvetica-Bold /Helvetica-BoldOblique /Courier /Courier-Oblique /Courier-Bold /Courier-BoldOblique /Times-Roman /AvantGarde-Book /AvantGarde-BookOblique /AvantGarde-Demi /AvantGarde-DemiOblique /Bookman-Demi /Bookman-DemiItalic /Bookman-Light
 /Bookman-LightItalic /Helvetica-Narrow /Helvetica-Narrow-Bold /Helvetica-Narrow-BoldOblique /Helvetica-Narrow-Oblique /NewCenturySchlbk-Roman /NewCenturySchlbk-Bold /NewCenturySchlbk-BoldItalic /NewCenturySchlbk-Italic /Palatino-Bold
 /Palatino-BoldItalic /Palatino-Italic /Palatino-Roman ] {ISOLatin1Encoding reEncode } forall
%%EndProlog
%%BeginSetup
%%EndSetup
newpath  gsave  .25 .25 scale  gsave  0 0 t black[  ] 0 sd 6 lw 1 1 1 c 2268 2234 0 0 bf black 3 lw 1 1 1 c 1882 1966 340 223 bf black 1882 1966 340 223 bl 1 1 1 c 1882 1966 340 223 bf black 1882 1966 340 223 bl 0 0 1 c 6 lw 1 1 1 c 0 0 1 c 390 1803
 m 63 Y s 390 1877 m 64 Y s 3 lw /w 14 def /w2 {w 2 div} def /w3 {w 3 div} def 390 1872 m21 6 lw 394 1662 m 54 Y s 394 1727 m 54 Y s 3 lw 394 1722 m21 6 lw 399 1810 m 52 Y s 399 1874 m 52 Y s 3 lw 399 1868 m21 6 lw 404 1727 m 46 Y s 404 1785 m 46 Y s
 3 lw 404 1779 m21 6 lw 408 1620 m 41 Y s 408 1672 m 41 Y s 3 lw 408 1667 m21 6 lw 413 1610 m 38 Y s 413 1659 m 38 Y s 3 lw 413 1653 m21 6 lw 418 1598 m 35 Y s 418 1645 m 35 Y s 3 lw 418 1639 m21 6 lw 423 1606 m 33 Y s 423 1650 m 33 Y s 3 lw 423 1644
 m21 6 lw 427 1588 m 30 Y s 427 1630 m 30 Y s 3 lw 427 1624 m21 6 lw 432 1512 m 28 Y s 432 1551 m 28 Y s 3 lw 432 1546 m21 6 lw 437 1524 m 26 Y s 437 1562 m 26 Y s 3 lw 437 1556 m21 6 lw 441 1522 m 25 Y s 441 1558 m 25 Y s 3 lw 441 1552 m21 6 lw 446
 1497 m 23 Y s 446 1531 m 23 Y s 3 lw 446 1525 m21 6 lw 451 1478 m 22 Y s 451 1512 m 22 Y s 3 lw 451 1506 m21 6 lw 455 1464 m 21 Y s 455 1496 m 21 Y s 3 lw 455 1490 m21 6 lw 460 1452 m 20 Y s 460 1483 m 20 Y s 3 lw 460 1477 m21 6 lw 465 1397 m 18 Y s
 465 1426 m 19 Y s 3 lw 465 1421 m21 6 lw 470 1417 m 18 Y s 470 1446 m 18 Y s 3 lw 470 1440 m21 6 lw 474 1396 m 17 Y s 474 1424 m 17 Y s 3 lw 474 1418 m21 6 lw 479 1401 m 17 Y s 479 1429 m 16 Y s 3 lw 479 1423 m21 6 lw 484 1383 m 16 Y s 484 1410 m 15
 Y s 3 lw 484 1404 m21 6 lw 488 1332 m 15 Y s 488 1358 m 15 Y s 3 lw 488 1352 m21 6 lw 493 1359 m 14 Y s 493 1384 m 15 Y s 3 lw 493 1379 m21 6 lw 498 1296 m 13 Y s 498 1320 m 14 Y s 3 lw 498 1315 m21 6 lw 502 1320 m 13 Y s 502 1344 m 13 Y s 3 lw 502
 1338 m21 6 lw 507 1311 m 12 Y s 507 1335 m 12 Y s 3 lw 507 1329 m21 6 lw 512 1281 m 12 Y s 512 1304 m 12 Y s 3 lw 512 1298 m21 6 lw 517 1296 m 12 Y s 517 1319 m 12 Y s 3 lw 517 1314 m21 6 lw 521 1300 m 12 Y s 521 1323 m 11 Y s 3 lw 521 1317 m21 6 lw
 526 1275 m 10 Y s 526 1297 m 10 Y s 3 lw 526 1291 m21 6 lw 531 1244 m 11 Y s 531 1266 m 10 Y s 3 lw 531 1260 m21 6 lw 535 1258 m 10 Y s 535 1279 m 10 Y s 3 lw 535 1273 m21 6 lw 540 1268 m 10 Y s 540 1289 m 10 Y s 3 lw 540 1283 m21 6 lw 545 1257 m 10
 Y s 545 1278 m 10 Y s 3 lw 545 1273 m21 6 lw 550 1216 m 9 Y s 550 1236 m 9 Y s 3 lw 550 1230 m21 6 lw 554 1217 m 9 Y s 554 1237 m 9 Y s 3 lw 554 1231 m21 6 lw 559 1233 m 9 Y s 559 1253 m 9 Y s 3 lw 559 1247 m21 6 lw 564 1211 m 8 Y s 564 1231 m 8 Y s
 3 lw 564 1225 m21 6 lw 568 1236 m 8 Y s 568 1255 m 9 Y s 3 lw 568 1250 m21 6 lw 573 1220 m 8 Y s 573 1239 m 8 Y s 3 lw 573 1233 m21 6 lw 578 1189 m 8 Y s 578 1208 m 8 Y s 3 lw 578 1203 m21 6 lw 582 1199 m 8 Y s 582 1218 m 7 Y s 3 lw 582 1212 m21 6
 lw 587 1209 m 7 Y s 587 1227 m 8 Y s 3 lw 587 1222 m21 6 lw 592 1194 m 8 Y s 592 1213 m 7 Y s 3 lw 592 1207 m21 6 lw 597 1157 m 7 Y s 597 1176 m 6 Y s 3 lw 597 1170 m21 6 lw 601 1161 m 7 Y s 601 1180 m 6 Y s 3 lw 601 1174 m21 6 lw 606 1165 m 7 Y s
 606 1183 m 7 Y s 3 lw 606 1177 m21 6 lw 611 1172 m 7 Y s 611 1190 m 7 Y s 3 lw 611 1185 m21 6 lw 615 1153 m 6 Y s 615 1171 m 6 Y s 3 lw 615 1165 m21 6 lw 620 1160 m 7 Y s 620 1178 m 6 Y s 3 lw 620 1172 m21 6 lw 625 1162 m 6 Y s 625 1179 m 7 Y s 3 lw
 625 1174 m21 6 lw 630 1151 m 6 Y s 630 1168 m 6 Y s 3 lw 630 1162 m21 6 lw 634 1157 m 6 Y s 634 1174 m 6 Y s 3 lw 634 1168 m21 6 lw 639 1141 m 6 Y s 639 1158 m 6 Y s 3 lw 639 1153 m21 6 lw 644 1150 m 6 Y s 644 1167 m 6 Y s 3 lw 644 1162 m21 6 lw 648
 1129 m 6 Y s 648 1146 m 6 Y s 3 lw 648 1141 m21 6 lw 653 1142 m 6 Y s 653 1159 m 6 Y s 3 lw 653 1154 m21 6 lw 658 1133 m 6 Y s 658 1150 m 5 Y s 3 lw 658 1144 m21 6 lw 662 1158 m 5 Y s 662 1174 m 6 Y s 3 lw 662 1169 m21 6 lw 667 1134 m 6 Y s 667 1151
 m 5 Y s 3 lw 667 1145 m21 6 lw 672 1124 m 5 Y s 672 1140 m 5 Y s 3 lw 672 1135 m21 6 lw 677 1115 m 5 Y s 677 1132 m 5 Y s 3 lw 677 1126 m21 6 lw 681 1122 m 5 Y s 681 1139 m 5 Y s 3 lw 681 1133 m21 6 lw 686 1121 m 5 Y s 686 1138 m 5 Y s 3 lw 686 1132
 m21 6 lw 691 1126 m 4 Y s 691 1142 m 5 Y s 3 lw 691 1136 m21 6 lw 695 1122 m 5 Y s 695 1138 m 5 Y s 3 lw 695 1132 m21 6 lw 700 1110 m 4 Y s 700 1126 m 4 Y s 3 lw 700 1120 m21 6 lw 705 1124 m 5 Y s 705 1140 m 5 Y s 3 lw 705 1134 m21 6 lw 710 1109 m 4
 Y s 710 1125 m 4 Y s 3 lw 710 1119 m21 6 lw 714 1118 m 4 Y s 714 1134 m 4 Y s 3 lw 714 1128 m21 6 lw 719 1102 m 4 Y s 719 1118 m 4 Y s 3 lw 719 1112 m21 6 lw 724 1107 m 4 Y s 724 1122 m 5 Y s 3 lw 724 1117 m21 6 lw 728 1119 m 5 Y s 728 1135 m 5 Y s
 3 lw 728 1129 m21 6 lw 733 1096 m 5 Y s 733 1112 m 4 Y s 3 lw 733 1106 m21 6 lw 738 1105 m 4 Y s 738 1120 m 4 Y s 3 lw 738 1114 m21 6 lw 742 1098 m 4 Y s 742 1113 m 5 Y s 3 lw 742 1108 m21 6 lw 747 1106 m 4 Y s 747 1121 m 4 Y s 3 lw 747 1115 m21 6
 lw 752 1099 m 5 Y s 752 1115 m 4 Y s 3 lw 752 1109 m21 6 lw 757 1104 m 4 Y s 757 1120 m 4 Y s 3 lw 757 1114 m21 6 lw 761 1094 m 4 Y s 761 1110 m 4 Y s 3 lw 761 1104 m21 6 lw 766 1080 m 3 Y s 766 1095 m 4 Y s 3 lw 766 1089 m21 6 lw 771 1090 m 3 Y s
 771 1105 m 4 Y s 3 lw 771 1099 m21 6 lw 775 1096 m 3 Y s 775 1111 m 4 Y s 3 lw 775 1105 m21 6 lw 780 1080 m 3 Y s 780 1095 m 3 Y s 3 lw 780 1089 m21 6 lw 785 1107 m 3 Y s 785 1122 m 3 Y s 3 lw 785 1116 m21 6 lw 790 1094 m 4 Y s 790 1110 m 3 Y s 3 lw
 790 1104 m21 6 lw 794 1091 m 4 Y s 794 1106 m 3 Y s 3 lw 794 1100 m21 6 lw 799 1096 m 3 Y s 799 1111 m 3 Y s 3 lw 799 1105 m21 6 lw 804 1080 m 3 Y s 804 1094 m 4 Y s 3 lw 804 1089 m21 6 lw 808 1094 m 3 Y s 808 1109 m 3 Y s 3 lw 808 1103 m21 6 lw 813
 1096 m 3 Y s 813 1111 m 3 Y s 3 lw 813 1105 m21 6 lw 818 1080 m 3 Y s 818 1095 m 3 Y s 3 lw 818 1089 m21 6 lw 822 1078 m 3 Y s 822 1092 m 4 Y s 3 lw 822 1087 m21 6 lw 827 1074 m 3 Y s 827 1088 m 4 Y s 3 lw 827 1083 m21 6 lw 832 1087 m 4 Y s 832 1102
 m 3 Y s 3 lw 832 1096 m21 6 lw 837 1077 m 3 Y s 837 1091 m 4 Y s 3 lw 837 1086 m21 6 lw 841 1086 m 4 Y s 841 1101 m 3 Y s 3 lw 841 1095 m21 6 lw 846 1077 m 3 Y s 846 1091 m 4 Y s 3 lw 846 1086 m21 6 lw 851 1079 m 4 Y s 851 1094 m 3 Y s 3 lw 851 1088
 m21 6 lw 855 1088 m 3 Y s 855 1102 m 3 Y s 3 lw 855 1097 m21 6 lw 860 1064 m 3 Y s 860 1078 m 3 Y s 3 lw 860 1073 m21 6 lw 865 1076 m 3 Y s 865 1091 m 3 Y s 3 lw 865 1085 m21 6 lw 870 1086 m 3 Y s 870 1100 m 3 Y s 3 lw 870 1095 m21 6 lw 874 1061 m 3
 Y s 874 1075 m 3 Y s 3 lw 874 1069 m21 6 lw 879 1070 m 3 Y s 879 1084 m 3 Y s 3 lw 879 1078 m21 6 lw 884 1069 m 3 Y s 884 1083 m 3 Y s 3 lw 884 1078 m21 6 lw 888 1058 m 3 Y s 888 1072 m 3 Y s 3 lw 888 1066 m21 6 lw 893 1058 m 3 Y s 893 1072 m 3 Y s
 3 lw 893 1067 m21 6 lw 898 1065 m 3 Y s 898 1079 m 3 Y s 3 lw 898 1074 m21 6 lw 902 1074 m 3 Y s 902 1088 m 3 Y s 3 lw 902 1083 m21 6 lw 907 1049 m 2 Y s 907 1063 m 2 Y s 3 lw 907 1057 m21 6 lw 912 1092 m 3 Y s 912 1106 m 3 Y s 3 lw 912 1101 m21 6
 lw 917 1073 m 2 Y s 917 1087 m 2 Y s 3 lw 917 1081 m21 6 lw 921 1080 m 3 Y s 921 1095 m 2 Y s 3 lw 921 1089 m21 6 lw 926 1074 m 2 Y s 926 1088 m 2 Y s 3 lw 926 1082 m21 6 lw 931 1073 m 3 Y s 931 1087 m 3 Y s 3 lw 931 1081 m21 6 lw 935 1083 m 2 Y s
 935 1096 m 3 Y s 3 lw 935 1091 m21 6 lw 940 1076 m 3 Y s 940 1090 m 3 Y s 3 lw 940 1085 m21 6 lw 945 1077 m 2 Y s 945 1091 m 2 Y s 3 lw 945 1085 m21 6 lw 950 1064 m 3 Y s 950 1078 m 2 Y s 3 lw 950 1072 m21 6 lw 954 1062 m 3 Y s 954 1076 m 2 Y s 3 lw
 954 1070 m21 6 lw 959 1062 m 2 Y s 959 1075 m 3 Y s 3 lw 959 1070 m21 6 lw 964 1056 m 2 Y s 964 1069 m 3 Y s 3 lw 964 1064 m21 6 lw 968 1061 m 3 Y s 968 1075 m 3 Y s 3 lw 968 1070 m21 6 lw 973 1077 m 2 Y s 973 1090 m 3 Y s 3 lw 973 1085 m21 6 lw 978
 1072 m 2 Y s 978 1086 m 2 Y s 3 lw 978 1080 m21 6 lw 982 1071 m 2 Y s 982 1084 m 3 Y s 3 lw 982 1079 m21 6 lw 987 1061 m 2 Y s 987 1074 m 2 Y s 3 lw 987 1069 m21 6 lw 992 1080 m 3 Y s 992 1094 m 2 Y s 3 lw 992 1088 m21 6 lw 997 1063 m 2 Y s 997 1076
 m 3 Y s 3 lw 997 1071 m21 6 lw 1001 1071 m 2 Y s 1001 1084 m 2 Y s 3 lw 1001 1078 m21 6 lw 1006 1068 m 2 Y s 1006 1081 m 3 Y s 3 lw 1006 1076 m21 6 lw 1011 1075 m 2 Y s 1011 1088 m 2 Y s 3 lw 1011 1083 m21 6 lw 1015 1063 m 2 Y s 1015 1076 m 2 Y s 3
 lw 1015 1070 m21 6 lw 1020 1080 m 2 Y s 1020 1093 m 3 Y s 3 lw 1020 1088 m21 6 lw 1025 1067 m 3 Y s 1025 1081 m 2 Y s 3 lw 1025 1075 m21 6 lw 1030 1073 m 2 Y s 1030 1086 m 2 Y s 3 lw 1030 1081 m21 6 lw 1034 1075 m 2 Y s 1034 1089 m 2 Y s 3 lw 1034
 1083 m21 6 lw 1039 1072 m 2 Y s 1039 1086 m 2 Y s 3 lw 1039 1080 m21 6 lw 1044 1075 m 2 Y s 1044 1088 m 2 Y s 3 lw 1044 1082 m21 6 lw 1048 1071 m 2 Y s 1048 1084 m 2 Y s 3 lw 1048 1078 m21 6 lw 1053 1080 m 2 Y s 1053 1093 m 2 Y s 3 lw 1053 1087 m21
 6 lw 1058 1061 m 2 Y s 1058 1075 m 1 Y s 3 lw 1058 1069 m21 6 lw 1062 1066 m 2 Y s 1062 1079 m 2 Y s 3 lw 1062 1073 m21 6 lw 1067 1067 m 2 Y s 1067 1080 m 2 Y s 3 lw 1067 1075 m21 6 lw 1072 1070 m 2 Y s 1072 1083 m 2 Y s 3 lw 1072 1077 m21 6 lw 1077
 1075 m 2 Y s 1077 1088 m 2 Y s 3 lw 1077 1083 m21 6 lw 1081 1079 m 2 Y s 1081 1092 m 2 Y s 3 lw 1081 1086 m21 6 lw 1086 1071 m 1 Y s 1086 1084 m 1 Y s 3 lw 1086 1078 m21 6 lw 1091 1070 m 1 Y s 1091 1083 m 1 Y s 3 lw 1091 1077 m21 6 lw 1095 1070 m 2
 Y s 1095 1083 m 1 Y s 3 lw 1095 1077 m21 6 lw 1100 1075 m 2 Y s 1100 1088 m 2 Y s 3 lw 1100 1082 m21 6 lw 1105 1090 m 2 Y s 1105 1103 m 2 Y s 3 lw 1105 1097 m21 6 lw 1110 1068 m 1 Y s 1110 1080 m 2 Y s 3 lw 1110 1075 m21 6 lw 1114 1069 m 2 Y s 1114
 1082 m 2 Y s 3 lw 1114 1077 m21 6 lw 1119 1086 m 2 Y s 1119 1099 m 2 Y s 3 lw 1119 1094 m21 6 lw 1124 1075 m 2 Y s 1124 1088 m 1 Y s 3 lw 1124 1082 m21 6 lw 1128 1083 m 2 Y s 1128 1096 m 2 Y s 3 lw 1128 1090 m21 6 lw 1133 1071 m 1 Y s 1133 1084 m 1
 Y s 3 lw 1133 1078 m21 6 lw 1138 1085 m 1 Y s 1138 1098 m 1 Y s 3 lw 1138 1092 m21 6 lw 1142 1082 m 2 Y s 1142 1095 m 2 Y s 3 lw 1142 1089 m21 6 lw 1147 1074 m 1 Y s 1147 1086 m 2 Y s 3 lw 1147 1081 m21 6 lw 1152 1089 m 1 Y s 1152 1101 m 2 Y s 3 lw
 1152 1096 m21 6 lw 1157 1082 m 2 Y s 1157 1095 m 1 Y s 3 lw 1157 1089 m21 6 lw 1161 1093 m 1 Y s 1161 1106 m 1 Y s 3 lw 1161 1100 m21 6 lw 1166 1086 m 1 Y s 1166 1099 m 1 Y s 3 lw 1166 1093 m21 6 lw 1171 1085 m 1 Y s 1171 1097 m 2 Y s 3 lw 1171 1092
 m21 6 lw 1175 1069 m 1 Y s 1175 1082 m 1 Y s 3 lw 1175 1076 m21 6 lw 1180 1083 m 1 Y s 1180 1096 m 1 Y s 3 lw 1180 1090 m21 6 lw 1185 1094 m 1 Y s 1185 1106 m 1 Y s 3 lw 1185 1101 m21 6 lw 1190 1084 m 1 Y s 1190 1096 m 1 Y s 3 lw 1190 1090 m21 6 lw
 1194 1080 m 1 Y s 1194 1093 m 1 Y s 3 lw 1194 1087 m21 6 lw 1199 1082 m 1 Y s 1199 1095 m 1 Y s 3 lw 1199 1089 m21 6 lw 1204 1094 m 1 Y s 1204 1106 m 1 Y s 3 lw 1204 1100 m21 6 lw 1208 1077 m 2 Y s 1208 1090 m 1 Y s 3 lw 1208 1084 m21 6 lw 1213 1083
 m 1 Y s 1213 1095 m 1 Y s 3 lw 1213 1090 m21 6 lw 1218 1084 m 1 Y s 1218 1097 m 1 Y s 3 lw 1218 1091 m21 6 lw 1222 1083 m 1 Y s 1222 1095 m 1 Y s 3 lw 1222 1089 m21 6 lw 1227 1088 m 1 Y s 1227 1100 m 1 Y s 3 lw 1227 1095 m21 6 lw 1232 1091 m 1 Y s
 1232 1103 m 1 Y s 3 lw 1232 1097 m21 6 lw 1237 1086 m 1 Y s 1237 1098 m 1 Y s 3 lw 1237 1092 m21 6 lw 1241 1092 m 1 Y s 1241 1104 m 2 Y s 3 lw 1241 1099 m21 6 lw 1246 1095 m 1 Y s 1246 1108 m 1 Y s 3 lw 1246 1102 m21 6 lw 1251 1085 m 1 Y s 1251 1098
 m 1 Y s 3 lw 1251 1092 m21 6 lw 1255 1092 m 1 Y s 1255 1105 m 1 Y s 3 lw 1255 1099 m21 6 lw 1260 1093 m 1 Y s 1260 1105 m 1 Y s 3 lw 1260 1100 m21 6 lw 1265 1098 m 2 Y s 1265 1111 m 1 Y s 3 lw 1265 1105 m21 6 lw 1269 1088 m 1 Y s 1269 1100 m 2 Y s 3
 lw 1269 1095 m21 6 lw 1274 1099 m 1 Y s 1274 1112 m 1 Y s 3 lw 1274 1106 m21 6 lw 1279 1094 m 1 Y s 1279 1107 m 1 Y s 3 lw 1279 1101 m21 6 lw 1284 1092 m 1 Y s 1284 1104 m 1 Y s 3 lw 1284 1099 m21 6 lw 1288 1094 m 1 Y s 1288 1107 m 1 Y s 3 lw 1288
 1101 m21 6 lw 1293 1087 m 1 Y s 1293 1099 m 1 Y s 3 lw 1293 1094 m21 6 lw 1298 1108 m 2 Y s 1298 1121 m 1 Y s 3 lw 1298 1115 m21 6 lw 1302 1104 m 2 Y s 1302 1117 m 1 Y s 3 lw 1302 1111 m21 6 lw 1307 1098 m 1 Y s 1307 1111 m 1 Y s 3 lw 1307 1105 m21
 6 lw 1312 1089 m 1 Y s 1312 1101 m 2 Y s 3 lw 1312 1096 m21 6 lw 1317 1107 m 2 Y s 1317 1120 m 1 Y s 3 lw 1317 1114 m21 6 lw 1321 1094 m 1 Y s 1321 1107 m 1 Y s 3 lw 1321 1101 m21 6 lw 1326 1099 m 2 Y s 1326 1112 m 1 Y s 3 lw 1326 1106 m21 6 lw 1331
 1099 m 2 Y s 1331 1112 m 1 Y s 3 lw 1331 1106 m21 6 lw 1335 1081 m 1 Y s 1335 1094 m 1 Y s 3 lw 1335 1088 m21 6 lw 1340 1085 m 1 Y s 1340 1098 m 1 Y s 3 lw 1340 1092 m21 6 lw 1345 1095 m 1 Y s 1345 1108 m 1 Y s 3 lw 1345 1102 m21 6 lw 1349 1096 m 1
 Y s 1349 1109 m 1 Y s 3 lw 1349 1103 m21 6 lw 1354 1108 m 2 Y s 1354 1121 m 2 Y s 3 lw 1354 1115 m21 6 lw 1359 1101 m 1 Y s 1359 1114 m 1 Y s 3 lw 1359 1108 m21 6 lw 1364 1095 m 1 Y s 1364 1108 m 1 Y s 3 lw 1364 1102 m21 6 lw 1368 1102 m 2 Y s 1368
 1115 m 1 Y s 3 lw 1368 1109 m21 6 lw 1373 1106 m 2 Y s 1373 1119 m 2 Y s 3 lw 1373 1114 m21 6 lw 1378 1096 m 1 Y s 1378 1109 m 1 Y s 3 lw 1378 1103 m21 6 lw 1382 1099 m 2 Y s 1382 1112 m 1 Y s 3 lw 1382 1106 m21 6 lw 1387 1096 m 2 Y s 1387 1109 m 2
 Y s 3 lw 1387 1104 m21 6 lw 1392 1102 m 2 Y s 1392 1115 m 2 Y s 3 lw 1392 1110 m21 6 lw 1397 1097 m 1 Y s 1397 1110 m 1 Y s 3 lw 1397 1104 m21 6 lw 1401 1103 m 2 Y s 1401 1116 m 2 Y s 3 lw 1401 1110 m21 6 lw 1406 1091 m 2 Y s 1406 1104 m 2 Y s 3 lw
 1406 1098 m21 6 lw 1411 1107 m 1 Y s 1411 1120 m 1 Y s 3 lw 1411 1114 m21 6 lw 1415 1103 m 2 Y s 1415 1116 m 2 Y s 3 lw 1415 1111 m21 6 lw 1420 1103 m 2 Y s 1420 1116 m 2 Y s 3 lw 1420 1110 m21 6 lw 1425 1112 m 2 Y s 1425 1125 m 2 Y s 3 lw 1425 1120
 m21 6 lw 1429 1113 m 2 Y s 1429 1126 m 2 Y s 3 lw 1429 1120 m21 6 lw 1434 1115 m 2 Y s 1434 1129 m 1 Y s 3 lw 1434 1123 m21 6 lw 1439 1106 m 2 Y s 1439 1119 m 2 Y s 3 lw 1439 1113 m21 6 lw 1444 1120 m 2 Y s 1444 1134 m 2 Y s 3 lw 1444 1128 m21 6 lw
 1448 1114 m 2 Y s 1448 1128 m 2 Y s 3 lw 1448 1122 m21 6 lw 1453 1105 m 2 Y s 1453 1119 m 1 Y s 3 lw 1453 1113 m21 6 lw 1458 1116 m 2 Y s 1458 1129 m 2 Y s 3 lw 1458 1124 m21 6 lw 1462 1105 m 2 Y s 1462 1119 m 2 Y s 3 lw 1462 1113 m21 6 lw 1467 1108
 m 2 Y s 1467 1121 m 2 Y s 3 lw 1467 1115 m21 6 lw 1472 1097 m 2 Y s 1472 1110 m 2 Y s 3 lw 1472 1105 m21 6 lw 1477 1112 m 2 Y s 1477 1125 m 2 Y s 3 lw 1477 1120 m21 6 lw 1481 1116 m 2 Y s 1481 1130 m 2 Y s 3 lw 1481 1124 m21 6 lw 1486 1101 m 2 Y s
 1486 1115 m 2 Y s 3 lw 1486 1109 m21 6 lw 1491 1112 m 2 Y s 1491 1125 m 2 Y s 3 lw 1491 1119 m21 6 lw 1495 1100 m 2 Y s 1495 1114 m 2 Y s 3 lw 1495 1108 m21 6 lw 1500 1109 m 2 Y s 1500 1123 m 2 Y s 3 lw 1500 1117 m21 6 lw 1505 1136 m 2 Y s 1505 1150
 m 2 Y s 3 lw 1505 1144 m21 6 lw 1509 1135 m 2 Y s 1509 1148 m 3 Y s 3 lw 1509 1143 m21 6 lw 1514 1121 m 2 Y s 1514 1134 m 2 Y s 3 lw 1514 1129 m21 6 lw 1519 1117 m 2 Y s 1519 1131 m 2 Y s 3 lw 1519 1125 m21 6 lw 1524 1114 m 2 Y s 1524 1128 m 2 Y s 3
 lw 1524 1122 m21 6 lw 1528 1112 m 3 Y s 1528 1126 m 2 Y s 3 lw 1528 1120 m21 6 lw 1533 1110 m 3 Y s 1533 1124 m 2 Y s 3 lw 1533 1118 m21 6 lw 1538 1114 m 2 Y s 1538 1127 m 3 Y s 3 lw 1538 1122 m21 6 lw 1542 1127 m 3 Y s 1542 1141 m 3 Y s 3 lw 1542
 1135 m21 6 lw 1547 1107 m 3 Y s 1547 1121 m 3 Y s 3 lw 1547 1115 m21 6 lw 1552 1131 m 3 Y s 1552 1145 m 3 Y s 3 lw 1552 1140 m21 6 lw 1557 1126 m 3 Y s 1557 1140 m 3 Y s 3 lw 1557 1135 m21 6 lw 1561 1108 m 2 Y s 1561 1122 m 2 Y s 3 lw 1561 1116 m21
 6 lw 1566 1109 m 2 Y s 1566 1123 m 2 Y s 3 lw 1566 1117 m21 6 lw 1571 1110 m 3 Y s 1571 1124 m 3 Y s 3 lw 1571 1118 m21 6 lw 1575 1128 m 2 Y s 1575 1142 m 2 Y s 3 lw 1575 1136 m21 6 lw 1580 1128 m 2 Y s 1580 1142 m 3 Y s 3 lw 1580 1136 m21 6 lw 1585
 1118 m 3 Y s 1585 1132 m 3 Y s 3 lw 1585 1127 m21 6 lw 1589 1122 m 3 Y s 1589 1136 m 3 Y s 3 lw 1589 1130 m21 6 lw 1594 1134 m 2 Y s 1594 1148 m 3 Y s 3 lw 1594 1142 m21 6 lw 1599 1111 m 3 Y s 1599 1125 m 3 Y s 3 lw 1599 1120 m21 6 lw 1604 1114 m 3
 Y s 1604 1128 m 3 Y s 3 lw 1604 1122 m21 6 lw 1608 1105 m 3 Y s 1608 1119 m 3 Y s 3 lw 1608 1113 m21 6 lw 1613 1115 m 3 Y s 1613 1129 m 3 Y s 3 lw 1613 1124 m21 6 lw 1618 1113 m 3 Y s 1618 1127 m 3 Y s 3 lw 1618 1122 m21 6 lw 1622 1121 m 3 Y s 1622
 1136 m 3 Y s 3 lw 1622 1130 m21 6 lw 1627 1131 m 3 Y s 1627 1145 m 3 Y s 3 lw 1627 1139 m21 6 lw 1632 1139 m 3 Y s 1632 1153 m 4 Y s 3 lw 1632 1148 m21 6 lw 1637 1126 m 3 Y s 1637 1140 m 3 Y s 3 lw 1637 1135 m21 6 lw 1641 1120 m 3 Y s 1641 1135 m 3
 Y s 3 lw 1641 1129 m21 6 lw 1646 1125 m 3 Y s 1646 1140 m 3 Y s 3 lw 1646 1134 m21 6 lw 1651 1109 m 3 Y s 1651 1123 m 4 Y s 3 lw 1651 1118 m21 6 lw 1655 1130 m 4 Y s 1655 1145 m 3 Y s 3 lw 1655 1139 m21 6 lw 1660 1122 m 4 Y s 1660 1137 m 3 Y s 3 lw
 1660 1131 m21 6 lw 1665 1113 m 3 Y s 1665 1127 m 4 Y s 3 lw 1665 1122 m21 6 lw 1669 1127 m 3 Y s 1669 1142 m 3 Y s 3 lw 1669 1136 m21 6 lw 1674 1135 m 4 Y s 1674 1150 m 3 Y s 3 lw 1674 1144 m21 6 lw 1679 1118 m 3 Y s 1679 1133 m 3 Y s 3 lw 1679 1127
 m21 6 lw 1684 1128 m 4 Y s 1684 1143 m 4 Y s 3 lw 1684 1137 m21 6 lw 1688 1116 m 4 Y s 1688 1131 m 3 Y s 3 lw 1688 1125 m21 6 lw 1693 1142 m 4 Y s 1693 1157 m 4 Y s 3 lw 1693 1151 m21 6 lw 1698 1124 m 4 Y s 1698 1139 m 4 Y s 3 lw 1698 1133 m21 6 lw
 1702 1133 m 4 Y s 1702 1148 m 4 Y s 3 lw 1702 1143 m21 6 lw 1707 1131 m 4 Y s 1707 1146 m 4 Y s 3 lw 1707 1141 m21 6 lw 1712 1121 m 4 Y s 1712 1136 m 4 Y s 3 lw 1712 1130 m21 6 lw 1717 1144 m 4 Y s 1717 1159 m 4 Y s 3 lw 1717 1154 m21 6 lw 1721 1123
 m 4 Y s 1721 1138 m 4 Y s 3 lw 1721 1133 m21 6 lw 1726 1121 m 4 Y s 1726 1136 m 4 Y s 3 lw 1726 1131 m21 6 lw 1731 1140 m 4 Y s 1731 1155 m 4 Y s 3 lw 1731 1150 m21 6 lw 1735 1118 m 4 Y s 1735 1133 m 4 Y s 3 lw 1735 1128 m21 6 lw 1740 1144 m 4 Y s
 1740 1159 m 4 Y s 3 lw 1740 1154 m21 6 lw 1745 1131 m 4 Y s 1745 1146 m 4 Y s 3 lw 1745 1140 m21 6 lw 1749 1119 m 4 Y s 1749 1134 m 4 Y s 3 lw 1749 1128 m21 6 lw 1754 1130 m 5 Y s 1754 1146 m 4 Y s 3 lw 1754 1140 m21 6 lw 1759 1124 m 4 Y s 1759 1139
 m 5 Y s 3 lw 1759 1134 m21 6 lw 1764 1122 m 4 Y s 1764 1137 m 4 Y s 3 lw 1764 1132 m21 6 lw 1768 1132 m 4 Y s 1768 1147 m 5 Y s 3 lw 1768 1142 m21 6 lw 1773 1111 m 4 Y s 1773 1126 m 4 Y s 3 lw 1773 1120 m21 6 lw 1778 1150 m 5 Y s 1778 1166 m 4 Y s 3
 lw 1778 1160 m21 6 lw 1782 1132 m 4 Y s 1782 1148 m 4 Y s 3 lw 1782 1142 m21 6 lw 1787 1119 m 4 Y s 1787 1135 m 4 Y s 3 lw 1787 1129 m21 6 lw 1792 1114 m 4 Y s 1792 1130 m 4 Y s 3 lw 1792 1124 m21 6 lw 1797 1114 m 4 Y s 1797 1130 m 4 Y s 3 lw 1797
 1124 m21 6 lw 1801 1136 m 5 Y s 1801 1152 m 4 Y s 3 lw 1801 1146 m21 6 lw 1806 1126 m 5 Y s 1806 1142 m 5 Y s 3 lw 1806 1136 m21 6 lw 1811 1123 m 4 Y s 1811 1139 m 4 Y s 3 lw 1811 1133 m21 6 lw 1815 1138 m 4 Y s 1815 1154 m 5 Y s 3 lw 1815 1148 m21
 6 lw 1820 1125 m 4 Y s 1820 1141 m 4 Y s 3 lw 1820 1135 m21 6 lw 1825 1146 m 5 Y s 1825 1162 m 5 Y s 3 lw 1825 1157 m21 6 lw 1829 1136 m 4 Y s 1829 1152 m 5 Y s 3 lw 1829 1146 m21 6 lw 1834 1139 m 5 Y s 1834 1156 m 5 Y s 3 lw 1834 1150 m21 6 lw 1839
 1142 m 5 Y s 1839 1159 m 5 Y s 3 lw 1839 1153 m21 6 lw 1844 1127 m 5 Y s 1844 1143 m 5 Y s 3 lw 1844 1138 m21 6 lw 1848 1123 m 5 Y s 1848 1139 m 5 Y s 3 lw 1848 1134 m21 6 lw 1853 1131 m 5 Y s 1853 1147 m 5 Y s 3 lw 1853 1141 m21 6 lw 1858 1111 m 5
 Y s 1858 1128 m 5 Y s 3 lw 1858 1122 m21 6 lw 1862 1129 m 5 Y s 1862 1145 m 5 Y s 3 lw 1862 1140 m21 6 lw 1867 1141 m 5 Y s 1867 1158 m 5 Y s 3 lw 1867 1152 m21 6 lw 1872 1145 m 5 Y s 1872 1161 m 6 Y s 3 lw 1872 1156 m21 6 lw 1877 1137 m 5 Y s 1877
 1154 m 5 Y s 3 lw 1877 1148 m21 6 lw 1881 1138 m 6 Y s 1881 1155 m 5 Y s 3 lw 1881 1149 m21 6 lw 1886 1126 m 5 Y s 1886 1143 m 5 Y s 3 lw 1886 1137 m21 6 lw 1891 1142 m 6 Y s 1891 1159 m 6 Y s 3 lw 1891 1154 m21 6 lw 1895 1137 m 6 Y s 1895 1154 m 5
 Y s 3 lw 1895 1148 m21 6 lw 1900 1138 m 6 Y s 1900 1155 m 6 Y s 3 lw 1900 1149 m21 6 lw 1905 1119 m 5 Y s 1905 1136 m 5 Y s 3 lw 1905 1130 m21 6 lw 1909 1135 m 6 Y s 1909 1152 m 6 Y s 3 lw 1909 1146 m21 6 lw 1914 1124 m 6 Y s 1914 1141 m 6 Y s 3 lw
 1914 1135 m21 6 lw 1919 1127 m 6 Y s 1919 1145 m 5 Y s 3 lw 1919 1139 m21 6 lw 1924 1149 m 6 Y s 1924 1166 m 6 Y s 3 lw 1924 1160 m21 6 lw 1928 1162 m 6 Y s 1928 1180 m 6 Y s 3 lw 1928 1174 m21 6 lw 1933 1128 m 6 Y s 1933 1145 m 6 Y s 3 lw 1933 1139
 m21 6 lw 1938 1130 m 6 Y s 1938 1147 m 6 Y s 3 lw 1938 1141 m21 6 lw 1942 1138 m 6 Y s 1942 1156 m 6 Y s 3 lw 1942 1150 m21 6 lw 1947 1156 m 6 Y s 1947 1173 m 6 Y s 3 lw 1947 1168 m21 6 lw 1952 1139 m 6 Y s 1952 1156 m 7 Y s 3 lw 1952 1151 m21 6 lw
 1957 1141 m 6 Y s 1957 1158 m 7 Y s 3 lw 1957 1153 m21 6 lw 1961 1117 m 6 Y s 1961 1134 m 6 Y s 3 lw 1961 1129 m21 6 lw 1966 1142 m 6 Y s 1966 1160 m 6 Y s 3 lw 1966 1154 m21 6 lw 1971 1139 m 6 Y s 1971 1156 m 7 Y s 3 lw 1971 1151 m21 6 lw 1975 1139
 m 7 Y s 1975 1157 m 7 Y s 3 lw 1975 1151 m21 6 lw 1980 1138 m 6 Y s 1980 1156 m 6 Y s 3 lw 1980 1150 m21 6 lw 1985 1141 m 6 Y s 1985 1158 m 7 Y s 3 lw 1985 1153 m21 6 lw 1989 1121 m 6 Y s 1989 1138 m 7 Y s 3 lw 1989 1133 m21 6 lw 1994 1135 m 7 Y s
 1994 1153 m 7 Y s 3 lw 1994 1148 m21 6 lw 1999 1131 m 7 Y s 1999 1149 m 7 Y s 3 lw 1999 1144 m21 6 lw 2004 1140 m 7 Y s 2004 1158 m 7 Y s 3 lw 2004 1152 m21 6 lw 2008 1134 m 7 Y s 2008 1153 m 6 Y s 3 lw 2008 1147 m21 6 lw 2013 1163 m 7 Y s 2013 1181
 m 7 Y s 3 lw 2013 1175 m21 6 lw 2018 1133 m 7 Y s 2018 1151 m 7 Y s 3 lw 2018 1146 m21 6 lw 2022 1125 m 7 Y s 2022 1144 m 7 Y s 3 lw 2022 1138 m21 6 lw 2027 1121 m 7 Y s 2027 1139 m 7 Y s 3 lw 2027 1134 m21 6 lw 2032 1142 m 7 Y s 2032 1161 m 7 Y s 3
 lw 2032 1155 m21 6 lw 2036 1135 m 8 Y s 2036 1154 m 7 Y s 3 lw 2036 1148 m21 6 lw 2041 1110 m 7 Y s 2041 1129 m 7 Y s 3 lw 2041 1123 m21 6 lw 2046 1132 m 7 Y s 2046 1150 m 7 Y s 3 lw 2046 1144 m21 6 lw 2051 1128 m 8 Y s 2051 1147 m 7 Y s 3 lw 2051
 1141 m21 6 lw 2055 1150 m 7 Y s 2055 1168 m 8 Y s 3 lw 2055 1163 m21 6 lw 2060 1127 m 7 Y s 2060 1146 m 7 Y s 3 lw 2060 1140 m21 6 lw 2065 1133 m 8 Y s 2065 1152 m 8 Y s 3 lw 2065 1147 m21 6 lw 2069 1142 m 7 Y s 2069 1161 m 7 Y s 3 lw 2069 1155 m21
 6 lw 2074 1139 m 7 Y s 2074 1158 m 7 Y s 3 lw 2074 1152 m21 6 lw 2079 1121 m 7 Y s 2079 1140 m 7 Y s 3 lw 2079 1134 m21 6 lw 2084 1153 m 7 Y s 2084 1172 m 8 Y s 3 lw 2084 1166 m21 6 lw 2088 1147 m 8 Y s 2088 1167 m 8 Y s 3 lw 2088 1161 m21 6 lw 2093
 1130 m 7 Y s 2093 1149 m 8 Y s 3 lw 2093 1143 m21 6 lw 2098 1139 m 8 Y s 2098 1159 m 8 Y s 3 lw 2098 1153 m21 6 lw 2102 1149 m 8 Y s 2102 1168 m 8 Y s 3 lw 2102 1163 m21 6 lw 2107 1123 m 8 Y s 2107 1143 m 8 Y s 3 lw 2107 1137 m21 6 lw 2112 1148 m 8
 Y s 2112 1167 m 8 Y s 3 lw 2112 1161 m21 6 lw 2116 1157 m 8 Y s 2116 1176 m 9 Y s 3 lw 2116 1171 m21 6 lw 2121 1150 m 8 Y s 2121 1169 m 9 Y s 3 lw 2121 1164 m21 6 lw 2126 1150 m 9 Y s 2126 1170 m 9 Y s 3 lw 2126 1165 m21 6 lw 2131 1141 m 8 Y s 2131
 1161 m 8 Y s 3 lw 2131 1155 m21 6 lw 2135 1141 m 8 Y s 2135 1161 m 8 Y s 3 lw 2135 1155 m21 6 lw 2140 1127 m 9 Y s 2140 1147 m 8 Y s 3 lw 2140 1141 m21 6 lw 2145 1125 m 9 Y s 2145 1145 m 8 Y s 3 lw 2145 1139 m21 6 lw 2149 1142 m 8 Y s 2149 1162 m 8
 Y s 3 lw 2149 1156 m21 6 lw 2154 1111 m 8 Y s 2154 1131 m 8 Y s 3 lw 2154 1125 m21 6 lw 2159 1123 m 8 Y s 2159 1143 m 8 Y s 3 lw 2159 1137 m21 6 lw 2164 1127 m 9 Y s 2164 1147 m 9 Y s 3 lw 2164 1142 m21 6 lw 2168 1129 m 9 Y s 2168 1149 m 9 Y s 3 lw
 2168 1144 m21 6 lw 2173 1141 m 9 Y s 2173 1162 m 9 Y s 3 lw 2173 1156 m21 6 lw 2178 1137 m 9 Y s 2178 1157 m 9 Y s 3 lw 2178 1151 m21 6 lw 2182 1110 m 9 Y s 2182 1130 m 9 Y s 3 lw 2182 1124 m21 6 lw 2187 1147 m 9 Y s 2187 1168 m 9 Y s 3 lw 2187 1162
 m21 6 lw 2192 1152 m 10 Y s 2192 1173 m 10 Y s 3 lw 2192 1167 m21 6 lw 2196 1161 m 10 Y s 2196 1182 m 10 Y s 3 lw 2196 1177 m21 6 lw 2201 1173 m 10 Y s 2201 1194 m 10 Y s 3 lw 2201 1188 m21 6 lw 2206 1118 m 10 Y s 2206 1139 m 9 Y s 3 lw 2206 1133
 m21 6 lw 2211 1153 m 10 Y s 2211 1174 m 10 Y s 3 lw 2211 1168 m21 6 lw 2215 1131 m 10 Y s 2215 1152 m 10 Y s 3 lw 2215 1147 m21 6 lw 2220 1132 m 9 Y s 2220 1153 m 9 Y s 3 lw 2220 1147 m21 6 lw black 340 223 m 1882 X s
 gsave  2268 2234 0 0 C 1923.86 58.2559 t 0 r /Helvetica findfont 83.8316 sf 0 0 m (Q [GeV]) show NC gr  340 279 m -56 Y s 387 251 m -28 Y s 434 251 m -28 Y s 481 251 m -28 Y s 528 279 m -56 Y s 575 251 m -28 Y s 622 251 m -28 Y s 670 251 m -28 Y s
 717 279 m -56 Y s 764 251 m -28 Y s 811 251 m -28 Y s 858 251 m -28 Y s 905 279 m -56 Y s 952 251 m -28 Y s 999 251 m -28 Y s 1046 251 m -28 Y s 1093 279 m -56 Y s 1140 251 m -28 Y s 1187 251 m -28 Y s 1234 251 m -28 Y s 1281 279 m -56 Y s 1328 251
 m -28 Y s 1375 251 m -28 Y s 1422 251 m -28 Y s 1469 279 m -56 Y s 1517 251 m -28 Y s 1564 251 m -28 Y s 1611 251 m -28 Y s 1658 279 m -56 Y s 1705 251 m -28 Y s 1752 251 m -28 Y s 1799 251 m -28 Y s 1846 279 m -56 Y s 1893 251 m -28 Y s 1940 251 m
 -28 Y s 1987 251 m -28 Y s 2034 279 m -56 Y s 2081 251 m -28 Y s 2128 251 m -28 Y s 2175 251 m -28 Y s 2222 279 m -56 Y s
 gsave  2268 2234 0 0 C 322.539 159.138 t 0 r /Helvetica findfont 62.5185 sf 0 0 m (0) show NC gr 
 gsave  2268 2234 0 0 C 484.518 159.138 t 0 r /Helvetica findfont 62.5185 sf 0 0 m (0.2) show NC gr 
 gsave  2268 2234 0 0 C 673.495 159.138 t 0 r /Helvetica findfont 62.5185 sf 0 0 m (0.4) show NC gr 
 gsave  2268 2234 0 0 C 861.05 159.138 t 0 r /Helvetica findfont 62.5185 sf 0 0 m (0.6) show NC gr 
 gsave  2268 2234 0 0 C 1050.03 159.138 t 0 r /Helvetica findfont 62.5185 sf 0 0 m (0.8) show NC gr 
 gsave  2268 2234 0 0 C 1268.84 159.138 t 0 r /Helvetica findfont 62.5185 sf 0 0 m (1) show NC gr 
 gsave  2268 2234 0 0 C 1426.56 159.138 t 0 r /Helvetica findfont 62.5185 sf 0 0 m (1.2) show NC gr 
 gsave  2268 2234 0 0 C 1614.11 159.138 t 0 r /Helvetica findfont 62.5185 sf 0 0 m (1.4) show NC gr 
 gsave  2268 2234 0 0 C 1803.09 159.138 t 0 r /Helvetica findfont 62.5185 sf 0 0 m (1.6) show NC gr 
 gsave  2268 2234 0 0 C 1990.65 159.138 t 0 r /Helvetica findfont 62.5185 sf 0 0 m (1.8) show NC gr 
 gsave  2268 2234 0 0 C 2205.2 159.138 t 0 r /Helvetica findfont 62.5185 sf 0 0 m (2) show NC gr  340 223 m 1966 Y s
 gsave  2268 2234 0 0 C 152.034 1953.7 t 90 r /Helvetica findfont 83.8316 sf 0 0 m (DR\(Q\)) show NC gr  400 402 m -60 X s 370 491 m -30 X s 370 581 m -30 X s 370 670 m -30 X s 400 759 m -60 X s 370 849 m -30 X s 370 938 m -30 X s 370 1027 m -30 X s
 400 1117 m -60 X s 370 1206 m -30 X s 370 1295 m -30 X s 370 1385 m -30 X s 400 1474 m -60 X s 370 1564 m -30 X s 370 1653 m -30 X s 370 1742 m -30 X s 400 1832 m -60 X s 370 1921 m -30 X s 370 2010 m -30 X s 370 2100 m -30 X s 400 2189 m -60 X s
 400 402 m -60 X s 370 313 m -30 X s 370 223 m -30 X s
 gsave  2268 2234 0 0 C 242.97 379.374 t 0 r /Helvetica findfont 62.5185 sf 0 0 m (0.6) show NC gr 
 gsave  2268 2234 0 0 C 242.97 737.434 t 0 r /Helvetica findfont 62.5185 sf 0 0 m (0.8) show NC gr 
 gsave  2268 2234 0 0 C 305.488 1092.65 t 0 r /Helvetica findfont 62.5185 sf 0 0 m (1) show NC gr 
 gsave  2268 2234 0 0 C 242.97 1450.71 t 0 r /Helvetica findfont 62.5185 sf 0 0 m (1.2) show NC gr 
 gsave  2268 2234 0 0 C 242.97 1808.77 t 0 r /Helvetica findfont 62.5185 sf 0 0 m (1.4) show NC gr 
 gsave  2268 2234 0 0 C 242.97 2166.83 t 0 r /Helvetica findfont 62.5185 sf 0 0 m (1.6) show NC gr 
 gsave  2268 2234 0 0 C 906.518 670.653 t 0 r /Helvetica-Bold findfont 72.4646 sf 0 0 m (DR PIONS) show NC gr 
 gsave  2268 2234 0 0 C 906.518 558.404 t 0 r /Helvetica-Bold findfont 72.4646 sf 0 0 m (ref. sample: EVENT MIX) show NC gr 
 gsave  2268 2234 0 0 C 906.518 447.576 t 0 r /Helvetica-Bold findfont 72.4646 sf 0 0 m (VELO tracks multiplicity: 11 \255 20) show NC gr 
 gr  gr showpage
end
%%EOF
