%!PS-Adobe-2.0 EPSF-2.0
%%BoundingBox:  0 0 567 558
%%Title: ./scalar1_results_DR_corr_DR_pion_0c65_h3015_1_h3401_1_compare.eps: scalar1_results_DR_corr_DR_pion_0c65_h3015_1_h3401_1_compare
%%Creator: ROOT Version 5.34/25
%%CreationDate: Wed Dec 21 16:56:54 2016
%%EndComments
%%BeginProlog
80 dict begin
/s {stroke} def /l {lineto} def /m {moveto} def /t {translate} def
/r {rotate} def /rl {roll}  def /R {repeat} def
/d {rlineto} def /rm {rmoveto} def /gr {grestore} def /f {eofill} def
/c {setrgbcolor} def /black {0 setgray} def /sd {setdash} def
/cl {closepath} def /sf {scalefont setfont} def /lw {setlinewidth} def
/box {m dup 0 exch d exch 0 d 0 exch neg d cl} def
/NC{systemdict begin initclip end}def/C{NC box clip newpath}def
/bl {box s} def /bf {box f} def /Y { 0 exch d} def /X { 0 d} def 
/K {{pop pop 0 moveto} exch kshow} bind def
/ita {/ang 15 def gsave [1 0 ang dup sin exch cos div 1 0 0] concat} def 
/mp {newpath /y exch def /x exch def} def
/side {[w .77 mul w .23 mul] .385 w mul sd w 0 l currentpoint t -144 r} def
/mr {mp x y w2 0 360 arc} def /m24 {mr s} def /m20 {mr f} def
/mb {mp x y w2 add m w2 neg 0 d 0 w neg d w 0 d 0 w d cl} def
/mt {mp x y w2 add m w2 neg w neg d w 0 d cl} def
/m21 {mb f} def /m25 {mb s} def /m22 {mt f} def /m26{mt s} def
/m23 {mp x y w2 sub m w2 w d w neg 0 d cl f} def
/m27 {mp x y w2 add m w3 neg w2 neg d w3 w2 neg d w3 w2 d cl s} def
/m28 {mp x w2 sub y w2 sub w3 add m w3 0 d  0 w3 neg d w3 0 d 0 w3 d w3 0 d  0 w3 d w3 neg 0 d 0 w3 d w3 neg 0 d 0 w3 neg d w3 neg 0 d cl s } def
/m29 {mp gsave x w2 sub y w2 add w3 sub m currentpoint t 4 {side} repeat cl fill gr} def
/m30 {mp gsave x w2 sub y w2 add w3 sub m currentpoint t 4 {side} repeat cl s gr} def
/m31 {mp x y w2 sub m 0 w d x w2 sub y m w 0 d x w2 sub y w2 add m w w neg d x w2 sub y w2 sub m w w d s} def
/m32 {mp x y w2 sub m w2 w d w neg 0 d cl s} def
/m33 {mp x y w2 add m w3 neg w2 neg d w3 w2 neg d w3 w2 d cl f} def
/m34 {mp x w2 sub y w2 sub w3 add m w3 0 d  0 w3 neg d w3 0 d 0 w3 d w3 0 d  0 w3 d w3 neg 0 d 0 w3 d w3 neg 0 d 0 w3 neg d w3 neg 0 d cl f } def
/m2 {mp x y w2 sub m 0 w d x w2 sub y m w 0 d s} def
/m5 {mp x w2 sub y w2 sub m w w d x w2 sub y w2 add m w w neg d s} def
/reEncode {exch findfont dup length dict begin {1 index /FID eq  {pop pop} {def} ifelse } forall /Encoding exch def currentdict end dup /FontName get exch definefont pop } def [/Times-Bold /Times-Italic /Times-BoldItalic /Helvetica /Helvetica-Oblique
 /Helvetica-Bold /Helvetica-BoldOblique /Courier /Courier-Oblique /Courier-Bold /Courier-BoldOblique /Times-Roman /AvantGarde-Book /AvantGarde-BookOblique /AvantGarde-Demi /AvantGarde-DemiOblique /Bookman-Demi /Bookman-DemiItalic /Bookman-Light
 /Bookman-LightItalic /Helvetica-Narrow /Helvetica-Narrow-Bold /Helvetica-Narrow-BoldOblique /Helvetica-Narrow-Oblique /NewCenturySchlbk-Roman /NewCenturySchlbk-Bold /NewCenturySchlbk-BoldItalic /NewCenturySchlbk-Italic /Palatino-Bold
 /Palatino-BoldItalic /Palatino-Italic /Palatino-Roman ] {ISOLatin1Encoding reEncode } forall
%%EndProlog
%%BeginSetup
%%EndSetup
newpath  gsave  .25 .25 scale  gsave  0 0 t black[  ] 0 sd 6 lw 1 1 1 c 2268 2234 0 0 bf black 3 lw 1 1 1 c 1882 1966 340 223 bf black 1882 1966 340 223 bl 1 1 1 c 1882 1966 340 223 bf black 1882 1966 340 223 bl 0 0 1 c 6 lw 1 1 1 c 0 0 1 c 406 1898
 m 13 Y s 406 1928 m 13 Y s 3 lw /w 19 def /w2 {w 2 div} def /w3 {w 3 div} def 406 1919 m21 6 lw 425 1666 m 7 Y s 425 1690 m 7 Y s 3 lw 425 1682 m21 6 lw 444 1609 m 5 Y s 444 1631 m 4 Y s 3 lw 444 1622 m21 6 lw 463 1524 m 3 Y s 463 1544 m 3 Y s 3 lw
 463 1536 m21 6 lw 481 1484 m 1 Y s 481 1502 m 2 Y s 3 lw 481 1494 m21 6 lw 500 1419 m 1 Y s 500 1437 m 1 Y s 3 lw 500 1429 m21 6 lw 519 1370 m s 519 1387 m s 3 lw 519 1379 m21 6 lw 3 lw 538 1343 m21 6 lw 3 lw 557 1313 m21 6 lw 3 lw 575 1269 m21 6 lw
 3 lw 594 1241 m21 6 lw 3 lw 613 1221 m21 6 lw 3 lw 632 1195 m21 6 lw 3 lw 651 1182 m21 6 lw 3 lw 670 1166 m21 6 lw 3 lw 688 1150 m21 6 lw 3 lw 707 1140 m21 6 lw 3 lw 726 1127 m21 6 lw 3 lw 745 1113 m21 6 lw 3 lw 764 1113 m21 6 lw 3 lw 782 1097 m21 6
 lw 3 lw 801 1086 m21 6 lw 3 lw 820 1083 m21 6 lw 3 lw 839 1074 m21 6 lw 3 lw 858 1068 m21 6 lw 3 lw 877 1054 m21 6 lw 3 lw 895 1053 m21 6 lw 3 lw 914 1039 m21 6 lw 3 lw 933 1051 m21 6 lw 3 lw 952 1030 m21 6 lw 3 lw 971 1037 m21 6 lw 3 lw 990 1026
 m21 6 lw 3 lw 1008 1022 m21 6 lw 3 lw 1027 1029 m21 6 lw 3 lw 1046 1033 m21 6 lw 3 lw 1065 1040 m21 6 lw 3 lw 1084 1018 m21 6 lw 3 lw 1102 1019 m21 6 lw 3 lw 1121 1023 m21 6 lw 3 lw 1140 1021 m21 6 lw 3 lw 1159 1032 m21 6 lw 3 lw 1178 1037 m21 6 lw
 1197 1017 m s 1197 1034 m s 3 lw 1197 1025 m21 6 lw 1215 1022 m 1 Y s 1215 1040 m 1 Y s 3 lw 1215 1032 m21 6 lw 1234 1025 m 2 Y s 1234 1044 m 1 Y s 3 lw 1234 1035 m21 6 lw 1253 1030 m 2 Y s 1253 1049 m 2 Y s 3 lw 1253 1040 m21 6 lw 1272 1029 m 2 Y s
 1272 1049 m 2 Y s 3 lw 1272 1040 m21 6 lw 1291 1036 m 3 Y s 1291 1056 m 4 Y s 3 lw 1291 1048 m21 6 lw 1309 1050 m 4 Y s 1309 1071 m 4 Y s 3 lw 1309 1063 m21 6 lw 1328 1029 m 5 Y s 1328 1051 m 5 Y s 3 lw 1328 1043 m21 6 lw 1347 1049 m 6 Y s 1347 1072
 m 6 Y s 3 lw 1347 1064 m21 6 lw 1366 1019 m 7 Y s 1366 1043 m 7 Y s 3 lw 1366 1034 m21 6 lw 1385 1042 m 8 Y s 1385 1067 m 8 Y s 3 lw 1385 1059 m21 6 lw 1404 1037 m 9 Y s 1404 1063 m 9 Y s 3 lw 1404 1054 m21 6 lw 1422 1064 m 10 Y s 1422 1091 m 10 Y s
 3 lw 1422 1082 m21 6 lw 1441 1065 m 11 Y s 1441 1093 m 12 Y s 3 lw 1441 1085 m21 6 lw 1460 1055 m 12 Y s 1460 1084 m 12 Y s 3 lw 1460 1076 m21 6 lw 1479 1031 m 13 Y s 1479 1061 m 14 Y s 3 lw 1479 1053 m21 6 lw 1498 1048 m 15 Y s 1498 1080 m 15 Y s 3
 lw 1498 1072 m21 6 lw 1517 1053 m 17 Y s 1517 1087 m 16 Y s 3 lw 1517 1078 m21 6 lw 1535 993 m 17 Y s 1535 1027 m 18 Y s 3 lw 1535 1019 m21 6 lw 1554 1076 m 20 Y s 1554 1114 m 20 Y s 3 lw 1554 1105 m21 6 lw 1573 1019 m 22 Y s 1573 1058 m 21 Y s 3 lw
 1573 1049 m21 6 lw 1592 1082 m 24 Y s 1592 1123 m 24 Y s 3 lw 1592 1115 m21 6 lw 1611 1081 m 26 Y s 1611 1124 m 26 Y s 3 lw 1611 1116 m21 6 lw 1629 1000 m 27 Y s 1629 1044 m 28 Y s 3 lw 1629 1036 m21 6 lw 1648 1057 m 31 Y s 1648 1105 m 31 Y s 3 lw
 1648 1097 m21 6 lw 1667 999 m 33 Y s 1667 1049 m 32 Y s 3 lw 1667 1040 m21 6 lw 1686 1000 m 36 Y s 1686 1053 m 35 Y s 3 lw 1686 1044 m21 6 lw 1705 1071 m 41 Y s 1705 1129 m 41 Y s 3 lw 1705 1120 m21 6 lw 1724 1070 m 45 Y s 1724 1132 m 45 Y s 3 lw
 1724 1124 m21 6 lw 1742 1054 m 48 Y s 1742 1119 m 49 Y s 3 lw 1742 1111 m21 6 lw 1761 981 m 50 Y s 1761 1048 m 51 Y s 3 lw 1761 1040 m21 6 lw 1780 1121 m 61 Y s 1780 1199 m 60 Y s 3 lw 1780 1190 m21 6 lw 1799 1106 m 67 Y s 1799 1190 m 66 Y s 3 lw
 1799 1181 m21 6 lw 1818 886 m 61 Y s 1818 965 m 61 Y s 3 lw 1818 956 m21 6 lw 1837 837 m 66 Y s 1837 920 m 67 Y s 3 lw 1837 912 m21 6 lw 1855 1011 m 85 Y s 1855 1113 m 85 Y s 3 lw 1855 1105 m21 6 lw 1874 1110 m 98 Y s 1874 1225 m 99 Y s 3 lw 1874
 1217 m21 6 lw 1893 840 m 90 Y s 1893 947 m 91 Y s 3 lw 1893 939 m21 6 lw 1912 864 m 104 Y s 1912 985 m 104 Y s 3 lw 1912 977 m21 6 lw 1931 827 m 115 Y s 1931 959 m 115 Y s 3 lw 1931 951 m21 6 lw 1949 906 m 131 Y s 1949 1054 m 131 Y s 3 lw 1949 1045
 m21 6 lw 1968 924 m 156 Y s 1968 1098 m 156 Y s 3 lw 1968 1089 m21 6 lw 1987 1054 m 183 Y s 1987 1255 m 183 Y s 3 lw 1987 1246 m21 6 lw 2006 930 m 207 Y s 2006 1154 m 207 Y s 3 lw 2006 1145 m21 6 lw 2025 842 m 224 Y s 2025 1084 m 223 Y s 3 lw 2025
 1075 m21 6 lw 2044 839 m 248 Y s 2044 1104 m 248 Y s 3 lw 2044 1096 m21 6 lw 2062 901 m 326 Y s 2062 1244 m 326 Y s 3 lw 2062 1236 m21 6 lw 2081 544 m 318 Y s 2081 879 m 317 Y s 3 lw 2081 870 m21 6 lw 2100 775 m 503 Y s 2100 1295 m 502 Y s 3 lw 2100
 1286 m21 6 lw 2119 848 m 725 Y s 2119 1590 m 599 Y s 3 lw 2119 1582 m21 6 lw 2138 223 m 425 Y s 2138 665 m 520 Y s 3 lw 2138 657 m21 6 lw 2175 223 m 1245 Y s 2175 1485 m 704 Y s 3 lw 2175 1477 m21 6 lw black 340 223 m 1882 X s
 gsave  2268 2234 0 0 C 1923.86 58.2559 t 0 r /Helvetica findfont 83.8316 sf 0 0 m (Q [GeV]) show NC gr  340 279 m -56 Y s 387 251 m -28 Y s 434 251 m -28 Y s 481 251 m -28 Y s 528 279 m -56 Y s 575 251 m -28 Y s 622 251 m -28 Y s 670 251 m -28 Y s
 717 279 m -56 Y s 764 251 m -28 Y s 811 251 m -28 Y s 858 251 m -28 Y s 905 279 m -56 Y s 952 251 m -28 Y s 999 251 m -28 Y s 1046 251 m -28 Y s 1093 279 m -56 Y s 1140 251 m -28 Y s 1187 251 m -28 Y s 1234 251 m -28 Y s 1281 279 m -56 Y s 1328 251
 m -28 Y s 1375 251 m -28 Y s 1422 251 m -28 Y s 1469 279 m -56 Y s 1517 251 m -28 Y s 1564 251 m -28 Y s 1611 251 m -28 Y s 1658 279 m -56 Y s 1705 251 m -28 Y s 1752 251 m -28 Y s 1799 251 m -28 Y s 1846 279 m -56 Y s 1893 251 m -28 Y s 1940 251 m
 -28 Y s 1987 251 m -28 Y s 2034 279 m -56 Y s 2081 251 m -28 Y s 2128 251 m -28 Y s 2175 251 m -28 Y s 2222 279 m -56 Y s
 gsave  2268 2234 0 0 C 322.539 159.138 t 0 r /Helvetica findfont 62.5185 sf 0 0 m (0) show NC gr 
 gsave  2268 2234 0 0 C 484.518 159.138 t 0 r /Helvetica findfont 62.5185 sf 0 0 m (0.2) show NC gr 
 gsave  2268 2234 0 0 C 673.495 159.138 t 0 r /Helvetica findfont 62.5185 sf 0 0 m (0.4) show NC gr 
 gsave  2268 2234 0 0 C 861.05 159.138 t 0 r /Helvetica findfont 62.5185 sf 0 0 m (0.6) show NC gr 
 gsave  2268 2234 0 0 C 1050.03 159.138 t 0 r /Helvetica findfont 62.5185 sf 0 0 m (0.8) show NC gr 
 gsave  2268 2234 0 0 C 1268.84 159.138 t 0 r /Helvetica findfont 62.5185 sf 0 0 m (1) show NC gr 
 gsave  2268 2234 0 0 C 1426.56 159.138 t 0 r /Helvetica findfont 62.5185 sf 0 0 m (1.2) show NC gr 
 gsave  2268 2234 0 0 C 1614.11 159.138 t 0 r /Helvetica findfont 62.5185 sf 0 0 m (1.4) show NC gr 
 gsave  2268 2234 0 0 C 1803.09 159.138 t 0 r /Helvetica findfont 62.5185 sf 0 0 m (1.6) show NC gr 
 gsave  2268 2234 0 0 C 1990.65 159.138 t 0 r /Helvetica findfont 62.5185 sf 0 0 m (1.8) show NC gr 
 gsave  2268 2234 0 0 C 2205.2 159.138 t 0 r /Helvetica findfont 62.5185 sf 0 0 m (2) show NC gr  340 223 m 1966 Y s
 gsave  2268 2234 0 0 C 152.034 1953.7 t 90 r /Helvetica findfont 83.8316 sf 0 0 m (DR\(Q\)) show NC gr  400 402 m -60 X s 370 491 m -30 X s 370 581 m -30 X s 370 670 m -30 X s 400 759 m -60 X s 370 849 m -30 X s 370 938 m -30 X s 370 1027 m -30 X s
 400 1117 m -60 X s 370 1206 m -30 X s 370 1295 m -30 X s 370 1385 m -30 X s 400 1474 m -60 X s 370 1564 m -30 X s 370 1653 m -30 X s 370 1742 m -30 X s 400 1832 m -60 X s 370 1921 m -30 X s 370 2010 m -30 X s 370 2100 m -30 X s 400 2189 m -60 X s
 400 402 m -60 X s 370 313 m -30 X s 370 223 m -30 X s
 gsave  2268 2234 0 0 C 242.97 379.374 t 0 r /Helvetica findfont 62.5185 sf 0 0 m (0.6) show NC gr 
 gsave  2268 2234 0 0 C 242.97 737.434 t 0 r /Helvetica findfont 62.5185 sf 0 0 m (0.8) show NC gr 
 gsave  2268 2234 0 0 C 305.488 1092.65 t 0 r /Helvetica findfont 62.5185 sf 0 0 m (1) show NC gr 
 gsave  2268 2234 0 0 C 242.97 1450.71 t 0 r /Helvetica findfont 62.5185 sf 0 0 m (1.2) show NC gr 
 gsave  2268 2234 0 0 C 242.97 1808.77 t 0 r /Helvetica findfont 62.5185 sf 0 0 m (1.4) show NC gr 
 gsave  2268 2234 0 0 C 242.97 2166.83 t 0 r /Helvetica findfont 62.5185 sf 0 0 m (1.6) show NC gr  1 0 0 c 1 1 1 c 1 0 0 c 406 1893 m 30 Y s 406 1940 m 30 Y s 3 lw 406 1932 m21 6 lw 425 1761 m 20 Y s 425 1798 m 20 Y s 3 lw 425 1789 m21 6 lw 444 1676
 m 15 Y s 444 1708 m 14 Y s 3 lw 444 1699 m21 6 lw 463 1580 m 10 Y s 463 1607 m 11 Y s 3 lw 463 1599 m21 6 lw 481 1494 m 8 Y s 481 1519 m 8 Y s 3 lw 481 1511 m21 6 lw 500 1452 m 6 Y s 500 1475 m 6 Y s 3 lw 500 1467 m21 6 lw 519 1400 m 5 Y s 519 1422
 m 5 Y s 3 lw 519 1413 m21 6 lw 538 1340 m 3 Y s 538 1360 m 4 Y s 3 lw 538 1352 m21 6 lw 557 1309 m 2 Y s 557 1328 m 3 Y s 3 lw 557 1320 m21 6 lw 575 1294 m 2 Y s 575 1313 m 2 Y s 3 lw 575 1304 m21 6 lw 594 1241 m 1 Y s 594 1259 m 1 Y s 3 lw 594 1250
 m21 6 lw 613 1228 m 1 Y s 613 1246 m 1 Y s 3 lw 613 1237 m21 6 lw 632 1215 m s 632 1232 m 1 Y s 3 lw 632 1224 m21 6 lw 651 1199 m s 651 1216 m 1 Y s 3 lw 651 1208 m21 6 lw 3 lw 670 1194 m21 6 lw 3 lw 688 1184 m21 6 lw 3 lw 707 1156 m21 6 lw 3 lw 726
 1137 m21 6 lw 3 lw 745 1128 m21 6 lw 3 lw 764 1122 m21 6 lw 3 lw 782 1124 m21 6 lw 3 lw 801 1114 m21 6 lw 3 lw 820 1109 m21 6 lw 3 lw 839 1101 m21 6 lw 3 lw 858 1096 m21 6 lw 3 lw 877 1091 m21 6 lw 3 lw 895 1086 m21 6 lw 3 lw 914 1087 m21 6 lw 3 lw
 933 1077 m21 6 lw 3 lw 952 1084 m21 6 lw 3 lw 971 1064 m21 6 lw 3 lw 990 1066 m21 6 lw 3 lw 1008 1050 m21 6 lw 3 lw 1027 1062 m21 6 lw 3 lw 1046 1065 m21 6 lw 3 lw 1065 1072 m21 6 lw 3 lw 1084 1069 m21 6 lw 3 lw 1102 1070 m21 6 lw 3 lw 1121 1080 m21
 6 lw 3 lw 1140 1074 m21 6 lw 3 lw 1159 1067 m21 6 lw 3 lw 1178 1073 m21 6 lw 3 lw 1197 1066 m21 6 lw 3 lw 1215 1074 m21 6 lw 3 lw 1234 1075 m21 6 lw 3 lw 1253 1074 m21 6 lw 3 lw 1272 1078 m21 6 lw 3 lw 1291 1070 m21 6 lw 3 lw 1309 1082 m21 6 lw 3 lw
 1328 1076 m21 6 lw 3 lw 1347 1072 m21 6 lw 3 lw 1366 1090 m21 6 lw 3 lw 1385 1097 m21 6 lw 3 lw 1404 1096 m21 6 lw 3 lw 1422 1093 m21 6 lw 3 lw 1441 1095 m21 6 lw 3 lw 1460 1108 m21 6 lw 3 lw 1479 1108 m21 6 lw 3 lw 1498 1107 m21 6 lw 3 lw 1517 1110
 m21 6 lw 3 lw 1535 1109 m21 6 lw 3 lw 1554 1105 m21 6 lw 3 lw 1573 1110 m21 6 lw 3 lw 1592 1123 m21 6 lw 3 lw 1611 1126 m21 6 lw 3 lw 1629 1122 m21 6 lw 3 lw 1648 1126 m21 6 lw 3 lw 1667 1128 m21 6 lw 3 lw 1686 1143 m21 6 lw 3 lw 1705 1148 m21 6 lw
 3 lw 1724 1128 m21 6 lw 3 lw 1742 1144 m21 6 lw 3 lw 1761 1150 m21 6 lw 3 lw 1780 1143 m21 6 lw 3 lw 1799 1164 m21 6 lw 1818 1135 m s 1818 1152 m s 3 lw 1818 1143 m21 6 lw 1837 1139 m s 1837 1157 m s 3 lw 1837 1148 m21 6 lw 1855 1133 m s 1855 1150 m
 1 Y s 3 lw 1855 1142 m21 6 lw 1874 1153 m 1 Y s 1874 1171 m s 3 lw 1874 1162 m21 6 lw 1893 1140 m s 1893 1157 m 1 Y s 3 lw 1893 1149 m21 6 lw 1912 1157 m 1 Y s 1912 1175 m 1 Y s 3 lw 1912 1166 m21 6 lw 1931 1162 m 1 Y s 1931 1180 m 2 Y s 3 lw 1931
 1172 m21 6 lw 1949 1160 m 1 Y s 1949 1178 m 2 Y s 3 lw 1949 1170 m21 6 lw 1968 1163 m 1 Y s 1968 1182 m 1 Y s 3 lw 1968 1173 m21 6 lw 1987 1164 m 2 Y s 1987 1183 m 1 Y s 3 lw 1987 1174 m21 6 lw 2006 1152 m 2 Y s 2006 1171 m 2 Y s 3 lw 2006 1163 m21
 6 lw 2025 1171 m 2 Y s 2025 1190 m 3 Y s 3 lw 2025 1182 m21 6 lw 2044 1165 m 3 Y s 2044 1185 m 2 Y s 3 lw 2044 1176 m21 6 lw 2062 1160 m 2 Y s 2062 1180 m 2 Y s 3 lw 2062 1171 m21 6 lw 2081 1175 m 3 Y s 2081 1195 m 3 Y s 3 lw 2081 1187 m21 6 lw 2100
 1161 m 3 Y s 2100 1181 m 4 Y s 3 lw 2100 1173 m21 6 lw 2119 1172 m 4 Y s 2119 1193 m 4 Y s 3 lw 2119 1185 m21 6 lw 2138 1157 m 4 Y s 2138 1178 m 4 Y s 3 lw 2138 1169 m21 6 lw 2156 1152 m 4 Y s 2156 1173 m 4 Y s 3 lw 2156 1164 m21 6 lw 2175 1157 m 4
 Y s 2175 1178 m 4 Y s 3 lw 2175 1170 m21 6 lw 2194 1147 m 5 Y s 2194 1169 m 4 Y s 3 lw 2194 1160 m21 6 lw 2213 1183 m 5 Y s 2213 1205 m 5 Y s 3 lw 2213 1197 m21 6 lw black 1 1 1 c 680 447 1474 1675 bf black 1474 1675 m 680 X s 2154 1675 m 447 Y s
 2154 2122 m -680 X s 1474 2122 m -447 Y s
 gsave  2268 2234 0 0 C 1490.5 2027.59 t 0 r /Helvetica findfont 53.9932 sf 0 0 m (kT \255 scalar sum) show NC gr 
 gsave  2268 2234 0 0 C 1643.95 1879.82 t 0 r /Helvetica findfont 53.9932 sf 0 0 m (2\2554) show NC gr  0 0 1 c 1559 1854 m 89 Y s 3 lw 1559 1899 m21 6 lw black
 gsave  2268 2234 0 0 C 1643.95 1730.63 t 0 r /Helvetica findfont 53.9932 sf 0 0 m (4\2557) show NC gr  1 0 0 c 1559 1705 m 89 Y s 3 lw 1559 1750 m21 6 lw black
 gsave  2268 2234 0 0 C 906.518 670.653 t 0 r /Helvetica-Bold findfont 72.4646 sf 0 0 m (DR PIONS) show NC gr 
 gsave  2268 2234 0 0 C 906.518 558.404 t 0 r /Helvetica-Bold findfont 72.4646 sf 0 0 m (ref. sample: EVENT MIX) show NC gr 
 gsave  2268 2234 0 0 C 906.518 447.576 t 0 r /Helvetica-Bold findfont 72.4646 sf 0 0 m (VELO tracks multiplicity: 2 \255 10) show NC gr 
 gr  gr showpage
end
%%EOF
