%!PS-Adobe-2.0 EPSF-2.0
%%BoundingBox:  0 0 567 558
%%Title: ./vector1_results_DR_corr_DR_pion_0c65_h3015_1_h3401_1_compare.eps: vector1_results_DR_corr_DR_pion_0c65_h3015_1_h3401_1_compare
%%Creator: ROOT Version 5.34/25
%%CreationDate: Wed Dec 21 16:56:15 2016
%%EndComments
%%BeginProlog
80 dict begin
/s {stroke} def /l {lineto} def /m {moveto} def /t {translate} def
/r {rotate} def /rl {roll}  def /R {repeat} def
/d {rlineto} def /rm {rmoveto} def /gr {grestore} def /f {eofill} def
/c {setrgbcolor} def /black {0 setgray} def /sd {setdash} def
/cl {closepath} def /sf {scalefont setfont} def /lw {setlinewidth} def
/box {m dup 0 exch d exch 0 d 0 exch neg d cl} def
/NC{systemdict begin initclip end}def/C{NC box clip newpath}def
/bl {box s} def /bf {box f} def /Y { 0 exch d} def /X { 0 d} def 
/K {{pop pop 0 moveto} exch kshow} bind def
/ita {/ang 15 def gsave [1 0 ang dup sin exch cos div 1 0 0] concat} def 
/mp {newpath /y exch def /x exch def} def
/side {[w .77 mul w .23 mul] .385 w mul sd w 0 l currentpoint t -144 r} def
/mr {mp x y w2 0 360 arc} def /m24 {mr s} def /m20 {mr f} def
/mb {mp x y w2 add m w2 neg 0 d 0 w neg d w 0 d 0 w d cl} def
/mt {mp x y w2 add m w2 neg w neg d w 0 d cl} def
/m21 {mb f} def /m25 {mb s} def /m22 {mt f} def /m26{mt s} def
/m23 {mp x y w2 sub m w2 w d w neg 0 d cl f} def
/m27 {mp x y w2 add m w3 neg w2 neg d w3 w2 neg d w3 w2 d cl s} def
/m28 {mp x w2 sub y w2 sub w3 add m w3 0 d  0 w3 neg d w3 0 d 0 w3 d w3 0 d  0 w3 d w3 neg 0 d 0 w3 d w3 neg 0 d 0 w3 neg d w3 neg 0 d cl s } def
/m29 {mp gsave x w2 sub y w2 add w3 sub m currentpoint t 4 {side} repeat cl fill gr} def
/m30 {mp gsave x w2 sub y w2 add w3 sub m currentpoint t 4 {side} repeat cl s gr} def
/m31 {mp x y w2 sub m 0 w d x w2 sub y m w 0 d x w2 sub y w2 add m w w neg d x w2 sub y w2 sub m w w d s} def
/m32 {mp x y w2 sub m w2 w d w neg 0 d cl s} def
/m33 {mp x y w2 add m w3 neg w2 neg d w3 w2 neg d w3 w2 d cl f} def
/m34 {mp x w2 sub y w2 sub w3 add m w3 0 d  0 w3 neg d w3 0 d 0 w3 d w3 0 d  0 w3 d w3 neg 0 d 0 w3 d w3 neg 0 d 0 w3 neg d w3 neg 0 d cl f } def
/m2 {mp x y w2 sub m 0 w d x w2 sub y m w 0 d s} def
/m5 {mp x w2 sub y w2 sub m w w d x w2 sub y w2 add m w w neg d s} def
/reEncode {exch findfont dup length dict begin {1 index /FID eq  {pop pop} {def} ifelse } forall /Encoding exch def currentdict end dup /FontName get exch definefont pop } def [/Times-Bold /Times-Italic /Times-BoldItalic /Helvetica /Helvetica-Oblique
 /Helvetica-Bold /Helvetica-BoldOblique /Courier /Courier-Oblique /Courier-Bold /Courier-BoldOblique /Times-Roman /AvantGarde-Book /AvantGarde-BookOblique /AvantGarde-Demi /AvantGarde-DemiOblique /Bookman-Demi /Bookman-DemiItalic /Bookman-Light
 /Bookman-LightItalic /Helvetica-Narrow /Helvetica-Narrow-Bold /Helvetica-Narrow-BoldOblique /Helvetica-Narrow-Oblique /NewCenturySchlbk-Roman /NewCenturySchlbk-Bold /NewCenturySchlbk-BoldItalic /NewCenturySchlbk-Italic /Palatino-Bold
 /Palatino-BoldItalic /Palatino-Italic /Palatino-Roman ] {ISOLatin1Encoding reEncode } forall
%%EndProlog
%%BeginSetup
%%EndSetup
newpath  gsave  .25 .25 scale  gsave  0 0 t black[  ] 0 sd 6 lw 1 1 1 c 2268 2234 0 0 bf black 3 lw 1 1 1 c 1882 1966 340 223 bf black 1882 1966 340 223 bl 1 1 1 c 1882 1966 340 223 bf black 1882 1966 340 223 bl 0 0 1 c 6 lw 1 1 1 c 0 0 1 c 406 1916
 m 13 Y s 406 1946 m 13 Y s 3 lw /w 19 def /w2 {w 2 div} def /w3 {w 3 div} def 406 1937 m21 6 lw 425 1681 m 8 Y s 425 1706 m 7 Y s 3 lw 425 1697 m21 6 lw 444 1626 m 4 Y s 444 1647 m 5 Y s 3 lw 444 1639 m21 6 lw 463 1538 m 3 Y s 463 1558 m 3 Y s 3 lw
 463 1550 m21 6 lw 481 1498 m 2 Y s 481 1517 m 1 Y s 3 lw 481 1508 m21 6 lw 500 1433 m 1 Y s 500 1451 m 1 Y s 3 lw 500 1442 m21 6 lw 519 1386 m s 519 1403 m s 3 lw 519 1395 m21 6 lw 3 lw 538 1357 m21 6 lw 3 lw 557 1328 m21 6 lw 3 lw 575 1284 m21 6 lw
 3 lw 594 1256 m21 6 lw 3 lw 613 1235 m21 6 lw 3 lw 632 1210 m21 6 lw 3 lw 651 1199 m21 6 lw 3 lw 670 1180 m21 6 lw 3 lw 688 1166 m21 6 lw 3 lw 707 1156 m21 6 lw 3 lw 726 1141 m21 6 lw 3 lw 745 1128 m21 6 lw 3 lw 764 1131 m21 6 lw 3 lw 782 1116 m21 6
 lw 3 lw 801 1103 m21 6 lw 3 lw 820 1095 m21 6 lw 3 lw 839 1091 m21 6 lw 3 lw 858 1085 m21 6 lw 3 lw 877 1074 m21 6 lw 3 lw 895 1074 m21 6 lw 3 lw 914 1060 m21 6 lw 3 lw 933 1068 m21 6 lw 3 lw 952 1051 m21 6 lw 3 lw 971 1055 m21 6 lw 3 lw 990 1046
 m21 6 lw 3 lw 1008 1042 m21 6 lw 3 lw 1027 1048 m21 6 lw 3 lw 1046 1055 m21 6 lw 3 lw 1065 1060 m21 6 lw 3 lw 1084 1046 m21 6 lw 3 lw 1102 1045 m21 6 lw 3 lw 1121 1054 m21 6 lw 3 lw 1140 1057 m21 6 lw 3 lw 1159 1058 m21 6 lw 3 lw 1178 1061 m21 6 lw
 3 lw 1197 1049 m21 6 lw 3 lw 1215 1059 m21 6 lw 3 lw 1234 1058 m21 6 lw 3 lw 1253 1063 m21 6 lw 3 lw 1272 1064 m21 6 lw 3 lw 1291 1061 m21 6 lw 3 lw 1309 1074 m21 6 lw 3 lw 1328 1061 m21 6 lw 3 lw 1347 1064 m21 6 lw 3 lw 1366 1077 m21 6 lw 3 lw 1385
 1085 m21 6 lw 3 lw 1404 1086 m21 6 lw 3 lw 1422 1087 m21 6 lw 3 lw 1441 1081 m21 6 lw 3 lw 1460 1092 m21 6 lw 3 lw 1479 1087 m21 6 lw 3 lw 1498 1094 m21 6 lw 3 lw 1517 1092 m21 6 lw 3 lw 1535 1088 m21 6 lw 3 lw 1554 1098 m21 6 lw 3 lw 1573 1094 m21
 6 lw 1592 1106 m 1 Y s 1592 1124 m s 3 lw 1592 1115 m21 6 lw 1611 1107 m 1 Y s 1611 1125 m s 3 lw 1611 1116 m21 6 lw 1629 1097 m 1 Y s 1629 1115 m 1 Y s 3 lw 1629 1107 m21 6 lw 1648 1101 m 1 Y s 1648 1119 m 1 Y s 3 lw 1648 1110 m21 6 lw 1667 1093 m
 1 Y s 1667 1111 m 1 Y s 3 lw 1667 1102 m21 6 lw 1686 1122 m 2 Y s 1686 1141 m 2 Y s 3 lw 1686 1133 m21 6 lw 1705 1120 m 2 Y s 1705 1139 m 2 Y s 3 lw 1705 1131 m21 6 lw 1724 1111 m 2 Y s 1724 1130 m 2 Y s 3 lw 1724 1122 m21 6 lw 1742 1120 m 3 Y s
 1742 1140 m 2 Y s 3 lw 1742 1131 m21 6 lw 1761 1129 m 3 Y s 1761 1149 m 3 Y s 3 lw 1761 1140 m21 6 lw 1780 1110 m 3 Y s 1780 1130 m 2 Y s 3 lw 1780 1121 m21 6 lw 1799 1131 m 3 Y s 1799 1151 m 4 Y s 3 lw 1799 1143 m21 6 lw 1818 1110 m 4 Y s 1818 1131
 m 4 Y s 3 lw 1818 1122 m21 6 lw 1837 1101 m 4 Y s 1837 1122 m 4 Y s 3 lw 1837 1113 m21 6 lw 1855 1102 m 4 Y s 1855 1123 m 4 Y s 3 lw 1855 1114 m21 6 lw 1874 1122 m 4 Y s 1874 1143 m 5 Y s 3 lw 1874 1135 m21 6 lw 1893 1109 m 5 Y s 1893 1131 m 5 Y s 3
 lw 1893 1123 m21 6 lw 1912 1139 m 5 Y s 1912 1161 m 5 Y s 3 lw 1912 1153 m21 6 lw 1931 1144 m 6 Y s 1931 1167 m 5 Y s 3 lw 1931 1158 m21 6 lw 1949 1150 m 6 Y s 1949 1173 m 6 Y s 3 lw 1949 1164 m21 6 lw 1968 1157 m 7 Y s 1968 1181 m 7 Y s 3 lw 1968
 1173 m21 6 lw 1987 1116 m 6 Y s 1987 1139 m 7 Y s 3 lw 1987 1131 m21 6 lw 2006 1134 m 7 Y s 2006 1158 m 8 Y s 3 lw 2006 1150 m21 6 lw 2025 1144 m 8 Y s 2025 1169 m 8 Y s 3 lw 2025 1160 m21 6 lw 2044 1109 m 8 Y s 2044 1134 m 8 Y s 3 lw 2044 1125 m21
 6 lw 2062 1131 m 8 Y s 2062 1156 m 9 Y s 3 lw 2062 1148 m21 6 lw 2081 1152 m 9 Y s 2081 1178 m 9 Y s 3 lw 2081 1170 m21 6 lw 2100 1131 m 9 Y s 2100 1158 m 9 Y s 3 lw 2100 1149 m21 6 lw 2119 1131 m 10 Y s 2119 1158 m 10 Y s 3 lw 2119 1149 m21 6 lw
 2138 1147 m 10 Y s 2138 1174 m 11 Y s 3 lw 2138 1166 m21 6 lw 2156 1147 m 11 Y s 2156 1175 m 11 Y s 3 lw 2156 1166 m21 6 lw 2175 1131 m 12 Y s 2175 1160 m 11 Y s 3 lw 2175 1151 m21 6 lw 2194 1118 m 12 Y s 2194 1147 m 11 Y s 3 lw 2194 1138 m21 6 lw
 2213 1140 m 12 Y s 2213 1170 m 12 Y s 3 lw 2213 1161 m21 6 lw black 340 223 m 1882 X s
 gsave  2268 2234 0 0 C 1923.86 58.2559 t 0 r /Helvetica findfont 83.8316 sf 0 0 m (Q [GeV]) show NC gr  340 279 m -56 Y s 387 251 m -28 Y s 434 251 m -28 Y s 481 251 m -28 Y s 528 279 m -56 Y s 575 251 m -28 Y s 622 251 m -28 Y s 670 251 m -28 Y s
 717 279 m -56 Y s 764 251 m -28 Y s 811 251 m -28 Y s 858 251 m -28 Y s 905 279 m -56 Y s 952 251 m -28 Y s 999 251 m -28 Y s 1046 251 m -28 Y s 1093 279 m -56 Y s 1140 251 m -28 Y s 1187 251 m -28 Y s 1234 251 m -28 Y s 1281 279 m -56 Y s 1328 251
 m -28 Y s 1375 251 m -28 Y s 1422 251 m -28 Y s 1469 279 m -56 Y s 1517 251 m -28 Y s 1564 251 m -28 Y s 1611 251 m -28 Y s 1658 279 m -56 Y s 1705 251 m -28 Y s 1752 251 m -28 Y s 1799 251 m -28 Y s 1846 279 m -56 Y s 1893 251 m -28 Y s 1940 251 m
 -28 Y s 1987 251 m -28 Y s 2034 279 m -56 Y s 2081 251 m -28 Y s 2128 251 m -28 Y s 2175 251 m -28 Y s 2222 279 m -56 Y s
 gsave  2268 2234 0 0 C 322.539 159.138 t 0 r /Helvetica findfont 62.5185 sf 0 0 m (0) show NC gr 
 gsave  2268 2234 0 0 C 484.518 159.138 t 0 r /Helvetica findfont 62.5185 sf 0 0 m (0.2) show NC gr 
 gsave  2268 2234 0 0 C 673.495 159.138 t 0 r /Helvetica findfont 62.5185 sf 0 0 m (0.4) show NC gr 
 gsave  2268 2234 0 0 C 861.05 159.138 t 0 r /Helvetica findfont 62.5185 sf 0 0 m (0.6) show NC gr 
 gsave  2268 2234 0 0 C 1050.03 159.138 t 0 r /Helvetica findfont 62.5185 sf 0 0 m (0.8) show NC gr 
 gsave  2268 2234 0 0 C 1268.84 159.138 t 0 r /Helvetica findfont 62.5185 sf 0 0 m (1) show NC gr 
 gsave  2268 2234 0 0 C 1426.56 159.138 t 0 r /Helvetica findfont 62.5185 sf 0 0 m (1.2) show NC gr 
 gsave  2268 2234 0 0 C 1614.11 159.138 t 0 r /Helvetica findfont 62.5185 sf 0 0 m (1.4) show NC gr 
 gsave  2268 2234 0 0 C 1803.09 159.138 t 0 r /Helvetica findfont 62.5185 sf 0 0 m (1.6) show NC gr 
 gsave  2268 2234 0 0 C 1990.65 159.138 t 0 r /Helvetica findfont 62.5185 sf 0 0 m (1.8) show NC gr 
 gsave  2268 2234 0 0 C 2205.2 159.138 t 0 r /Helvetica findfont 62.5185 sf 0 0 m (2) show NC gr  340 223 m 1966 Y s
 gsave  2268 2234 0 0 C 152.034 1953.7 t 90 r /Helvetica findfont 83.8316 sf 0 0 m (DR\(Q\)) show NC gr  400 402 m -60 X s 370 491 m -30 X s 370 581 m -30 X s 370 670 m -30 X s 400 759 m -60 X s 370 849 m -30 X s 370 938 m -30 X s 370 1027 m -30 X s
 400 1117 m -60 X s 370 1206 m -30 X s 370 1295 m -30 X s 370 1385 m -30 X s 400 1474 m -60 X s 370 1564 m -30 X s 370 1653 m -30 X s 370 1742 m -30 X s 400 1832 m -60 X s 370 1921 m -30 X s 370 2010 m -30 X s 370 2100 m -30 X s 400 2189 m -60 X s
 400 402 m -60 X s 370 313 m -30 X s 370 223 m -30 X s
 gsave  2268 2234 0 0 C 242.97 379.374 t 0 r /Helvetica findfont 62.5185 sf 0 0 m (0.6) show NC gr 
 gsave  2268 2234 0 0 C 242.97 737.434 t 0 r /Helvetica findfont 62.5185 sf 0 0 m (0.8) show NC gr 
 gsave  2268 2234 0 0 C 305.488 1092.65 t 0 r /Helvetica findfont 62.5185 sf 0 0 m (1) show NC gr 
 gsave  2268 2234 0 0 C 242.97 1450.71 t 0 r /Helvetica findfont 62.5185 sf 0 0 m (1.2) show NC gr 
 gsave  2268 2234 0 0 C 242.97 1808.77 t 0 r /Helvetica findfont 62.5185 sf 0 0 m (1.4) show NC gr 
 gsave  2268 2234 0 0 C 242.97 2166.83 t 0 r /Helvetica findfont 62.5185 sf 0 0 m (1.6) show NC gr  1 0 0 c 1 1 1 c 1 0 0 c 406 1894 m 30 Y s 406 1941 m 30 Y s 3 lw 406 1933 m21 6 lw 425 1764 m 20 Y s 425 1801 m 20 Y s 3 lw 425 1793 m21 6 lw 444 1676
 m 14 Y s 444 1707 m 15 Y s 3 lw 444 1699 m21 6 lw 463 1584 m 11 Y s 463 1612 m 10 Y s 3 lw 463 1603 m21 6 lw 481 1497 m 8 Y s 481 1522 m 8 Y s 3 lw 481 1513 m21 6 lw 500 1456 m 6 Y s 500 1479 m 6 Y s 3 lw 500 1470 m21 6 lw 519 1397 m 5 Y s 519 1419
 m 4 Y s 3 lw 519 1410 m21 6 lw 538 1341 m 4 Y s 538 1362 m 3 Y s 3 lw 538 1353 m21 6 lw 557 1305 m 3 Y s 557 1325 m 3 Y s 3 lw 557 1316 m21 6 lw 575 1292 m 2 Y s 575 1311 m 2 Y s 3 lw 575 1302 m21 6 lw 594 1235 m 1 Y s 594 1253 m 2 Y s 3 lw 594 1245
 m21 6 lw 613 1225 m 1 Y s 613 1243 m 2 Y s 3 lw 613 1235 m21 6 lw 632 1210 m 1 Y s 632 1228 m 1 Y s 3 lw 632 1219 m21 6 lw 651 1193 m 1 Y s 651 1211 m s 3 lw 651 1202 m21 6 lw 670 1182 m s 670 1199 m s 3 lw 670 1190 m21 6 lw 688 1168 m s 688 1185 m
 s 3 lw 688 1177 m21 6 lw 3 lw 707 1147 m21 6 lw 3 lw 726 1136 m21 6 lw 3 lw 745 1121 m21 6 lw 3 lw 764 1110 m21 6 lw 3 lw 782 1110 m21 6 lw 3 lw 801 1100 m21 6 lw 3 lw 820 1106 m21 6 lw 3 lw 839 1089 m21 6 lw 3 lw 858 1086 m21 6 lw 3 lw 877 1077 m21
 6 lw 3 lw 895 1068 m21 6 lw 3 lw 914 1071 m21 6 lw 3 lw 933 1061 m21 6 lw 3 lw 952 1072 m21 6 lw 3 lw 971 1047 m21 6 lw 3 lw 990 1050 m21 6 lw 3 lw 1008 1033 m21 6 lw 3 lw 1027 1042 m21 6 lw 3 lw 1046 1044 m21 6 lw 3 lw 1065 1050 m21 6 lw 3 lw 1084
 1049 m21 6 lw 3 lw 1102 1055 m21 6 lw 3 lw 1121 1062 m21 6 lw 3 lw 1140 1046 m21 6 lw 3 lw 1159 1042 m21 6 lw 3 lw 1178 1054 m21 6 lw 3 lw 1197 1056 m21 6 lw 3 lw 1215 1059 m21 6 lw 3 lw 1234 1066 m21 6 lw 3 lw 1253 1060 m21 6 lw 3 lw 1272 1070 m21
 6 lw 3 lw 1291 1059 m21 6 lw 3 lw 1309 1066 m21 6 lw 3 lw 1328 1070 m21 6 lw 3 lw 1347 1065 m21 6 lw 3 lw 1366 1081 m21 6 lw 1385 1078 m s 1385 1095 m s 3 lw 1385 1086 m21 6 lw 1404 1073 m 1 Y s 1404 1091 m s 3 lw 1404 1082 m21 6 lw 1422 1070 m s
 1422 1088 m s 3 lw 1422 1079 m21 6 lw 1441 1086 m s 1441 1103 m 1 Y s 3 lw 1441 1095 m21 6 lw 1460 1098 m 1 Y s 1460 1116 m s 3 lw 1460 1107 m21 6 lw 1479 1100 m 1 Y s 1479 1118 m s 3 lw 1479 1109 m21 6 lw 1498 1095 m 1 Y s 1498 1113 m 1 Y s 3 lw
 1498 1104 m21 6 lw 1517 1102 m 1 Y s 1517 1120 m 1 Y s 3 lw 1517 1112 m21 6 lw 1535 1101 m 1 Y s 1535 1119 m 1 Y s 3 lw 1535 1111 m21 6 lw 1554 1089 m 1 Y s 1554 1108 m 1 Y s 3 lw 1554 1099 m21 6 lw 1573 1102 m 1 Y s 1573 1120 m 2 Y s 3 lw 1573 1112
 m21 6 lw 1592 1110 m 1 Y s 1592 1128 m 1 Y s 3 lw 1592 1120 m21 6 lw 1611 1112 m 2 Y s 1611 1131 m 1 Y s 3 lw 1611 1122 m21 6 lw 1629 1112 m 2 Y s 1629 1131 m 1 Y s 3 lw 1629 1122 m21 6 lw 1648 1118 m 2 Y s 1648 1137 m 2 Y s 3 lw 1648 1129 m21 6 lw
 1667 1131 m 2 Y s 1667 1150 m 2 Y s 3 lw 1667 1141 m21 6 lw 1686 1125 m 2 Y s 1686 1144 m 2 Y s 3 lw 1686 1136 m21 6 lw 1705 1142 m 3 Y s 1705 1162 m 2 Y s 3 lw 1705 1153 m21 6 lw 1724 1111 m 3 Y s 1724 1131 m 2 Y s 3 lw 1724 1122 m21 6 lw 1742 1133
 m 3 Y s 1742 1153 m 3 Y s 3 lw 1742 1145 m21 6 lw 1761 1136 m 2 Y s 1761 1155 m 3 Y s 3 lw 1761 1147 m21 6 lw 1780 1147 m 3 Y s 1780 1167 m 4 Y s 3 lw 1780 1159 m21 6 lw 1799 1164 m 4 Y s 1799 1185 m 3 Y s 3 lw 1799 1176 m21 6 lw 1818 1138 m 4 Y s
 1818 1159 m 3 Y s 3 lw 1818 1150 m21 6 lw 1837 1153 m 3 Y s 1837 1173 m 4 Y s 3 lw 1837 1165 m21 6 lw 1855 1147 m 4 Y s 1855 1168 m 4 Y s 3 lw 1855 1159 m21 6 lw 1874 1167 m 4 Y s 1874 1189 m 4 Y s 3 lw 1874 1180 m21 6 lw 1893 1148 m 4 Y s 1893 1169
 m 5 Y s 3 lw 1893 1161 m21 6 lw 1912 1157 m 5 Y s 1912 1179 m 4 Y s 3 lw 1912 1170 m21 6 lw 1931 1166 m 5 Y s 1931 1188 m 5 Y s 3 lw 1931 1179 m21 6 lw 1949 1156 m 5 Y s 1949 1178 m 5 Y s 3 lw 1949 1170 m21 6 lw 1968 1151 m 5 Y s 1968 1173 m 5 Y s 3
 lw 1968 1165 m21 6 lw 1987 1189 m 6 Y s 1987 1212 m 6 Y s 3 lw 1987 1204 m21 6 lw 2006 1153 m 6 Y s 2006 1176 m 6 Y s 3 lw 2006 1168 m21 6 lw 2025 1183 m 6 Y s 2025 1206 m 6 Y s 3 lw 2025 1198 m21 6 lw 2044 1195 m 6 Y s 2044 1218 m 7 Y s 3 lw 2044
 1210 m21 6 lw 2062 1169 m 7 Y s 2062 1193 m 6 Y s 3 lw 2062 1184 m21 6 lw 2081 1184 m 7 Y s 2081 1208 m 7 Y s 3 lw 2081 1199 m21 6 lw 2100 1168 m 7 Y s 2100 1192 m 7 Y s 3 lw 2100 1183 m21 6 lw 2119 1193 m 7 Y s 2119 1217 m 8 Y s 3 lw 2119 1209 m21
 6 lw 2138 1147 m 7 Y s 2138 1171 m 7 Y s 3 lw 2138 1163 m21 6 lw 2156 1146 m 7 Y s 2156 1170 m 8 Y s 3 lw 2156 1162 m21 6 lw 2175 1166 m 8 Y s 2175 1191 m 8 Y s 3 lw 2175 1183 m21 6 lw 2194 1150 m 9 Y s 2194 1176 m 8 Y s 3 lw 2194 1167 m21 6 lw 2213
 1201 m 9 Y s 2213 1227 m 9 Y s 3 lw 2213 1219 m21 6 lw black 1 1 1 c 680 447 1474 1675 bf black 1474 1675 m 680 X s 2154 1675 m 447 Y s 2154 2122 m -680 X s 1474 2122 m -447 Y s
 gsave  2268 2234 0 0 C 1490.5 2027.59 t 0 r /Helvetica findfont 53.9932 sf 0 0 m (kT \255 vector sum) show NC gr 
 gsave  2268 2234 0 0 C 1643.95 1879.82 t 0 r /Helvetica findfont 53.9932 sf 0 0 m (bin1) show NC gr  0 0 1 c 1559 1854 m 89 Y s 3 lw 1559 1899 m21 6 lw black
 gsave  2268 2234 0 0 C 1643.95 1730.63 t 0 r /Helvetica findfont 53.9932 sf 0 0 m (bin2) show NC gr  1 0 0 c 1559 1705 m 89 Y s 3 lw 1559 1750 m21 6 lw black
 gsave  2268 2234 0 0 C 906.518 670.653 t 0 r /Helvetica-Bold findfont 72.4646 sf 0 0 m (DR PIONS) show NC gr 
 gsave  2268 2234 0 0 C 906.518 558.404 t 0 r /Helvetica-Bold findfont 72.4646 sf 0 0 m (ref. sample: EVENT MIX) show NC gr 
 gsave  2268 2234 0 0 C 906.518 447.576 t 0 r /Helvetica-Bold findfont 72.4646 sf 0 0 m (VELO tracks multiplicity: 2 \255 10) show NC gr 
 gr  gr showpage
end
%%EOF
