%!PS-Adobe-2.0 EPSF-2.0
%%BoundingBox:  0 0 567 558
%%Title: ./DR_pion_0c65_h3001_3_h3401_3.eps: DR_pion_0c65_h3001_3_h3401_3
%%Creator: ROOT Version 6.06/02
%%CreationDate: Wed Dec  7 17:33:35 2016
%%DocumentNeededResources: ProcSet (FontSetInit)
%%EndComments
%%BeginProlog
80 dict begin
/s {stroke} def /l {lineto} def /m {moveto} def /t {translate} def
/r {rotate} def /rl {roll}  def /R {repeat} def
/d {rlineto} def /rm {rmoveto} def /gr {grestore} def /f {eofill} def
/c {setrgbcolor} def /black {0 setgray} def /sd {setdash} def
/cl {closepath} def /sf {scalefont setfont} def /lw {setlinewidth} def
/box {m dup 0 exch d exch 0 d 0 exch neg d cl} def
/NC{systemdict begin initclip end}def/C{NC box clip newpath}def
/bl {box s} def /bf {gsave box gsave f grestore 1 lw [] 0 sd s grestore} def /Y { 0 exch d} def /X { 0 d} def 
/K {{pop pop 0 moveto} exch kshow} bind def
/ita {/ang 15 def gsave [1 0 ang dup sin exch cos div 1 0 0] concat} def 
/mp {newpath /y exch def /x exch def} def
/side {[w .77 mul w .23 mul] .385 w mul sd w 0 l currentpoint t -144 r} def
/mr {mp x y w2 0 360 arc} def /m24 {mr s} def /m20 {mr f} def
/mb {mp x y w2 add m w2 neg 0 d 0 w neg d w 0 d 0 w d cl} def
/mt {mp x y w2 add m w2 neg w neg d w 0 d cl} def
/m21 {mb f} def /m25 {mb s} def /m22 {mt f} def /m26{mt s} def
/m23 {mp x y w2 sub m w2 w d w neg 0 d cl f} def
/m27 {mp x y w2 add m w3 neg w2 neg d w3 w2 neg d w3 w2 d cl s} def
/m28 {mp x w2 sub y w2 sub w3 add m w3 0 d  0 w3 neg d w3 0 d 0 w3 d w3 0 d  0 w3 d w3 neg 0 d 0 w3 d w3 neg 0 d 0 w3 neg d w3 neg 0 d cl s } def
/m29 {mp gsave x w2 sub y w2 add w3 sub m currentpoint t 4 {side} repeat cl fill gr} def
/m30 {mp gsave x w2 sub y w2 add w3 sub m currentpoint t 4 {side} repeat cl s gr} def
/m31 {mp x y w2 sub m 0 w d x w2 sub y m w 0 d x w2 sub y w2 add m w w neg d x w2 sub y w2 sub m w w d s} def
/m32 {mp x y w2 sub m w2 w d w neg 0 d cl s} def
/m33 {mp x y w2 add m w3 neg w2 neg d w3 w2 neg d w3 w2 d cl f} def
/m34 {mp x w2 sub y w2 sub w3 add m w3 0 d  0 w3 neg d w3 0 d 0 w3 d w3 0 d  0 w3 d w3 neg 0 d 0 w3 d w3 neg 0 d 0 w3 neg d w3 neg 0 d cl f } def
/m2 {mp x y w2 sub m 0 w d x w2 sub y m w 0 d s} def
/m5 {mp x w2 sub y w2 sub m w w d x w2 sub y w2 add m w w neg d s} def
%%IncludeResource: ProcSet (FontSetInit)
%%IncludeResource: font Times-Roman
%%IncludeResource: font Times-Italic
%%IncludeResource: font Times-Bold
%%IncludeResource: font Times-BoldItalic
%%IncludeResource: font Helvetica
%%IncludeResource: font Helvetica-Oblique
%%IncludeResource: font Helvetica-Bold
%%IncludeResource: font Helvetica-BoldOblique
%%IncludeResource: font Courier
%%IncludeResource: font Courier-Oblique
%%IncludeResource: font Courier-Bold
%%IncludeResource: font Courier-BoldOblique
%%IncludeResource: font Symbol
%%IncludeResource: font ZapfDingbats
/reEncode {exch findfont dup length dict begin {1 index /FID eq  {pop pop} {def} ifelse } forall /Encoding exch def currentdict end dup /FontName get exch definefont pop } def [/Times-Bold /Times-Italic /Times-BoldItalic /Helvetica /Helvetica-Oblique
 /Helvetica-Bold /Helvetica-BoldOblique /Courier /Courier-Oblique /Courier-Bold /Courier-BoldOblique /Times-Roman /AvantGarde-Book /AvantGarde-BookOblique /AvantGarde-Demi /AvantGarde-DemiOblique /Bookman-Demi /Bookman-DemiItalic /Bookman-Light
 /Bookman-LightItalic /Helvetica-Narrow /Helvetica-Narrow-Bold /Helvetica-Narrow-BoldOblique /Helvetica-Narrow-Oblique /NewCenturySchlbk-Roman /NewCenturySchlbk-Bold /NewCenturySchlbk-BoldItalic /NewCenturySchlbk-Italic /Palatino-Bold
 /Palatino-BoldItalic /Palatino-Italic /Palatino-Roman ] {ISOLatin1Encoding reEncode } forall
%%EndProlog
%%BeginSetup
%%EndSetup
newpath  gsave  .25 .25 scale  gsave  0 0 t black[  ] 0 sd 6 lw 1 1 1 c 2268 2234 0 0 bf black 3 lw 1 1 1 c 1882 1966 340 223 bf black 1882 1966 340 223 bl 1 1 1 c 1882 1966 340 223 bf black 1882 1966 340 223 bl 0 0 1 c 6 lw 1 1 1 c 0 0 1 c 390 1667
 m 35 Y s 390 1713 m 35 Y s 3 lw /w 14 def /w2 {w 2 div} def /w3 {w 3 div} def 390 1708 m21 6 lw 394 1615 m 31 Y s 394 1657 m 31 Y s 3 lw 394 1652 m21 6 lw 399 1567 m 27 Y s 399 1605 m 28 Y s 3 lw 399 1600 m21 6 lw 404 1534 m 25 Y s 404 1570 m 25 Y s
 3 lw 404 1565 m21 6 lw 408 1499 m 22 Y s 408 1532 m 23 Y s 3 lw 408 1527 m21 6 lw 413 1469 m 20 Y s 413 1501 m 20 Y s 3 lw 413 1495 m21 6 lw 418 1467 m 19 Y s 418 1498 m 19 Y s 3 lw 418 1492 m21 6 lw 423 1430 m 18 Y s 423 1459 m 18 Y s 3 lw 423 1453
 m21 6 lw 427 1427 m 17 Y s 427 1455 m 17 Y s 3 lw 427 1449 m21 6 lw 432 1433 m 16 Y s 432 1460 m 16 Y s 3 lw 432 1454 m21 6 lw 437 1392 m 14 Y s 437 1418 m 14 Y s 3 lw 437 1412 m21 6 lw 441 1373 m 14 Y s 441 1398 m 14 Y s 3 lw 441 1393 m21 6 lw 446
 1389 m 13 Y s 446 1413 m 13 Y s 3 lw 446 1408 m21 6 lw 451 1312 m 12 Y s 451 1335 m 12 Y s 3 lw 451 1329 m21 6 lw 455 1320 m 12 Y s 455 1343 m 12 Y s 3 lw 455 1337 m21 6 lw 460 1344 m 11 Y s 460 1367 m 11 Y s 3 lw 460 1361 m21 6 lw 465 1278 m 10 Y s
 465 1300 m 10 Y s 3 lw 465 1294 m21 6 lw 470 1289 m 10 Y s 470 1310 m 11 Y s 3 lw 470 1305 m21 6 lw 474 1262 m 9 Y s 474 1283 m 9 Y s 3 lw 474 1277 m21 6 lw 479 1290 m 9 Y s 479 1311 m 9 Y s 3 lw 479 1305 m21 6 lw 484 1256 m 9 Y s 484 1276 m 9 Y s 3
 lw 484 1270 m21 6 lw 488 1249 m 9 Y s 488 1269 m 9 Y s 3 lw 488 1264 m21 6 lw 493 1223 m 9 Y s 493 1243 m 8 Y s 3 lw 493 1237 m21 6 lw 498 1219 m 8 Y s 498 1238 m 8 Y s 3 lw 498 1233 m21 6 lw 502 1208 m 7 Y s 502 1227 m 7 Y s 3 lw 502 1221 m21 6 lw
 507 1198 m 7 Y s 507 1216 m 8 Y s 3 lw 507 1211 m21 6 lw 512 1227 m 7 Y s 512 1245 m 8 Y s 3 lw 512 1240 m21 6 lw 517 1195 m 7 Y s 517 1213 m 7 Y s 3 lw 517 1207 m21 6 lw 521 1204 m 6 Y s 521 1222 m 7 Y s 3 lw 521 1216 m21 6 lw 526 1182 m 6 Y s 526
 1199 m 7 Y s 3 lw 526 1194 m21 6 lw 531 1186 m 6 Y s 531 1204 m 6 Y s 3 lw 531 1198 m21 6 lw 535 1205 m 6 Y s 535 1222 m 7 Y s 3 lw 535 1217 m21 6 lw 540 1159 m 6 Y s 540 1176 m 6 Y s 3 lw 540 1171 m21 6 lw 545 1192 m 6 Y s 545 1209 m 7 Y s 3 lw 545
 1204 m21 6 lw 550 1195 m 6 Y s 550 1212 m 6 Y s 3 lw 550 1206 m21 6 lw 554 1165 m 5 Y s 554 1182 m 5 Y s 3 lw 554 1176 m21 6 lw 559 1153 m 6 Y s 559 1170 m 6 Y s 3 lw 559 1164 m21 6 lw 564 1140 m 5 Y s 564 1157 m 5 Y s 3 lw 564 1151 m21 6 lw 568
 1163 m 5 Y s 568 1180 m 5 Y s 3 lw 568 1174 m21 6 lw 573 1155 m 5 Y s 573 1172 m 5 Y s 3 lw 573 1166 m21 6 lw 578 1168 m 6 Y s 578 1185 m 5 Y s 3 lw 578 1179 m21 6 lw 582 1141 m 5 Y s 582 1157 m 5 Y s 3 lw 582 1151 m21 6 lw 587 1148 m 5 Y s 587 1164
 m 5 Y s 3 lw 587 1159 m21 6 lw 592 1139 m 5 Y s 592 1155 m 5 Y s 3 lw 592 1150 m21 6 lw 597 1121 m 4 Y s 597 1137 m 4 Y s 3 lw 597 1131 m21 6 lw 601 1133 m 5 Y s 601 1149 m 5 Y s 3 lw 601 1144 m21 6 lw 606 1151 m 4 Y s 606 1167 m 4 Y s 3 lw 606 1161
 m21 6 lw 611 1140 m 5 Y s 611 1156 m 5 Y s 3 lw 611 1151 m21 6 lw 615 1142 m 4 Y s 615 1157 m 5 Y s 3 lw 615 1152 m21 6 lw 620 1128 m 5 Y s 620 1144 m 4 Y s 3 lw 620 1138 m21 6 lw 625 1134 m 5 Y s 625 1150 m 4 Y s 3 lw 625 1144 m21 6 lw 630 1141 m 4
 Y s 630 1156 m 4 Y s 3 lw 630 1150 m21 6 lw 634 1115 m 4 Y s 634 1130 m 4 Y s 3 lw 634 1124 m21 6 lw 639 1105 m 4 Y s 639 1121 m 4 Y s 3 lw 639 1115 m21 6 lw 644 1132 m 4 Y s 644 1147 m 4 Y s 3 lw 644 1141 m21 6 lw 648 1126 m 4 Y s 648 1141 m 4 Y s
 3 lw 648 1135 m21 6 lw 653 1112 m 4 Y s 653 1127 m 4 Y s 3 lw 653 1122 m21 6 lw 658 1125 m 4 Y s 658 1140 m 4 Y s 3 lw 658 1134 m21 6 lw 662 1112 m 3 Y s 662 1127 m 3 Y s 3 lw 662 1121 m21 6 lw 667 1101 m 4 Y s 667 1116 m 4 Y s 3 lw 667 1111 m21 6
 lw 672 1114 m 3 Y s 672 1129 m 3 Y s 3 lw 672 1123 m21 6 lw 677 1111 m 4 Y s 677 1126 m 3 Y s 3 lw 677 1120 m21 6 lw 681 1125 m 3 Y s 681 1140 m 3 Y s 3 lw 681 1134 m21 6 lw 686 1102 m 3 Y s 686 1117 m 3 Y s 3 lw 686 1111 m21 6 lw 691 1106 m 3 Y s
 691 1120 m 4 Y s 3 lw 691 1115 m21 6 lw 695 1113 m 3 Y s 695 1127 m 4 Y s 3 lw 695 1122 m21 6 lw 700 1106 m 4 Y s 700 1121 m 3 Y s 3 lw 700 1115 m21 6 lw 705 1098 m 3 Y s 705 1112 m 3 Y s 3 lw 705 1107 m21 6 lw 710 1091 m 3 Y s 710 1106 m 3 Y s 3 lw
 710 1100 m21 6 lw 714 1087 m 3 Y s 714 1101 m 3 Y s 3 lw 714 1095 m21 6 lw 719 1088 m 3 Y s 719 1102 m 3 Y s 3 lw 719 1096 m21 6 lw 724 1088 m 3 Y s 724 1103 m 2 Y s 3 lw 724 1097 m21 6 lw 728 1110 m 3 Y s 728 1124 m 3 Y s 3 lw 728 1119 m21 6 lw 733
 1095 m 3 Y s 733 1109 m 3 Y s 3 lw 733 1103 m21 6 lw 738 1103 m 3 Y s 738 1117 m 3 Y s 3 lw 738 1112 m21 6 lw 742 1093 m 3 Y s 742 1107 m 3 Y s 3 lw 742 1102 m21 6 lw 747 1101 m 3 Y s 747 1115 m 3 Y s 3 lw 747 1110 m21 6 lw 752 1112 m 2 Y s 752 1126
 m 3 Y s 3 lw 752 1120 m21 6 lw 757 1097 m 3 Y s 757 1111 m 3 Y s 3 lw 757 1105 m21 6 lw 761 1108 m 2 Y s 761 1122 m 2 Y s 3 lw 761 1116 m21 6 lw 766 1100 m 2 Y s 766 1114 m 2 Y s 3 lw 766 1108 m21 6 lw 771 1098 m 3 Y s 771 1112 m 3 Y s 3 lw 771 1106
 m21 6 lw 775 1089 m 3 Y s 775 1103 m 3 Y s 3 lw 775 1097 m21 6 lw 780 1098 m 3 Y s 780 1112 m 2 Y s 3 lw 780 1106 m21 6 lw 785 1088 m 2 Y s 785 1102 m 2 Y s 3 lw 785 1096 m21 6 lw 790 1090 m 3 Y s 790 1104 m 2 Y s 3 lw 790 1098 m21 6 lw 794 1089 m 3
 Y s 794 1103 m 3 Y s 3 lw 794 1098 m21 6 lw 799 1092 m 2 Y s 799 1106 m 2 Y s 3 lw 799 1100 m21 6 lw 804 1083 m 2 Y s 804 1097 m 2 Y s 3 lw 804 1091 m21 6 lw 808 1096 m 2 Y s 808 1109 m 3 Y s 3 lw 808 1104 m21 6 lw 813 1099 m 3 Y s 813 1113 m 2 Y s
 3 lw 813 1107 m21 6 lw 818 1092 m 3 Y s 818 1106 m 2 Y s 3 lw 818 1100 m21 6 lw 822 1090 m 2 Y s 822 1104 m 2 Y s 3 lw 822 1098 m21 6 lw 827 1096 m 2 Y s 827 1109 m 3 Y s 3 lw 827 1104 m21 6 lw 832 1077 m 2 Y s 832 1091 m 2 Y s 3 lw 832 1085 m21 6
 lw 837 1086 m 2 Y s 837 1099 m 2 Y s 3 lw 837 1093 m21 6 lw 841 1096 m 2 Y s 841 1109 m 2 Y s 3 lw 841 1104 m21 6 lw 846 1096 m 2 Y s 846 1110 m 2 Y s 3 lw 846 1104 m21 6 lw 851 1091 m 2 Y s 851 1105 m 2 Y s 3 lw 851 1099 m21 6 lw 855 1078 m 2 Y s
 855 1092 m 2 Y s 3 lw 855 1086 m21 6 lw 860 1095 m 2 Y s 860 1109 m 2 Y s 3 lw 860 1103 m21 6 lw 865 1076 m 2 Y s 865 1089 m 2 Y s 3 lw 865 1084 m21 6 lw 870 1083 m 2 Y s 870 1096 m 2 Y s 3 lw 870 1091 m21 6 lw 874 1071 m 2 Y s 874 1085 m 2 Y s 3 lw
 874 1079 m21 6 lw 879 1077 m 2 Y s 879 1090 m 2 Y s 3 lw 879 1084 m21 6 lw 884 1070 m 2 Y s 884 1083 m 2 Y s 3 lw 884 1078 m21 6 lw 888 1076 m 2 Y s 888 1090 m 2 Y s 3 lw 888 1084 m21 6 lw 893 1089 m 2 Y s 893 1103 m 2 Y s 3 lw 893 1097 m21 6 lw 898
 1080 m 2 Y s 898 1093 m 2 Y s 3 lw 898 1087 m21 6 lw 902 1088 m 3 Y s 902 1102 m 2 Y s 3 lw 902 1096 m21 6 lw 907 1071 m 2 Y s 907 1084 m 2 Y s 3 lw 907 1079 m21 6 lw 912 1082 m 2 Y s 912 1096 m 2 Y s 3 lw 912 1090 m21 6 lw 917 1081 m 2 Y s 917 1095
 m 2 Y s 3 lw 917 1089 m21 6 lw 921 1070 m 2 Y s 921 1083 m 2 Y s 3 lw 921 1077 m21 6 lw 926 1094 m 2 Y s 926 1108 m 2 Y s 3 lw 926 1102 m21 6 lw 931 1077 m 2 Y s 931 1091 m 2 Y s 3 lw 931 1085 m21 6 lw 935 1089 m 2 Y s 935 1102 m 3 Y s 3 lw 935 1097
 m21 6 lw 940 1077 m 2 Y s 940 1090 m 2 Y s 3 lw 940 1085 m21 6 lw 945 1076 m 2 Y s 945 1090 m 2 Y s 3 lw 945 1084 m21 6 lw 950 1077 m 2 Y s 950 1090 m 3 Y s 3 lw 950 1085 m21 6 lw 954 1070 m 3 Y s 954 1084 m 2 Y s 3 lw 954 1078 m21 6 lw 959 1071 m 2
 Y s 959 1084 m 2 Y s 3 lw 959 1078 m21 6 lw 964 1076 m 2 Y s 964 1089 m 3 Y s 3 lw 964 1084 m21 6 lw 968 1071 m 2 Y s 968 1085 m 2 Y s 3 lw 968 1079 m21 6 lw 973 1095 m 2 Y s 973 1109 m 2 Y s 3 lw 973 1103 m21 6 lw 978 1080 m 3 Y s 978 1094 m 3 Y s
 3 lw 978 1089 m21 6 lw 982 1086 m 3 Y s 982 1100 m 2 Y s 3 lw 982 1094 m21 6 lw 987 1076 m 3 Y s 987 1090 m 2 Y s 3 lw 987 1084 m21 6 lw 992 1079 m 3 Y s 992 1093 m 3 Y s 3 lw 992 1088 m21 6 lw 997 1070 m 2 Y s 997 1083 m 3 Y s 3 lw 997 1078 m21 6
 lw 1001 1068 m 2 Y s 1001 1082 m 2 Y s 3 lw 1001 1076 m21 6 lw 1006 1073 m 3 Y s 1006 1087 m 3 Y s 3 lw 1006 1081 m21 6 lw 1011 1079 m 3 Y s 1011 1093 m 3 Y s 3 lw 1011 1088 m21 6 lw 1015 1086 m 3 Y s 1015 1100 m 3 Y s 3 lw 1015 1094 m21 6 lw 1020
 1085 m 3 Y s 1020 1099 m 3 Y s 3 lw 1020 1093 m21 6 lw 1025 1093 m 3 Y s 1025 1107 m 3 Y s 3 lw 1025 1102 m21 6 lw 1030 1063 m 3 Y s 1030 1077 m 3 Y s 3 lw 1030 1071 m21 6 lw 1034 1084 m 2 Y s 1034 1098 m 3 Y s 3 lw 1034 1092 m21 6 lw 1039 1064 m 3
 Y s 1039 1078 m 3 Y s 3 lw 1039 1073 m21 6 lw 1044 1070 m 3 Y s 1044 1084 m 3 Y s 3 lw 1044 1079 m21 6 lw 1048 1062 m 3 Y s 1048 1077 m 2 Y s 3 lw 1048 1071 m21 6 lw 1053 1068 m 3 Y s 1053 1082 m 3 Y s 3 lw 1053 1076 m21 6 lw 1058 1055 m 3 Y s 1058
 1070 m 3 Y s 3 lw 1058 1064 m21 6 lw 1062 1080 m 3 Y s 1062 1094 m 4 Y s 3 lw 1062 1089 m21 6 lw 1067 1092 m 4 Y s 1067 1107 m 3 Y s 3 lw 1067 1101 m21 6 lw 1072 1079 m 3 Y s 1072 1093 m 4 Y s 3 lw 1072 1088 m21 6 lw 1077 1093 m 3 Y s 1077 1108 m 3
 Y s 3 lw 1077 1102 m21 6 lw 1081 1077 m 4 Y s 1081 1092 m 4 Y s 3 lw 1081 1086 m21 6 lw 1086 1072 m 4 Y s 1086 1087 m 4 Y s 3 lw 1086 1082 m21 6 lw 1091 1082 m 4 Y s 1091 1097 m 4 Y s 3 lw 1091 1091 m21 6 lw 1095 1096 m 4 Y s 1095 1112 m 3 Y s 3 lw
 1095 1106 m21 6 lw 1100 1076 m 3 Y s 1100 1091 m 4 Y s 3 lw 1100 1085 m21 6 lw 1105 1069 m 4 Y s 1105 1084 m 4 Y s 3 lw 1105 1078 m21 6 lw 1110 1092 m 5 Y s 1110 1108 m 4 Y s 3 lw 1110 1102 m21 6 lw 1114 1099 m 4 Y s 1114 1115 m 4 Y s 3 lw 1114 1109
 m21 6 lw 1119 1076 m 4 Y s 1119 1091 m 5 Y s 3 lw 1119 1086 m21 6 lw 1124 1103 m 5 Y s 1124 1119 m 5 Y s 3 lw 1124 1113 m21 6 lw 1128 1081 m 4 Y s 1128 1097 m 4 Y s 3 lw 1128 1091 m21 6 lw 1133 1077 m 4 Y s 1133 1093 m 5 Y s 3 lw 1133 1087 m21 6 lw
 1138 1093 m 5 Y s 1138 1109 m 5 Y s 3 lw 1138 1103 m21 6 lw 1142 1079 m 5 Y s 1142 1096 m 5 Y s 3 lw 1142 1090 m21 6 lw 1147 1118 m 6 Y s 1147 1135 m 6 Y s 3 lw 1147 1129 m21 6 lw 1152 1088 m 6 Y s 1152 1105 m 5 Y s 3 lw 1152 1099 m21 6 lw 1157 1092
 m 5 Y s 1157 1109 m 6 Y s 3 lw 1157 1103 m21 6 lw 1161 1087 m 6 Y s 1161 1104 m 6 Y s 3 lw 1161 1098 m21 6 lw 1166 1079 m 6 Y s 1166 1097 m 6 Y s 3 lw 1166 1091 m21 6 lw 1171 1084 m 6 Y s 1171 1102 m 6 Y s 3 lw 1171 1096 m21 6 lw 1175 1087 m 7 Y s
 1175 1105 m 7 Y s 3 lw 1175 1099 m21 6 lw 1180 1080 m 7 Y s 1180 1098 m 7 Y s 3 lw 1180 1093 m21 6 lw 1185 1087 m 8 Y s 1185 1106 m 7 Y s 3 lw 1185 1100 m21 6 lw 1190 1064 m 8 Y s 1190 1083 m 8 Y s 3 lw 1190 1077 m21 6 lw 1194 1108 m 9 Y s 1194 1128
 m 8 Y s 3 lw 1194 1122 m21 6 lw 1199 1102 m 8 Y s 1199 1122 m 8 Y s 3 lw 1199 1116 m21 6 lw 1204 1075 m 8 Y s 1204 1095 m 8 Y s 3 lw 1204 1089 m21 6 lw 1208 1093 m 9 Y s 1208 1113 m 9 Y s 3 lw 1208 1107 m21 6 lw 1213 1055 m 9 Y s 1213 1075 m 9 Y s 3
 lw 1213 1070 m21 6 lw 1218 1079 m 9 Y s 1218 1100 m 9 Y s 3 lw 1218 1094 m21 6 lw 1222 1086 m 10 Y s 1222 1107 m 10 Y s 3 lw 1222 1101 m21 6 lw 1227 1071 m 9 Y s 1227 1092 m 10 Y s 3 lw 1227 1086 m21 6 lw 1232 1076 m 10 Y s 1232 1097 m 10 Y s 3 lw
 1232 1091 m21 6 lw 1237 1083 m 10 Y s 1237 1105 m 10 Y s 3 lw 1237 1099 m21 6 lw 1241 1078 m 11 Y s 1241 1100 m 11 Y s 3 lw 1241 1094 m21 6 lw 1246 1064 m 11 Y s 1246 1086 m 11 Y s 3 lw 1246 1080 m21 6 lw 1251 1064 m 11 Y s 1251 1086 m 11 Y s 3 lw
 1251 1080 m21 6 lw 1255 1067 m 11 Y s 1255 1090 m 11 Y s 3 lw 1255 1084 m21 6 lw 1260 1079 m 12 Y s 1260 1102 m 12 Y s 3 lw 1260 1097 m21 6 lw 1265 1072 m 12 Y s 1265 1095 m 12 Y s 3 lw 1265 1090 m21 6 lw 1269 1069 m 12 Y s 1269 1093 m 12 Y s 3 lw
 1269 1087 m21 6 lw 1274 1056 m 12 Y s 1274 1079 m 13 Y s 3 lw 1274 1074 m21 6 lw 1279 1074 m 13 Y s 1279 1098 m 13 Y s 3 lw 1279 1092 m21 6 lw 1284 1066 m 13 Y s 1284 1090 m 13 Y s 3 lw 1284 1084 m21 6 lw 1288 1041 m 13 Y s 1288 1066 m 13 Y s 3 lw
 1288 1060 m21 6 lw 1293 1069 m 14 Y s 1293 1094 m 14 Y s 3 lw 1293 1089 m21 6 lw 1298 1066 m 14 Y s 1298 1091 m 14 Y s 3 lw 1298 1086 m21 6 lw 1302 1070 m 14 Y s 1302 1096 m 14 Y s 3 lw 1302 1090 m21 6 lw 1307 1089 m 15 Y s 1307 1116 m 14 Y s 3 lw
 1307 1110 m21 6 lw 1312 1112 m 16 Y s 1312 1139 m 16 Y s 3 lw 1312 1134 m21 6 lw 1317 1106 m 15 Y s 1317 1133 m 16 Y s 3 lw 1317 1127 m21 6 lw 1321 1064 m 15 Y s 1321 1091 m 15 Y s 3 lw 1321 1085 m21 6 lw 1326 1108 m 17 Y s 1326 1136 m 16 Y s 3 lw
 1326 1130 m21 6 lw 1331 1059 m 16 Y s 1331 1086 m 16 Y s 3 lw 1331 1081 m21 6 lw 1335 1045 m 16 Y s 1335 1072 m 17 Y s 3 lw 1335 1067 m21 6 lw 1340 1084 m 17 Y s 1340 1112 m 18 Y s 3 lw 1340 1107 m21 6 lw 1345 1091 m 17 Y s 1345 1120 m 18 Y s 3 lw
 1345 1114 m21 6 lw 1349 1094 m 18 Y s 1349 1123 m 18 Y s 3 lw 1349 1118 m21 6 lw 1354 1077 m 18 Y s 1354 1107 m 18 Y s 3 lw 1354 1101 m21 6 lw 1359 1101 m 19 Y s 1359 1131 m 19 Y s 3 lw 1359 1126 m21 6 lw 1364 1049 m 18 Y s 1364 1079 m 18 Y s 3 lw
 1364 1073 m21 6 lw 1368 1062 m 19 Y s 1368 1092 m 20 Y s 3 lw 1368 1087 m21 6 lw 1373 1076 m 20 Y s 1373 1108 m 19 Y s 3 lw 1373 1102 m21 6 lw 1378 1064 m 20 Y s 1378 1096 m 20 Y s 3 lw 1378 1090 m21 6 lw 1382 1090 m 21 Y s 1382 1122 m 21 Y s 3 lw
 1382 1116 m21 6 lw 1387 1102 m 21 Y s 1387 1135 m 21 Y s 3 lw 1387 1129 m21 6 lw 1392 1080 m 21 Y s 1392 1112 m 22 Y s 3 lw 1392 1107 m21 6 lw 1397 1081 m 22 Y s 1397 1114 m 22 Y s 3 lw 1397 1109 m21 6 lw 1401 1066 m 22 Y s 1401 1100 m 22 Y s 3 lw
 1401 1094 m21 6 lw 1406 1067 m 23 Y s 1406 1101 m 23 Y s 3 lw 1406 1095 m21 6 lw 1411 1032 m 23 Y s 1411 1066 m 23 Y s 3 lw 1411 1060 m21 6 lw 1415 1040 m 23 Y s 1415 1074 m 23 Y s 3 lw 1415 1069 m21 6 lw 1420 1056 m 24 Y s 1420 1091 m 24 Y s 3 lw
 1420 1086 m21 6 lw 1425 1048 m 24 Y s 1425 1084 m 24 Y s 3 lw 1425 1078 m21 6 lw 1429 1090 m 25 Y s 1429 1126 m 26 Y s 3 lw 1429 1121 m21 6 lw 1434 1073 m 25 Y s 1434 1110 m 25 Y s 3 lw 1434 1104 m21 6 lw 1439 1029 m 25 Y s 1439 1065 m 26 Y s 3 lw
 1439 1060 m21 6 lw 1444 1090 m 27 Y s 1444 1128 m 27 Y s 3 lw 1444 1123 m21 6 lw 1448 1085 m 27 Y s 1448 1124 m 27 Y s 3 lw 1448 1118 m21 6 lw 1453 1068 m 28 Y s 1453 1107 m 28 Y s 3 lw 1453 1101 m21 6 lw 1458 1050 m 28 Y s 1458 1089 m 28 Y s 3 lw
 1458 1083 m21 6 lw 1462 1064 m 29 Y s 1462 1104 m 29 Y s 3 lw 1462 1099 m21 6 lw 1467 1017 m 28 Y s 1467 1057 m 28 Y s 3 lw 1467 1051 m21 6 lw 1472 1143 m 30 Y s 1472 1185 m 31 Y s 3 lw 1472 1179 m21 6 lw 1477 1046 m 30 Y s 1477 1087 m 30 Y s 3 lw
 1477 1082 m21 6 lw 1481 1050 m 31 Y s 1481 1092 m 30 Y s 3 lw 1481 1086 m21 6 lw 1486 1057 m 32 Y s 1486 1100 m 31 Y s 3 lw 1486 1094 m21 6 lw 1491 1026 m 31 Y s 1491 1069 m 31 Y s 3 lw 1491 1063 m21 6 lw 1495 1026 m 32 Y s 1495 1069 m 32 Y s 3 lw
 1495 1063 m21 6 lw 1500 1106 m 33 Y s 1500 1151 m 33 Y s 3 lw 1500 1145 m21 6 lw 1505 1003 m 32 Y s 1505 1047 m 32 Y s 3 lw 1505 1041 m21 6 lw 1509 1096 m 35 Y s 1509 1142 m 36 Y s 3 lw 1509 1137 m21 6 lw 1514 1050 m 35 Y s 1514 1096 m 35 Y s 3 lw
 1514 1090 m21 6 lw 1519 1031 m 36 Y s 1519 1078 m 35 Y s 3 lw 1519 1072 m21 6 lw 1524 1015 m 35 Y s 1524 1062 m 35 Y s 3 lw 1524 1056 m21 6 lw 1528 1106 m 37 Y s 1528 1154 m 38 Y s 3 lw 1528 1149 m21 6 lw 1533 997 m 36 Y s 1533 1045 m 36 Y s 3 lw
 1533 1039 m21 6 lw 1538 1141 m 40 Y s 1538 1192 m 40 Y s 3 lw 1538 1187 m21 6 lw 1542 1033 m 39 Y s 1542 1083 m 39 Y s 3 lw 1542 1077 m21 6 lw 1547 1131 m 41 Y s 1547 1184 m 41 Y s 3 lw 1547 1178 m21 6 lw 1552 1052 m 40 Y s 1552 1103 m 40 Y s 3 lw
 1552 1098 m21 6 lw 1557 1080 m 42 Y s 1557 1134 m 42 Y s 3 lw 1557 1128 m21 6 lw 1561 1030 m 41 Y s 1561 1083 m 41 Y s 3 lw 1561 1077 m21 6 lw 1566 1037 m 43 Y s 1566 1091 m 43 Y s 3 lw 1566 1085 m21 6 lw 1571 997 m 43 Y s 1571 1051 m 43 Y s 3 lw
 1571 1046 m21 6 lw 1575 1078 m 45 Y s 1575 1135 m 45 Y s 3 lw 1575 1129 m21 6 lw 1580 1110 m 46 Y s 1580 1168 m 46 Y s 3 lw 1580 1162 m21 6 lw 1585 1130 m 49 Y s 1585 1190 m 49 Y s 3 lw 1585 1185 m21 6 lw 1589 1067 m 47 Y s 1589 1125 m 47 Y s 3 lw
 1589 1119 m21 6 lw 1594 1044 m 48 Y s 1594 1104 m 48 Y s 3 lw 1594 1098 m21 6 lw 1599 1039 m 50 Y s 1599 1100 m 49 Y s 3 lw 1599 1094 m21 6 lw 1604 1012 m 49 Y s 1604 1072 m 49 Y s 3 lw 1604 1066 m21 6 lw 1608 1057 m 50 Y s 1608 1119 m 50 Y s 3 lw
 1608 1113 m21 6 lw 1613 1110 m 53 Y s 1613 1175 m 54 Y s 3 lw 1613 1169 m21 6 lw 1618 1065 m 54 Y s 1618 1131 m 54 Y s 3 lw 1618 1125 m21 6 lw 1622 1054 m 54 Y s 1622 1119 m 54 Y s 3 lw 1622 1113 m21 6 lw 1627 983 m 53 Y s 1627 1048 m 53 Y s 3 lw
 1627 1042 m21 6 lw 1632 1056 m 57 Y s 1632 1125 m 57 Y s 3 lw 1632 1119 m21 6 lw 1637 1096 m 60 Y s 1637 1167 m 59 Y s 3 lw 1637 1161 m21 6 lw 1641 1040 m 58 Y s 1641 1110 m 58 Y s 3 lw 1641 1104 m21 6 lw 1646 945 m 56 Y s 1646 1013 m 56 Y s 3 lw
 1646 1007 m21 6 lw 1651 921 m 57 Y s 1651 989 m 57 Y s 3 lw 1651 983 m21 6 lw 1655 1040 m 62 Y s 1655 1113 m 62 Y s 3 lw 1655 1107 m21 6 lw 1660 987 m 61 Y s 1660 1059 m 62 Y s 3 lw 1660 1054 m21 6 lw 1665 1011 m 64 Y s 1665 1086 m 64 Y s 3 lw 1665
 1081 m21 6 lw 1669 853 m 60 Y s 1669 924 m 59 Y s 3 lw 1669 918 m21 6 lw 1674 1071 m 67 Y s 1674 1149 m 68 Y s 3 lw 1674 1144 m21 6 lw 1679 948 m 65 Y s 1679 1024 m 65 Y s 3 lw 1679 1018 m21 6 lw 1684 1054 m 72 Y s 1684 1137 m 72 Y s 3 lw 1684 1131
 m21 6 lw 1688 1015 m 71 Y s 1688 1097 m 71 Y s 3 lw 1688 1092 m21 6 lw 1693 988 m 71 Y s 1693 1071 m 71 Y s 3 lw 1693 1065 m21 6 lw 1698 854 m 68 Y s 1698 933 m 68 Y s 3 lw 1698 927 m21 6 lw 1702 986 m 74 Y s 1702 1071 m 74 Y s 3 lw 1702 1066 m21 6
 lw 1707 979 m 75 Y s 1707 1065 m 74 Y s 3 lw 1707 1059 m21 6 lw 1712 1019 m 78 Y s 1712 1109 m 78 Y s 3 lw 1712 1103 m21 6 lw 1717 928 m 76 Y s 1717 1016 m 77 Y s 3 lw 1717 1010 m21 6 lw 1721 1051 m 81 Y s 1721 1144 m 81 Y s 3 lw 1721 1138 m21 6 lw
 1726 1340 m 98 Y s 1726 1450 m 98 Y s 3 lw 1726 1444 m21 6 lw 1731 971 m 83 Y s 1731 1066 m 83 Y s 3 lw 1731 1060 m21 6 lw 1735 1027 m 88 Y s 1735 1127 m 88 Y s 3 lw 1735 1121 m21 6 lw 1740 1092 m 93 Y s 1740 1197 m 93 Y s 3 lw 1740 1191 m21 6 lw
 1745 798 m 80 Y s 1745 889 m 81 Y s 3 lw 1745 884 m21 6 lw 1749 1060 m 94 Y s 1749 1166 m 94 Y s 3 lw 1749 1160 m21 6 lw 1754 998 m 94 Y s 1754 1103 m 95 Y s 3 lw 1754 1098 m21 6 lw 1759 957 m 93 Y s 1759 1062 m 93 Y s 3 lw 1759 1056 m21 6 lw 1764
 878 m 92 Y s 1764 981 m 92 Y s 3 lw 1764 976 m21 6 lw 1768 1176 m 108 Y s 1768 1296 m 108 Y s 3 lw 1768 1290 m21 6 lw 1773 1029 m 103 Y s 1773 1144 m 103 Y s 3 lw 1773 1138 m21 6 lw 1778 942 m 102 Y s 1778 1056 m 103 Y s 3 lw 1778 1050 m21 6 lw 1782
 1019 m 109 Y s 1782 1140 m 109 Y s 3 lw 1782 1134 m21 6 lw 1787 949 m 110 Y s 1787 1070 m 111 Y s 3 lw 1787 1065 m21 6 lw 1792 965 m 111 Y s 1792 1088 m 111 Y s 3 lw 1792 1082 m21 6 lw 1797 976 m 112 Y s 1797 1099 m 112 Y s 3 lw 1797 1093 m21 6 lw
 1801 1183 m 128 Y s 1801 1323 m 128 Y s 3 lw 1801 1317 m21 6 lw 1806 1031 m 124 Y s 1806 1166 m 124 Y s 3 lw 1806 1161 m21 6 lw 1811 1175 m 133 Y s 1811 1319 m 133 Y s 3 lw 1811 1314 m21 6 lw 1815 910 m 124 Y s 1815 1046 m 124 Y s 3 lw 1815 1040 m21
 6 lw 1820 958 m 125 Y s 1820 1095 m 125 Y s 3 lw 1820 1089 m21 6 lw 1825 903 m 128 Y s 1825 1043 m 128 Y s 3 lw 1825 1037 m21 6 lw 1829 1126 m 144 Y s 1829 1282 m 144 Y s 3 lw 1829 1276 m21 6 lw 1834 1190 m 154 Y s 1834 1355 m 154 Y s 3 lw 1834 1350
 m21 6 lw 1839 965 m 145 Y s 1839 1121 m 145 Y s 3 lw 1839 1116 m21 6 lw 1844 850 m 137 Y s 1844 998 m 136 Y s 3 lw 1844 992 m21 6 lw 1848 951 m 150 Y s 1848 1113 m 150 Y s 3 lw 1848 1107 m21 6 lw 1853 1003 m 155 Y s 1853 1170 m 155 Y s 3 lw 1853
 1164 m21 6 lw 1858 1018 m 162 Y s 1858 1191 m 162 Y s 3 lw 1858 1186 m21 6 lw 1862 1011 m 165 Y s 1862 1188 m 166 Y s 3 lw 1862 1182 m21 6 lw 1867 1086 m 173 Y s 1867 1271 m 173 Y s 3 lw 1867 1265 m21 6 lw 1872 781 m 150 Y s 1872 943 m 150 Y s 3 lw
 1872 937 m21 6 lw 1877 960 m 180 Y s 1877 1151 m 179 Y s 3 lw 1877 1145 m21 6 lw 1881 935 m 182 Y s 1881 1128 m 183 Y s 3 lw 1881 1123 m21 6 lw 1886 1017 m 183 Y s 1886 1211 m 183 Y s 3 lw 1886 1205 m21 6 lw 1891 1156 m 206 Y s 1891 1373 m 206 Y s 3
 lw 1891 1367 m21 6 lw 1895 805 m 179 Y s 1895 995 m 179 Y s 3 lw 1895 989 m21 6 lw 1900 886 m 184 Y s 1900 1082 m 185 Y s 3 lw 1900 1076 m21 6 lw 1905 981 m 199 Y s 1905 1192 m 199 Y s 3 lw 1905 1186 m21 6 lw 1909 796 m 201 Y s 1909 1008 m 201 Y s 3
 lw 1909 1003 m21 6 lw 1914 727 m 185 Y s 1914 924 m 185 Y s 3 lw 1914 918 m21 6 lw 1919 1169 m 241 Y s 1919 1422 m 241 Y s 3 lw 1919 1416 m21 6 lw 1924 798 m 222 Y s 1924 1032 m 222 Y s 3 lw 1924 1026 m21 6 lw 1928 1044 m 248 Y s 1928 1304 m 248 Y s
 3 lw 1928 1298 m21 6 lw 1933 746 m 215 Y s 1933 972 m 215 Y s 3 lw 1933 967 m21 6 lw 1938 964 m 248 Y s 1938 1223 m 248 Y s 3 lw 1938 1217 m21 6 lw 1942 571 m 206 Y s 1942 788 m 206 Y s 3 lw 1942 783 m21 6 lw 1947 1334 m 326 Y s 1947 1672 m 326 Y s
 3 lw 1947 1666 m21 6 lw 1952 631 m 236 Y s 1952 878 m 236 Y s 3 lw 1952 873 m21 6 lw 1957 1077 m 292 Y s 1957 1380 m 291 Y s 3 lw 1957 1374 m21 6 lw 1961 740 m 251 Y s 1961 1002 m 251 Y s 3 lw 1961 996 m21 6 lw 1966 922 m 294 Y s 1966 1228 m 294 Y s
 3 lw 1966 1222 m21 6 lw 1971 752 m 270 Y s 1971 1033 m 270 Y s 3 lw 1971 1027 m21 6 lw 1975 1050 m 348 Y s 1975 1409 m 349 Y s 3 lw 1975 1404 m21 6 lw 1980 866 m 299 Y s 1980 1177 m 300 Y s 3 lw 1980 1171 m21 6 lw 1985 761 m 311 Y s 1985 1083 m 311
 Y s 3 lw 1985 1078 m21 6 lw 1989 656 m 304 Y s 1989 971 m 304 Y s 3 lw 1989 965 m21 6 lw 1994 609 m 305 Y s 1994 925 m 306 Y s 3 lw 1994 920 m21 6 lw 1999 1215 m 452 Y s 1999 1678 m 453 Y s 3 lw 1999 1673 m21 6 lw 2004 942 m 409 Y s 2004 1362 m 409
 Y s 3 lw 2004 1357 m21 6 lw 2008 663 m 367 Y s 2008 1041 m 367 Y s 3 lw 2008 1036 m21 6 lw 2013 1297 m 478 Y s 2013 1786 m 403 Y s 3 lw 2013 1780 m21 6 lw 2018 338 m 315 Y s 2018 665 m 315 Y s 3 lw 2018 659 m21 6 lw 2022 906 m 419 Y s 2022 1336 m
 418 Y s 3 lw 2022 1330 m21 6 lw 2027 369 m 316 Y s 2027 696 m 316 Y s 3 lw 2027 691 m21 6 lw 2032 531 m 412 Y s 2032 955 m 412 Y s 3 lw 2032 949 m21 6 lw 2036 1066 m 546 Y s 2036 1624 m 546 Y s 3 lw 2036 1618 m21 6 lw 2041 223 m 358 Y s 2041 592 m
 404 Y s 3 lw 2041 587 m21 6 lw 2046 1336 m 740 Y s 2046 2087 m 102 Y s 3 lw 2046 2081 m21 6 lw 2051 746 m 554 Y s 2051 1311 m 555 Y s 3 lw 2051 1306 m21 6 lw 2055 504 m 536 Y s 2055 1052 m 536 Y s 3 lw 2055 1046 m21 6 lw 2060 1173 m 718 Y s 2060
 1902 m 287 Y s 3 lw 2060 1897 m21 6 lw 2065 372 m 457 Y s 2065 840 m 456 Y s 3 lw 2065 834 m21 6 lw 2069 668 m 678 Y s 2069 1357 m 678 Y s 3 lw 2069 1352 m21 6 lw 2074 679 m 575 Y s 2074 1265 m 575 Y s 3 lw 2074 1259 m21 6 lw 2079 480 m 736 Y s 2079
 1227 m 736 Y s 3 lw 2079 1221 m21 6 lw 2084 562 m 716 Y s 2084 1290 m 716 Y s 3 lw 2084 1284 m21 6 lw 2088 929 m 893 Y s 2088 1834 m 355 Y s 3 lw 2088 1828 m21 6 lw 2093 740 m 739 Y s 2093 1490 m 699 Y s 3 lw 2093 1485 m21 6 lw 2098 223 m 366 Y s
 2098 600 m 584 Y s 3 lw 2098 595 m21 6 lw 2102 413 m 787 Y s 2102 1212 m 786 Y s 3 lw 2102 1206 m21 6 lw 2107 405 m 882 Y s 2107 1298 m 882 Y s 3 lw 2107 1292 m21 6 lw 2112 223 m 159 Y s 2112 393 m 590 Y s 3 lw 2112 388 m21 6 lw 2116 223 m 395 Y s
 2116 629 m 661 Y s 3 lw 2116 624 m21 6 lw 2121 223 m 341 Y s 2121 576 m 584 Y s 3 lw 2121 570 m21 6 lw 2135 223 m 859 Y s 2135 1093 m 1047 Y s 3 lw 2135 1088 m21 6 lw 2145 468 m 1480 Y s 2145 1960 m 229 Y s 3 lw 2145 1954 m21 6 lw 2149 223 m 963 Y s
 2149 1198 m 991 Y s 3 lw 2149 1192 m21 6 lw 2154 223 m 356 Y s 2154 591 m 847 Y s 3 lw 2154 585 m21 6 lw 2159 223 m 1106 Y s 2159 1340 m 849 Y s 3 lw 2159 1335 m21 6 lw 2164 223 m 851 Y s 2164 1086 m 1103 Y s 3 lw 2164 1080 m21 6 lw 2173 223 m 261 Y
 s 2173 496 m 1289 Y s 3 lw 2173 490 m21 6 lw 2192 223 m 1002 Y s 2192 1236 m 953 Y s 3 lw 2192 1230 m21 6 lw 2196 223 m 1422 Y s 2196 1656 m 533 Y s 3 lw 2196 1650 m21 6 lw black 340 223 m 1882 X s
 gsave  2268 2234 0 0 C 1923.86 58.2559 t 0 r /Helvetica findfont 83.8316 sf 0 0 m (Q [GeV]) show NC gr  340 279 m -56 Y s 387 251 m -28 Y s 434 251 m -28 Y s 481 251 m -28 Y s 528 279 m -56 Y s 575 251 m -28 Y s 622 251 m -28 Y s 670 251 m -28 Y s
 717 279 m -56 Y s 764 251 m -28 Y s 811 251 m -28 Y s 858 251 m -28 Y s 905 279 m -56 Y s 952 251 m -28 Y s 999 251 m -28 Y s 1046 251 m -28 Y s 1093 279 m -56 Y s 1140 251 m -28 Y s 1187 251 m -28 Y s 1234 251 m -28 Y s 1281 279 m -56 Y s 1328 251
 m -28 Y s 1375 251 m -28 Y s 1422 251 m -28 Y s 1469 279 m -56 Y s 1517 251 m -28 Y s 1564 251 m -28 Y s 1611 251 m -28 Y s 1658 279 m -56 Y s 1705 251 m -28 Y s 1752 251 m -28 Y s 1799 251 m -28 Y s 1846 279 m -56 Y s 1893 251 m -28 Y s 1940 251 m
 -28 Y s 1987 251 m -28 Y s 2034 279 m -56 Y s 2081 251 m -28 Y s 2128 251 m -28 Y s 2175 251 m -28 Y s 2222 279 m -56 Y s
 gsave  2268 2234 0 0 C 322.539 159.138 t 0 r /Helvetica findfont 62.5185 sf 0 0 m (0) show NC gr 
 gsave  2268 2234 0 0 C 484.518 159.138 t 0 r /Helvetica findfont 62.5185 sf 0 0 m (0.2) show NC gr 
 gsave  2268 2234 0 0 C 673.495 159.138 t 0 r /Helvetica findfont 62.5185 sf 0 0 m (0.4) show NC gr 
 gsave  2268 2234 0 0 C 861.05 159.138 t 0 r /Helvetica findfont 62.5185 sf 0 0 m (0.6) show NC gr 
 gsave  2268 2234 0 0 C 1050.03 159.138 t 0 r /Helvetica findfont 62.5185 sf 0 0 m (0.8) show NC gr 
 gsave  2268 2234 0 0 C 1268.84 159.138 t 0 r /Helvetica findfont 62.5185 sf 0 0 m (1) show NC gr 
 gsave  2268 2234 0 0 C 1426.56 159.138 t 0 r /Helvetica findfont 62.5185 sf 0 0 m (1.2) show NC gr 
 gsave  2268 2234 0 0 C 1614.11 159.138 t 0 r /Helvetica findfont 62.5185 sf 0 0 m (1.4) show NC gr 
 gsave  2268 2234 0 0 C 1803.09 159.138 t 0 r /Helvetica findfont 62.5185 sf 0 0 m (1.6) show NC gr 
 gsave  2268 2234 0 0 C 1990.65 159.138 t 0 r /Helvetica findfont 62.5185 sf 0 0 m (1.8) show NC gr 
 gsave  2268 2234 0 0 C 2205.2 159.138 t 0 r /Helvetica findfont 62.5185 sf 0 0 m (2) show NC gr  340 223 m 1966 Y s
 gsave  2268 2234 0 0 C 152.034 1953.7 t 90 r /Helvetica findfont 83.8316 sf 0 0 m (DR\(Q\)) show NC gr  400 402 m -60 X s 370 491 m -30 X s 370 581 m -30 X s 370 670 m -30 X s 400 759 m -60 X s 370 849 m -30 X s 370 938 m -30 X s 370 1027 m -30 X s
 400 1117 m -60 X s 370 1206 m -30 X s 370 1295 m -30 X s 370 1385 m -30 X s 400 1474 m -60 X s 370 1564 m -30 X s 370 1653 m -30 X s 370 1742 m -30 X s 400 1832 m -60 X s 370 1921 m -30 X s 370 2010 m -30 X s 370 2100 m -30 X s 400 2189 m -60 X s
 400 402 m -60 X s 370 313 m -30 X s 370 223 m -30 X s
 gsave  2268 2234 0 0 C 242.97 379.374 t 0 r /Helvetica findfont 62.5185 sf 0 0 m (0.6) show NC gr 
 gsave  2268 2234 0 0 C 242.97 737.434 t 0 r /Helvetica findfont 62.5185 sf 0 0 m (0.8) show NC gr 
 gsave  2268 2234 0 0 C 305.488 1092.65 t 0 r /Helvetica findfont 62.5185 sf 0 0 m (1) show NC gr 
 gsave  2268 2234 0 0 C 242.97 1450.71 t 0 r /Helvetica findfont 62.5185 sf 0 0 m (1.2) show NC gr 
 gsave  2268 2234 0 0 C 242.97 1808.77 t 0 r /Helvetica findfont 62.5185 sf 0 0 m (1.4) show NC gr 
 gsave  2268 2234 0 0 C 242.97 2166.83 t 0 r /Helvetica findfont 62.5185 sf 0 0 m (1.6) show NC gr 
 gsave  2268 2234 0 0 C 906.518 670.653 t 0 r /Helvetica-Bold findfont 72.4646 sf 0 0 m (DR PIONS) show NC gr 
 gsave  2268 2234 0 0 C 906.518 558.404 t 0 r /Helvetica-Bold findfont 72.4646 sf 0 0 m (ref. sample: EVENT MIX) show NC gr 
 gsave  2268 2234 0 0 C 906.518 447.576 t 0 r /Helvetica-Bold findfont 72.4646 sf 0 0 m (VELO tracks multiplicity: 21 \255 60) show NC gr 
 gr  gr showpage
end
%%EOF
