%!PS-Adobe-2.0 EPSF-2.0
%%BoundingBox:  0 0 567 558
%%Title: ./DR_pion_0c65_h3015_2_h3401_2_compare.eps: DR_pion_0c65_h3015_2_h3401_2_compare
%%Creator: ROOT Version 6.06/02
%%CreationDate: Tue May 16 16:33:13 2017
%%DocumentNeededResources: ProcSet (FontSetInit)
%%EndComments
%%BeginProlog
80 dict begin
/s {stroke} def /l {lineto} def /m {moveto} def /t {translate} def
/r {rotate} def /rl {roll}  def /R {repeat} def
/d {rlineto} def /rm {rmoveto} def /gr {grestore} def /f {eofill} def
/c {setrgbcolor} def /black {0 setgray} def /sd {setdash} def
/cl {closepath} def /sf {scalefont setfont} def /lw {setlinewidth} def
/box {m dup 0 exch d exch 0 d 0 exch neg d cl} def
/NC{systemdict begin initclip end}def/C{NC box clip newpath}def
/bl {box s} def /bf {gsave box gsave f grestore 1 lw [] 0 sd s grestore} def /Y { 0 exch d} def /X { 0 d} def 
/K {{pop pop 0 moveto} exch kshow} bind def
/ita {/ang 15 def gsave [1 0 ang dup sin exch cos div 1 0 0] concat} def 
/mp {newpath /y exch def /x exch def} def
/side {[w .77 mul w .23 mul] .385 w mul sd w 0 l currentpoint t -144 r} def
/mr {mp x y w2 0 360 arc} def /m24 {mr s} def /m20 {mr f} def
/mb {mp x y w2 add m w2 neg 0 d 0 w neg d w 0 d 0 w d cl} def
/mt {mp x y w2 add m w2 neg w neg d w 0 d cl} def
/m21 {mb f} def /m25 {mb s} def /m22 {mt f} def /m26{mt s} def
/m23 {mp x y w2 sub m w2 w d w neg 0 d cl f} def
/m27 {mp x y w2 add m w3 neg w2 neg d w3 w2 neg d w3 w2 d cl s} def
/m28 {mp x w2 sub y w2 sub w3 add m w3 0 d  0 w3 neg d w3 0 d 0 w3 d w3 0 d  0 w3 d w3 neg 0 d 0 w3 d w3 neg 0 d 0 w3 neg d w3 neg 0 d cl s } def
/m29 {mp gsave x w2 sub y w2 add w3 sub m currentpoint t 4 {side} repeat cl fill gr} def
/m30 {mp gsave x w2 sub y w2 add w3 sub m currentpoint t 4 {side} repeat cl s gr} def
/m31 {mp x y w2 sub m 0 w d x w2 sub y m w 0 d x w2 sub y w2 add m w w neg d x w2 sub y w2 sub m w w d s} def
/m32 {mp x y w2 sub m w2 w d w neg 0 d cl s} def
/m33 {mp x y w2 add m w3 neg w2 neg d w3 w2 neg d w3 w2 d cl f} def
/m34 {mp x w2 sub y w2 sub w3 add m w3 0 d  0 w3 neg d w3 0 d 0 w3 d w3 0 d  0 w3 d w3 neg 0 d 0 w3 d w3 neg 0 d 0 w3 neg d w3 neg 0 d cl f } def
/m2 {mp x y w2 sub m 0 w d x w2 sub y m w 0 d s} def
/m5 {mp x w2 sub y w2 sub m w w d x w2 sub y w2 add m w w neg d s} def
%%IncludeResource: ProcSet (FontSetInit)
%%IncludeResource: font Times-Roman
%%IncludeResource: font Times-Italic
%%IncludeResource: font Times-Bold
%%IncludeResource: font Times-BoldItalic
%%IncludeResource: font Helvetica
%%IncludeResource: font Helvetica-Oblique
%%IncludeResource: font Helvetica-Bold
%%IncludeResource: font Helvetica-BoldOblique
%%IncludeResource: font Courier
%%IncludeResource: font Courier-Oblique
%%IncludeResource: font Courier-Bold
%%IncludeResource: font Courier-BoldOblique
%%IncludeResource: font Symbol
%%IncludeResource: font ZapfDingbats
/reEncode {exch findfont dup length dict begin {1 index /FID eq  {pop pop} {def} ifelse } forall /Encoding exch def currentdict end dup /FontName get exch definefont pop } def [/Times-Bold /Times-Italic /Times-BoldItalic /Helvetica /Helvetica-Oblique
 /Helvetica-Bold /Helvetica-BoldOblique /Courier /Courier-Oblique /Courier-Bold /Courier-BoldOblique /Times-Roman /AvantGarde-Book /AvantGarde-BookOblique /AvantGarde-Demi /AvantGarde-DemiOblique /Bookman-Demi /Bookman-DemiItalic /Bookman-Light
 /Bookman-LightItalic /Helvetica-Narrow /Helvetica-Narrow-Bold /Helvetica-Narrow-BoldOblique /Helvetica-Narrow-Oblique /NewCenturySchlbk-Roman /NewCenturySchlbk-Bold /NewCenturySchlbk-BoldItalic /NewCenturySchlbk-Italic /Palatino-Bold
 /Palatino-BoldItalic /Palatino-Italic /Palatino-Roman ] {ISOLatin1Encoding reEncode } forall
%%EndProlog
%%BeginSetup
%%EndSetup
newpath  gsave  .25 .25 scale  gsave  0 0 t black[  ] 0 sd 6 lw 1 1 1 c 2268 2234 0 0 bf black 3 lw 1 1 1 c 1882 1966 340 223 bf black 1882 1966 340 223 bl 1 1 1 c 1882 1966 340 223 bf black 1882 1966 340 223 bl 0 0 1 c 6 lw 1 1 1 c 0 0 1 c 406 1697
 m 4 Y s 406 1718 m 4 Y s 3 lw /w 19 def /w2 {w 2 div} def /w3 {w 3 div} def 406 1709 m21 6 lw 425 1573 m 1 Y s 425 1591 m 1 Y s 3 lw 425 1583 m21 6 lw 3 lw 444 1498 m21 6 lw 3 lw 463 1419 m21 6 lw 3 lw 481 1350 m21 6 lw 3 lw 500 1311 m21 6 lw 3 lw
 519 1276 m21 6 lw 3 lw 538 1234 m21 6 lw 3 lw 557 1219 m21 6 lw 3 lw 575 1189 m21 6 lw 3 lw 594 1175 m21 6 lw 3 lw 613 1158 m21 6 lw 3 lw 632 1146 m21 6 lw 3 lw 651 1128 m21 6 lw 3 lw 670 1129 m21 6 lw 3 lw 688 1120 m21 6 lw 3 lw 707 1106 m21 6 lw 3
 lw 726 1108 m21 6 lw 3 lw 745 1106 m21 6 lw 3 lw 764 1096 m21 6 lw 3 lw 782 1089 m21 6 lw 3 lw 801 1085 m21 6 lw 3 lw 820 1079 m21 6 lw 3 lw 839 1076 m21 6 lw 3 lw 858 1075 m21 6 lw 3 lw 877 1073 m21 6 lw 3 lw 895 1078 m21 6 lw 3 lw 914 1066 m21 6
 lw 3 lw 933 1074 m21 6 lw 3 lw 952 1062 m21 6 lw 3 lw 971 1075 m21 6 lw 3 lw 990 1068 m21 6 lw 3 lw 1008 1069 m21 6 lw 3 lw 1027 1070 m21 6 lw 3 lw 1046 1074 m21 6 lw 3 lw 1065 1073 m21 6 lw 3 lw 1084 1073 m21 6 lw 3 lw 1102 1080 m21 6 lw 3 lw 1121
 1079 m21 6 lw 3 lw 1140 1081 m21 6 lw 3 lw 1159 1083 m21 6 lw 3 lw 1178 1084 m21 6 lw 3 lw 1197 1088 m21 6 lw 3 lw 1215 1084 m21 6 lw 3 lw 1234 1092 m21 6 lw 3 lw 1253 1089 m21 6 lw 3 lw 1272 1100 m21 6 lw 3 lw 1291 1089 m21 6 lw 3 lw 1309 1099 m21
 6 lw 3 lw 1328 1098 m21 6 lw 3 lw 1347 1104 m21 6 lw 3 lw 1366 1103 m21 6 lw 3 lw 1385 1111 m21 6 lw 3 lw 1404 1104 m21 6 lw 3 lw 1422 1107 m21 6 lw 3 lw 1441 1123 m21 6 lw 3 lw 1460 1120 m21 6 lw 3 lw 1479 1119 m21 6 lw 3 lw 1498 1123 m21 6 lw 3 lw
 1517 1119 m21 6 lw 3 lw 1535 1123 m21 6 lw 3 lw 1554 1123 m21 6 lw 3 lw 1573 1121 m21 6 lw 3 lw 1592 1123 m21 6 lw 3 lw 1611 1129 m21 6 lw 3 lw 1629 1141 m21 6 lw 3 lw 1648 1125 m21 6 lw 3 lw 1667 1130 m21 6 lw 3 lw 1686 1139 m21 6 lw 3 lw 1705 1145
 m21 6 lw 3 lw 1724 1127 m21 6 lw 3 lw 1742 1151 m21 6 lw 3 lw 1761 1136 m21 6 lw 3 lw 1780 1143 m21 6 lw 3 lw 1799 1139 m21 6 lw 3 lw 1818 1145 m21 6 lw 3 lw 1837 1152 m21 6 lw 3 lw 1855 1147 m21 6 lw 3 lw 1874 1148 m21 6 lw 3 lw 1893 1145 m21 6 lw
 3 lw 1912 1135 m21 6 lw 3 lw 1931 1155 m21 6 lw 3 lw 1949 1150 m21 6 lw 3 lw 1968 1154 m21 6 lw 3 lw 1987 1159 m21 6 lw 3 lw 2006 1142 m21 6 lw 3 lw 2025 1156 m21 6 lw 3 lw 2044 1168 m21 6 lw 3 lw 2062 1153 m21 6 lw 3 lw 2081 1171 m21 6 lw 3 lw 2100
 1170 m21 6 lw 3 lw 2119 1175 m21 6 lw 3 lw 2138 1151 m21 6 lw 2156 1159 m 1 Y s 2156 1177 m s 3 lw 2156 1168 m21 6 lw 2175 1138 m s 2175 1155 m 1 Y s 3 lw 2175 1147 m21 6 lw 2194 1151 m s 2194 1168 m 1 Y s 3 lw 2194 1160 m21 6 lw 2213 1147 m s 2213
 1164 m 1 Y s 3 lw 2213 1156 m21 6 lw black 340 223 m 1882 X s
 gsave  2268 2234 0 0 C 1923.86 58.2559 t 0 r /Helvetica findfont 83.8316 sf 0 0 m (Q [GeV]) show NC gr  340 279 m -56 Y s 387 251 m -28 Y s 434 251 m -28 Y s 481 251 m -28 Y s 528 279 m -56 Y s 575 251 m -28 Y s 622 251 m -28 Y s 670 251 m -28 Y s
 717 279 m -56 Y s 764 251 m -28 Y s 811 251 m -28 Y s 858 251 m -28 Y s 905 279 m -56 Y s 952 251 m -28 Y s 999 251 m -28 Y s 1046 251 m -28 Y s 1093 279 m -56 Y s 1140 251 m -28 Y s 1187 251 m -28 Y s 1234 251 m -28 Y s 1281 279 m -56 Y s 1328 251
 m -28 Y s 1375 251 m -28 Y s 1422 251 m -28 Y s 1469 279 m -56 Y s 1517 251 m -28 Y s 1564 251 m -28 Y s 1611 251 m -28 Y s 1658 279 m -56 Y s 1705 251 m -28 Y s 1752 251 m -28 Y s 1799 251 m -28 Y s 1846 279 m -56 Y s 1893 251 m -28 Y s 1940 251 m
 -28 Y s 1987 251 m -28 Y s 2034 279 m -56 Y s 2081 251 m -28 Y s 2128 251 m -28 Y s 2175 251 m -28 Y s 2222 279 m -56 Y s
 gsave  2268 2234 0 0 C 322.539 159.138 t 0 r /Helvetica findfont 62.5185 sf 0 0 m (0) show NC gr 
 gsave  2268 2234 0 0 C 484.518 159.138 t 0 r /Helvetica findfont 62.5185 sf 0 0 m (0.2) show NC gr 
 gsave  2268 2234 0 0 C 673.495 159.138 t 0 r /Helvetica findfont 62.5185 sf 0 0 m (0.4) show NC gr 
 gsave  2268 2234 0 0 C 861.05 159.138 t 0 r /Helvetica findfont 62.5185 sf 0 0 m (0.6) show NC gr 
 gsave  2268 2234 0 0 C 1050.03 159.138 t 0 r /Helvetica findfont 62.5185 sf 0 0 m (0.8) show NC gr 
 gsave  2268 2234 0 0 C 1268.84 159.138 t 0 r /Helvetica findfont 62.5185 sf 0 0 m (1) show NC gr 
 gsave  2268 2234 0 0 C 1426.56 159.138 t 0 r /Helvetica findfont 62.5185 sf 0 0 m (1.2) show NC gr 
 gsave  2268 2234 0 0 C 1614.11 159.138 t 0 r /Helvetica findfont 62.5185 sf 0 0 m (1.4) show NC gr 
 gsave  2268 2234 0 0 C 1803.09 159.138 t 0 r /Helvetica findfont 62.5185 sf 0 0 m (1.6) show NC gr 
 gsave  2268 2234 0 0 C 1990.65 159.138 t 0 r /Helvetica findfont 62.5185 sf 0 0 m (1.8) show NC gr 
 gsave  2268 2234 0 0 C 2205.2 159.138 t 0 r /Helvetica findfont 62.5185 sf 0 0 m (2) show NC gr  340 223 m 1966 Y s
 gsave  2268 2234 0 0 C 152.034 1450.71 t 90 r /Helvetica findfont 83.8316 sf 0 0 m ( DR\(Q\) / \(0.02 GeV\)) show NC gr  400 402 m -60 X s 370 491 m -30 X s 370 581 m -30 X s 370 670 m -30 X s 400 759 m -60 X s 370 849 m -30 X s 370 938 m -30 X s
 370 1027 m -30 X s 400 1117 m -60 X s 370 1206 m -30 X s 370 1295 m -30 X s 370 1385 m -30 X s 400 1474 m -60 X s 370 1564 m -30 X s 370 1653 m -30 X s 370 1742 m -30 X s 400 1832 m -60 X s 370 1921 m -30 X s 370 2010 m -30 X s 370 2100 m -30 X s
 400 2189 m -60 X s 400 402 m -60 X s 370 313 m -30 X s 370 223 m -30 X s
 gsave  2268 2234 0 0 C 242.97 379.374 t 0 r /Helvetica findfont 62.5185 sf 0 0 m (0.6) show NC gr 
 gsave  2268 2234 0 0 C 242.97 737.434 t 0 r /Helvetica findfont 62.5185 sf 0 0 m (0.8) show NC gr 
 gsave  2268 2234 0 0 C 305.488 1092.65 t 0 r /Helvetica findfont 62.5185 sf 0 0 m (1) show NC gr 
 gsave  2268 2234 0 0 C 242.97 1450.71 t 0 r /Helvetica findfont 62.5185 sf 0 0 m (1.2) show NC gr 
 gsave  2268 2234 0 0 C 242.97 1808.77 t 0 r /Helvetica findfont 62.5185 sf 0 0 m (1.4) show NC gr 
 gsave  2268 2234 0 0 C 242.97 2166.83 t 0 r /Helvetica findfont 62.5185 sf 0 0 m (1.6) show NC gr  1 0 0 c 1 1 1 c 1 0 0 c 406 1690 m 4 Y s 406 1711 m 4 Y s 3 lw 406 1703 m21 6 lw 425 1583 m 1 Y s 425 1601 m 1 Y s 3 lw 425 1592 m21 6 lw 3 lw 444
 1482 m21 6 lw 3 lw 463 1419 m21 6 lw 3 lw 481 1347 m21 6 lw 3 lw 500 1310 m21 6 lw 3 lw 519 1267 m21 6 lw 3 lw 538 1238 m21 6 lw 3 lw 557 1217 m21 6 lw 3 lw 575 1190 m21 6 lw 3 lw 594 1170 m21 6 lw 3 lw 613 1155 m21 6 lw 3 lw 632 1150 m21 6 lw 3 lw
 651 1129 m21 6 lw 3 lw 670 1129 m21 6 lw 3 lw 688 1119 m21 6 lw 3 lw 707 1108 m21 6 lw 3 lw 726 1108 m21 6 lw 3 lw 745 1103 m21 6 lw 3 lw 764 1099 m21 6 lw 3 lw 782 1090 m21 6 lw 3 lw 801 1084 m21 6 lw 3 lw 820 1077 m21 6 lw 3 lw 839 1079 m21 6 lw 3
 lw 858 1074 m21 6 lw 3 lw 877 1073 m21 6 lw 3 lw 895 1076 m21 6 lw 3 lw 914 1063 m21 6 lw 3 lw 933 1067 m21 6 lw 3 lw 952 1064 m21 6 lw 3 lw 971 1071 m21 6 lw 3 lw 990 1069 m21 6 lw 3 lw 1008 1071 m21 6 lw 3 lw 1027 1070 m21 6 lw 3 lw 1046 1076 m21
 6 lw 3 lw 1065 1071 m21 6 lw 3 lw 1084 1074 m21 6 lw 3 lw 1102 1079 m21 6 lw 3 lw 1121 1076 m21 6 lw 3 lw 1140 1082 m21 6 lw 3 lw 1159 1083 m21 6 lw 3 lw 1178 1084 m21 6 lw 3 lw 1197 1087 m21 6 lw 3 lw 1215 1086 m21 6 lw 3 lw 1234 1089 m21 6 lw 3 lw
 1253 1092 m21 6 lw 3 lw 1272 1098 m21 6 lw 3 lw 1291 1093 m21 6 lw 3 lw 1309 1101 m21 6 lw 3 lw 1328 1095 m21 6 lw 3 lw 1347 1101 m21 6 lw 3 lw 1366 1103 m21 6 lw 3 lw 1385 1112 m21 6 lw 3 lw 1404 1105 m21 6 lw 3 lw 1422 1110 m21 6 lw 3 lw 1441 1121
 m21 6 lw 3 lw 1460 1114 m21 6 lw 3 lw 1479 1121 m21 6 lw 3 lw 1498 1118 m21 6 lw 3 lw 1517 1116 m21 6 lw 3 lw 1535 1128 m21 6 lw 3 lw 1554 1120 m21 6 lw 3 lw 1573 1120 m21 6 lw 3 lw 1592 1128 m21 6 lw 3 lw 1611 1124 m21 6 lw 3 lw 1629 1135 m21 6 lw
 3 lw 1648 1124 m21 6 lw 3 lw 1667 1132 m21 6 lw 3 lw 1686 1143 m21 6 lw 3 lw 1705 1149 m21 6 lw 3 lw 1724 1132 m21 6 lw 3 lw 1742 1160 m21 6 lw 3 lw 1761 1137 m21 6 lw 3 lw 1780 1141 m21 6 lw 3 lw 1799 1134 m21 6 lw 3 lw 1818 1142 m21 6 lw 3 lw 1837
 1159 m21 6 lw 3 lw 1855 1148 m21 6 lw 3 lw 1874 1157 m21 6 lw 3 lw 1893 1144 m21 6 lw 3 lw 1912 1140 m21 6 lw 3 lw 1931 1154 m21 6 lw 3 lw 1949 1154 m21 6 lw 3 lw 1968 1146 m21 6 lw 3 lw 1987 1162 m21 6 lw 3 lw 2006 1151 m21 6 lw 3 lw 2025 1154 m21
 6 lw 3 lw 2044 1157 m21 6 lw 3 lw 2062 1149 m21 6 lw 3 lw 2081 1160 m21 6 lw 3 lw 2100 1164 m21 6 lw 3 lw 2119 1167 m21 6 lw 3 lw 2138 1151 m21 6 lw 2156 1163 m s 2156 1180 m s 3 lw 2156 1171 m21 6 lw 2175 1140 m s 2175 1157 m s 3 lw 2175 1148 m21 6
 lw 2194 1147 m s 2194 1165 m s 3 lw 2194 1156 m21 6 lw 2213 1151 m 1 Y s 2213 1169 m 1 Y s 3 lw 2213 1161 m21 6 lw black 1 1 1 c 680 447 1474 1675 bf black 1474 1675 m 680 X s 2154 1675 m 447 Y s 2154 2122 m -680 X s 1474 2122 m -447 Y s
 gsave  2268 2234 0 0 C 1643.95 1960.81 t 0 r /Helvetica findfont 130.721 sf 0 0 m (before) show NC gr  0 0 1 c 1559 1943 m 134 Y s 3 lw 1559 2010 m21 6 lw black
 gsave  2268 2234 0 0 C 1643.95 1737.73 t 0 r /Helvetica findfont 130.721 sf 0 0 m (after) show NC gr  1 0 0 c 1559 1720 m 134 Y s 3 lw 1559 1787 m21 6 lw black
 gsave  2268 2234 0 0 C 906.518 670.653 t 0 r /Helvetica-Bold findfont 72.4646 sf 0 0 m (DR PIONS) show NC gr 
 gsave  2268 2234 0 0 C 906.518 558.404 t 0 r /Helvetica-Bold findfont 72.4646 sf 0 0 m (ref. sample: EVENT MIX) show NC gr 
 gsave  2268 2234 0 0 C 906.518 447.576 t 0 r /Helvetica-Bold findfont 72.4646 sf 0 0 m (VELO tracks multiplicity: 11 \255 20) show NC gr 
 gr  gr showpage
end
%%EOF
