%!PS-Adobe-2.0 EPSF-2.0
%%BoundingBox:  0 0 567 558
%%Title: ./DR_pion_0c65_h3101_2_h3401_2.eps: DR_pion_0c65_h3101_2_h3401_2
%%Creator: ROOT Version 6.06/02
%%CreationDate: Wed Feb  1 16:20:58 2017
%%DocumentNeededResources: ProcSet (FontSetInit)
%%EndComments
%%BeginProlog
80 dict begin
/s {stroke} def /l {lineto} def /m {moveto} def /t {translate} def
/r {rotate} def /rl {roll}  def /R {repeat} def
/d {rlineto} def /rm {rmoveto} def /gr {grestore} def /f {eofill} def
/c {setrgbcolor} def /black {0 setgray} def /sd {setdash} def
/cl {closepath} def /sf {scalefont setfont} def /lw {setlinewidth} def
/box {m dup 0 exch d exch 0 d 0 exch neg d cl} def
/NC{systemdict begin initclip end}def/C{NC box clip newpath}def
/bl {box s} def /bf {gsave box gsave f grestore 1 lw [] 0 sd s grestore} def /Y { 0 exch d} def /X { 0 d} def 
/K {{pop pop 0 moveto} exch kshow} bind def
/ita {/ang 15 def gsave [1 0 ang dup sin exch cos div 1 0 0] concat} def 
/mp {newpath /y exch def /x exch def} def
/side {[w .77 mul w .23 mul] .385 w mul sd w 0 l currentpoint t -144 r} def
/mr {mp x y w2 0 360 arc} def /m24 {mr s} def /m20 {mr f} def
/mb {mp x y w2 add m w2 neg 0 d 0 w neg d w 0 d 0 w d cl} def
/mt {mp x y w2 add m w2 neg w neg d w 0 d cl} def
/m21 {mb f} def /m25 {mb s} def /m22 {mt f} def /m26{mt s} def
/m23 {mp x y w2 sub m w2 w d w neg 0 d cl f} def
/m27 {mp x y w2 add m w3 neg w2 neg d w3 w2 neg d w3 w2 d cl s} def
/m28 {mp x w2 sub y w2 sub w3 add m w3 0 d  0 w3 neg d w3 0 d 0 w3 d w3 0 d  0 w3 d w3 neg 0 d 0 w3 d w3 neg 0 d 0 w3 neg d w3 neg 0 d cl s } def
/m29 {mp gsave x w2 sub y w2 add w3 sub m currentpoint t 4 {side} repeat cl fill gr} def
/m30 {mp gsave x w2 sub y w2 add w3 sub m currentpoint t 4 {side} repeat cl s gr} def
/m31 {mp x y w2 sub m 0 w d x w2 sub y m w 0 d x w2 sub y w2 add m w w neg d x w2 sub y w2 sub m w w d s} def
/m32 {mp x y w2 sub m w2 w d w neg 0 d cl s} def
/m33 {mp x y w2 add m w3 neg w2 neg d w3 w2 neg d w3 w2 d cl f} def
/m34 {mp x w2 sub y w2 sub w3 add m w3 0 d  0 w3 neg d w3 0 d 0 w3 d w3 0 d  0 w3 d w3 neg 0 d 0 w3 d w3 neg 0 d 0 w3 neg d w3 neg 0 d cl f } def
/m2 {mp x y w2 sub m 0 w d x w2 sub y m w 0 d s} def
/m5 {mp x w2 sub y w2 sub m w w d x w2 sub y w2 add m w w neg d s} def
%%IncludeResource: ProcSet (FontSetInit)
%%IncludeResource: font Times-Roman
%%IncludeResource: font Times-Italic
%%IncludeResource: font Times-Bold
%%IncludeResource: font Times-BoldItalic
%%IncludeResource: font Helvetica
%%IncludeResource: font Helvetica-Oblique
%%IncludeResource: font Helvetica-Bold
%%IncludeResource: font Helvetica-BoldOblique
%%IncludeResource: font Courier
%%IncludeResource: font Courier-Oblique
%%IncludeResource: font Courier-Bold
%%IncludeResource: font Courier-BoldOblique
%%IncludeResource: font Symbol
%%IncludeResource: font ZapfDingbats
/reEncode {exch findfont dup length dict begin {1 index /FID eq  {pop pop} {def} ifelse } forall /Encoding exch def currentdict end dup /FontName get exch definefont pop } def [/Times-Bold /Times-Italic /Times-BoldItalic /Helvetica /Helvetica-Oblique
 /Helvetica-Bold /Helvetica-BoldOblique /Courier /Courier-Oblique /Courier-Bold /Courier-BoldOblique /Times-Roman /AvantGarde-Book /AvantGarde-BookOblique /AvantGarde-Demi /AvantGarde-DemiOblique /Bookman-Demi /Bookman-DemiItalic /Bookman-Light
 /Bookman-LightItalic /Helvetica-Narrow /Helvetica-Narrow-Bold /Helvetica-Narrow-BoldOblique /Helvetica-Narrow-Oblique /NewCenturySchlbk-Roman /NewCenturySchlbk-Bold /NewCenturySchlbk-BoldItalic /NewCenturySchlbk-Italic /Palatino-Bold
 /Palatino-BoldItalic /Palatino-Italic /Palatino-Roman ] {ISOLatin1Encoding reEncode } forall
%%EndProlog
%%BeginSetup
%%EndSetup
newpath  gsave  .25 .25 scale  gsave  0 0 t black[  ] 0 sd 6 lw 1 1 1 c 2268 2234 0 0 bf black 3 lw 1 1 1 c 1882 1966 340 223 bf black 1882 1966 340 223 bl 1 1 1 c 1882 1966 340 223 bf black 1882 1966 340 223 bl 0 0 1 c 6 lw 1 1 1 c 0 0 1 c 390 1166
 m 20 Y s 390 1197 m 20 Y s 3 lw /w 14 def /w2 {w 2 div} def /w3 {w 3 div} def 390 1192 m21 6 lw 394 1158 m 17 Y s 394 1187 m 17 Y s 3 lw 394 1181 m21 6 lw 399 1190 m 16 Y s 399 1218 m 16 Y s 3 lw 399 1212 m21 6 lw 404 1147 m 14 Y s 404 1172 m 15 Y s
 3 lw 404 1167 m21 6 lw 408 1136 m 13 Y s 408 1160 m 13 Y s 3 lw 408 1155 m21 6 lw 413 1134 m 12 Y s 413 1157 m 12 Y s 3 lw 413 1152 m21 6 lw 418 1134 m 11 Y s 418 1156 m 11 Y s 3 lw 418 1150 m21 6 lw 423 1134 m 10 Y s 423 1155 m 10 Y s 3 lw 423 1150
 m21 6 lw 427 1127 m 10 Y s 427 1148 m 9 Y s 3 lw 427 1142 m21 6 lw 432 1109 m 8 Y s 432 1129 m 8 Y s 3 lw 432 1123 m21 6 lw 437 1150 m 8 Y s 437 1169 m 9 Y s 3 lw 437 1164 m21 6 lw 441 1120 m 8 Y s 441 1139 m 7 Y s 3 lw 441 1133 m21 6 lw 446 1136 m
 7 Y s 446 1154 m 8 Y s 3 lw 446 1149 m21 6 lw 451 1119 m 7 Y s 451 1137 m 7 Y s 3 lw 451 1131 m21 6 lw 455 1126 m 7 Y s 455 1144 m 6 Y s 3 lw 455 1138 m21 6 lw 460 1105 m 6 Y s 460 1122 m 6 Y s 3 lw 460 1117 m21 6 lw 465 1102 m 6 Y s 465 1119 m 6 Y
 s 3 lw 465 1114 m21 6 lw 470 1106 m 5 Y s 470 1123 m 5 Y s 3 lw 470 1117 m21 6 lw 474 1104 m 5 Y s 474 1120 m 5 Y s 3 lw 474 1115 m21 6 lw 479 1088 m 5 Y s 479 1104 m 5 Y s 3 lw 479 1098 m21 6 lw 484 1086 m 5 Y s 484 1102 m 4 Y s 3 lw 484 1096 m21 6
 lw 488 1095 m 4 Y s 488 1111 m 4 Y s 3 lw 488 1105 m21 6 lw 493 1083 m 4 Y s 493 1099 m 4 Y s 3 lw 493 1093 m21 6 lw 498 1097 m 3 Y s 498 1112 m 4 Y s 3 lw 498 1106 m21 6 lw 502 1088 m 3 Y s 502 1103 m 3 Y s 3 lw 502 1097 m21 6 lw 507 1087 m 4 Y s
 507 1102 m 4 Y s 3 lw 507 1096 m21 6 lw 512 1073 m 3 Y s 512 1087 m 3 Y s 3 lw 512 1081 m21 6 lw 517 1086 m 4 Y s 517 1101 m 3 Y s 3 lw 517 1095 m21 6 lw 521 1077 m 3 Y s 521 1092 m 3 Y s 3 lw 521 1086 m21 6 lw 526 1073 m 3 Y s 526 1088 m 2 Y s 3 lw
 526 1082 m21 6 lw 531 1080 m 2 Y s 531 1094 m 2 Y s 3 lw 531 1088 m21 6 lw 535 1069 m 3 Y s 535 1083 m 3 Y s 3 lw 535 1078 m21 6 lw 540 1054 m 2 Y s 540 1067 m 3 Y s 3 lw 540 1062 m21 6 lw 545 1058 m 2 Y s 545 1072 m 2 Y s 3 lw 545 1066 m21 6 lw 550
 1066 m 2 Y s 550 1079 m 2 Y s 3 lw 550 1073 m21 6 lw 554 1060 m 2 Y s 554 1074 m 2 Y s 3 lw 554 1068 m21 6 lw 559 1071 m 2 Y s 559 1084 m 2 Y s 3 lw 559 1078 m21 6 lw 564 1051 m 2 Y s 564 1064 m 2 Y s 3 lw 564 1058 m21 6 lw 568 1055 m 2 Y s 568 1069
 m 1 Y s 3 lw 568 1063 m21 6 lw 573 1059 m 1 Y s 573 1072 m 2 Y s 3 lw 573 1066 m21 6 lw 578 1046 m 2 Y s 578 1059 m 2 Y s 3 lw 578 1054 m21 6 lw 582 1059 m 2 Y s 582 1072 m 2 Y s 3 lw 582 1066 m21 6 lw 587 1063 m 2 Y s 587 1076 m 2 Y s 3 lw 587 1071
 m21 6 lw 592 1051 m 2 Y s 592 1064 m 2 Y s 3 lw 592 1058 m21 6 lw 597 1053 m 2 Y s 597 1066 m 1 Y s 3 lw 597 1060 m21 6 lw 601 1064 m 2 Y s 601 1077 m 1 Y s 3 lw 601 1071 m21 6 lw 606 1062 m 2 Y s 606 1075 m 1 Y s 3 lw 606 1069 m21 6 lw 611 1076 m 1
 Y s 611 1088 m 2 Y s 3 lw 611 1083 m21 6 lw 615 1059 m 1 Y s 615 1072 m 1 Y s 3 lw 615 1066 m21 6 lw 620 1078 m 1 Y s 620 1090 m 1 Y s 3 lw 620 1084 m21 6 lw 625 1075 m 1 Y s 625 1087 m 1 Y s 3 lw 625 1081 m21 6 lw 630 1084 m 1 Y s 630 1096 m 1 Y s
 3 lw 630 1091 m21 6 lw 634 1103 m 1 Y s 634 1115 m 1 Y s 3 lw 634 1110 m21 6 lw 639 1081 m 1 Y s 639 1093 m 2 Y s 3 lw 639 1088 m21 6 lw 644 1101 m 1 Y s 644 1113 m 1 Y s 3 lw 644 1107 m21 6 lw 648 1084 m 1 Y s 648 1096 m 1 Y s 3 lw 648 1090 m21 6
 lw 653 1085 m 1 Y s 653 1097 m 1 Y s 3 lw 653 1091 m21 6 lw 658 1090 m 1 Y s 658 1102 m 1 Y s 3 lw 658 1097 m21 6 lw 662 1089 m 1 Y s 662 1102 m 1 Y s 3 lw 662 1096 m21 6 lw 667 1081 m 1 Y s 667 1094 m s 3 lw 667 1088 m21 6 lw 672 1092 m 1 Y s 672
 1104 m 1 Y s 3 lw 672 1099 m21 6 lw 677 1099 m 1 Y s 677 1112 m s 3 lw 677 1106 m21 6 lw 681 1094 m 1 Y s 681 1107 m s 3 lw 681 1101 m21 6 lw 686 1097 m s 686 1109 m s 3 lw 686 1103 m21 6 lw 691 1092 m s 691 1104 m s 3 lw 691 1098 m21 6 lw 695 1092
 m s 695 1104 m s 3 lw 695 1098 m21 6 lw 700 1086 m s 700 1097 m 1 Y s 3 lw 700 1092 m21 6 lw 705 1095 m 1 Y s 705 1107 m 1 Y s 3 lw 705 1101 m21 6 lw 710 1099 m s 710 1110 m 1 Y s 3 lw 710 1105 m21 6 lw 714 1088 m s 714 1100 m s 3 lw 714 1094 m21 6
 lw 719 1098 m s 719 1110 m s 3 lw 719 1104 m21 6 lw 724 1099 m 1 Y s 724 1111 m s 3 lw 724 1105 m21 6 lw 728 1091 m s 728 1102 m 1 Y s 3 lw 728 1097 m21 6 lw 733 1107 m 1 Y s 733 1119 m 1 Y s 3 lw 733 1114 m21 6 lw 738 1102 m s 738 1114 m s 3 lw 738
 1108 m21 6 lw 742 1108 m s 742 1119 m 1 Y s 3 lw 742 1114 m21 6 lw 747 1116 m 1 Y s 747 1128 m 1 Y s 3 lw 747 1123 m21 6 lw 752 1110 m s 752 1122 m s 3 lw 752 1116 m21 6 lw 757 1106 m s 757 1117 m 1 Y s 3 lw 757 1112 m21 6 lw 761 1106 m s 761 1118 m
 s 3 lw 761 1112 m21 6 lw 766 1105 m s 766 1116 m s 3 lw 766 1110 m21 6 lw 771 1118 m s 771 1130 m s 3 lw 771 1124 m21 6 lw 775 1114 m s 775 1126 m s 3 lw 775 1120 m21 6 lw 780 1108 m s 780 1120 m s 3 lw 780 1114 m21 6 lw 785 1107 m s 785 1118 m s 3
 lw 785 1112 m21 6 lw 790 1118 m s 790 1130 m s 3 lw 790 1124 m21 6 lw 794 1120 m s 794 1131 m 1 Y s 3 lw 794 1126 m21 6 lw 799 1109 m s 799 1121 m s 3 lw 799 1115 m21 6 lw 804 1113 m s 804 1124 m s 3 lw 804 1118 m21 6 lw 808 1123 m 1 Y s 808 1135 m
 s 3 lw 808 1129 m21 6 lw 813 1126 m 1 Y s 813 1138 m s 3 lw 813 1132 m21 6 lw 818 1104 m s 818 1115 m s 3 lw 818 1109 m21 6 lw 822 1121 m s 822 1132 m s 3 lw 822 1126 m21 6 lw 827 1130 m s 827 1142 m s 3 lw 827 1136 m21 6 lw 832 1121 m s 832 1132 m
 s 3 lw 832 1126 m21 6 lw 837 1128 m s 837 1140 m s 3 lw 837 1134 m21 6 lw 841 1122 m 1 Y s 841 1134 m s 3 lw 841 1128 m21 6 lw 846 1127 m s 846 1139 m s 3 lw 846 1133 m21 6 lw 851 1131 m s 851 1142 m s 3 lw 851 1136 m21 6 lw 855 1130 m s 855 1141 m
 1 Y s 3 lw 855 1136 m21 6 lw 860 1131 m s 860 1142 m s 3 lw 860 1136 m21 6 lw 865 1144 m s 865 1156 m s 3 lw 865 1150 m21 6 lw 870 1138 m s 870 1150 m s 3 lw 870 1144 m21 6 lw 874 1138 m s 874 1150 m s 3 lw 874 1144 m21 6 lw 879 1130 m s 879 1142 m
 s 3 lw 879 1136 m21 6 lw 884 1131 m s 884 1143 m s 3 lw 884 1137 m21 6 lw 888 1144 m s 888 1156 m s 3 lw 888 1150 m21 6 lw 893 1145 m s 893 1157 m s 3 lw 893 1151 m21 6 lw 898 1140 m s 898 1152 m s 3 lw 898 1146 m21 6 lw 902 1132 m s 902 1144 m s 3
 lw 902 1138 m21 6 lw 907 1136 m s 907 1148 m s 3 lw 907 1142 m21 6 lw 912 1132 m s 912 1144 m s 3 lw 912 1138 m21 6 lw 917 1121 m s 917 1132 m 1 Y s 3 lw 917 1127 m21 6 lw 921 1128 m s 921 1139 m 1 Y s 3 lw 921 1134 m21 6 lw 926 1148 m s 926 1159 m
 1 Y s 3 lw 926 1154 m21 6 lw 931 1132 m s 931 1143 m s 3 lw 931 1138 m21 6 lw 935 1125 m s 935 1136 m s 3 lw 935 1130 m21 6 lw 940 1122 m s 940 1133 m 1 Y s 3 lw 940 1128 m21 6 lw 945 1116 m s 945 1128 m s 3 lw 945 1122 m21 6 lw 950 1123 m s 950
 1135 m s 3 lw 950 1129 m21 6 lw 954 1109 m s 954 1120 m 1 Y s 3 lw 954 1115 m21 6 lw 959 1113 m s 959 1124 m s 3 lw 959 1118 m21 6 lw 964 1128 m s 964 1139 m 1 Y s 3 lw 964 1134 m21 6 lw 968 1112 m s 968 1124 m s 3 lw 968 1118 m21 6 lw 973 1106 m 1
 Y s 973 1118 m s 3 lw 973 1112 m21 6 lw 978 1102 m s 978 1114 m s 3 lw 978 1108 m21 6 lw 982 1088 m s 982 1099 m s 3 lw 982 1094 m21 6 lw 987 1083 m 1 Y s 987 1095 m s 3 lw 987 1089 m21 6 lw 992 1096 m s 992 1107 m 1 Y s 3 lw 992 1102 m21 6 lw 997
 1076 m 1 Y s 997 1088 m s 3 lw 997 1082 m21 6 lw 1001 1074 m s 1001 1085 m s 3 lw 1001 1079 m21 6 lw 1006 1073 m 1 Y s 1006 1085 m s 3 lw 1006 1079 m21 6 lw 1011 1066 m 1 Y s 1011 1078 m s 3 lw 1011 1072 m21 6 lw 1015 1062 m s 1015 1073 m s 3 lw
 1015 1068 m21 6 lw 1020 1054 m s 1020 1065 m 1 Y s 3 lw 1020 1060 m21 6 lw 1025 1051 m s 1025 1062 m s 3 lw 1025 1057 m21 6 lw 1030 1045 m s 1030 1057 m s 3 lw 1030 1051 m21 6 lw 1034 1038 m s 1034 1050 m s 3 lw 1034 1044 m21 6 lw 1039 1058 m s 1039
 1070 m s 3 lw 1039 1064 m21 6 lw 1044 1053 m s 1044 1065 m s 3 lw 1044 1059 m21 6 lw 1048 1060 m s 1048 1071 m 1 Y s 3 lw 1048 1066 m21 6 lw 1053 1046 m s 1053 1057 m s 3 lw 1053 1051 m21 6 lw 1058 1059 m s 1058 1071 m s 3 lw 1058 1065 m21 6 lw 1062
 1059 m s 1062 1070 m 1 Y s 3 lw 1062 1065 m21 6 lw 1067 1063 m s 1067 1074 m 1 Y s 3 lw 1067 1069 m21 6 lw 1072 1059 m s 1072 1071 m s 3 lw 1072 1065 m21 6 lw 1077 1048 m s 1077 1060 m s 3 lw 1077 1054 m21 6 lw 1081 1067 m s 1081 1079 m s 3 lw 1081
 1073 m21 6 lw 1086 1077 m s 1086 1088 m 1 Y s 3 lw 1086 1083 m21 6 lw 1091 1068 m s 1091 1079 m 1 Y s 3 lw 1091 1074 m21 6 lw 1095 1068 m s 1095 1079 m 1 Y s 3 lw 1095 1074 m21 6 lw 1100 1080 m s 1100 1092 m s 3 lw 1100 1086 m21 6 lw 1105 1074 m 1 Y
 s 1105 1086 m 1 Y s 3 lw 1105 1081 m21 6 lw 1110 1069 m 1 Y s 1110 1081 m s 3 lw 1110 1075 m21 6 lw 1114 1072 m s 1114 1083 m 1 Y s 3 lw 1114 1078 m21 6 lw 1119 1064 m s 1119 1076 m s 3 lw 1119 1070 m21 6 lw 1124 1084 m s 1124 1096 m s 3 lw 1124
 1090 m21 6 lw 1128 1085 m s 1128 1097 m s 3 lw 1128 1091 m21 6 lw 1133 1081 m s 1133 1093 m s 3 lw 1133 1087 m21 6 lw 1138 1079 m s 1138 1091 m s 3 lw 1138 1085 m21 6 lw 1142 1097 m 1 Y s 1142 1109 m 1 Y s 3 lw 1142 1104 m21 6 lw 1147 1094 m 1 Y s
 1147 1106 m 1 Y s 3 lw 1147 1101 m21 6 lw 1152 1100 m s 1152 1112 m s 3 lw 1152 1106 m21 6 lw 1157 1092 m 1 Y s 1157 1104 m 1 Y s 3 lw 1157 1099 m21 6 lw 1161 1083 m s 1161 1095 m s 3 lw 1161 1089 m21 6 lw 1166 1099 m 1 Y s 1166 1111 m 1 Y s 3 lw
 1166 1105 m21 6 lw 1171 1102 m 1 Y s 1171 1114 m 1 Y s 3 lw 1171 1109 m21 6 lw 1175 1107 m s 1175 1119 m 1 Y s 3 lw 1175 1113 m21 6 lw 1180 1097 m 1 Y s 1180 1110 m 1 Y s 3 lw 1180 1104 m21 6 lw 1185 1095 m s 1185 1107 m 1 Y s 3 lw 1185 1101 m21 6
 lw 1190 1108 m 1 Y s 1190 1120 m 1 Y s 3 lw 1190 1114 m21 6 lw 1194 1113 m 1 Y s 1194 1125 m 1 Y s 3 lw 1194 1119 m21 6 lw 1199 1115 m 1 Y s 1199 1127 m 1 Y s 3 lw 1199 1122 m21 6 lw 1204 1126 m 1 Y s 1204 1139 m 1 Y s 3 lw 1204 1133 m21 6 lw 1208
 1126 m 1 Y s 1208 1139 m 1 Y s 3 lw 1208 1133 m21 6 lw 1213 1122 m 1 Y s 1213 1134 m 1 Y s 3 lw 1213 1129 m21 6 lw 1218 1124 m 1 Y s 1218 1136 m 2 Y s 3 lw 1218 1131 m21 6 lw 1222 1122 m 1 Y s 1222 1134 m 1 Y s 3 lw 1222 1128 m21 6 lw 1227 1133 m 1
 Y s 1227 1145 m 2 Y s 3 lw 1227 1140 m21 6 lw 1232 1127 m 1 Y s 1232 1139 m 1 Y s 3 lw 1232 1133 m21 6 lw 1237 1130 m 1 Y s 1237 1143 m 1 Y s 3 lw 1237 1137 m21 6 lw 1241 1108 m 1 Y s 1241 1121 m 1 Y s 3 lw 1241 1115 m21 6 lw 1246 1111 m 1 Y s 1246
 1123 m 2 Y s 3 lw 1246 1118 m21 6 lw 1251 1117 m 1 Y s 1251 1130 m 1 Y s 3 lw 1251 1124 m21 6 lw 1255 1106 m 1 Y s 1255 1119 m 1 Y s 3 lw 1255 1113 m21 6 lw 1260 1112 m 2 Y s 1260 1125 m 2 Y s 3 lw 1260 1120 m21 6 lw 1265 1108 m 2 Y s 1265 1121 m 2
 Y s 3 lw 1265 1116 m21 6 lw 1269 1110 m 2 Y s 1269 1123 m 2 Y s 3 lw 1269 1118 m21 6 lw 1274 1114 m 2 Y s 1274 1127 m 2 Y s 3 lw 1274 1122 m21 6 lw 1279 1120 m 2 Y s 1279 1133 m 2 Y s 3 lw 1279 1127 m21 6 lw 1284 1093 m 2 Y s 1284 1106 m 1 Y s 3 lw
 1284 1100 m21 6 lw 1288 1094 m 1 Y s 1288 1107 m 1 Y s 3 lw 1288 1101 m21 6 lw 1293 1092 m 1 Y s 1293 1105 m 1 Y s 3 lw 1293 1099 m21 6 lw 1298 1112 m 2 Y s 1298 1125 m 2 Y s 3 lw 1298 1120 m21 6 lw 1302 1104 m 2 Y s 1302 1117 m 2 Y s 3 lw 1302 1111
 m21 6 lw 1307 1119 m 2 Y s 1307 1132 m 2 Y s 3 lw 1307 1126 m21 6 lw 1312 1111 m 1 Y s 1312 1124 m 1 Y s 3 lw 1312 1118 m21 6 lw 1317 1109 m 2 Y s 1317 1123 m 1 Y s 3 lw 1317 1117 m21 6 lw 1321 1121 m 1 Y s 1321 1134 m 2 Y s 3 lw 1321 1128 m21 6 lw
 1326 1109 m 2 Y s 1326 1123 m 1 Y s 3 lw 1326 1117 m21 6 lw 1331 1095 m 2 Y s 1331 1108 m 2 Y s 3 lw 1331 1102 m21 6 lw 1335 1124 m 2 Y s 1335 1137 m 2 Y s 3 lw 1335 1131 m21 6 lw 1340 1113 m 2 Y s 1340 1126 m 2 Y s 3 lw 1340 1120 m21 6 lw 1345 1113
 m 2 Y s 1345 1126 m 2 Y s 3 lw 1345 1120 m21 6 lw 1349 1117 m 2 Y s 1349 1131 m 2 Y s 3 lw 1349 1125 m21 6 lw 1354 1113 m 2 Y s 1354 1127 m 2 Y s 3 lw 1354 1121 m21 6 lw 1359 1113 m 2 Y s 1359 1126 m 2 Y s 3 lw 1359 1121 m21 6 lw 1364 1118 m 2 Y s
 1364 1131 m 2 Y s 3 lw 1364 1126 m21 6 lw 1368 1126 m 2 Y s 1368 1139 m 2 Y s 3 lw 1368 1134 m21 6 lw 1373 1111 m 3 Y s 1373 1125 m 2 Y s 3 lw 1373 1119 m21 6 lw 1378 1119 m 3 Y s 1378 1133 m 2 Y s 3 lw 1378 1127 m21 6 lw 1382 1133 m 2 Y s 1382 1146
 m 2 Y s 3 lw 1382 1140 m21 6 lw 1387 1123 m 2 Y s 1387 1136 m 3 Y s 3 lw 1387 1131 m21 6 lw 1392 1124 m 2 Y s 1392 1137 m 3 Y s 3 lw 1392 1132 m21 6 lw 1397 1114 m 3 Y s 1397 1128 m 2 Y s 3 lw 1397 1122 m21 6 lw 1401 1121 m 3 Y s 1401 1135 m 3 Y s 3
 lw 1401 1130 m21 6 lw 1406 1120 m 2 Y s 1406 1133 m 3 Y s 3 lw 1406 1128 m21 6 lw 1411 1116 m 2 Y s 1411 1130 m 2 Y s 3 lw 1411 1124 m21 6 lw 1415 1109 m 3 Y s 1415 1123 m 3 Y s 3 lw 1415 1118 m21 6 lw 1420 1107 m 3 Y s 1420 1121 m 3 Y s 3 lw 1420
 1115 m21 6 lw 1425 1120 m 2 Y s 1425 1134 m 2 Y s 3 lw 1425 1128 m21 6 lw 1429 1140 m 3 Y s 1429 1154 m 3 Y s 3 lw 1429 1148 m21 6 lw 1434 1143 m 2 Y s 1434 1157 m 3 Y s 3 lw 1434 1151 m21 6 lw 1439 1138 m 3 Y s 1439 1153 m 2 Y s 3 lw 1439 1147 m21
 6 lw 1444 1121 m 3 Y s 1444 1135 m 3 Y s 3 lw 1444 1129 m21 6 lw 1448 1119 m 3 Y s 1448 1133 m 3 Y s 3 lw 1448 1127 m21 6 lw 1453 1123 m 2 Y s 1453 1137 m 2 Y s 3 lw 1453 1131 m21 6 lw 1458 1146 m 3 Y s 1458 1160 m 3 Y s 3 lw 1458 1155 m21 6 lw 1462
 1140 m 3 Y s 1462 1154 m 3 Y s 3 lw 1462 1149 m21 6 lw 1467 1141 m 3 Y s 1467 1155 m 3 Y s 3 lw 1467 1149 m21 6 lw 1472 1133 m 3 Y s 1472 1147 m 3 Y s 3 lw 1472 1141 m21 6 lw 1477 1130 m 3 Y s 1477 1144 m 3 Y s 3 lw 1477 1139 m21 6 lw 1481 1125 m 3
 Y s 1481 1139 m 3 Y s 3 lw 1481 1134 m21 6 lw 1486 1144 m 3 Y s 1486 1158 m 3 Y s 3 lw 1486 1153 m21 6 lw 1491 1144 m 3 Y s 1491 1158 m 3 Y s 3 lw 1491 1153 m21 6 lw 1495 1126 m 3 Y s 1495 1140 m 4 Y s 3 lw 1495 1135 m21 6 lw 1500 1131 m 3 Y s 1500
 1145 m 3 Y s 3 lw 1500 1140 m21 6 lw 1505 1124 m 4 Y s 1505 1139 m 3 Y s 3 lw 1505 1133 m21 6 lw 1509 1129 m 4 Y s 1509 1144 m 3 Y s 3 lw 1509 1138 m21 6 lw 1514 1120 m 3 Y s 1514 1135 m 3 Y s 3 lw 1514 1129 m21 6 lw 1519 1124 m 3 Y s 1519 1138 m 4
 Y s 3 lw 1519 1133 m21 6 lw 1524 1135 m 4 Y s 1524 1150 m 4 Y s 3 lw 1524 1144 m21 6 lw 1528 1151 m 4 Y s 1528 1166 m 3 Y s 3 lw 1528 1160 m21 6 lw 1533 1118 m 3 Y s 1533 1133 m 3 Y s 3 lw 1533 1127 m21 6 lw 1538 1143 m 4 Y s 1538 1158 m 4 Y s 3 lw
 1538 1153 m21 6 lw 1542 1122 m 3 Y s 1542 1137 m 3 Y s 3 lw 1542 1131 m21 6 lw 1547 1127 m 4 Y s 1547 1142 m 4 Y s 3 lw 1547 1136 m21 6 lw 1552 1129 m 4 Y s 1552 1144 m 4 Y s 3 lw 1552 1139 m21 6 lw 1557 1127 m 4 Y s 1557 1142 m 4 Y s 3 lw 1557 1137
 m21 6 lw 1561 1123 m 4 Y s 1561 1138 m 4 Y s 3 lw 1561 1132 m21 6 lw 1566 1133 m 4 Y s 1566 1148 m 4 Y s 3 lw 1566 1143 m21 6 lw 1571 1134 m 4 Y s 1571 1149 m 4 Y s 3 lw 1571 1144 m21 6 lw 1575 1121 m 4 Y s 1575 1136 m 4 Y s 3 lw 1575 1131 m21 6 lw
 1580 1123 m 4 Y s 1580 1139 m 3 Y s 3 lw 1580 1133 m21 6 lw 1585 1133 m 4 Y s 1585 1149 m 4 Y s 3 lw 1585 1143 m21 6 lw 1589 1116 m 4 Y s 1589 1132 m 3 Y s 3 lw 1589 1126 m21 6 lw 1594 1133 m 4 Y s 1594 1149 m 4 Y s 3 lw 1594 1143 m21 6 lw 1599 1126
 m 4 Y s 1599 1141 m 4 Y s 3 lw 1599 1136 m21 6 lw 1604 1129 m 4 Y s 1604 1144 m 4 Y s 3 lw 1604 1139 m21 6 lw 1608 1129 m 4 Y s 1608 1145 m 4 Y s 3 lw 1608 1139 m21 6 lw 1613 1138 m 5 Y s 1613 1154 m 4 Y s 3 lw 1613 1148 m21 6 lw 1618 1138 m 5 Y s
 1618 1154 m 4 Y s 3 lw 1618 1148 m21 6 lw 1622 1136 m 4 Y s 1622 1151 m 5 Y s 3 lw 1622 1146 m21 6 lw 1627 1148 m 5 Y s 1627 1164 m 5 Y s 3 lw 1627 1158 m21 6 lw 1632 1145 m 4 Y s 1632 1160 m 5 Y s 3 lw 1632 1155 m21 6 lw 1637 1143 m 4 Y s 1637 1158
 m 5 Y s 3 lw 1637 1153 m21 6 lw 1641 1141 m 5 Y s 1641 1157 m 5 Y s 3 lw 1641 1152 m21 6 lw 1646 1123 m 4 Y s 1646 1139 m 4 Y s 3 lw 1646 1133 m21 6 lw 1651 1112 m 4 Y s 1651 1127 m 5 Y s 3 lw 1651 1122 m21 6 lw 1655 1149 m 4 Y s 1655 1165 m 4 Y s 3
 lw 1655 1159 m21 6 lw 1660 1136 m 5 Y s 1660 1152 m 5 Y s 3 lw 1660 1147 m21 6 lw 1665 1130 m 5 Y s 1665 1146 m 5 Y s 3 lw 1665 1141 m21 6 lw 1669 1127 m 5 Y s 1669 1144 m 4 Y s 3 lw 1669 1138 m21 6 lw 1674 1134 m 5 Y s 1674 1150 m 5 Y s 3 lw 1674
 1144 m21 6 lw 1679 1154 m 5 Y s 1679 1170 m 5 Y s 3 lw 1679 1165 m21 6 lw 1684 1153 m 5 Y s 1684 1169 m 5 Y s 3 lw 1684 1164 m21 6 lw 1688 1147 m 5 Y s 1688 1163 m 5 Y s 3 lw 1688 1158 m21 6 lw 1693 1129 m 5 Y s 1693 1145 m 5 Y s 3 lw 1693 1140 m21
 6 lw 1698 1148 m 5 Y s 1698 1165 m 5 Y s 3 lw 1698 1159 m21 6 lw 1702 1152 m 6 Y s 1702 1169 m 5 Y s 3 lw 1702 1163 m21 6 lw 1707 1161 m 5 Y s 1707 1177 m 6 Y s 3 lw 1707 1172 m21 6 lw 1712 1133 m 5 Y s 1712 1149 m 5 Y s 3 lw 1712 1144 m21 6 lw 1717
 1145 m 5 Y s 1717 1162 m 5 Y s 3 lw 1717 1156 m21 6 lw 1721 1129 m 5 Y s 1721 1145 m 6 Y s 3 lw 1721 1140 m21 6 lw 1726 1123 m 6 Y s 1726 1140 m 5 Y s 3 lw 1726 1134 m21 6 lw 1731 1131 m 6 Y s 1731 1148 m 5 Y s 3 lw 1731 1142 m21 6 lw 1735 1163 m 6
 Y s 1735 1180 m 6 Y s 3 lw 1735 1175 m21 6 lw 1740 1140 m 6 Y s 1740 1157 m 6 Y s 3 lw 1740 1151 m21 6 lw 1745 1159 m 6 Y s 1745 1176 m 6 Y s 3 lw 1745 1170 m21 6 lw 1749 1159 m 6 Y s 1749 1176 m 6 Y s 3 lw 1749 1170 m21 6 lw 1754 1153 m 6 Y s 1754
 1170 m 6 Y s 3 lw 1754 1164 m21 6 lw 1759 1138 m 6 Y s 1759 1155 m 6 Y s 3 lw 1759 1150 m21 6 lw 1764 1142 m 6 Y s 1764 1159 m 6 Y s 3 lw 1764 1153 m21 6 lw 1768 1146 m 6 Y s 1768 1164 m 6 Y s 3 lw 1768 1158 m21 6 lw 1773 1155 m 6 Y s 1773 1172 m 6
 Y s 3 lw 1773 1166 m21 6 lw 1778 1136 m 6 Y s 1778 1154 m 6 Y s 3 lw 1778 1148 m21 6 lw 1782 1158 m 6 Y s 1782 1176 m 6 Y s 3 lw 1782 1170 m21 6 lw 1787 1116 m 6 Y s 1787 1134 m 6 Y s 3 lw 1787 1128 m21 6 lw 1792 1149 m 7 Y s 1792 1167 m 6 Y s 3 lw
 1792 1161 m21 6 lw 1797 1150 m 6 Y s 1797 1168 m 6 Y s 3 lw 1797 1162 m21 6 lw 1801 1154 m 7 Y s 1801 1172 m 6 Y s 3 lw 1801 1166 m21 6 lw 1806 1153 m 6 Y s 1806 1171 m 6 Y s 3 lw 1806 1165 m21 6 lw 1811 1156 m 7 Y s 1811 1174 m 7 Y s 3 lw 1811 1168
 m21 6 lw 1815 1130 m 6 Y s 1815 1147 m 7 Y s 3 lw 1815 1142 m21 6 lw 1820 1161 m 6 Y s 1820 1179 m 6 Y s 3 lw 1820 1173 m21 6 lw 1825 1154 m 7 Y s 1825 1173 m 6 Y s 3 lw 1825 1167 m21 6 lw 1829 1140 m 7 Y s 1829 1158 m 7 Y s 3 lw 1829 1152 m21 6 lw
 1834 1134 m 7 Y s 1834 1152 m 7 Y s 3 lw 1834 1147 m21 6 lw 1839 1158 m 7 Y s 1839 1177 m 6 Y s 3 lw 1839 1171 m21 6 lw 1844 1173 m 7 Y s 1844 1192 m 7 Y s 3 lw 1844 1186 m21 6 lw 1848 1168 m 7 Y s 1848 1187 m 7 Y s 3 lw 1848 1181 m21 6 lw 1853 1152
 m 7 Y s 1853 1170 m 7 Y s 3 lw 1853 1164 m21 6 lw 1858 1165 m 7 Y s 1858 1183 m 7 Y s 3 lw 1858 1177 m21 6 lw 1862 1150 m 7 Y s 1862 1168 m 7 Y s 3 lw 1862 1163 m21 6 lw 1867 1169 m 7 Y s 1867 1188 m 7 Y s 3 lw 1867 1182 m21 6 lw 1872 1141 m 7 Y s
 1872 1160 m 7 Y s 3 lw 1872 1154 m21 6 lw 1877 1160 m 7 Y s 1877 1179 m 7 Y s 3 lw 1877 1173 m21 6 lw 1881 1152 m 8 Y s 1881 1171 m 7 Y s 3 lw 1881 1165 m21 6 lw 1886 1150 m 8 Y s 1886 1169 m 8 Y s 3 lw 1886 1163 m21 6 lw 1891 1164 m 8 Y s 1891 1183
 m 8 Y s 3 lw 1891 1177 m21 6 lw 1895 1156 m 8 Y s 1895 1175 m 8 Y s 3 lw 1895 1169 m21 6 lw 1900 1142 m 7 Y s 1900 1160 m 8 Y s 3 lw 1900 1155 m21 6 lw 1905 1140 m 7 Y s 1905 1158 m 8 Y s 3 lw 1905 1153 m21 6 lw 1909 1152 m 8 Y s 1909 1171 m 8 Y s 3
 lw 1909 1165 m21 6 lw 1914 1146 m 8 Y s 1914 1165 m 8 Y s 3 lw 1914 1160 m21 6 lw 1919 1170 m 8 Y s 1919 1190 m 8 Y s 3 lw 1919 1184 m21 6 lw 1924 1152 m 8 Y s 1924 1171 m 8 Y s 3 lw 1924 1165 m21 6 lw 1928 1172 m 9 Y s 1928 1192 m 8 Y s 3 lw 1928
 1186 m21 6 lw 1933 1167 m 9 Y s 1933 1187 m 8 Y s 3 lw 1933 1181 m21 6 lw 1938 1147 m 8 Y s 1938 1167 m 8 Y s 3 lw 1938 1161 m21 6 lw 1942 1196 m 8 Y s 1942 1216 m 8 Y s 3 lw 1942 1210 m21 6 lw 1947 1146 m 8 Y s 1947 1166 m 8 Y s 3 lw 1947 1160 m21
 6 lw 1952 1163 m 8 Y s 1952 1183 m 8 Y s 3 lw 1952 1177 m21 6 lw 1957 1125 m 8 Y s 1957 1144 m 9 Y s 3 lw 1957 1139 m21 6 lw 1961 1144 m 8 Y s 1961 1164 m 8 Y s 3 lw 1961 1158 m21 6 lw 1966 1177 m 9 Y s 1966 1197 m 9 Y s 3 lw 1966 1191 m21 6 lw 1971
 1144 m 9 Y s 1971 1164 m 9 Y s 3 lw 1971 1158 m21 6 lw 1975 1167 m 9 Y s 1975 1187 m 9 Y s 3 lw 1975 1181 m21 6 lw 1980 1161 m 9 Y s 1980 1181 m 9 Y s 3 lw 1980 1176 m21 6 lw 1985 1153 m 8 Y s 1985 1173 m 9 Y s 3 lw 1985 1167 m21 6 lw 1989 1158 m 9
 Y s 1989 1178 m 9 Y s 3 lw 1989 1172 m21 6 lw 1994 1171 m 9 Y s 1994 1192 m 9 Y s 3 lw 1994 1186 m21 6 lw 1999 1151 m 9 Y s 1999 1171 m 9 Y s 3 lw 1999 1165 m21 6 lw 2004 1149 m 9 Y s 2004 1170 m 9 Y s 3 lw 2004 1164 m21 6 lw 2008 1153 m 9 Y s 2008
 1173 m 9 Y s 3 lw 2008 1167 m21 6 lw 2013 1139 m 9 Y s 2013 1159 m 9 Y s 3 lw 2013 1154 m21 6 lw 2018 1154 m 9 Y s 2018 1175 m 9 Y s 3 lw 2018 1169 m21 6 lw 2022 1152 m 9 Y s 2022 1173 m 9 Y s 3 lw 2022 1167 m21 6 lw 2027 1167 m 9 Y s 2027 1188 m 9
 Y s 3 lw 2027 1182 m21 6 lw 2032 1172 m 10 Y s 2032 1193 m 10 Y s 3 lw 2032 1187 m21 6 lw 2036 1185 m 9 Y s 2036 1206 m 10 Y s 3 lw 2036 1200 m21 6 lw 2041 1170 m 10 Y s 2041 1192 m 9 Y s 3 lw 2041 1186 m21 6 lw 2046 1192 m 10 Y s 2046 1213 m 10 Y s
 3 lw 2046 1207 m21 6 lw 2051 1184 m 10 Y s 2051 1206 m 10 Y s 3 lw 2051 1200 m21 6 lw 2055 1131 m 10 Y s 2055 1152 m 10 Y s 3 lw 2055 1146 m21 6 lw 2060 1168 m 10 Y s 2060 1189 m 10 Y s 3 lw 2060 1184 m21 6 lw 2065 1149 m 10 Y s 2065 1171 m 10 Y s 3
 lw 2065 1165 m21 6 lw 2069 1158 m 10 Y s 2069 1180 m 10 Y s 3 lw 2069 1174 m21 6 lw 2074 1170 m 10 Y s 2074 1191 m 10 Y s 3 lw 2074 1185 m21 6 lw 2079 1156 m 10 Y s 2079 1177 m 11 Y s 3 lw 2079 1172 m21 6 lw 2084 1178 m 10 Y s 2084 1199 m 11 Y s 3
 lw 2084 1194 m21 6 lw 2088 1174 m 10 Y s 2088 1196 m 10 Y s 3 lw 2088 1190 m21 6 lw 2093 1171 m 11 Y s 2093 1193 m 11 Y s 3 lw 2093 1187 m21 6 lw 2098 1148 m 11 Y s 2098 1170 m 11 Y s 3 lw 2098 1165 m21 6 lw 2102 1160 m 10 Y s 2102 1182 m 10 Y s 3
 lw 2102 1176 m21 6 lw 2107 1199 m 11 Y s 2107 1221 m 11 Y s 3 lw 2107 1215 m21 6 lw 2112 1164 m 11 Y s 2112 1187 m 10 Y s 3 lw 2112 1181 m21 6 lw 2116 1169 m 11 Y s 2116 1192 m 10 Y s 3 lw 2116 1186 m21 6 lw 2121 1160 m 11 Y s 2121 1183 m 11 Y s 3
 lw 2121 1177 m21 6 lw 2126 1169 m 11 Y s 2126 1191 m 12 Y s 3 lw 2126 1186 m21 6 lw 2131 1154 m 11 Y s 2131 1177 m 11 Y s 3 lw 2131 1171 m21 6 lw 2135 1156 m 11 Y s 2135 1179 m 11 Y s 3 lw 2135 1173 m21 6 lw 2140 1188 m 11 Y s 2140 1211 m 11 Y s 3
 lw 2140 1205 m21 6 lw 2145 1152 m 11 Y s 2145 1174 m 11 Y s 3 lw 2145 1168 m21 6 lw 2149 1173 m 12 Y s 2149 1196 m 12 Y s 3 lw 2149 1190 m21 6 lw 2154 1186 m 12 Y s 2154 1210 m 11 Y s 3 lw 2154 1204 m21 6 lw 2159 1169 m 12 Y s 2159 1192 m 12 Y s 3
 lw 2159 1186 m21 6 lw 2164 1180 m 12 Y s 2164 1204 m 11 Y s 3 lw 2164 1198 m21 6 lw 2168 1122 m 11 Y s 2168 1144 m 12 Y s 3 lw 2168 1139 m21 6 lw 2173 1160 m 12 Y s 2173 1183 m 12 Y s 3 lw 2173 1178 m21 6 lw 2178 1173 m 12 Y s 2178 1196 m 12 Y s 3
 lw 2178 1191 m21 6 lw 2182 1148 m 12 Y s 2182 1171 m 12 Y s 3 lw 2182 1166 m21 6 lw 2187 1180 m 12 Y s 2187 1204 m 12 Y s 3 lw 2187 1198 m21 6 lw 2192 1156 m 12 Y s 2192 1179 m 12 Y s 3 lw 2192 1173 m21 6 lw 2196 1153 m 12 Y s 2196 1177 m 12 Y s 3
 lw 2196 1171 m21 6 lw 2201 1184 m 13 Y s 2201 1208 m 12 Y s 3 lw 2201 1202 m21 6 lw 2206 1131 m 13 Y s 2206 1155 m 12 Y s 3 lw 2206 1149 m21 6 lw 2211 1182 m 13 Y s 2211 1206 m 13 Y s 3 lw 2211 1200 m21 6 lw 2215 1171 m 13 Y s 2215 1195 m 13 Y s 3
 lw 2215 1190 m21 6 lw 2220 1179 m 13 Y s 2220 1203 m 13 Y s 3 lw 2220 1197 m21 6 lw black 340 223 m 1882 X s
 gsave  2268 2234 0 0 C 1923.86 58.2559 t 0 r /Helvetica findfont 83.8316 sf 0 0 m (Q [GeV]) show NC gr  340 279 m -56 Y s 387 251 m -28 Y s 434 251 m -28 Y s 481 251 m -28 Y s 528 279 m -56 Y s 575 251 m -28 Y s 622 251 m -28 Y s 670 251 m -28 Y s
 717 279 m -56 Y s 764 251 m -28 Y s 811 251 m -28 Y s 858 251 m -28 Y s 905 279 m -56 Y s 952 251 m -28 Y s 999 251 m -28 Y s 1046 251 m -28 Y s 1093 279 m -56 Y s 1140 251 m -28 Y s 1187 251 m -28 Y s 1234 251 m -28 Y s 1281 279 m -56 Y s 1328 251
 m -28 Y s 1375 251 m -28 Y s 1422 251 m -28 Y s 1469 279 m -56 Y s 1517 251 m -28 Y s 1564 251 m -28 Y s 1611 251 m -28 Y s 1658 279 m -56 Y s 1705 251 m -28 Y s 1752 251 m -28 Y s 1799 251 m -28 Y s 1846 279 m -56 Y s 1893 251 m -28 Y s 1940 251 m
 -28 Y s 1987 251 m -28 Y s 2034 279 m -56 Y s 2081 251 m -28 Y s 2128 251 m -28 Y s 2175 251 m -28 Y s 2222 279 m -56 Y s
 gsave  2268 2234 0 0 C 322.539 159.138 t 0 r /Helvetica findfont 62.5185 sf 0 0 m (0) show NC gr 
 gsave  2268 2234 0 0 C 484.518 159.138 t 0 r /Helvetica findfont 62.5185 sf 0 0 m (0.2) show NC gr 
 gsave  2268 2234 0 0 C 673.495 159.138 t 0 r /Helvetica findfont 62.5185 sf 0 0 m (0.4) show NC gr 
 gsave  2268 2234 0 0 C 861.05 159.138 t 0 r /Helvetica findfont 62.5185 sf 0 0 m (0.6) show NC gr 
 gsave  2268 2234 0 0 C 1050.03 159.138 t 0 r /Helvetica findfont 62.5185 sf 0 0 m (0.8) show NC gr 
 gsave  2268 2234 0 0 C 1268.84 159.138 t 0 r /Helvetica findfont 62.5185 sf 0 0 m (1) show NC gr 
 gsave  2268 2234 0 0 C 1426.56 159.138 t 0 r /Helvetica findfont 62.5185 sf 0 0 m (1.2) show NC gr 
 gsave  2268 2234 0 0 C 1614.11 159.138 t 0 r /Helvetica findfont 62.5185 sf 0 0 m (1.4) show NC gr 
 gsave  2268 2234 0 0 C 1803.09 159.138 t 0 r /Helvetica findfont 62.5185 sf 0 0 m (1.6) show NC gr 
 gsave  2268 2234 0 0 C 1990.65 159.138 t 0 r /Helvetica findfont 62.5185 sf 0 0 m (1.8) show NC gr 
 gsave  2268 2234 0 0 C 2205.2 159.138 t 0 r /Helvetica findfont 62.5185 sf 0 0 m (2) show NC gr  340 223 m 1966 Y s
 gsave  2268 2234 0 0 C 152.034 1953.7 t 90 r /Helvetica findfont 83.8316 sf 0 0 m (DR\(Q\)) show NC gr  400 402 m -60 X s 370 491 m -30 X s 370 581 m -30 X s 370 670 m -30 X s 400 759 m -60 X s 370 849 m -30 X s 370 938 m -30 X s 370 1027 m -30 X s
 400 1117 m -60 X s 370 1206 m -30 X s 370 1295 m -30 X s 370 1385 m -30 X s 400 1474 m -60 X s 370 1564 m -30 X s 370 1653 m -30 X s 370 1742 m -30 X s 400 1832 m -60 X s 370 1921 m -30 X s 370 2010 m -30 X s 370 2100 m -30 X s 400 2189 m -60 X s
 400 402 m -60 X s 370 313 m -30 X s 370 223 m -30 X s
 gsave  2268 2234 0 0 C 242.97 379.374 t 0 r /Helvetica findfont 62.5185 sf 0 0 m (0.6) show NC gr 
 gsave  2268 2234 0 0 C 242.97 737.434 t 0 r /Helvetica findfont 62.5185 sf 0 0 m (0.8) show NC gr 
 gsave  2268 2234 0 0 C 305.488 1092.65 t 0 r /Helvetica findfont 62.5185 sf 0 0 m (1) show NC gr 
 gsave  2268 2234 0 0 C 242.97 1450.71 t 0 r /Helvetica findfont 62.5185 sf 0 0 m (1.2) show NC gr 
 gsave  2268 2234 0 0 C 242.97 1808.77 t 0 r /Helvetica findfont 62.5185 sf 0 0 m (1.4) show NC gr 
 gsave  2268 2234 0 0 C 242.97 2166.83 t 0 r /Helvetica findfont 62.5185 sf 0 0 m (1.6) show NC gr 
 gsave  2268 2234 0 0 C 906.518 670.653 t 0 r /Helvetica-Bold findfont 72.4646 sf 0 0 m (DR PIONS) show NC gr 
 gsave  2268 2234 0 0 C 906.518 558.404 t 0 r /Helvetica-Bold findfont 72.4646 sf 0 0 m (ref. sample: EVENT MIX) show NC gr 
 gsave  2268 2234 0 0 C 906.518 447.576 t 0 r /Helvetica-Bold findfont 72.4646 sf 0 0 m (VELO tracks multiplicity: 11 \255 20) show NC gr 
 gr  gr showpage
end
%%EOF
