%!PS-Adobe-2.0 EPSF-2.0
%%BoundingBox:  0 0 567 558
%%Title: ./DR_pion_0c65_h3101_3_h3401_3.eps: DR_pion_0c65_h3101_3_h3401_3
%%Creator: ROOT Version 6.06/02
%%CreationDate: Wed Feb  1 16:20:58 2017
%%DocumentNeededResources: ProcSet (FontSetInit)
%%EndComments
%%BeginProlog
80 dict begin
/s {stroke} def /l {lineto} def /m {moveto} def /t {translate} def
/r {rotate} def /rl {roll}  def /R {repeat} def
/d {rlineto} def /rm {rmoveto} def /gr {grestore} def /f {eofill} def
/c {setrgbcolor} def /black {0 setgray} def /sd {setdash} def
/cl {closepath} def /sf {scalefont setfont} def /lw {setlinewidth} def
/box {m dup 0 exch d exch 0 d 0 exch neg d cl} def
/NC{systemdict begin initclip end}def/C{NC box clip newpath}def
/bl {box s} def /bf {gsave box gsave f grestore 1 lw [] 0 sd s grestore} def /Y { 0 exch d} def /X { 0 d} def 
/K {{pop pop 0 moveto} exch kshow} bind def
/ita {/ang 15 def gsave [1 0 ang dup sin exch cos div 1 0 0] concat} def 
/mp {newpath /y exch def /x exch def} def
/side {[w .77 mul w .23 mul] .385 w mul sd w 0 l currentpoint t -144 r} def
/mr {mp x y w2 0 360 arc} def /m24 {mr s} def /m20 {mr f} def
/mb {mp x y w2 add m w2 neg 0 d 0 w neg d w 0 d 0 w d cl} def
/mt {mp x y w2 add m w2 neg w neg d w 0 d cl} def
/m21 {mb f} def /m25 {mb s} def /m22 {mt f} def /m26{mt s} def
/m23 {mp x y w2 sub m w2 w d w neg 0 d cl f} def
/m27 {mp x y w2 add m w3 neg w2 neg d w3 w2 neg d w3 w2 d cl s} def
/m28 {mp x w2 sub y w2 sub w3 add m w3 0 d  0 w3 neg d w3 0 d 0 w3 d w3 0 d  0 w3 d w3 neg 0 d 0 w3 d w3 neg 0 d 0 w3 neg d w3 neg 0 d cl s } def
/m29 {mp gsave x w2 sub y w2 add w3 sub m currentpoint t 4 {side} repeat cl fill gr} def
/m30 {mp gsave x w2 sub y w2 add w3 sub m currentpoint t 4 {side} repeat cl s gr} def
/m31 {mp x y w2 sub m 0 w d x w2 sub y m w 0 d x w2 sub y w2 add m w w neg d x w2 sub y w2 sub m w w d s} def
/m32 {mp x y w2 sub m w2 w d w neg 0 d cl s} def
/m33 {mp x y w2 add m w3 neg w2 neg d w3 w2 neg d w3 w2 d cl f} def
/m34 {mp x w2 sub y w2 sub w3 add m w3 0 d  0 w3 neg d w3 0 d 0 w3 d w3 0 d  0 w3 d w3 neg 0 d 0 w3 d w3 neg 0 d 0 w3 neg d w3 neg 0 d cl f } def
/m2 {mp x y w2 sub m 0 w d x w2 sub y m w 0 d s} def
/m5 {mp x w2 sub y w2 sub m w w d x w2 sub y w2 add m w w neg d s} def
%%IncludeResource: ProcSet (FontSetInit)
%%IncludeResource: font Times-Roman
%%IncludeResource: font Times-Italic
%%IncludeResource: font Times-Bold
%%IncludeResource: font Times-BoldItalic
%%IncludeResource: font Helvetica
%%IncludeResource: font Helvetica-Oblique
%%IncludeResource: font Helvetica-Bold
%%IncludeResource: font Helvetica-BoldOblique
%%IncludeResource: font Courier
%%IncludeResource: font Courier-Oblique
%%IncludeResource: font Courier-Bold
%%IncludeResource: font Courier-BoldOblique
%%IncludeResource: font Symbol
%%IncludeResource: font ZapfDingbats
/reEncode {exch findfont dup length dict begin {1 index /FID eq  {pop pop} {def} ifelse } forall /Encoding exch def currentdict end dup /FontName get exch definefont pop } def [/Times-Bold /Times-Italic /Times-BoldItalic /Helvetica /Helvetica-Oblique
 /Helvetica-Bold /Helvetica-BoldOblique /Courier /Courier-Oblique /Courier-Bold /Courier-BoldOblique /Times-Roman /AvantGarde-Book /AvantGarde-BookOblique /AvantGarde-Demi /AvantGarde-DemiOblique /Bookman-Demi /Bookman-DemiItalic /Bookman-Light
 /Bookman-LightItalic /Helvetica-Narrow /Helvetica-Narrow-Bold /Helvetica-Narrow-BoldOblique /Helvetica-Narrow-Oblique /NewCenturySchlbk-Roman /NewCenturySchlbk-Bold /NewCenturySchlbk-BoldItalic /NewCenturySchlbk-Italic /Palatino-Bold
 /Palatino-BoldItalic /Palatino-Italic /Palatino-Roman ] {ISOLatin1Encoding reEncode } forall
%%EndProlog
%%BeginSetup
%%EndSetup
newpath  gsave  .25 .25 scale  gsave  0 0 t black[  ] 0 sd 6 lw 1 1 1 c 2268 2234 0 0 bf black 3 lw 1 1 1 c 1882 1966 340 223 bf black 1882 1966 340 223 bl 1 1 1 c 1882 1966 340 223 bf black 1882 1966 340 223 bl 0 0 1 c 6 lw 1 1 1 c 0 0 1 c 390 1129
 m 20 Y s 390 1161 m 20 Y s 3 lw /w 14 def /w2 {w 2 div} def /w3 {w 3 div} def 390 1155 m21 6 lw 394 1155 m 19 Y s 394 1186 m 18 Y s 3 lw 394 1180 m21 6 lw 399 1169 m 17 Y s 399 1197 m 17 Y s 3 lw 399 1191 m21 6 lw 404 1074 m 14 Y s 404 1100 m 14 Y s
 3 lw 404 1094 m21 6 lw 408 1149 m 14 Y s 408 1175 m 14 Y s 3 lw 408 1169 m21 6 lw 413 1160 m 13 Y s 413 1184 m 13 Y s 3 lw 413 1178 m21 6 lw 418 1133 m 12 Y s 418 1157 m 11 Y s 3 lw 418 1151 m21 6 lw 423 1123 m 11 Y s 423 1146 m 10 Y s 3 lw 423 1140
 m21 6 lw 427 1124 m 10 Y s 427 1146 m 10 Y s 3 lw 427 1140 m21 6 lw 432 1101 m 9 Y s 432 1121 m 9 Y s 3 lw 432 1115 m21 6 lw 437 1125 m 9 Y s 437 1146 m 8 Y s 3 lw 437 1140 m21 6 lw 441 1113 m 9 Y s 441 1133 m 8 Y s 3 lw 441 1127 m21 6 lw 446 1102 m
 7 Y s 446 1121 m 7 Y s 3 lw 446 1115 m21 6 lw 451 1117 m 7 Y s 451 1136 m 7 Y s 3 lw 451 1130 m21 6 lw 455 1126 m 7 Y s 455 1145 m 7 Y s 3 lw 455 1139 m21 6 lw 460 1106 m 6 Y s 460 1124 m 6 Y s 3 lw 460 1118 m21 6 lw 465 1082 m 6 Y s 465 1099 m 6 Y
 s 3 lw 465 1094 m21 6 lw 470 1117 m 6 Y s 470 1134 m 6 Y s 3 lw 470 1129 m21 6 lw 474 1100 m 5 Y s 474 1116 m 6 Y s 3 lw 474 1111 m21 6 lw 479 1088 m 6 Y s 479 1105 m 5 Y s 3 lw 479 1099 m21 6 lw 484 1090 m 4 Y s 484 1106 m 5 Y s 3 lw 484 1100 m21 6
 lw 488 1085 m 5 Y s 488 1101 m 5 Y s 3 lw 488 1095 m21 6 lw 493 1100 m 5 Y s 493 1116 m 4 Y s 3 lw 493 1110 m21 6 lw 498 1097 m 5 Y s 498 1113 m 4 Y s 3 lw 498 1107 m21 6 lw 502 1074 m 4 Y s 502 1090 m 4 Y s 3 lw 502 1084 m21 6 lw 507 1078 m 4 Y s
 507 1094 m 3 Y s 3 lw 507 1088 m21 6 lw 512 1074 m 3 Y s 512 1089 m 3 Y s 3 lw 512 1083 m21 6 lw 517 1078 m 4 Y s 517 1093 m 3 Y s 3 lw 517 1087 m21 6 lw 521 1078 m 4 Y s 521 1093 m 3 Y s 3 lw 521 1087 m21 6 lw 526 1083 m 3 Y s 526 1098 m 3 Y s 3 lw
 526 1092 m21 6 lw 531 1069 m 3 Y s 531 1083 m 3 Y s 3 lw 531 1078 m21 6 lw 535 1083 m 3 Y s 535 1098 m 3 Y s 3 lw 535 1092 m21 6 lw 540 1075 m 3 Y s 540 1089 m 3 Y s 3 lw 540 1084 m21 6 lw 545 1086 m 3 Y s 545 1101 m 2 Y s 3 lw 545 1095 m21 6 lw 550
 1085 m 2 Y s 550 1099 m 2 Y s 3 lw 550 1093 m21 6 lw 554 1085 m 3 Y s 554 1099 m 3 Y s 3 lw 554 1093 m21 6 lw 559 1086 m 3 Y s 559 1100 m 3 Y s 3 lw 559 1094 m21 6 lw 564 1086 m 3 Y s 564 1100 m 3 Y s 3 lw 564 1095 m21 6 lw 568 1067 m 2 Y s 568 1080
 m 3 Y s 3 lw 568 1075 m21 6 lw 573 1068 m 2 Y s 573 1082 m 2 Y s 3 lw 573 1076 m21 6 lw 578 1074 m 2 Y s 578 1087 m 2 Y s 3 lw 578 1081 m21 6 lw 582 1077 m 2 Y s 582 1091 m 2 Y s 3 lw 582 1085 m21 6 lw 587 1068 m 2 Y s 587 1081 m 2 Y s 3 lw 587 1076
 m21 6 lw 592 1077 m 2 Y s 592 1090 m 2 Y s 3 lw 592 1084 m21 6 lw 597 1074 m 1 Y s 597 1087 m 1 Y s 3 lw 597 1081 m21 6 lw 601 1088 m 2 Y s 601 1101 m 2 Y s 3 lw 601 1095 m21 6 lw 606 1063 m 1 Y s 606 1076 m 1 Y s 3 lw 606 1070 m21 6 lw 611 1082 m 1
 Y s 611 1095 m 1 Y s 3 lw 611 1089 m21 6 lw 615 1085 m 2 Y s 615 1098 m 2 Y s 3 lw 615 1092 m21 6 lw 620 1091 m 1 Y s 620 1104 m 1 Y s 3 lw 620 1098 m21 6 lw 625 1088 m 2 Y s 625 1101 m 1 Y s 3 lw 625 1095 m21 6 lw 630 1098 m 2 Y s 630 1111 m 2 Y s
 3 lw 630 1105 m21 6 lw 634 1093 m 1 Y s 634 1105 m 2 Y s 3 lw 634 1100 m21 6 lw 639 1105 m 2 Y s 639 1118 m 1 Y s 3 lw 639 1112 m21 6 lw 644 1099 m 2 Y s 644 1112 m 1 Y s 3 lw 644 1106 m21 6 lw 648 1106 m 2 Y s 648 1119 m 1 Y s 3 lw 648 1113 m21 6
 lw 653 1101 m 1 Y s 653 1113 m 1 Y s 3 lw 653 1107 m21 6 lw 658 1101 m 1 Y s 658 1113 m 2 Y s 3 lw 658 1108 m21 6 lw 662 1095 m 1 Y s 662 1107 m 1 Y s 3 lw 662 1101 m21 6 lw 667 1093 m 1 Y s 667 1106 m 1 Y s 3 lw 667 1100 m21 6 lw 672 1101 m 1 Y s
 672 1114 m 1 Y s 3 lw 672 1108 m21 6 lw 677 1102 m 1 Y s 677 1115 m 1 Y s 3 lw 677 1109 m21 6 lw 681 1102 m s 681 1114 m 1 Y s 3 lw 681 1108 m21 6 lw 686 1096 m 1 Y s 686 1109 m 1 Y s 3 lw 686 1103 m21 6 lw 691 1106 m 1 Y s 691 1118 m 1 Y s 3 lw 691
 1113 m21 6 lw 695 1100 m 1 Y s 695 1112 m 1 Y s 3 lw 695 1107 m21 6 lw 700 1098 m s 700 1110 m 1 Y s 3 lw 700 1104 m21 6 lw 705 1101 m 1 Y s 705 1113 m 1 Y s 3 lw 705 1107 m21 6 lw 710 1096 m 1 Y s 710 1108 m 1 Y s 3 lw 710 1102 m21 6 lw 714 1110 m
 s 714 1122 m 1 Y s 3 lw 714 1116 m21 6 lw 719 1108 m 1 Y s 719 1120 m 1 Y s 3 lw 719 1114 m21 6 lw 724 1107 m 1 Y s 724 1119 m 1 Y s 3 lw 724 1113 m21 6 lw 728 1096 m 1 Y s 728 1108 m 1 Y s 3 lw 728 1102 m21 6 lw 733 1104 m 1 Y s 733 1116 m 1 Y s 3
 lw 733 1111 m21 6 lw 738 1099 m 1 Y s 738 1111 m 1 Y s 3 lw 738 1105 m21 6 lw 742 1096 m s 742 1108 m s 3 lw 742 1102 m21 6 lw 747 1105 m s 747 1117 m s 3 lw 747 1111 m21 6 lw 752 1115 m 1 Y s 752 1127 m s 3 lw 752 1121 m21 6 lw 757 1099 m s 757
 1111 m s 3 lw 757 1105 m21 6 lw 761 1111 m 1 Y s 761 1123 m s 3 lw 761 1117 m21 6 lw 766 1104 m s 766 1116 m s 3 lw 766 1110 m21 6 lw 771 1102 m s 771 1114 m s 3 lw 771 1108 m21 6 lw 775 1108 m s 775 1120 m s 3 lw 775 1114 m21 6 lw 780 1102 m 1 Y s
 780 1114 m s 3 lw 780 1108 m21 6 lw 785 1113 m s 785 1125 m s 3 lw 785 1119 m21 6 lw 790 1119 m s 790 1131 m s 3 lw 790 1125 m21 6 lw 794 1118 m 1 Y s 794 1130 m 1 Y s 3 lw 794 1125 m21 6 lw 799 1116 m s 799 1128 m s 3 lw 799 1122 m21 6 lw 804 1108
 m s 804 1119 m 1 Y s 3 lw 804 1114 m21 6 lw 808 1110 m s 808 1121 m 1 Y s 3 lw 808 1116 m21 6 lw 813 1106 m s 813 1117 m 1 Y s 3 lw 813 1112 m21 6 lw 818 1112 m 1 Y s 818 1124 m s 3 lw 818 1118 m21 6 lw 822 1122 m s 822 1134 m s 3 lw 822 1128 m21 6
 lw 827 1112 m s 827 1124 m s 3 lw 827 1118 m21 6 lw 832 1111 m s 832 1123 m s 3 lw 832 1117 m21 6 lw 837 1121 m s 837 1132 m 1 Y s 3 lw 837 1127 m21 6 lw 841 1110 m s 841 1122 m s 3 lw 841 1116 m21 6 lw 846 1121 m 1 Y s 846 1133 m s 3 lw 846 1127
 m21 6 lw 851 1119 m 1 Y s 851 1131 m s 3 lw 851 1125 m21 6 lw 855 1122 m s 855 1134 m s 3 lw 855 1128 m21 6 lw 860 1126 m s 860 1137 m 1 Y s 3 lw 860 1132 m21 6 lw 865 1105 m s 865 1117 m s 3 lw 865 1111 m21 6 lw 870 1117 m s 870 1129 m s 3 lw 870
 1123 m21 6 lw 874 1134 m 1 Y s 874 1146 m s 3 lw 874 1140 m21 6 lw 879 1119 m s 879 1130 m 1 Y s 3 lw 879 1125 m21 6 lw 884 1115 m s 884 1126 m s 3 lw 884 1120 m21 6 lw 888 1114 m 1 Y s 888 1126 m s 3 lw 888 1120 m21 6 lw 893 1121 m s 893 1133 m s 3
 lw 893 1127 m21 6 lw 898 1130 m s 898 1142 m s 3 lw 898 1136 m21 6 lw 902 1126 m 1 Y s 902 1138 m s 3 lw 902 1132 m21 6 lw 907 1116 m s 907 1128 m s 3 lw 907 1122 m21 6 lw 912 1120 m 1 Y s 912 1132 m s 3 lw 912 1126 m21 6 lw 917 1129 m s 917 1140 m
 1 Y s 3 lw 917 1135 m21 6 lw 921 1119 m 1 Y s 921 1131 m s 3 lw 921 1125 m21 6 lw 926 1103 m s 926 1115 m s 3 lw 926 1109 m21 6 lw 931 1119 m s 931 1131 m s 3 lw 931 1125 m21 6 lw 935 1119 m s 935 1131 m s 3 lw 935 1125 m21 6 lw 940 1122 m s 940
 1134 m s 3 lw 940 1128 m21 6 lw 945 1113 m s 945 1124 m s 3 lw 945 1119 m21 6 lw 950 1113 m s 950 1125 m s 3 lw 950 1119 m21 6 lw 954 1110 m 1 Y s 954 1122 m s 3 lw 954 1116 m21 6 lw 959 1101 m s 959 1113 m s 3 lw 959 1107 m21 6 lw 964 1107 m s 964
 1118 m 1 Y s 3 lw 964 1113 m21 6 lw 968 1106 m s 968 1117 m 1 Y s 3 lw 968 1112 m21 6 lw 973 1103 m s 973 1115 m s 3 lw 973 1109 m21 6 lw 978 1094 m s 978 1106 m s 3 lw 978 1100 m21 6 lw 982 1092 m s 982 1104 m s 3 lw 982 1098 m21 6 lw 987 1090 m s
 987 1102 m s 3 lw 987 1096 m21 6 lw 992 1087 m s 992 1099 m s 3 lw 992 1093 m21 6 lw 997 1086 m s 997 1098 m s 3 lw 997 1092 m21 6 lw 1001 1091 m s 1001 1102 m 1 Y s 3 lw 1001 1097 m21 6 lw 1006 1081 m 1 Y s 1006 1093 m s 3 lw 1006 1087 m21 6 lw
 1011 1074 m s 1011 1086 m s 3 lw 1011 1080 m21 6 lw 1015 1066 m s 1015 1077 m 1 Y s 3 lw 1015 1072 m21 6 lw 1020 1068 m s 1020 1079 m s 3 lw 1020 1073 m21 6 lw 1025 1060 m s 1025 1072 m s 3 lw 1025 1066 m21 6 lw 1030 1055 m 1 Y s 1030 1067 m s 3 lw
 1030 1061 m21 6 lw 1034 1058 m s 1034 1070 m s 3 lw 1034 1064 m21 6 lw 1039 1067 m s 1039 1079 m s 3 lw 1039 1073 m21 6 lw 1044 1069 m s 1044 1080 m 1 Y s 3 lw 1044 1075 m21 6 lw 1048 1079 m 1 Y s 1048 1091 m s 3 lw 1048 1085 m21 6 lw 1053 1068 m s
 1053 1080 m s 3 lw 1053 1074 m21 6 lw 1058 1068 m s 1058 1079 m s 3 lw 1058 1074 m21 6 lw 1062 1074 m s 1062 1085 m 1 Y s 3 lw 1062 1080 m21 6 lw 1067 1073 m 1 Y s 1067 1085 m s 3 lw 1067 1079 m21 6 lw 1072 1075 m s 1072 1086 m 1 Y s 3 lw 1072 1081
 m21 6 lw 1077 1083 m s 1077 1095 m s 3 lw 1077 1089 m21 6 lw 1081 1072 m s 1081 1083 m 1 Y s 3 lw 1081 1078 m21 6 lw 1086 1070 m 1 Y s 1086 1082 m s 3 lw 1086 1076 m21 6 lw 1091 1075 m 1 Y s 1091 1087 m s 3 lw 1091 1081 m21 6 lw 1095 1076 m 1 Y s
 1095 1088 m 1 Y s 3 lw 1095 1082 m21 6 lw 1100 1067 m s 1100 1079 m s 3 lw 1100 1073 m21 6 lw 1105 1081 m s 1105 1093 m s 3 lw 1105 1087 m21 6 lw 1110 1084 m s 1110 1095 m 1 Y s 3 lw 1110 1090 m21 6 lw 1114 1088 m 1 Y s 1114 1100 m 1 Y s 3 lw 1114
 1094 m21 6 lw 1119 1088 m 1 Y s 1119 1100 m 1 Y s 3 lw 1119 1095 m21 6 lw 1124 1086 m 1 Y s 1124 1098 m s 3 lw 1124 1092 m21 6 lw 1128 1076 m s 1128 1088 m s 3 lw 1128 1082 m21 6 lw 1133 1077 m s 1133 1088 m 1 Y s 3 lw 1133 1083 m21 6 lw 1138 1095 m
 1 Y s 1138 1107 m 1 Y s 3 lw 1138 1101 m21 6 lw 1142 1082 m s 1142 1093 m 1 Y s 3 lw 1142 1088 m21 6 lw 1147 1091 m 1 Y s 1147 1103 m 1 Y s 3 lw 1147 1098 m21 6 lw 1152 1096 m 1 Y s 1152 1108 m 1 Y s 3 lw 1152 1102 m21 6 lw 1157 1102 m 1 Y s 1157
 1114 m 1 Y s 3 lw 1157 1109 m21 6 lw 1161 1108 m 1 Y s 1161 1120 m 1 Y s 3 lw 1161 1114 m21 6 lw 1166 1095 m 1 Y s 1166 1107 m 1 Y s 3 lw 1166 1101 m21 6 lw 1171 1098 m s 1171 1110 m 1 Y s 3 lw 1171 1104 m21 6 lw 1175 1109 m s 1175 1121 m s 3 lw
 1175 1115 m21 6 lw 1180 1099 m s 1180 1111 m 1 Y s 3 lw 1180 1105 m21 6 lw 1185 1105 m s 1185 1117 m s 3 lw 1185 1111 m21 6 lw 1190 1107 m 1 Y s 1190 1119 m 1 Y s 3 lw 1190 1113 m21 6 lw 1194 1125 m 1 Y s 1194 1137 m 1 Y s 3 lw 1194 1131 m21 6 lw
 1199 1106 m 1 Y s 1199 1119 m s 3 lw 1199 1113 m21 6 lw 1204 1115 m 1 Y s 1204 1127 m 1 Y s 3 lw 1204 1122 m21 6 lw 1208 1104 m 1 Y s 1208 1116 m 1 Y s 3 lw 1208 1111 m21 6 lw 1213 1125 m 1 Y s 1213 1138 m s 3 lw 1213 1132 m21 6 lw 1218 1125 m 1 Y s
 1218 1138 m 1 Y s 3 lw 1218 1132 m21 6 lw 1222 1113 m 1 Y s 1222 1126 m 1 Y s 3 lw 1222 1120 m21 6 lw 1227 1127 m 1 Y s 1227 1140 m 1 Y s 3 lw 1227 1134 m21 6 lw 1232 1109 m 1 Y s 1232 1121 m 1 Y s 3 lw 1232 1116 m21 6 lw 1237 1118 m 1 Y s 1237 1130
 m 1 Y s 3 lw 1237 1124 m21 6 lw 1241 1107 m 1 Y s 1241 1119 m 1 Y s 3 lw 1241 1114 m21 6 lw 1246 1105 m 1 Y s 1246 1117 m 1 Y s 3 lw 1246 1111 m21 6 lw 1251 1105 m 1 Y s 1251 1117 m 1 Y s 3 lw 1251 1111 m21 6 lw 1255 1110 m 1 Y s 1255 1122 m 1 Y s 3
 lw 1255 1117 m21 6 lw 1260 1106 m 1 Y s 1260 1119 m 1 Y s 3 lw 1260 1113 m21 6 lw 1265 1117 m 1 Y s 1265 1129 m 1 Y s 3 lw 1265 1123 m21 6 lw 1269 1114 m 2 Y s 1269 1127 m 1 Y s 3 lw 1269 1121 m21 6 lw 1274 1112 m 1 Y s 1274 1124 m 2 Y s 3 lw 1274
 1119 m21 6 lw 1279 1105 m 1 Y s 1279 1118 m 1 Y s 3 lw 1279 1112 m21 6 lw 1284 1117 m 2 Y s 1284 1130 m 1 Y s 3 lw 1284 1124 m21 6 lw 1288 1114 m 1 Y s 1288 1126 m 2 Y s 3 lw 1288 1121 m21 6 lw 1293 1104 m 1 Y s 1293 1117 m 1 Y s 3 lw 1293 1111 m21
 6 lw 1298 1111 m 1 Y s 1298 1124 m 1 Y s 3 lw 1298 1118 m21 6 lw 1302 1112 m 1 Y s 1302 1125 m 1 Y s 3 lw 1302 1119 m21 6 lw 1307 1117 m 2 Y s 1307 1130 m 2 Y s 3 lw 1307 1124 m21 6 lw 1312 1117 m 2 Y s 1312 1130 m 2 Y s 3 lw 1312 1125 m21 6 lw 1317
 1118 m 2 Y s 1317 1131 m 1 Y s 3 lw 1317 1125 m21 6 lw 1321 1127 m 1 Y s 1321 1140 m 1 Y s 3 lw 1321 1134 m21 6 lw 1326 1117 m 1 Y s 1326 1130 m 1 Y s 3 lw 1326 1124 m21 6 lw 1331 1112 m 2 Y s 1331 1125 m 2 Y s 3 lw 1331 1120 m21 6 lw 1335 1117 m 1
 Y s 1335 1129 m 2 Y s 3 lw 1335 1124 m21 6 lw 1340 1106 m 1 Y s 1340 1119 m 1 Y s 3 lw 1340 1113 m21 6 lw 1345 1119 m 2 Y s 1345 1132 m 2 Y s 3 lw 1345 1126 m21 6 lw 1349 1121 m 1 Y s 1349 1133 m 2 Y s 3 lw 1349 1128 m21 6 lw 1354 1128 m 1 Y s 1354
 1141 m 1 Y s 3 lw 1354 1135 m21 6 lw 1359 1120 m 2 Y s 1359 1133 m 2 Y s 3 lw 1359 1128 m21 6 lw 1364 1139 m 2 Y s 1364 1152 m 2 Y s 3 lw 1364 1146 m21 6 lw 1368 1103 m 1 Y s 1368 1116 m 1 Y s 3 lw 1368 1110 m21 6 lw 1373 1104 m 2 Y s 1373 1117 m 2
 Y s 3 lw 1373 1111 m21 6 lw 1378 1112 m 2 Y s 1378 1125 m 2 Y s 3 lw 1378 1120 m21 6 lw 1382 1111 m 2 Y s 1382 1124 m 2 Y s 3 lw 1382 1119 m21 6 lw 1387 1119 m 2 Y s 1387 1132 m 2 Y s 3 lw 1387 1127 m21 6 lw 1392 1117 m 2 Y s 1392 1130 m 2 Y s 3 lw
 1392 1125 m21 6 lw 1397 1121 m 1 Y s 1397 1134 m 2 Y s 3 lw 1397 1128 m21 6 lw 1401 1133 m 2 Y s 1401 1147 m 2 Y s 3 lw 1401 1141 m21 6 lw 1406 1114 m 2 Y s 1406 1127 m 2 Y s 3 lw 1406 1122 m21 6 lw 1411 1115 m 2 Y s 1411 1128 m 2 Y s 3 lw 1411 1123
 m21 6 lw 1415 1110 m 2 Y s 1415 1123 m 2 Y s 3 lw 1415 1117 m21 6 lw 1420 1123 m 2 Y s 1420 1136 m 2 Y s 3 lw 1420 1130 m21 6 lw 1425 1125 m 2 Y s 1425 1139 m 2 Y s 3 lw 1425 1133 m21 6 lw 1429 1124 m 3 Y s 1429 1138 m 2 Y s 3 lw 1429 1132 m21 6 lw
 1434 1113 m 2 Y s 1434 1127 m 2 Y s 3 lw 1434 1121 m21 6 lw 1439 1117 m 2 Y s 1439 1130 m 2 Y s 3 lw 1439 1125 m21 6 lw 1444 1117 m 2 Y s 1444 1130 m 3 Y s 3 lw 1444 1125 m21 6 lw 1448 1138 m 2 Y s 1448 1151 m 3 Y s 3 lw 1448 1146 m21 6 lw 1453 1110
 m 2 Y s 1453 1124 m 2 Y s 3 lw 1453 1118 m21 6 lw 1458 1125 m 2 Y s 1458 1139 m 2 Y s 3 lw 1458 1133 m21 6 lw 1462 1112 m 2 Y s 1462 1126 m 2 Y s 3 lw 1462 1120 m21 6 lw 1467 1124 m 2 Y s 1467 1138 m 2 Y s 3 lw 1467 1132 m21 6 lw 1472 1129 m 2 Y s
 1472 1142 m 3 Y s 3 lw 1472 1137 m21 6 lw 1477 1126 m 3 Y s 1477 1140 m 2 Y s 3 lw 1477 1134 m21 6 lw 1481 1132 m 3 Y s 1481 1146 m 2 Y s 3 lw 1481 1140 m21 6 lw 1486 1120 m 3 Y s 1486 1134 m 3 Y s 3 lw 1486 1128 m21 6 lw 1491 1133 m 3 Y s 1491 1147
 m 3 Y s 3 lw 1491 1142 m21 6 lw 1495 1128 m 3 Y s 1495 1142 m 2 Y s 3 lw 1495 1136 m21 6 lw 1500 1132 m 3 Y s 1500 1146 m 3 Y s 3 lw 1500 1141 m21 6 lw 1505 1127 m 3 Y s 1505 1141 m 2 Y s 3 lw 1505 1135 m21 6 lw 1509 1126 m 2 Y s 1509 1140 m 2 Y s 3
 lw 1509 1134 m21 6 lw 1514 1118 m 3 Y s 1514 1132 m 3 Y s 3 lw 1514 1127 m21 6 lw 1519 1123 m 3 Y s 1519 1137 m 3 Y s 3 lw 1519 1132 m21 6 lw 1524 1124 m 2 Y s 1524 1138 m 2 Y s 3 lw 1524 1132 m21 6 lw 1528 1126 m 3 Y s 1528 1141 m 2 Y s 3 lw 1528
 1135 m21 6 lw 1533 1124 m 3 Y s 1533 1139 m 2 Y s 3 lw 1533 1133 m21 6 lw 1538 1133 m 3 Y s 1538 1148 m 2 Y s 3 lw 1538 1142 m21 6 lw 1542 1131 m 3 Y s 1542 1146 m 2 Y s 3 lw 1542 1140 m21 6 lw 1547 1129 m 3 Y s 1547 1143 m 3 Y s 3 lw 1547 1137 m21
 6 lw 1552 1124 m 3 Y s 1552 1138 m 3 Y s 3 lw 1552 1132 m21 6 lw 1557 1119 m 3 Y s 1557 1133 m 3 Y s 3 lw 1557 1127 m21 6 lw 1561 1130 m 3 Y s 1561 1145 m 3 Y s 3 lw 1561 1139 m21 6 lw 1566 1117 m 3 Y s 1566 1131 m 3 Y s 3 lw 1566 1126 m21 6 lw 1571
 1135 m 3 Y s 1571 1150 m 3 Y s 3 lw 1571 1144 m21 6 lw 1575 1125 m 4 Y s 1575 1140 m 3 Y s 3 lw 1575 1134 m21 6 lw 1580 1123 m 4 Y s 1580 1138 m 3 Y s 3 lw 1580 1132 m21 6 lw 1585 1130 m 3 Y s 1585 1144 m 3 Y s 3 lw 1585 1139 m21 6 lw 1589 1130 m 4
 Y s 1589 1145 m 3 Y s 3 lw 1589 1139 m21 6 lw 1594 1128 m 3 Y s 1594 1142 m 3 Y s 3 lw 1594 1136 m21 6 lw 1599 1138 m 4 Y s 1599 1153 m 3 Y s 3 lw 1599 1147 m21 6 lw 1604 1117 m 4 Y s 1604 1132 m 3 Y s 3 lw 1604 1126 m21 6 lw 1608 1131 m 4 Y s 1608
 1146 m 3 Y s 3 lw 1608 1140 m21 6 lw 1613 1130 m 3 Y s 1613 1145 m 3 Y s 3 lw 1613 1139 m21 6 lw 1618 1119 m 3 Y s 1618 1133 m 4 Y s 3 lw 1618 1128 m21 6 lw 1622 1108 m 3 Y s 1622 1123 m 3 Y s 3 lw 1622 1117 m21 6 lw 1627 1134 m 3 Y s 1627 1149 m 3
 Y s 3 lw 1627 1143 m21 6 lw 1632 1126 m 3 Y s 1632 1140 m 4 Y s 3 lw 1632 1135 m21 6 lw 1637 1132 m 4 Y s 1637 1147 m 4 Y s 3 lw 1637 1141 m21 6 lw 1641 1136 m 4 Y s 1641 1151 m 4 Y s 3 lw 1641 1146 m21 6 lw 1646 1134 m 3 Y s 1646 1149 m 3 Y s 3 lw
 1646 1143 m21 6 lw 1651 1121 m 4 Y s 1651 1136 m 4 Y s 3 lw 1651 1131 m21 6 lw 1655 1132 m 3 Y s 1655 1147 m 3 Y s 3 lw 1655 1141 m21 6 lw 1660 1135 m 4 Y s 1660 1150 m 4 Y s 3 lw 1660 1145 m21 6 lw 1665 1132 m 4 Y s 1665 1147 m 4 Y s 3 lw 1665 1142
 m21 6 lw 1669 1134 m 4 Y s 1669 1149 m 4 Y s 3 lw 1669 1143 m21 6 lw 1674 1148 m 4 Y s 1674 1163 m 4 Y s 3 lw 1674 1158 m21 6 lw 1679 1142 m 4 Y s 1679 1157 m 4 Y s 3 lw 1679 1151 m21 6 lw 1684 1126 m 4 Y s 1684 1141 m 4 Y s 3 lw 1684 1135 m21 6 lw
 1688 1126 m 4 Y s 1688 1141 m 4 Y s 3 lw 1688 1136 m21 6 lw 1693 1131 m 4 Y s 1693 1147 m 3 Y s 3 lw 1693 1141 m21 6 lw 1698 1123 m 4 Y s 1698 1139 m 4 Y s 3 lw 1698 1133 m21 6 lw 1702 1130 m 4 Y s 1702 1145 m 4 Y s 3 lw 1702 1139 m21 6 lw 1707 1123
 m 4 Y s 1707 1138 m 4 Y s 3 lw 1707 1133 m21 6 lw 1712 1122 m 4 Y s 1712 1138 m 4 Y s 3 lw 1712 1132 m21 6 lw 1717 1121 m 4 Y s 1717 1136 m 4 Y s 3 lw 1717 1130 m21 6 lw 1721 1138 m 4 Y s 1721 1154 m 4 Y s 3 lw 1721 1148 m21 6 lw 1726 1139 m 4 Y s
 1726 1154 m 5 Y s 3 lw 1726 1149 m21 6 lw 1731 1142 m 4 Y s 1731 1157 m 5 Y s 3 lw 1731 1152 m21 6 lw 1735 1124 m 5 Y s 1735 1140 m 4 Y s 3 lw 1735 1134 m21 6 lw 1740 1141 m 4 Y s 1740 1157 m 4 Y s 3 lw 1740 1151 m21 6 lw 1745 1148 m 5 Y s 1745 1164
 m 5 Y s 3 lw 1745 1159 m21 6 lw 1749 1139 m 4 Y s 1749 1155 m 4 Y s 3 lw 1749 1149 m21 6 lw 1754 1118 m 4 Y s 1754 1133 m 5 Y s 3 lw 1754 1128 m21 6 lw 1759 1138 m 5 Y s 1759 1154 m 5 Y s 3 lw 1759 1148 m21 6 lw 1764 1152 m 5 Y s 1764 1168 m 5 Y s 3
 lw 1764 1163 m21 6 lw 1768 1130 m 5 Y s 1768 1146 m 5 Y s 3 lw 1768 1141 m21 6 lw 1773 1132 m 5 Y s 1773 1148 m 5 Y s 3 lw 1773 1143 m21 6 lw 1778 1137 m 5 Y s 1778 1153 m 5 Y s 3 lw 1778 1148 m21 6 lw 1782 1146 m 5 Y s 1782 1162 m 5 Y s 3 lw 1782
 1157 m21 6 lw 1787 1135 m 5 Y s 1787 1151 m 5 Y s 3 lw 1787 1145 m21 6 lw 1792 1143 m 5 Y s 1792 1160 m 5 Y s 3 lw 1792 1154 m21 6 lw 1797 1133 m 5 Y s 1797 1149 m 5 Y s 3 lw 1797 1143 m21 6 lw 1801 1122 m 5 Y s 1801 1138 m 5 Y s 3 lw 1801 1133 m21
 6 lw 1806 1150 m 5 Y s 1806 1166 m 5 Y s 3 lw 1806 1160 m21 6 lw 1811 1123 m 5 Y s 1811 1139 m 5 Y s 3 lw 1811 1134 m21 6 lw 1815 1139 m 5 Y s 1815 1155 m 5 Y s 3 lw 1815 1150 m21 6 lw 1820 1144 m 5 Y s 1820 1160 m 5 Y s 3 lw 1820 1155 m21 6 lw 1825
 1145 m 5 Y s 1825 1161 m 6 Y s 3 lw 1825 1156 m21 6 lw 1829 1126 m 6 Y s 1829 1143 m 5 Y s 3 lw 1829 1137 m21 6 lw 1834 1133 m 5 Y s 1834 1150 m 5 Y s 3 lw 1834 1144 m21 6 lw 1839 1129 m 6 Y s 1839 1146 m 5 Y s 3 lw 1839 1140 m21 6 lw 1844 1140 m 5
 Y s 1844 1157 m 5 Y s 3 lw 1844 1151 m21 6 lw 1848 1155 m 6 Y s 1848 1172 m 6 Y s 3 lw 1848 1166 m21 6 lw 1853 1129 m 6 Y s 1853 1146 m 6 Y s 3 lw 1853 1140 m21 6 lw 1858 1127 m 5 Y s 1858 1144 m 5 Y s 3 lw 1858 1138 m21 6 lw 1862 1142 m 6 Y s 1862
 1159 m 6 Y s 3 lw 1862 1153 m21 6 lw 1867 1140 m 6 Y s 1867 1157 m 6 Y s 3 lw 1867 1152 m21 6 lw 1872 1155 m 6 Y s 1872 1172 m 6 Y s 3 lw 1872 1166 m21 6 lw 1877 1125 m 6 Y s 1877 1142 m 6 Y s 3 lw 1877 1136 m21 6 lw 1881 1141 m 5 Y s 1881 1158 m 6
 Y s 3 lw 1881 1152 m21 6 lw 1886 1145 m 6 Y s 1886 1163 m 5 Y s 3 lw 1886 1157 m21 6 lw 1891 1133 m 6 Y s 1891 1150 m 6 Y s 3 lw 1891 1144 m21 6 lw 1895 1140 m 6 Y s 1895 1157 m 6 Y s 3 lw 1895 1152 m21 6 lw 1900 1140 m 6 Y s 1900 1157 m 6 Y s 3 lw
 1900 1152 m21 6 lw 1905 1141 m 6 Y s 1905 1158 m 6 Y s 3 lw 1905 1153 m21 6 lw 1909 1124 m 5 Y s 1909 1141 m 6 Y s 3 lw 1909 1135 m21 6 lw 1914 1136 m 6 Y s 1914 1154 m 6 Y s 3 lw 1914 1148 m21 6 lw 1919 1152 m 7 Y s 1919 1170 m 6 Y s 3 lw 1919 1164
 m21 6 lw 1924 1139 m 6 Y s 1924 1156 m 6 Y s 3 lw 1924 1150 m21 6 lw 1928 1145 m 6 Y s 1928 1162 m 7 Y s 3 lw 1928 1157 m21 6 lw 1933 1136 m 6 Y s 1933 1154 m 6 Y s 3 lw 1933 1148 m21 6 lw 1938 1159 m 7 Y s 1938 1177 m 7 Y s 3 lw 1938 1171 m21 6 lw
 1942 1154 m 6 Y s 1942 1172 m 6 Y s 3 lw 1942 1166 m21 6 lw 1947 1148 m 6 Y s 1947 1166 m 6 Y s 3 lw 1947 1160 m21 6 lw 1952 1139 m 6 Y s 1952 1157 m 6 Y s 3 lw 1952 1151 m21 6 lw 1957 1137 m 7 Y s 1957 1155 m 7 Y s 3 lw 1957 1150 m21 6 lw 1961 1148
 m 7 Y s 1961 1167 m 6 Y s 3 lw 1961 1161 m21 6 lw 1966 1115 m 6 Y s 1966 1133 m 6 Y s 3 lw 1966 1127 m21 6 lw 1971 1140 m 6 Y s 1971 1158 m 6 Y s 3 lw 1971 1152 m21 6 lw 1975 1144 m 7 Y s 1975 1162 m 7 Y s 3 lw 1975 1156 m21 6 lw 1980 1131 m 6 Y s
 1980 1149 m 6 Y s 3 lw 1980 1143 m21 6 lw 1985 1144 m 7 Y s 1985 1162 m 7 Y s 3 lw 1985 1157 m21 6 lw 1989 1164 m 7 Y s 1989 1182 m 8 Y s 3 lw 1989 1177 m21 6 lw 1994 1133 m 7 Y s 1994 1151 m 7 Y s 3 lw 1994 1145 m21 6 lw 1999 1142 m 7 Y s 1999 1161
 m 7 Y s 3 lw 1999 1155 m21 6 lw 2004 1146 m 7 Y s 2004 1165 m 7 Y s 3 lw 2004 1159 m21 6 lw 2008 1143 m 8 Y s 2008 1162 m 7 Y s 3 lw 2008 1156 m21 6 lw 2013 1141 m 7 Y s 2013 1160 m 7 Y s 3 lw 2013 1154 m21 6 lw 2018 1146 m 7 Y s 2018 1165 m 7 Y s 3
 lw 2018 1159 m21 6 lw 2022 1154 m 8 Y s 2022 1173 m 7 Y s 3 lw 2022 1167 m21 6 lw 2027 1135 m 8 Y s 2027 1154 m 7 Y s 3 lw 2027 1148 m21 6 lw 2032 1137 m 8 Y s 2032 1156 m 8 Y s 3 lw 2032 1151 m21 6 lw 2036 1142 m 8 Y s 2036 1161 m 7 Y s 3 lw 2036
 1155 m21 6 lw 2041 1135 m 7 Y s 2041 1154 m 7 Y s 3 lw 2041 1148 m21 6 lw 2046 1143 m 7 Y s 2046 1162 m 7 Y s 3 lw 2046 1156 m21 6 lw 2051 1127 m 8 Y s 2051 1146 m 8 Y s 3 lw 2051 1141 m21 6 lw 2055 1165 m 8 Y s 2055 1184 m 8 Y s 3 lw 2055 1179 m21
 6 lw 2060 1146 m 8 Y s 2060 1165 m 8 Y s 3 lw 2060 1160 m21 6 lw 2065 1149 m 8 Y s 2065 1168 m 8 Y s 3 lw 2065 1162 m21 6 lw 2069 1146 m 7 Y s 2069 1165 m 8 Y s 3 lw 2069 1159 m21 6 lw 2074 1153 m 8 Y s 2074 1172 m 8 Y s 3 lw 2074 1166 m21 6 lw 2079
 1146 m 8 Y s 2079 1165 m 8 Y s 3 lw 2079 1160 m21 6 lw 2084 1151 m 8 Y s 2084 1170 m 9 Y s 3 lw 2084 1165 m21 6 lw 2088 1129 m 8 Y s 2088 1149 m 8 Y s 3 lw 2088 1143 m21 6 lw 2093 1141 m 8 Y s 2093 1161 m 8 Y s 3 lw 2093 1155 m21 6 lw 2098 1147 m 8
 Y s 2098 1167 m 8 Y s 3 lw 2098 1161 m21 6 lw 2102 1153 m 8 Y s 2102 1173 m 8 Y s 3 lw 2102 1167 m21 6 lw 2107 1159 m 9 Y s 2107 1179 m 9 Y s 3 lw 2107 1173 m21 6 lw 2112 1127 m 8 Y s 2112 1146 m 9 Y s 3 lw 2112 1141 m21 6 lw 2116 1128 m 9 Y s 2116
 1148 m 8 Y s 3 lw 2116 1142 m21 6 lw 2121 1158 m 9 Y s 2121 1178 m 9 Y s 3 lw 2121 1173 m21 6 lw 2126 1155 m 9 Y s 2126 1175 m 9 Y s 3 lw 2126 1169 m21 6 lw 2131 1135 m 8 Y s 2131 1155 m 8 Y s 3 lw 2131 1149 m21 6 lw 2135 1159 m 9 Y s 2135 1179 m 9
 Y s 3 lw 2135 1174 m21 6 lw 2140 1149 m 9 Y s 2140 1169 m 9 Y s 3 lw 2140 1164 m21 6 lw 2145 1129 m 8 Y s 2145 1149 m 8 Y s 3 lw 2145 1143 m21 6 lw 2149 1139 m 9 Y s 2149 1159 m 9 Y s 3 lw 2149 1154 m21 6 lw 2154 1130 m 8 Y s 2154 1150 m 9 Y s 3 lw
 2154 1144 m21 6 lw 2159 1121 m 9 Y s 2159 1142 m 8 Y s 3 lw 2159 1136 m21 6 lw 2164 1147 m 9 Y s 2164 1167 m 9 Y s 3 lw 2164 1162 m21 6 lw 2168 1131 m 9 Y s 2168 1151 m 9 Y s 3 lw 2168 1146 m21 6 lw 2173 1144 m 9 Y s 2173 1164 m 9 Y s 3 lw 2173 1158
 m21 6 lw 2178 1176 m 9 Y s 2178 1196 m 10 Y s 3 lw 2178 1191 m21 6 lw 2182 1145 m 9 Y s 2182 1165 m 10 Y s 3 lw 2182 1160 m21 6 lw 2187 1156 m 9 Y s 2187 1177 m 9 Y s 3 lw 2187 1171 m21 6 lw 2192 1140 m 9 Y s 2192 1161 m 9 Y s 3 lw 2192 1155 m21 6
 lw 2196 1127 m 9 Y s 2196 1148 m 9 Y s 3 lw 2196 1142 m21 6 lw 2201 1172 m 9 Y s 2201 1193 m 10 Y s 3 lw 2201 1187 m21 6 lw 2206 1150 m 10 Y s 2206 1171 m 10 Y s 3 lw 2206 1166 m21 6 lw 2211 1159 m 10 Y s 2211 1181 m 9 Y s 3 lw 2211 1175 m21 6 lw
 2215 1156 m 10 Y s 2215 1177 m 10 Y s 3 lw 2215 1171 m21 6 lw 2220 1133 m 10 Y s 2220 1154 m 10 Y s 3 lw 2220 1149 m21 6 lw black 340 223 m 1882 X s
 gsave  2268 2234 0 0 C 1923.86 58.2559 t 0 r /Helvetica findfont 83.8316 sf 0 0 m (Q [GeV]) show NC gr  340 279 m -56 Y s 387 251 m -28 Y s 434 251 m -28 Y s 481 251 m -28 Y s 528 279 m -56 Y s 575 251 m -28 Y s 622 251 m -28 Y s 670 251 m -28 Y s
 717 279 m -56 Y s 764 251 m -28 Y s 811 251 m -28 Y s 858 251 m -28 Y s 905 279 m -56 Y s 952 251 m -28 Y s 999 251 m -28 Y s 1046 251 m -28 Y s 1093 279 m -56 Y s 1140 251 m -28 Y s 1187 251 m -28 Y s 1234 251 m -28 Y s 1281 279 m -56 Y s 1328 251
 m -28 Y s 1375 251 m -28 Y s 1422 251 m -28 Y s 1469 279 m -56 Y s 1517 251 m -28 Y s 1564 251 m -28 Y s 1611 251 m -28 Y s 1658 279 m -56 Y s 1705 251 m -28 Y s 1752 251 m -28 Y s 1799 251 m -28 Y s 1846 279 m -56 Y s 1893 251 m -28 Y s 1940 251 m
 -28 Y s 1987 251 m -28 Y s 2034 279 m -56 Y s 2081 251 m -28 Y s 2128 251 m -28 Y s 2175 251 m -28 Y s 2222 279 m -56 Y s
 gsave  2268 2234 0 0 C 322.539 159.138 t 0 r /Helvetica findfont 62.5185 sf 0 0 m (0) show NC gr 
 gsave  2268 2234 0 0 C 484.518 159.138 t 0 r /Helvetica findfont 62.5185 sf 0 0 m (0.2) show NC gr 
 gsave  2268 2234 0 0 C 673.495 159.138 t 0 r /Helvetica findfont 62.5185 sf 0 0 m (0.4) show NC gr 
 gsave  2268 2234 0 0 C 861.05 159.138 t 0 r /Helvetica findfont 62.5185 sf 0 0 m (0.6) show NC gr 
 gsave  2268 2234 0 0 C 1050.03 159.138 t 0 r /Helvetica findfont 62.5185 sf 0 0 m (0.8) show NC gr 
 gsave  2268 2234 0 0 C 1268.84 159.138 t 0 r /Helvetica findfont 62.5185 sf 0 0 m (1) show NC gr 
 gsave  2268 2234 0 0 C 1426.56 159.138 t 0 r /Helvetica findfont 62.5185 sf 0 0 m (1.2) show NC gr 
 gsave  2268 2234 0 0 C 1614.11 159.138 t 0 r /Helvetica findfont 62.5185 sf 0 0 m (1.4) show NC gr 
 gsave  2268 2234 0 0 C 1803.09 159.138 t 0 r /Helvetica findfont 62.5185 sf 0 0 m (1.6) show NC gr 
 gsave  2268 2234 0 0 C 1990.65 159.138 t 0 r /Helvetica findfont 62.5185 sf 0 0 m (1.8) show NC gr 
 gsave  2268 2234 0 0 C 2205.2 159.138 t 0 r /Helvetica findfont 62.5185 sf 0 0 m (2) show NC gr  340 223 m 1966 Y s
 gsave  2268 2234 0 0 C 152.034 1953.7 t 90 r /Helvetica findfont 83.8316 sf 0 0 m (DR\(Q\)) show NC gr  400 402 m -60 X s 370 491 m -30 X s 370 581 m -30 X s 370 670 m -30 X s 400 759 m -60 X s 370 849 m -30 X s 370 938 m -30 X s 370 1027 m -30 X s
 400 1117 m -60 X s 370 1206 m -30 X s 370 1295 m -30 X s 370 1385 m -30 X s 400 1474 m -60 X s 370 1564 m -30 X s 370 1653 m -30 X s 370 1742 m -30 X s 400 1832 m -60 X s 370 1921 m -30 X s 370 2010 m -30 X s 370 2100 m -30 X s 400 2189 m -60 X s
 400 402 m -60 X s 370 313 m -30 X s 370 223 m -30 X s
 gsave  2268 2234 0 0 C 242.97 379.374 t 0 r /Helvetica findfont 62.5185 sf 0 0 m (0.6) show NC gr 
 gsave  2268 2234 0 0 C 242.97 737.434 t 0 r /Helvetica findfont 62.5185 sf 0 0 m (0.8) show NC gr 
 gsave  2268 2234 0 0 C 305.488 1092.65 t 0 r /Helvetica findfont 62.5185 sf 0 0 m (1) show NC gr 
 gsave  2268 2234 0 0 C 242.97 1450.71 t 0 r /Helvetica findfont 62.5185 sf 0 0 m (1.2) show NC gr 
 gsave  2268 2234 0 0 C 242.97 1808.77 t 0 r /Helvetica findfont 62.5185 sf 0 0 m (1.4) show NC gr 
 gsave  2268 2234 0 0 C 242.97 2166.83 t 0 r /Helvetica findfont 62.5185 sf 0 0 m (1.6) show NC gr 
 gsave  2268 2234 0 0 C 906.518 670.653 t 0 r /Helvetica-Bold findfont 72.4646 sf 0 0 m (DR PIONS) show NC gr 
 gsave  2268 2234 0 0 C 906.518 558.404 t 0 r /Helvetica-Bold findfont 72.4646 sf 0 0 m (ref. sample: EVENT MIX) show NC gr 
 gsave  2268 2234 0 0 C 906.518 447.576 t 0 r /Helvetica-Bold findfont 72.4646 sf 0 0 m (VELO tracks multiplicity: 21 \255 60) show NC gr 
 gr  gr showpage
end
%%EOF
