%!PS-Adobe-2.0 EPSF-2.0
%%BoundingBox:  0 0 567 558
%%Title: ./DR_pion_0c65_h3101_1_h3401_1.eps: DR_pion_0c65_h3101_1_h3401_1
%%Creator: ROOT Version 6.06/02
%%CreationDate: Wed Feb  1 16:20:58 2017
%%DocumentNeededResources: ProcSet (FontSetInit)
%%EndComments
%%BeginProlog
80 dict begin
/s {stroke} def /l {lineto} def /m {moveto} def /t {translate} def
/r {rotate} def /rl {roll}  def /R {repeat} def
/d {rlineto} def /rm {rmoveto} def /gr {grestore} def /f {eofill} def
/c {setrgbcolor} def /black {0 setgray} def /sd {setdash} def
/cl {closepath} def /sf {scalefont setfont} def /lw {setlinewidth} def
/box {m dup 0 exch d exch 0 d 0 exch neg d cl} def
/NC{systemdict begin initclip end}def/C{NC box clip newpath}def
/bl {box s} def /bf {gsave box gsave f grestore 1 lw [] 0 sd s grestore} def /Y { 0 exch d} def /X { 0 d} def 
/K {{pop pop 0 moveto} exch kshow} bind def
/ita {/ang 15 def gsave [1 0 ang dup sin exch cos div 1 0 0] concat} def 
/mp {newpath /y exch def /x exch def} def
/side {[w .77 mul w .23 mul] .385 w mul sd w 0 l currentpoint t -144 r} def
/mr {mp x y w2 0 360 arc} def /m24 {mr s} def /m20 {mr f} def
/mb {mp x y w2 add m w2 neg 0 d 0 w neg d w 0 d 0 w d cl} def
/mt {mp x y w2 add m w2 neg w neg d w 0 d cl} def
/m21 {mb f} def /m25 {mb s} def /m22 {mt f} def /m26{mt s} def
/m23 {mp x y w2 sub m w2 w d w neg 0 d cl f} def
/m27 {mp x y w2 add m w3 neg w2 neg d w3 w2 neg d w3 w2 d cl s} def
/m28 {mp x w2 sub y w2 sub w3 add m w3 0 d  0 w3 neg d w3 0 d 0 w3 d w3 0 d  0 w3 d w3 neg 0 d 0 w3 d w3 neg 0 d 0 w3 neg d w3 neg 0 d cl s } def
/m29 {mp gsave x w2 sub y w2 add w3 sub m currentpoint t 4 {side} repeat cl fill gr} def
/m30 {mp gsave x w2 sub y w2 add w3 sub m currentpoint t 4 {side} repeat cl s gr} def
/m31 {mp x y w2 sub m 0 w d x w2 sub y m w 0 d x w2 sub y w2 add m w w neg d x w2 sub y w2 sub m w w d s} def
/m32 {mp x y w2 sub m w2 w d w neg 0 d cl s} def
/m33 {mp x y w2 add m w3 neg w2 neg d w3 w2 neg d w3 w2 d cl f} def
/m34 {mp x w2 sub y w2 sub w3 add m w3 0 d  0 w3 neg d w3 0 d 0 w3 d w3 0 d  0 w3 d w3 neg 0 d 0 w3 d w3 neg 0 d 0 w3 neg d w3 neg 0 d cl f } def
/m2 {mp x y w2 sub m 0 w d x w2 sub y m w 0 d s} def
/m5 {mp x w2 sub y w2 sub m w w d x w2 sub y w2 add m w w neg d s} def
%%IncludeResource: ProcSet (FontSetInit)
%%IncludeResource: font Times-Roman
%%IncludeResource: font Times-Italic
%%IncludeResource: font Times-Bold
%%IncludeResource: font Times-BoldItalic
%%IncludeResource: font Helvetica
%%IncludeResource: font Helvetica-Oblique
%%IncludeResource: font Helvetica-Bold
%%IncludeResource: font Helvetica-BoldOblique
%%IncludeResource: font Courier
%%IncludeResource: font Courier-Oblique
%%IncludeResource: font Courier-Bold
%%IncludeResource: font Courier-BoldOblique
%%IncludeResource: font Symbol
%%IncludeResource: font ZapfDingbats
/reEncode {exch findfont dup length dict begin {1 index /FID eq  {pop pop} {def} ifelse } forall /Encoding exch def currentdict end dup /FontName get exch definefont pop } def [/Times-Bold /Times-Italic /Times-BoldItalic /Helvetica /Helvetica-Oblique
 /Helvetica-Bold /Helvetica-BoldOblique /Courier /Courier-Oblique /Courier-Bold /Courier-BoldOblique /Times-Roman /AvantGarde-Book /AvantGarde-BookOblique /AvantGarde-Demi /AvantGarde-DemiOblique /Bookman-Demi /Bookman-DemiItalic /Bookman-Light
 /Bookman-LightItalic /Helvetica-Narrow /Helvetica-Narrow-Bold /Helvetica-Narrow-BoldOblique /Helvetica-Narrow-Oblique /NewCenturySchlbk-Roman /NewCenturySchlbk-Bold /NewCenturySchlbk-BoldItalic /NewCenturySchlbk-Italic /Palatino-Bold
 /Palatino-BoldItalic /Palatino-Italic /Palatino-Roman ] {ISOLatin1Encoding reEncode } forall
%%EndProlog
%%BeginSetup
%%EndSetup
newpath  gsave  .25 .25 scale  gsave  0 0 t black[  ] 0 sd 6 lw 1 1 1 c 2268 2234 0 0 bf black 3 lw 1 1 1 c 1882 1966 340 223 bf black 1882 1966 340 223 bl 1 1 1 c 1882 1966 340 223 bf black 1882 1966 340 223 bl 0 0 1 c 6 lw 1 1 1 c 0 0 1 c 390 1187
 m 27 Y s 390 1225 m 26 Y s 3 lw /w 14 def /w2 {w 2 div} def /w3 {w 3 div} def 390 1219 m21 6 lw 394 1191 m 24 Y s 394 1226 m 24 Y s 3 lw 394 1221 m21 6 lw 399 1186 m 21 Y s 399 1219 m 21 Y s 3 lw 399 1213 m21 6 lw 404 1147 m 20 Y s 404 1178 m 19 Y s
 3 lw 404 1172 m21 6 lw 408 1133 m 17 Y s 408 1161 m 18 Y s 3 lw 408 1156 m21 6 lw 413 1241 m 17 Y s 413 1270 m 17 Y s 3 lw 413 1264 m21 6 lw 418 1156 m 15 Y s 418 1183 m 15 Y s 3 lw 418 1177 m21 6 lw 423 1148 m 14 Y s 423 1174 m 14 Y s 3 lw 423 1168
 m21 6 lw 427 1160 m 14 Y s 427 1185 m 13 Y s 3 lw 427 1179 m21 6 lw 432 1162 m 12 Y s 432 1186 m 12 Y s 3 lw 432 1180 m21 6 lw 437 1119 m 12 Y s 437 1142 m 12 Y s 3 lw 437 1137 m21 6 lw 441 1149 m 11 Y s 441 1171 m 11 Y s 3 lw 441 1166 m21 6 lw 446
 1170 m 11 Y s 446 1192 m 11 Y s 3 lw 446 1187 m21 6 lw 451 1142 m 10 Y s 451 1164 m 10 Y s 3 lw 451 1158 m21 6 lw 455 1148 m 9 Y s 455 1169 m 9 Y s 3 lw 455 1163 m21 6 lw 460 1154 m 9 Y s 460 1174 m 9 Y s 3 lw 460 1169 m21 6 lw 465 1100 m 9 Y s 465
 1120 m 8 Y s 3 lw 465 1114 m21 6 lw 470 1120 m 8 Y s 470 1139 m 8 Y s 3 lw 470 1133 m21 6 lw 474 1119 m 7 Y s 474 1138 m 7 Y s 3 lw 474 1132 m21 6 lw 479 1104 m 7 Y s 479 1123 m 7 Y s 3 lw 479 1117 m21 6 lw 484 1071 m 7 Y s 484 1089 m 7 Y s 3 lw 484
 1084 m21 6 lw 488 1113 m 7 Y s 488 1131 m 7 Y s 3 lw 488 1126 m21 6 lw 493 1107 m 7 Y s 493 1125 m 7 Y s 3 lw 493 1119 m21 6 lw 498 1095 m 6 Y s 498 1112 m 7 Y s 3 lw 498 1107 m21 6 lw 502 1084 m 6 Y s 502 1101 m 6 Y s 3 lw 502 1095 m21 6 lw 507
 1097 m 6 Y s 507 1114 m 6 Y s 3 lw 507 1108 m21 6 lw 512 1088 m 5 Y s 512 1105 m 5 Y s 3 lw 512 1099 m21 6 lw 517 1079 m 5 Y s 517 1095 m 6 Y s 3 lw 517 1090 m21 6 lw 521 1081 m 6 Y s 521 1098 m 5 Y s 3 lw 521 1092 m21 6 lw 526 1065 m 5 Y s 526 1081
 m 5 Y s 3 lw 526 1076 m21 6 lw 531 1072 m 4 Y s 531 1088 m 5 Y s 3 lw 531 1082 m21 6 lw 535 1056 m 4 Y s 535 1072 m 4 Y s 3 lw 535 1066 m21 6 lw 540 1069 m 4 Y s 540 1084 m 5 Y s 3 lw 540 1079 m21 6 lw 545 1062 m 4 Y s 545 1078 m 4 Y s 3 lw 545 1072
 m21 6 lw 550 1068 m 4 Y s 550 1083 m 5 Y s 3 lw 550 1078 m21 6 lw 554 1060 m 4 Y s 554 1075 m 4 Y s 3 lw 554 1069 m21 6 lw 559 1048 m 4 Y s 559 1063 m 4 Y s 3 lw 559 1058 m21 6 lw 564 1044 m 4 Y s 564 1059 m 4 Y s 3 lw 564 1054 m21 6 lw 568 1046 m 4
 Y s 568 1061 m 4 Y s 3 lw 568 1055 m21 6 lw 573 1047 m 4 Y s 573 1062 m 4 Y s 3 lw 573 1056 m21 6 lw 578 1043 m 4 Y s 578 1058 m 4 Y s 3 lw 578 1053 m21 6 lw 582 1064 m 4 Y s 582 1079 m 4 Y s 3 lw 582 1074 m21 6 lw 587 1064 m 3 Y s 587 1078 m 4 Y s
 3 lw 587 1073 m21 6 lw 592 1065 m 3 Y s 592 1080 m 3 Y s 3 lw 592 1074 m21 6 lw 597 1059 m 3 Y s 597 1074 m 3 Y s 3 lw 597 1068 m21 6 lw 601 1044 m 4 Y s 601 1059 m 3 Y s 3 lw 601 1053 m21 6 lw 606 1052 m 3 Y s 606 1067 m 3 Y s 3 lw 606 1061 m21 6
 lw 611 1058 m 4 Y s 611 1073 m 3 Y s 3 lw 611 1067 m21 6 lw 615 1054 m 3 Y s 615 1068 m 3 Y s 3 lw 615 1063 m21 6 lw 620 1074 m 3 Y s 620 1089 m 3 Y s 3 lw 620 1083 m21 6 lw 625 1086 m 3 Y s 625 1100 m 3 Y s 3 lw 625 1094 m21 6 lw 630 1087 m 3 Y s
 630 1101 m 3 Y s 3 lw 630 1096 m21 6 lw 634 1094 m 3 Y s 634 1108 m 3 Y s 3 lw 634 1103 m21 6 lw 639 1092 m 2 Y s 639 1106 m 3 Y s 3 lw 639 1100 m21 6 lw 644 1108 m 3 Y s 644 1122 m 3 Y s 3 lw 644 1116 m21 6 lw 648 1105 m 3 Y s 648 1120 m 2 Y s 3 lw
 648 1114 m21 6 lw 653 1096 m 3 Y s 653 1110 m 3 Y s 3 lw 653 1104 m21 6 lw 658 1084 m 3 Y s 658 1098 m 3 Y s 3 lw 658 1093 m21 6 lw 662 1106 m 3 Y s 662 1120 m 3 Y s 3 lw 662 1114 m21 6 lw 667 1096 m 2 Y s 667 1110 m 2 Y s 3 lw 667 1104 m21 6 lw 672
 1100 m 3 Y s 672 1114 m 2 Y s 3 lw 672 1108 m21 6 lw 677 1096 m 2 Y s 677 1110 m 2 Y s 3 lw 677 1104 m21 6 lw 681 1087 m 2 Y s 681 1100 m 3 Y s 3 lw 681 1095 m21 6 lw 686 1097 m 2 Y s 686 1111 m 2 Y s 3 lw 686 1105 m21 6 lw 691 1108 m 3 Y s 691 1122
 m 2 Y s 3 lw 691 1116 m21 6 lw 695 1100 m 2 Y s 695 1114 m 2 Y s 3 lw 695 1108 m21 6 lw 700 1095 m 2 Y s 700 1109 m 2 Y s 3 lw 700 1103 m21 6 lw 705 1095 m 2 Y s 705 1109 m 2 Y s 3 lw 705 1103 m21 6 lw 710 1116 m 2 Y s 710 1130 m 2 Y s 3 lw 710 1124
 m21 6 lw 714 1088 m 3 Y s 714 1102 m 2 Y s 3 lw 714 1096 m21 6 lw 719 1103 m 2 Y s 719 1116 m 2 Y s 3 lw 719 1110 m21 6 lw 724 1122 m 2 Y s 724 1135 m 2 Y s 3 lw 724 1130 m21 6 lw 728 1113 m 2 Y s 728 1126 m 2 Y s 3 lw 728 1120 m21 6 lw 733 1112 m 2
 Y s 733 1125 m 2 Y s 3 lw 733 1119 m21 6 lw 738 1113 m 2 Y s 738 1126 m 2 Y s 3 lw 738 1121 m21 6 lw 742 1116 m 2 Y s 742 1129 m 2 Y s 3 lw 742 1124 m21 6 lw 747 1112 m 2 Y s 747 1126 m 2 Y s 3 lw 747 1120 m21 6 lw 752 1111 m 2 Y s 752 1124 m 2 Y s
 3 lw 752 1119 m21 6 lw 757 1124 m 2 Y s 757 1137 m 2 Y s 3 lw 757 1131 m21 6 lw 761 1117 m 2 Y s 761 1131 m 2 Y s 3 lw 761 1125 m21 6 lw 766 1122 m 1 Y s 766 1135 m 2 Y s 3 lw 766 1129 m21 6 lw 771 1127 m 2 Y s 771 1140 m 2 Y s 3 lw 771 1134 m21 6
 lw 775 1131 m 2 Y s 775 1144 m 2 Y s 3 lw 775 1138 m21 6 lw 780 1132 m 2 Y s 780 1145 m 2 Y s 3 lw 780 1139 m21 6 lw 785 1147 m 2 Y s 785 1161 m 2 Y s 3 lw 785 1155 m21 6 lw 790 1140 m 1 Y s 790 1153 m 2 Y s 3 lw 790 1147 m21 6 lw 794 1140 m 2 Y s
 794 1153 m 2 Y s 3 lw 794 1147 m21 6 lw 799 1150 m 2 Y s 799 1164 m 2 Y s 3 lw 799 1158 m21 6 lw 804 1148 m 2 Y s 804 1161 m 2 Y s 3 lw 804 1156 m21 6 lw 808 1145 m 2 Y s 808 1159 m 2 Y s 3 lw 808 1153 m21 6 lw 813 1157 m 2 Y s 813 1171 m 1 Y s 3 lw
 813 1165 m21 6 lw 818 1148 m 2 Y s 818 1161 m 2 Y s 3 lw 818 1156 m21 6 lw 822 1151 m 2 Y s 822 1164 m 2 Y s 3 lw 822 1159 m21 6 lw 827 1151 m 2 Y s 827 1164 m 2 Y s 3 lw 827 1158 m21 6 lw 832 1162 m 1 Y s 832 1175 m 2 Y s 3 lw 832 1169 m21 6 lw 837
 1187 m 2 Y s 837 1200 m 2 Y s 3 lw 837 1194 m21 6 lw 841 1165 m 2 Y s 841 1179 m 2 Y s 3 lw 841 1173 m21 6 lw 846 1172 m 2 Y s 846 1185 m 2 Y s 3 lw 846 1180 m21 6 lw 851 1178 m 2 Y s 851 1191 m 2 Y s 3 lw 851 1186 m21 6 lw 855 1176 m 2 Y s 855 1189
 m 2 Y s 3 lw 855 1184 m21 6 lw 860 1179 m 2 Y s 860 1192 m 2 Y s 3 lw 860 1186 m21 6 lw 865 1173 m 2 Y s 865 1187 m 2 Y s 3 lw 865 1181 m21 6 lw 870 1179 m 2 Y s 870 1192 m 2 Y s 3 lw 870 1187 m21 6 lw 874 1186 m 2 Y s 874 1200 m 2 Y s 3 lw 874 1194
 m21 6 lw 879 1182 m 2 Y s 879 1195 m 3 Y s 3 lw 879 1190 m21 6 lw 884 1189 m 2 Y s 884 1203 m 2 Y s 3 lw 884 1197 m21 6 lw 888 1180 m 2 Y s 888 1193 m 2 Y s 3 lw 888 1188 m21 6 lw 893 1171 m 2 Y s 893 1185 m 2 Y s 3 lw 893 1179 m21 6 lw 898 1180 m 3
 Y s 898 1194 m 2 Y s 3 lw 898 1188 m21 6 lw 902 1178 m 2 Y s 902 1192 m 2 Y s 3 lw 902 1186 m21 6 lw 907 1184 m 2 Y s 907 1197 m 3 Y s 3 lw 907 1192 m21 6 lw 912 1169 m 2 Y s 912 1182 m 2 Y s 3 lw 912 1177 m21 6 lw 917 1177 m 3 Y s 917 1191 m 2 Y s
 3 lw 917 1185 m21 6 lw 921 1160 m 2 Y s 921 1173 m 2 Y s 3 lw 921 1168 m21 6 lw 926 1186 m 2 Y s 926 1200 m 2 Y s 3 lw 926 1194 m21 6 lw 931 1177 m 2 Y s 931 1191 m 2 Y s 3 lw 931 1185 m21 6 lw 935 1164 m 2 Y s 935 1178 m 2 Y s 3 lw 935 1172 m21 6
 lw 940 1157 m 2 Y s 940 1170 m 2 Y s 3 lw 940 1165 m21 6 lw 945 1156 m 2 Y s 945 1170 m 2 Y s 3 lw 945 1164 m21 6 lw 950 1160 m 2 Y s 950 1173 m 2 Y s 3 lw 950 1167 m21 6 lw 954 1153 m 2 Y s 954 1166 m 2 Y s 3 lw 954 1160 m21 6 lw 959 1155 m 3 Y s
 959 1169 m 2 Y s 3 lw 959 1163 m21 6 lw 964 1138 m 2 Y s 964 1151 m 2 Y s 3 lw 964 1145 m21 6 lw 968 1130 m 2 Y s 968 1143 m 2 Y s 3 lw 968 1138 m21 6 lw 973 1118 m 2 Y s 973 1131 m 2 Y s 3 lw 973 1125 m21 6 lw 978 1127 m 2 Y s 978 1140 m 2 Y s 3 lw
 978 1135 m21 6 lw 982 1108 m 2 Y s 982 1122 m 2 Y s 3 lw 982 1116 m21 6 lw 987 1101 m 2 Y s 987 1114 m 2 Y s 3 lw 987 1108 m21 6 lw 992 1094 m 2 Y s 992 1107 m 2 Y s 3 lw 992 1101 m21 6 lw 997 1090 m 2 Y s 997 1104 m 1 Y s 3 lw 997 1098 m21 6 lw
 1001 1079 m 2 Y s 1001 1092 m 2 Y s 3 lw 1001 1086 m21 6 lw 1006 1073 m 2 Y s 1006 1086 m 2 Y s 3 lw 1006 1081 m21 6 lw 1011 1067 m 1 Y s 1011 1080 m 1 Y s 3 lw 1011 1074 m21 6 lw 1015 1057 m 2 Y s 1015 1070 m 2 Y s 3 lw 1015 1064 m21 6 lw 1020 1060
 m 2 Y s 1020 1073 m 2 Y s 3 lw 1020 1068 m21 6 lw 1025 1025 m 1 Y s 1025 1038 m 1 Y s 3 lw 1025 1032 m21 6 lw 1030 1028 m 2 Y s 1030 1041 m 2 Y s 3 lw 1030 1036 m21 6 lw 1034 1029 m 2 Y s 1034 1042 m 2 Y s 3 lw 1034 1037 m21 6 lw 1039 1022 m 1 Y s
 1039 1035 m 1 Y s 3 lw 1039 1029 m21 6 lw 1044 1029 m 2 Y s 1044 1042 m 2 Y s 3 lw 1044 1037 m21 6 lw 1048 1028 m 2 Y s 1048 1041 m 2 Y s 3 lw 1048 1036 m21 6 lw 1053 1034 m 2 Y s 1053 1047 m 2 Y s 3 lw 1053 1041 m21 6 lw 1058 1043 m 2 Y s 1058 1056
 m 2 Y s 3 lw 1058 1050 m21 6 lw 1062 1039 m 2 Y s 1062 1053 m 2 Y s 3 lw 1062 1047 m21 6 lw 1067 1041 m 2 Y s 1067 1055 m 2 Y s 3 lw 1067 1049 m21 6 lw 1072 1048 m 2 Y s 1072 1061 m 2 Y s 3 lw 1072 1055 m21 6 lw 1077 1031 m 2 Y s 1077 1045 m 2 Y s 3
 lw 1077 1039 m21 6 lw 1081 1047 m 2 Y s 1081 1061 m 2 Y s 3 lw 1081 1055 m21 6 lw 1086 1042 m 2 Y s 1086 1055 m 2 Y s 3 lw 1086 1050 m21 6 lw 1091 1039 m 3 Y s 1091 1053 m 2 Y s 3 lw 1091 1047 m21 6 lw 1095 1054 m 2 Y s 1095 1067 m 2 Y s 3 lw 1095
 1061 m21 6 lw 1100 1026 m 2 Y s 1100 1039 m 3 Y s 3 lw 1100 1034 m21 6 lw 1105 1043 m 3 Y s 1105 1057 m 2 Y s 3 lw 1105 1051 m21 6 lw 1110 1042 m 3 Y s 1110 1056 m 3 Y s 3 lw 1110 1051 m21 6 lw 1114 1052 m 2 Y s 1114 1065 m 3 Y s 3 lw 1114 1060 m21
 6 lw 1119 1059 m 2 Y s 1119 1073 m 2 Y s 3 lw 1119 1067 m21 6 lw 1124 1062 m 2 Y s 1124 1076 m 2 Y s 3 lw 1124 1070 m21 6 lw 1128 1056 m 3 Y s 1128 1070 m 2 Y s 3 lw 1128 1064 m21 6 lw 1133 1057 m 3 Y s 1133 1071 m 3 Y s 3 lw 1133 1066 m21 6 lw 1138
 1074 m 3 Y s 1138 1088 m 3 Y s 3 lw 1138 1082 m21 6 lw 1142 1054 m 2 Y s 1142 1068 m 2 Y s 3 lw 1142 1062 m21 6 lw 1147 1074 m 3 Y s 1147 1088 m 3 Y s 3 lw 1147 1082 m21 6 lw 1152 1075 m 2 Y s 1152 1089 m 3 Y s 3 lw 1152 1083 m21 6 lw 1157 1090 m 2
 Y s 1157 1104 m 3 Y s 3 lw 1157 1098 m21 6 lw 1161 1079 m 3 Y s 1161 1094 m 2 Y s 3 lw 1161 1088 m21 6 lw 1166 1085 m 3 Y s 1166 1100 m 3 Y s 3 lw 1166 1094 m21 6 lw 1171 1095 m 3 Y s 1171 1109 m 3 Y s 3 lw 1171 1103 m21 6 lw 1175 1098 m 3 Y s 1175
 1113 m 3 Y s 3 lw 1175 1107 m21 6 lw 1180 1102 m 3 Y s 1180 1116 m 4 Y s 3 lw 1180 1111 m21 6 lw 1185 1105 m 3 Y s 1185 1119 m 4 Y s 3 lw 1185 1114 m21 6 lw 1190 1101 m 3 Y s 1190 1116 m 3 Y s 3 lw 1190 1110 m21 6 lw 1194 1111 m 4 Y s 1194 1126 m 3
 Y s 3 lw 1194 1120 m21 6 lw 1199 1127 m 4 Y s 1199 1142 m 4 Y s 3 lw 1199 1136 m21 6 lw 1204 1130 m 3 Y s 1204 1145 m 3 Y s 3 lw 1204 1139 m21 6 lw 1208 1133 m 3 Y s 1208 1148 m 3 Y s 3 lw 1208 1142 m21 6 lw 1213 1137 m 4 Y s 1213 1152 m 4 Y s 3 lw
 1213 1147 m21 6 lw 1218 1124 m 4 Y s 1218 1139 m 4 Y s 3 lw 1218 1134 m21 6 lw 1222 1123 m 4 Y s 1222 1138 m 4 Y s 3 lw 1222 1132 m21 6 lw 1227 1175 m 4 Y s 1227 1190 m 4 Y s 3 lw 1227 1184 m21 6 lw 1232 1140 m 4 Y s 1232 1155 m 4 Y s 3 lw 1232 1149
 m21 6 lw 1237 1115 m 3 Y s 1237 1130 m 3 Y s 3 lw 1237 1124 m21 6 lw 1241 1116 m 4 Y s 1241 1131 m 4 Y s 3 lw 1241 1125 m21 6 lw 1246 1099 m 3 Y s 1246 1114 m 3 Y s 3 lw 1246 1108 m21 6 lw 1251 1083 m 4 Y s 1251 1098 m 4 Y s 3 lw 1251 1092 m21 6 lw
 1255 1109 m 4 Y s 1255 1124 m 4 Y s 3 lw 1255 1119 m21 6 lw 1260 1089 m 4 Y s 1260 1104 m 4 Y s 3 lw 1260 1098 m21 6 lw 1265 1093 m 4 Y s 1265 1109 m 4 Y s 3 lw 1265 1103 m21 6 lw 1269 1077 m 4 Y s 1269 1092 m 4 Y s 3 lw 1269 1087 m21 6 lw 1274 1073
 m 4 Y s 1274 1089 m 4 Y s 3 lw 1274 1083 m21 6 lw 1279 1090 m 4 Y s 1279 1105 m 4 Y s 3 lw 1279 1100 m21 6 lw 1284 1091 m 4 Y s 1284 1107 m 4 Y s 3 lw 1284 1101 m21 6 lw 1288 1077 m 4 Y s 1288 1092 m 5 Y s 3 lw 1288 1087 m21 6 lw 1293 1085 m 4 Y s
 1293 1100 m 5 Y s 3 lw 1293 1095 m21 6 lw 1298 1089 m 4 Y s 1298 1104 m 5 Y s 3 lw 1298 1099 m21 6 lw 1302 1084 m 4 Y s 1302 1099 m 5 Y s 3 lw 1302 1094 m21 6 lw 1307 1093 m 5 Y s 1307 1109 m 4 Y s 3 lw 1307 1103 m21 6 lw 1312 1106 m 5 Y s 1312 1122
 m 5 Y s 3 lw 1312 1116 m21 6 lw 1317 1102 m 4 Y s 1317 1117 m 5 Y s 3 lw 1317 1112 m21 6 lw 1321 1063 m 4 Y s 1321 1079 m 4 Y s 3 lw 1321 1073 m21 6 lw 1326 1072 m 5 Y s 1326 1088 m 5 Y s 3 lw 1326 1082 m21 6 lw 1331 1083 m 4 Y s 1331 1099 m 4 Y s 3
 lw 1331 1093 m21 6 lw 1335 1082 m 5 Y s 1335 1098 m 5 Y s 3 lw 1335 1092 m21 6 lw 1340 1080 m 5 Y s 1340 1096 m 5 Y s 3 lw 1340 1091 m21 6 lw 1345 1088 m 5 Y s 1345 1104 m 5 Y s 3 lw 1345 1099 m21 6 lw 1349 1095 m 5 Y s 1349 1111 m 5 Y s 3 lw 1349
 1106 m21 6 lw 1354 1118 m 5 Y s 1354 1135 m 5 Y s 3 lw 1354 1129 m21 6 lw 1359 1090 m 5 Y s 1359 1106 m 5 Y s 3 lw 1359 1100 m21 6 lw 1364 1089 m 5 Y s 1364 1105 m 5 Y s 3 lw 1364 1099 m21 6 lw 1368 1099 m 5 Y s 1368 1116 m 5 Y s 3 lw 1368 1110 m21
 6 lw 1373 1075 m 5 Y s 1373 1092 m 5 Y s 3 lw 1373 1086 m21 6 lw 1378 1093 m 5 Y s 1378 1109 m 5 Y s 3 lw 1378 1103 m21 6 lw 1382 1093 m 5 Y s 1382 1109 m 6 Y s 3 lw 1382 1104 m21 6 lw 1387 1085 m 5 Y s 1387 1101 m 6 Y s 3 lw 1387 1096 m21 6 lw 1392
 1092 m 5 Y s 1392 1108 m 6 Y s 3 lw 1392 1103 m21 6 lw 1397 1081 m 6 Y s 1397 1098 m 6 Y s 3 lw 1397 1093 m21 6 lw 1401 1115 m 6 Y s 1401 1132 m 6 Y s 3 lw 1401 1126 m21 6 lw 1406 1101 m 6 Y s 1406 1118 m 6 Y s 3 lw 1406 1112 m21 6 lw 1411 1114 m 6
 Y s 1411 1132 m 5 Y s 3 lw 1411 1126 m21 6 lw 1415 1100 m 6 Y s 1415 1118 m 5 Y s 3 lw 1415 1112 m21 6 lw 1420 1104 m 6 Y s 1420 1121 m 6 Y s 3 lw 1420 1116 m21 6 lw 1425 1125 m 6 Y s 1425 1142 m 6 Y s 3 lw 1425 1137 m21 6 lw 1429 1125 m 6 Y s 1429
 1143 m 6 Y s 3 lw 1429 1137 m21 6 lw 1434 1091 m 6 Y s 1434 1108 m 6 Y s 3 lw 1434 1103 m21 6 lw 1439 1128 m 6 Y s 1439 1146 m 6 Y s 3 lw 1439 1140 m21 6 lw 1444 1098 m 7 Y s 1444 1116 m 6 Y s 3 lw 1444 1110 m21 6 lw 1448 1097 m 6 Y s 1448 1114 m 6
 Y s 3 lw 1448 1109 m21 6 lw 1453 1092 m 6 Y s 1453 1109 m 6 Y s 3 lw 1453 1104 m21 6 lw 1458 1115 m 6 Y s 1458 1132 m 7 Y s 3 lw 1458 1127 m21 6 lw 1462 1113 m 7 Y s 1462 1131 m 6 Y s 3 lw 1462 1125 m21 6 lw 1467 1113 m 7 Y s 1467 1131 m 7 Y s 3 lw
 1467 1125 m21 6 lw 1472 1116 m 7 Y s 1472 1134 m 7 Y s 3 lw 1472 1129 m21 6 lw 1477 1121 m 6 Y s 1477 1139 m 6 Y s 3 lw 1477 1133 m21 6 lw 1481 1110 m 6 Y s 1481 1128 m 6 Y s 3 lw 1481 1122 m21 6 lw 1486 1131 m 7 Y s 1486 1149 m 7 Y s 3 lw 1486 1144
 m21 6 lw 1491 1129 m 6 Y s 1491 1147 m 7 Y s 3 lw 1491 1141 m21 6 lw 1495 1110 m 7 Y s 1495 1128 m 7 Y s 3 lw 1495 1123 m21 6 lw 1500 1101 m 7 Y s 1500 1119 m 7 Y s 3 lw 1500 1113 m21 6 lw 1505 1123 m 7 Y s 1505 1141 m 7 Y s 3 lw 1505 1136 m21 6 lw
 1509 1111 m 7 Y s 1509 1129 m 7 Y s 3 lw 1509 1123 m21 6 lw 1514 1119 m 7 Y s 1514 1137 m 7 Y s 3 lw 1514 1131 m21 6 lw 1519 1097 m 7 Y s 1519 1115 m 7 Y s 3 lw 1519 1109 m21 6 lw 1524 1118 m 7 Y s 1524 1136 m 8 Y s 3 lw 1524 1131 m21 6 lw 1528 1109
 m 7 Y s 1528 1127 m 8 Y s 3 lw 1528 1122 m21 6 lw 1533 1106 m 7 Y s 1533 1124 m 8 Y s 3 lw 1533 1119 m21 6 lw 1538 1110 m 8 Y s 1538 1129 m 8 Y s 3 lw 1538 1123 m21 6 lw 1542 1114 m 8 Y s 1542 1133 m 8 Y s 3 lw 1542 1128 m21 6 lw 1547 1128 m 7 Y s
 1547 1147 m 7 Y s 3 lw 1547 1141 m21 6 lw 1552 1103 m 8 Y s 1552 1122 m 8 Y s 3 lw 1552 1117 m21 6 lw 1557 1094 m 8 Y s 1557 1113 m 8 Y s 3 lw 1557 1107 m21 6 lw 1561 1111 m 8 Y s 1561 1130 m 8 Y s 3 lw 1561 1125 m21 6 lw 1566 1088 m 8 Y s 1566 1108
 m 7 Y s 3 lw 1566 1102 m21 6 lw 1571 1090 m 8 Y s 1571 1109 m 8 Y s 3 lw 1571 1104 m21 6 lw 1575 1100 m 8 Y s 1575 1119 m 8 Y s 3 lw 1575 1113 m21 6 lw 1580 1106 m 8 Y s 1580 1125 m 9 Y s 3 lw 1580 1120 m21 6 lw 1585 1107 m 8 Y s 1585 1126 m 9 Y s 3
 lw 1585 1121 m21 6 lw 1589 1091 m 8 Y s 1589 1111 m 8 Y s 3 lw 1589 1105 m21 6 lw 1594 1084 m 8 Y s 1594 1103 m 8 Y s 3 lw 1594 1098 m21 6 lw 1599 1094 m 8 Y s 1599 1113 m 9 Y s 3 lw 1599 1108 m21 6 lw 1604 1089 m 8 Y s 1604 1109 m 8 Y s 3 lw 1604
 1103 m21 6 lw 1608 1117 m 9 Y s 1608 1137 m 9 Y s 3 lw 1608 1132 m21 6 lw 1613 1106 m 8 Y s 1613 1126 m 8 Y s 3 lw 1613 1120 m21 6 lw 1618 1111 m 8 Y s 1618 1131 m 9 Y s 3 lw 1618 1125 m21 6 lw 1622 1092 m 8 Y s 1622 1112 m 8 Y s 3 lw 1622 1106 m21
 6 lw 1627 1089 m 9 Y s 1627 1109 m 9 Y s 3 lw 1627 1103 m21 6 lw 1632 1083 m 9 Y s 1632 1103 m 9 Y s 3 lw 1632 1097 m21 6 lw 1637 1116 m 9 Y s 1637 1137 m 9 Y s 3 lw 1637 1131 m21 6 lw 1641 1099 m 9 Y s 1641 1120 m 9 Y s 3 lw 1641 1114 m21 6 lw 1646
 1087 m 9 Y s 1646 1107 m 10 Y s 3 lw 1646 1102 m21 6 lw 1651 1099 m 10 Y s 1651 1120 m 9 Y s 3 lw 1651 1114 m21 6 lw 1655 1119 m 10 Y s 1655 1140 m 10 Y s 3 lw 1655 1134 m21 6 lw 1660 1108 m 10 Y s 1660 1129 m 10 Y s 3 lw 1660 1123 m21 6 lw 1665
 1089 m 10 Y s 1665 1110 m 10 Y s 3 lw 1665 1105 m21 6 lw 1669 1127 m 9 Y s 1669 1148 m 10 Y s 3 lw 1669 1142 m21 6 lw 1674 1105 m 10 Y s 1674 1126 m 10 Y s 3 lw 1674 1121 m21 6 lw 1679 1100 m 9 Y s 1679 1121 m 10 Y s 3 lw 1679 1115 m21 6 lw 1684
 1101 m 10 Y s 1684 1122 m 10 Y s 3 lw 1684 1116 m21 6 lw 1688 1099 m 10 Y s 1688 1120 m 10 Y s 3 lw 1688 1114 m21 6 lw 1693 1104 m 10 Y s 1693 1126 m 10 Y s 3 lw 1693 1120 m21 6 lw 1698 1097 m 10 Y s 1698 1119 m 10 Y s 3 lw 1698 1113 m21 6 lw 1702
 1131 m 11 Y s 1702 1153 m 11 Y s 3 lw 1702 1148 m21 6 lw 1707 1108 m 10 Y s 1707 1130 m 10 Y s 3 lw 1707 1124 m21 6 lw 1712 1110 m 10 Y s 1712 1132 m 10 Y s 3 lw 1712 1126 m21 6 lw 1717 1091 m 10 Y s 1717 1113 m 10 Y s 3 lw 1717 1107 m21 6 lw 1721
 1122 m 11 Y s 1721 1144 m 11 Y s 3 lw 1721 1138 m21 6 lw 1726 1132 m 11 Y s 1726 1154 m 11 Y s 3 lw 1726 1148 m21 6 lw 1731 1088 m 11 Y s 1731 1110 m 11 Y s 3 lw 1731 1104 m21 6 lw 1735 1105 m 11 Y s 1735 1128 m 10 Y s 3 lw 1735 1122 m21 6 lw 1740
 1127 m 11 Y s 1740 1149 m 11 Y s 3 lw 1740 1143 m21 6 lw 1745 1093 m 11 Y s 1745 1116 m 11 Y s 3 lw 1745 1110 m21 6 lw 1749 1124 m 11 Y s 1749 1146 m 12 Y s 3 lw 1749 1141 m21 6 lw 1754 1139 m 12 Y s 1754 1162 m 12 Y s 3 lw 1754 1157 m21 6 lw 1759
 1144 m 11 Y s 1759 1167 m 12 Y s 3 lw 1759 1161 m21 6 lw 1764 1115 m 11 Y s 1764 1138 m 11 Y s 3 lw 1764 1132 m21 6 lw 1768 1135 m 12 Y s 1768 1158 m 12 Y s 3 lw 1768 1152 m21 6 lw 1773 1127 m 12 Y s 1773 1150 m 12 Y s 3 lw 1773 1144 m21 6 lw 1778
 1140 m 12 Y s 1778 1163 m 12 Y s 3 lw 1778 1157 m21 6 lw 1782 1118 m 12 Y s 1782 1141 m 12 Y s 3 lw 1782 1135 m21 6 lw 1787 1134 m 13 Y s 1787 1158 m 12 Y s 3 lw 1787 1152 m21 6 lw 1792 1139 m 12 Y s 1792 1163 m 12 Y s 3 lw 1792 1157 m21 6 lw 1797
 1151 m 13 Y s 1797 1175 m 13 Y s 3 lw 1797 1169 m21 6 lw 1801 1146 m 13 Y s 1801 1170 m 13 Y s 3 lw 1801 1165 m21 6 lw 1806 1119 m 13 Y s 1806 1143 m 12 Y s 3 lw 1806 1137 m21 6 lw 1811 1127 m 13 Y s 1811 1151 m 13 Y s 3 lw 1811 1146 m21 6 lw 1815
 1129 m 13 Y s 1815 1153 m 13 Y s 3 lw 1815 1148 m21 6 lw 1820 1128 m 13 Y s 1820 1152 m 13 Y s 3 lw 1820 1147 m21 6 lw 1825 1136 m 13 Y s 1825 1161 m 13 Y s 3 lw 1825 1155 m21 6 lw 1829 1139 m 13 Y s 1829 1164 m 13 Y s 3 lw 1829 1158 m21 6 lw 1834
 1145 m 13 Y s 1834 1169 m 14 Y s 3 lw 1834 1164 m21 6 lw 1839 1157 m 14 Y s 1839 1182 m 14 Y s 3 lw 1839 1176 m21 6 lw 1844 1119 m 14 Y s 1844 1144 m 14 Y s 3 lw 1844 1139 m21 6 lw 1848 1141 m 13 Y s 1848 1166 m 13 Y s 3 lw 1848 1160 m21 6 lw 1853
 1159 m 14 Y s 1853 1184 m 14 Y s 3 lw 1853 1179 m21 6 lw 1858 1120 m 14 Y s 1858 1145 m 14 Y s 3 lw 1858 1140 m21 6 lw 1862 1151 m 14 Y s 1862 1176 m 14 Y s 3 lw 1862 1170 m21 6 lw 1867 1097 m 14 Y s 1867 1122 m 14 Y s 3 lw 1867 1116 m21 6 lw 1872
 1162 m 15 Y s 1872 1188 m 14 Y s 3 lw 1872 1182 m21 6 lw 1877 1131 m 14 Y s 1877 1156 m 14 Y s 3 lw 1877 1150 m21 6 lw 1881 1131 m 14 Y s 1881 1156 m 15 Y s 3 lw 1881 1151 m21 6 lw 1886 1118 m 14 Y s 1886 1144 m 14 Y s 3 lw 1886 1138 m21 6 lw 1891
 1165 m 15 Y s 1891 1191 m 15 Y s 3 lw 1891 1185 m21 6 lw 1895 1168 m 15 Y s 1895 1194 m 15 Y s 3 lw 1895 1189 m21 6 lw 1900 1134 m 15 Y s 1900 1160 m 15 Y s 3 lw 1900 1154 m21 6 lw 1905 1142 m 15 Y s 1905 1169 m 15 Y s 3 lw 1905 1163 m21 6 lw 1909
 1133 m 15 Y s 1909 1159 m 15 Y s 3 lw 1909 1153 m21 6 lw 1914 1104 m 15 Y s 1914 1131 m 14 Y s 3 lw 1914 1125 m21 6 lw 1919 1150 m 15 Y s 1919 1176 m 16 Y s 3 lw 1919 1171 m21 6 lw 1924 1151 m 15 Y s 1924 1178 m 15 Y s 3 lw 1924 1172 m21 6 lw 1928
 1118 m 15 Y s 1928 1145 m 15 Y s 3 lw 1928 1139 m21 6 lw 1933 1132 m 16 Y s 1933 1159 m 15 Y s 3 lw 1933 1153 m21 6 lw 1938 1111 m 15 Y s 1938 1138 m 15 Y s 3 lw 1938 1132 m21 6 lw 1942 1158 m 16 Y s 1942 1186 m 16 Y s 3 lw 1942 1180 m21 6 lw 1947
 1172 m 16 Y s 1947 1200 m 16 Y s 3 lw 1947 1194 m21 6 lw 1952 1148 m 16 Y s 1952 1176 m 16 Y s 3 lw 1952 1170 m21 6 lw 1957 1184 m 17 Y s 1957 1212 m 17 Y s 3 lw 1957 1207 m21 6 lw 1961 1160 m 17 Y s 1961 1188 m 17 Y s 3 lw 1961 1183 m21 6 lw 1966
 1105 m 16 Y s 1966 1132 m 16 Y s 3 lw 1966 1127 m21 6 lw 1971 1160 m 17 Y s 1971 1188 m 17 Y s 3 lw 1971 1182 m21 6 lw 1975 1113 m 17 Y s 1975 1141 m 17 Y s 3 lw 1975 1135 m21 6 lw 1980 1153 m 17 Y s 1980 1182 m 17 Y s 3 lw 1980 1176 m21 6 lw 1985
 1138 m 17 Y s 1985 1166 m 17 Y s 3 lw 1985 1161 m21 6 lw 1989 1125 m 17 Y s 1989 1153 m 17 Y s 3 lw 1989 1147 m21 6 lw 1994 1133 m 17 Y s 1994 1162 m 17 Y s 3 lw 1994 1156 m21 6 lw 1999 1144 m 17 Y s 1999 1172 m 18 Y s 3 lw 1999 1167 m21 6 lw 2004
 1155 m 17 Y s 2004 1184 m 17 Y s 3 lw 2004 1178 m21 6 lw 2008 1129 m 17 Y s 2008 1157 m 18 Y s 3 lw 2008 1152 m21 6 lw 2013 1178 m 19 Y s 2013 1208 m 18 Y s 3 lw 2013 1202 m21 6 lw 2018 1136 m 18 Y s 2018 1165 m 18 Y s 3 lw 2018 1160 m21 6 lw 2022
 1167 m 18 Y s 2022 1197 m 18 Y s 3 lw 2022 1191 m21 6 lw 2027 1092 m 18 Y s 2027 1121 m 18 Y s 3 lw 2027 1115 m21 6 lw 2032 1144 m 18 Y s 2032 1174 m 18 Y s 3 lw 2032 1168 m21 6 lw 2036 1175 m 19 Y s 2036 1205 m 19 Y s 3 lw 2036 1199 m21 6 lw 2041
 1129 m 18 Y s 2041 1159 m 18 Y s 3 lw 2041 1153 m21 6 lw 2046 1131 m 18 Y s 2046 1161 m 18 Y s 3 lw 2046 1155 m21 6 lw 2051 1156 m 18 Y s 2051 1186 m 19 Y s 3 lw 2051 1180 m21 6 lw 2055 1139 m 19 Y s 2055 1170 m 18 Y s 3 lw 2055 1164 m21 6 lw 2060
 1128 m 19 Y s 2060 1158 m 19 Y s 3 lw 2060 1152 m21 6 lw 2065 1177 m 20 Y s 2065 1208 m 20 Y s 3 lw 2065 1202 m21 6 lw 2069 1207 m 20 Y s 2069 1239 m 20 Y s 3 lw 2069 1233 m21 6 lw 2074 1148 m 20 Y s 2074 1179 m 19 Y s 3 lw 2074 1173 m21 6 lw 2079
 1156 m 19 Y s 2079 1187 m 19 Y s 3 lw 2079 1181 m21 6 lw 2084 1115 m 19 Y s 2084 1145 m 20 Y s 3 lw 2084 1140 m21 6 lw 2088 1122 m 20 Y s 2088 1153 m 20 Y s 3 lw 2088 1148 m21 6 lw 2093 1148 m 20 Y s 2093 1179 m 20 Y s 3 lw 2093 1174 m21 6 lw 2098
 1193 m 20 Y s 2098 1225 m 21 Y s 3 lw 2098 1219 m21 6 lw 2102 1115 m 19 Y s 2102 1146 m 20 Y s 3 lw 2102 1140 m21 6 lw 2107 1127 m 20 Y s 2107 1159 m 20 Y s 3 lw 2107 1153 m21 6 lw 2112 1130 m 20 Y s 2112 1162 m 20 Y s 3 lw 2112 1156 m21 6 lw 2116
 1165 m 21 Y s 2116 1197 m 21 Y s 3 lw 2116 1192 m21 6 lw 2121 1116 m 21 Y s 2121 1148 m 20 Y s 3 lw 2121 1142 m21 6 lw 2126 1131 m 20 Y s 2126 1163 m 20 Y s 3 lw 2126 1157 m21 6 lw 2131 1180 m 22 Y s 2131 1213 m 22 Y s 3 lw 2131 1208 m21 6 lw 2135
 1157 m 21 Y s 2135 1190 m 21 Y s 3 lw 2135 1184 m21 6 lw 2140 1127 m 21 Y s 2140 1159 m 21 Y s 3 lw 2140 1153 m21 6 lw 2145 1154 m 21 Y s 2145 1187 m 21 Y s 3 lw 2145 1181 m21 6 lw 2149 1164 m 22 Y s 2149 1197 m 22 Y s 3 lw 2149 1191 m21 6 lw 2154
 1173 m 22 Y s 2154 1206 m 23 Y s 3 lw 2154 1201 m21 6 lw 2159 1159 m 22 Y s 2159 1192 m 22 Y s 3 lw 2159 1187 m21 6 lw 2164 1135 m 22 Y s 2164 1168 m 22 Y s 3 lw 2164 1163 m21 6 lw 2168 1210 m 23 Y s 2168 1244 m 24 Y s 3 lw 2168 1239 m21 6 lw 2173
 1182 m 23 Y s 2173 1216 m 23 Y s 3 lw 2173 1210 m21 6 lw 2178 1133 m 22 Y s 2178 1167 m 22 Y s 3 lw 2178 1161 m21 6 lw 2182 1135 m 22 Y s 2182 1169 m 22 Y s 3 lw 2182 1163 m21 6 lw 2187 1163 m 23 Y s 2187 1198 m 23 Y s 3 lw 2187 1192 m21 6 lw 2192
 1108 m 22 Y s 2192 1141 m 23 Y s 3 lw 2192 1136 m21 6 lw 2196 1163 m 24 Y s 2196 1198 m 24 Y s 3 lw 2196 1192 m21 6 lw 2201 1174 m 24 Y s 2201 1209 m 24 Y s 3 lw 2201 1203 m21 6 lw 2206 1161 m 23 Y s 2206 1196 m 24 Y s 3 lw 2206 1190 m21 6 lw 2211
 1170 m 24 Y s 2211 1205 m 24 Y s 3 lw 2211 1199 m21 6 lw 2215 1169 m 24 Y s 2215 1204 m 24 Y s 3 lw 2215 1199 m21 6 lw 2220 1171 m 24 Y s 2220 1207 m 24 Y s 3 lw 2220 1201 m21 6 lw black 340 223 m 1882 X s
 gsave  2268 2234 0 0 C 1923.86 58.2559 t 0 r /Helvetica findfont 83.8316 sf 0 0 m (Q [GeV]) show NC gr  340 279 m -56 Y s 387 251 m -28 Y s 434 251 m -28 Y s 481 251 m -28 Y s 528 279 m -56 Y s 575 251 m -28 Y s 622 251 m -28 Y s 670 251 m -28 Y s
 717 279 m -56 Y s 764 251 m -28 Y s 811 251 m -28 Y s 858 251 m -28 Y s 905 279 m -56 Y s 952 251 m -28 Y s 999 251 m -28 Y s 1046 251 m -28 Y s 1093 279 m -56 Y s 1140 251 m -28 Y s 1187 251 m -28 Y s 1234 251 m -28 Y s 1281 279 m -56 Y s 1328 251
 m -28 Y s 1375 251 m -28 Y s 1422 251 m -28 Y s 1469 279 m -56 Y s 1517 251 m -28 Y s 1564 251 m -28 Y s 1611 251 m -28 Y s 1658 279 m -56 Y s 1705 251 m -28 Y s 1752 251 m -28 Y s 1799 251 m -28 Y s 1846 279 m -56 Y s 1893 251 m -28 Y s 1940 251 m
 -28 Y s 1987 251 m -28 Y s 2034 279 m -56 Y s 2081 251 m -28 Y s 2128 251 m -28 Y s 2175 251 m -28 Y s 2222 279 m -56 Y s
 gsave  2268 2234 0 0 C 322.539 159.138 t 0 r /Helvetica findfont 62.5185 sf 0 0 m (0) show NC gr 
 gsave  2268 2234 0 0 C 484.518 159.138 t 0 r /Helvetica findfont 62.5185 sf 0 0 m (0.2) show NC gr 
 gsave  2268 2234 0 0 C 673.495 159.138 t 0 r /Helvetica findfont 62.5185 sf 0 0 m (0.4) show NC gr 
 gsave  2268 2234 0 0 C 861.05 159.138 t 0 r /Helvetica findfont 62.5185 sf 0 0 m (0.6) show NC gr 
 gsave  2268 2234 0 0 C 1050.03 159.138 t 0 r /Helvetica findfont 62.5185 sf 0 0 m (0.8) show NC gr 
 gsave  2268 2234 0 0 C 1268.84 159.138 t 0 r /Helvetica findfont 62.5185 sf 0 0 m (1) show NC gr 
 gsave  2268 2234 0 0 C 1426.56 159.138 t 0 r /Helvetica findfont 62.5185 sf 0 0 m (1.2) show NC gr 
 gsave  2268 2234 0 0 C 1614.11 159.138 t 0 r /Helvetica findfont 62.5185 sf 0 0 m (1.4) show NC gr 
 gsave  2268 2234 0 0 C 1803.09 159.138 t 0 r /Helvetica findfont 62.5185 sf 0 0 m (1.6) show NC gr 
 gsave  2268 2234 0 0 C 1990.65 159.138 t 0 r /Helvetica findfont 62.5185 sf 0 0 m (1.8) show NC gr 
 gsave  2268 2234 0 0 C 2205.2 159.138 t 0 r /Helvetica findfont 62.5185 sf 0 0 m (2) show NC gr  340 223 m 1966 Y s
 gsave  2268 2234 0 0 C 152.034 1953.7 t 90 r /Helvetica findfont 83.8316 sf 0 0 m (DR\(Q\)) show NC gr  400 402 m -60 X s 370 491 m -30 X s 370 581 m -30 X s 370 670 m -30 X s 400 759 m -60 X s 370 849 m -30 X s 370 938 m -30 X s 370 1027 m -30 X s
 400 1117 m -60 X s 370 1206 m -30 X s 370 1295 m -30 X s 370 1385 m -30 X s 400 1474 m -60 X s 370 1564 m -30 X s 370 1653 m -30 X s 370 1742 m -30 X s 400 1832 m -60 X s 370 1921 m -30 X s 370 2010 m -30 X s 370 2100 m -30 X s 400 2189 m -60 X s
 400 402 m -60 X s 370 313 m -30 X s 370 223 m -30 X s
 gsave  2268 2234 0 0 C 242.97 379.374 t 0 r /Helvetica findfont 62.5185 sf 0 0 m (0.6) show NC gr 
 gsave  2268 2234 0 0 C 242.97 737.434 t 0 r /Helvetica findfont 62.5185 sf 0 0 m (0.8) show NC gr 
 gsave  2268 2234 0 0 C 305.488 1092.65 t 0 r /Helvetica findfont 62.5185 sf 0 0 m (1) show NC gr 
 gsave  2268 2234 0 0 C 242.97 1450.71 t 0 r /Helvetica findfont 62.5185 sf 0 0 m (1.2) show NC gr 
 gsave  2268 2234 0 0 C 242.97 1808.77 t 0 r /Helvetica findfont 62.5185 sf 0 0 m (1.4) show NC gr 
 gsave  2268 2234 0 0 C 242.97 2166.83 t 0 r /Helvetica findfont 62.5185 sf 0 0 m (1.6) show NC gr 
 gsave  2268 2234 0 0 C 906.518 670.653 t 0 r /Helvetica-Bold findfont 72.4646 sf 0 0 m (DR PIONS) show NC gr 
 gsave  2268 2234 0 0 C 906.518 558.404 t 0 r /Helvetica-Bold findfont 72.4646 sf 0 0 m (ref. sample: EVENT MIX) show NC gr 
 gsave  2268 2234 0 0 C 906.518 447.576 t 0 r /Helvetica-Bold findfont 72.4646 sf 0 0 m (VELO tracks multiplicity: < 10) show NC gr 
 gr  gr showpage
end
%%EOF
