%!PS-Adobe-2.0 EPSF-2.0
%%BoundingBox:  0 0 567 558
%%Title: ./DR_pion_0c65_h3015_2_h3401_2.eps: DR_pion_0c65_h3015_2_h3401_2
%%Creator: ROOT Version 6.06/02
%%CreationDate: Wed Feb  1 16:20:58 2017
%%DocumentNeededResources: ProcSet (FontSetInit)
%%EndComments
%%BeginProlog
80 dict begin
/s {stroke} def /l {lineto} def /m {moveto} def /t {translate} def
/r {rotate} def /rl {roll}  def /R {repeat} def
/d {rlineto} def /rm {rmoveto} def /gr {grestore} def /f {eofill} def
/c {setrgbcolor} def /black {0 setgray} def /sd {setdash} def
/cl {closepath} def /sf {scalefont setfont} def /lw {setlinewidth} def
/box {m dup 0 exch d exch 0 d 0 exch neg d cl} def
/NC{systemdict begin initclip end}def/C{NC box clip newpath}def
/bl {box s} def /bf {gsave box gsave f grestore 1 lw [] 0 sd s grestore} def /Y { 0 exch d} def /X { 0 d} def 
/K {{pop pop 0 moveto} exch kshow} bind def
/ita {/ang 15 def gsave [1 0 ang dup sin exch cos div 1 0 0] concat} def 
/mp {newpath /y exch def /x exch def} def
/side {[w .77 mul w .23 mul] .385 w mul sd w 0 l currentpoint t -144 r} def
/mr {mp x y w2 0 360 arc} def /m24 {mr s} def /m20 {mr f} def
/mb {mp x y w2 add m w2 neg 0 d 0 w neg d w 0 d 0 w d cl} def
/mt {mp x y w2 add m w2 neg w neg d w 0 d cl} def
/m21 {mb f} def /m25 {mb s} def /m22 {mt f} def /m26{mt s} def
/m23 {mp x y w2 sub m w2 w d w neg 0 d cl f} def
/m27 {mp x y w2 add m w3 neg w2 neg d w3 w2 neg d w3 w2 d cl s} def
/m28 {mp x w2 sub y w2 sub w3 add m w3 0 d  0 w3 neg d w3 0 d 0 w3 d w3 0 d  0 w3 d w3 neg 0 d 0 w3 d w3 neg 0 d 0 w3 neg d w3 neg 0 d cl s } def
/m29 {mp gsave x w2 sub y w2 add w3 sub m currentpoint t 4 {side} repeat cl fill gr} def
/m30 {mp gsave x w2 sub y w2 add w3 sub m currentpoint t 4 {side} repeat cl s gr} def
/m31 {mp x y w2 sub m 0 w d x w2 sub y m w 0 d x w2 sub y w2 add m w w neg d x w2 sub y w2 sub m w w d s} def
/m32 {mp x y w2 sub m w2 w d w neg 0 d cl s} def
/m33 {mp x y w2 add m w3 neg w2 neg d w3 w2 neg d w3 w2 d cl f} def
/m34 {mp x w2 sub y w2 sub w3 add m w3 0 d  0 w3 neg d w3 0 d 0 w3 d w3 0 d  0 w3 d w3 neg 0 d 0 w3 d w3 neg 0 d 0 w3 neg d w3 neg 0 d cl f } def
/m2 {mp x y w2 sub m 0 w d x w2 sub y m w 0 d s} def
/m5 {mp x w2 sub y w2 sub m w w d x w2 sub y w2 add m w w neg d s} def
%%IncludeResource: ProcSet (FontSetInit)
%%IncludeResource: font Times-Roman
%%IncludeResource: font Times-Italic
%%IncludeResource: font Times-Bold
%%IncludeResource: font Times-BoldItalic
%%IncludeResource: font Helvetica
%%IncludeResource: font Helvetica-Oblique
%%IncludeResource: font Helvetica-Bold
%%IncludeResource: font Helvetica-BoldOblique
%%IncludeResource: font Courier
%%IncludeResource: font Courier-Oblique
%%IncludeResource: font Courier-Bold
%%IncludeResource: font Courier-BoldOblique
%%IncludeResource: font Symbol
%%IncludeResource: font ZapfDingbats
/reEncode {exch findfont dup length dict begin {1 index /FID eq  {pop pop} {def} ifelse } forall /Encoding exch def currentdict end dup /FontName get exch definefont pop } def [/Times-Bold /Times-Italic /Times-BoldItalic /Helvetica /Helvetica-Oblique
 /Helvetica-Bold /Helvetica-BoldOblique /Courier /Courier-Oblique /Courier-Bold /Courier-BoldOblique /Times-Roman /AvantGarde-Book /AvantGarde-BookOblique /AvantGarde-Demi /AvantGarde-DemiOblique /Bookman-Demi /Bookman-DemiItalic /Bookman-Light
 /Bookman-LightItalic /Helvetica-Narrow /Helvetica-Narrow-Bold /Helvetica-Narrow-BoldOblique /Helvetica-Narrow-Oblique /NewCenturySchlbk-Roman /NewCenturySchlbk-Bold /NewCenturySchlbk-BoldItalic /NewCenturySchlbk-Italic /Palatino-Bold
 /Palatino-BoldItalic /Palatino-Italic /Palatino-Roman ] {ISOLatin1Encoding reEncode } forall
%%EndProlog
%%BeginSetup
%%EndSetup
newpath  gsave  .25 .25 scale  gsave  0 0 t black[  ] 0 sd 6 lw 1 1 1 c 2268 2234 0 0 bf black 3 lw 1 1 1 c 1882 1966 340 223 bf black 1882 1966 340 223 bl 1 1 1 c 1882 1966 340 223 bf black 1882 1966 340 223 bl 0 0 1 c 6 lw 1 1 1 c 0 0 1 c 390 1800
 m 28 Y s 390 1839 m 28 Y s 3 lw /w 14 def /w2 {w 2 div} def /w3 {w 3 div} def 390 1833 m21 6 lw 394 1782 m 24 Y s 394 1818 m 24 Y s 3 lw 394 1812 m21 6 lw 399 1778 m 23 Y s 399 1812 m 23 Y s 3 lw 399 1806 m21 6 lw 404 1686 m 19 Y s 404 1717 m 19 Y s
 3 lw 404 1711 m21 6 lw 408 1638 m 18 Y s 408 1667 m 18 Y s 3 lw 408 1661 m21 6 lw 413 1637 m 16 Y s 413 1665 m 16 Y s 3 lw 413 1659 m21 6 lw 418 1617 m 15 Y s 418 1643 m 15 Y s 3 lw 418 1637 m21 6 lw 423 1587 m 14 Y s 423 1612 m 14 Y s 3 lw 423 1607
 m21 6 lw 427 1542 m 13 Y s 427 1566 m 12 Y s 3 lw 427 1560 m21 6 lw 432 1510 m 11 Y s 432 1533 m 11 Y s 3 lw 432 1527 m21 6 lw 437 1535 m 11 Y s 437 1558 m 11 Y s 3 lw 437 1552 m21 6 lw 441 1473 m 10 Y s 441 1494 m 10 Y s 3 lw 441 1488 m21 6 lw 446
 1476 m 10 Y s 446 1497 m 10 Y s 3 lw 446 1491 m21 6 lw 451 1447 m 9 Y s 451 1467 m 9 Y s 3 lw 451 1461 m21 6 lw 455 1437 m 8 Y s 455 1457 m 8 Y s 3 lw 455 1451 m21 6 lw 460 1398 m 8 Y s 460 1417 m 8 Y s 3 lw 460 1411 m21 6 lw 465 1407 m 7 Y s 465
 1425 m 8 Y s 3 lw 465 1420 m21 6 lw 470 1383 m 7 Y s 470 1401 m 7 Y s 3 lw 470 1396 m21 6 lw 474 1367 m 7 Y s 474 1385 m 7 Y s 3 lw 474 1379 m21 6 lw 479 1344 m 6 Y s 479 1361 m 6 Y s 3 lw 479 1356 m21 6 lw 484 1317 m 5 Y s 484 1334 m 6 Y s 3 lw 484
 1328 m21 6 lw 488 1327 m 5 Y s 488 1344 m 5 Y s 3 lw 488 1338 m21 6 lw 493 1305 m 5 Y s 493 1322 m 5 Y s 3 lw 493 1316 m21 6 lw 498 1300 m 5 Y s 498 1316 m 5 Y s 3 lw 498 1310 m21 6 lw 502 1301 m 5 Y s 502 1318 m 4 Y s 3 lw 502 1312 m21 6 lw 507
 1294 m 5 Y s 507 1310 m 5 Y s 3 lw 507 1304 m21 6 lw 512 1265 m 4 Y s 512 1280 m 5 Y s 3 lw 512 1275 m21 6 lw 517 1275 m 4 Y s 517 1291 m 4 Y s 3 lw 517 1285 m21 6 lw 521 1257 m 4 Y s 521 1272 m 4 Y s 3 lw 521 1266 m21 6 lw 526 1267 m 4 Y s 526 1282
 m 4 Y s 3 lw 526 1277 m21 6 lw 531 1248 m 4 Y s 531 1263 m 4 Y s 3 lw 531 1258 m21 6 lw 535 1227 m 3 Y s 535 1242 m 3 Y s 3 lw 535 1236 m21 6 lw 540 1210 m 3 Y s 540 1225 m 3 Y s 3 lw 540 1219 m21 6 lw 545 1217 m 3 Y s 545 1231 m 3 Y s 3 lw 545 1225
 m21 6 lw 550 1227 m 3 Y s 550 1242 m 3 Y s 3 lw 550 1236 m21 6 lw 554 1214 m 3 Y s 554 1228 m 3 Y s 3 lw 554 1222 m21 6 lw 559 1207 m 3 Y s 559 1221 m 3 Y s 3 lw 559 1215 m21 6 lw 564 1196 m 2 Y s 564 1210 m 2 Y s 3 lw 564 1204 m21 6 lw 568 1191 m 3
 Y s 568 1205 m 3 Y s 3 lw 568 1199 m21 6 lw 573 1187 m 2 Y s 573 1200 m 3 Y s 3 lw 573 1195 m21 6 lw 578 1168 m 2 Y s 578 1181 m 2 Y s 3 lw 578 1176 m21 6 lw 582 1180 m 2 Y s 582 1193 m 3 Y s 3 lw 582 1188 m21 6 lw 587 1180 m 2 Y s 587 1193 m 2 Y s
 3 lw 587 1187 m21 6 lw 592 1169 m 2 Y s 592 1183 m 2 Y s 3 lw 592 1177 m21 6 lw 597 1157 m 2 Y s 597 1170 m 2 Y s 3 lw 597 1164 m21 6 lw 601 1165 m 1 Y s 601 1178 m 2 Y s 3 lw 601 1172 m21 6 lw 606 1153 m 2 Y s 606 1167 m 1 Y s 3 lw 606 1161 m21 6
 lw 611 1157 m 2 Y s 611 1170 m 2 Y s 3 lw 611 1164 m21 6 lw 615 1146 m 2 Y s 615 1159 m 2 Y s 3 lw 615 1153 m21 6 lw 620 1144 m 2 Y s 620 1157 m 2 Y s 3 lw 620 1152 m21 6 lw 625 1138 m 2 Y s 625 1151 m 2 Y s 3 lw 625 1146 m21 6 lw 630 1136 m 1 Y s
 630 1148 m 2 Y s 3 lw 630 1143 m21 6 lw 634 1148 m 2 Y s 634 1161 m 1 Y s 3 lw 634 1155 m21 6 lw 639 1134 m 1 Y s 639 1147 m 1 Y s 3 lw 639 1141 m21 6 lw 644 1125 m 1 Y s 644 1137 m 2 Y s 3 lw 644 1132 m21 6 lw 648 1125 m 1 Y s 648 1138 m 1 Y s 3 lw
 648 1132 m21 6 lw 653 1115 m 1 Y s 653 1127 m 1 Y s 3 lw 653 1121 m21 6 lw 658 1119 m 1 Y s 658 1131 m 1 Y s 3 lw 658 1126 m21 6 lw 662 1125 m 1 Y s 662 1137 m 2 Y s 3 lw 662 1132 m21 6 lw 667 1119 m 1 Y s 667 1131 m 1 Y s 3 lw 667 1126 m21 6 lw 672
 1122 m 1 Y s 672 1134 m 1 Y s 3 lw 672 1128 m21 6 lw 677 1125 m 1 Y s 677 1137 m 1 Y s 3 lw 677 1131 m21 6 lw 681 1111 m 1 Y s 681 1124 m s 3 lw 681 1118 m21 6 lw 686 1117 m 1 Y s 686 1129 m 1 Y s 3 lw 686 1124 m21 6 lw 691 1111 m 1 Y s 691 1123 m 1
 Y s 3 lw 691 1117 m21 6 lw 695 1115 m 1 Y s 695 1127 m 1 Y s 3 lw 695 1121 m21 6 lw 700 1098 m s 700 1110 m s 3 lw 700 1104 m21 6 lw 705 1100 m 1 Y s 705 1112 m 1 Y s 3 lw 705 1107 m21 6 lw 710 1104 m 1 Y s 710 1116 m 1 Y s 3 lw 710 1110 m21 6 lw
 714 1098 m s 714 1109 m 1 Y s 3 lw 714 1104 m21 6 lw 719 1102 m s 719 1114 m s 3 lw 719 1108 m21 6 lw 724 1099 m 1 Y s 724 1111 m 1 Y s 3 lw 724 1105 m21 6 lw 728 1103 m s 728 1114 m 1 Y s 3 lw 728 1109 m21 6 lw 733 1104 m 1 Y s 733 1116 m s 3 lw
 733 1110 m21 6 lw 738 1101 m 1 Y s 738 1113 m 1 Y s 3 lw 738 1107 m21 6 lw 742 1095 m 1 Y s 742 1107 m 1 Y s 3 lw 742 1102 m21 6 lw 747 1107 m 1 Y s 747 1119 m s 3 lw 747 1113 m21 6 lw 752 1094 m s 752 1105 m 1 Y s 3 lw 752 1100 m21 6 lw 757 1089 m
 1 Y s 757 1101 m s 3 lw 757 1095 m21 6 lw 761 1090 m s 761 1101 m 1 Y s 3 lw 761 1096 m21 6 lw 766 1088 m s 766 1100 m s 3 lw 766 1094 m21 6 lw 771 1095 m s 771 1106 m 1 Y s 3 lw 771 1101 m21 6 lw 775 1090 m 1 Y s 775 1102 m s 3 lw 775 1096 m21 6 lw
 780 1075 m 1 Y s 780 1087 m s 3 lw 780 1081 m21 6 lw 785 1078 m 1 Y s 785 1090 m s 3 lw 785 1084 m21 6 lw 790 1087 m s 790 1099 m s 3 lw 790 1093 m21 6 lw 794 1091 m s 794 1103 m s 3 lw 794 1097 m21 6 lw 799 1074 m s 799 1085 m 1 Y s 3 lw 799 1080
 m21 6 lw 804 1070 m s 804 1081 m s 3 lw 804 1075 m21 6 lw 808 1082 m s 808 1093 m s 3 lw 808 1088 m21 6 lw 813 1084 m s 813 1096 m s 3 lw 813 1090 m21 6 lw 818 1065 m s 818 1077 m s 3 lw 818 1071 m21 6 lw 822 1074 m s 822 1085 m s 3 lw 822 1080 m21
 6 lw 827 1068 m s 827 1080 m s 3 lw 827 1074 m21 6 lw 832 1066 m 1 Y s 832 1078 m s 3 lw 832 1072 m21 6 lw 837 1069 m s 837 1080 m s 3 lw 837 1074 m21 6 lw 841 1072 m s 841 1083 m s 3 lw 841 1078 m21 6 lw 846 1072 m s 846 1084 m s 3 lw 846 1078 m21
 6 lw 851 1072 m s 851 1083 m s 3 lw 851 1077 m21 6 lw 855 1067 m s 855 1079 m s 3 lw 855 1073 m21 6 lw 860 1068 m s 860 1079 m s 3 lw 860 1074 m21 6 lw 865 1069 m s 865 1080 m s 3 lw 865 1075 m21 6 lw 870 1075 m s 870 1086 m s 3 lw 870 1081 m21 6 lw
 874 1065 m s 874 1077 m s 3 lw 874 1071 m21 6 lw 879 1067 m s 879 1079 m s 3 lw 879 1073 m21 6 lw 884 1060 m s 884 1071 m s 3 lw 884 1066 m21 6 lw 888 1072 m s 888 1083 m s 3 lw 888 1078 m21 6 lw 893 1071 m s 893 1083 m s 3 lw 893 1077 m21 6 lw 898
 1072 m s 898 1083 m s 3 lw 898 1077 m21 6 lw 902 1072 m s 902 1084 m s 3 lw 902 1078 m21 6 lw 907 1061 m s 907 1072 m s 3 lw 907 1067 m21 6 lw 912 1065 m s 912 1077 m s 3 lw 912 1071 m21 6 lw 917 1056 m s 917 1068 m s 3 lw 917 1062 m21 6 lw 921 1057
 m s 921 1068 m s 3 lw 921 1063 m21 6 lw 926 1084 m s 926 1095 m s 3 lw 926 1090 m21 6 lw 931 1070 m s 931 1081 m 1 Y s 3 lw 931 1076 m21 6 lw 935 1057 m s 935 1068 m s 3 lw 935 1062 m21 6 lw 940 1063 m s 940 1074 m s 3 lw 940 1068 m21 6 lw 945 1050
 m 1 Y s 945 1062 m s 3 lw 945 1056 m21 6 lw 950 1062 m s 950 1073 m s 3 lw 950 1068 m21 6 lw 954 1055 m s 954 1066 m s 3 lw 954 1061 m21 6 lw 959 1058 m 1 Y s 959 1070 m s 3 lw 959 1064 m21 6 lw 964 1074 m s 964 1086 m s 3 lw 964 1080 m21 6 lw 968
 1065 m s 968 1076 m 1 Y s 3 lw 968 1071 m21 6 lw 973 1070 m s 973 1082 m s 3 lw 973 1076 m21 6 lw 978 1067 m 1 Y s 978 1079 m s 3 lw 978 1073 m21 6 lw 982 1059 m s 982 1070 m s 3 lw 982 1064 m21 6 lw 987 1059 m s 987 1071 m s 3 lw 987 1065 m21 6 lw
 992 1073 m 1 Y s 992 1085 m s 3 lw 992 1079 m21 6 lw 997 1056 m 1 Y s 997 1068 m s 3 lw 997 1062 m21 6 lw 1001 1065 m s 1001 1076 m 1 Y s 3 lw 1001 1071 m21 6 lw 1006 1065 m s 1006 1076 m 1 Y s 3 lw 1006 1071 m21 6 lw 1011 1063 m s 1011 1075 m s 3
 lw 1011 1069 m21 6 lw 1015 1058 m s 1015 1070 m s 3 lw 1015 1064 m21 6 lw 1020 1064 m s 1020 1075 m 1 Y s 3 lw 1020 1070 m21 6 lw 1025 1064 m s 1025 1076 m s 3 lw 1025 1070 m21 6 lw 1030 1068 m s 1030 1079 m 1 Y s 3 lw 1030 1074 m21 6 lw 1034 1059 m
 s 1034 1071 m s 3 lw 1034 1065 m21 6 lw 1039 1074 m s 1039 1086 m s 3 lw 1039 1080 m21 6 lw 1044 1069 m s 1044 1080 m 1 Y s 3 lw 1044 1075 m21 6 lw 1048 1070 m s 1048 1081 m 1 Y s 3 lw 1048 1076 m21 6 lw 1053 1060 m s 1053 1071 m 1 Y s 3 lw 1053
 1066 m21 6 lw 1058 1069 m s 1058 1081 m s 3 lw 1058 1075 m21 6 lw 1062 1064 m s 1062 1076 m s 3 lw 1062 1070 m21 6 lw 1067 1068 m s 1067 1080 m s 3 lw 1067 1074 m21 6 lw 1072 1066 m s 1072 1078 m s 3 lw 1072 1072 m21 6 lw 1077 1056 m s 1077 1068 m s
 3 lw 1077 1062 m21 6 lw 1081 1068 m 1 Y s 1081 1080 m s 3 lw 1081 1074 m21 6 lw 1086 1074 m 1 Y s 1086 1086 m 1 Y s 3 lw 1086 1080 m21 6 lw 1091 1069 m 1 Y s 1091 1081 m 1 Y s 3 lw 1091 1075 m21 6 lw 1095 1074 m s 1095 1085 m 1 Y s 3 lw 1095 1080
 m21 6 lw 1100 1073 m 1 Y s 1100 1085 m s 3 lw 1100 1079 m21 6 lw 1105 1076 m 1 Y s 1105 1088 m 1 Y s 3 lw 1105 1082 m21 6 lw 1110 1072 m 1 Y s 1110 1084 m 1 Y s 3 lw 1110 1079 m21 6 lw 1114 1070 m s 1114 1082 m s 3 lw 1114 1076 m21 6 lw 1119 1061 m
 1 Y s 1119 1073 m 1 Y s 3 lw 1119 1068 m21 6 lw 1124 1084 m s 1124 1096 m s 3 lw 1124 1090 m21 6 lw 1128 1075 m s 1128 1087 m s 3 lw 1128 1081 m21 6 lw 1133 1064 m s 1133 1076 m s 3 lw 1133 1070 m21 6 lw 1138 1078 m s 1138 1090 m s 3 lw 1138 1084
 m21 6 lw 1142 1081 m 1 Y s 1142 1093 m 1 Y s 3 lw 1142 1087 m21 6 lw 1147 1075 m 1 Y s 1147 1087 m 1 Y s 3 lw 1147 1081 m21 6 lw 1152 1074 m 1 Y s 1152 1086 m 1 Y s 3 lw 1152 1080 m21 6 lw 1157 1076 m 1 Y s 1157 1089 m s 3 lw 1157 1083 m21 6 lw 1161
 1075 m s 1161 1087 m 1 Y s 3 lw 1161 1081 m21 6 lw 1166 1080 m 1 Y s 1166 1092 m 1 Y s 3 lw 1166 1086 m21 6 lw 1171 1080 m 1 Y s 1171 1092 m 1 Y s 3 lw 1171 1086 m21 6 lw 1175 1071 m 1 Y s 1175 1083 m 1 Y s 3 lw 1175 1078 m21 6 lw 1180 1078 m 1 Y s
 1180 1090 m 1 Y s 3 lw 1180 1085 m21 6 lw 1185 1080 m 1 Y s 1185 1092 m 1 Y s 3 lw 1185 1086 m21 6 lw 1190 1074 m 1 Y s 1190 1086 m 1 Y s 3 lw 1190 1080 m21 6 lw 1194 1081 m 1 Y s 1194 1094 m 1 Y s 3 lw 1194 1088 m21 6 lw 1199 1079 m 1 Y s 1199 1091
 m 1 Y s 3 lw 1199 1086 m21 6 lw 1204 1091 m 1 Y s 1204 1103 m 1 Y s 3 lw 1204 1097 m21 6 lw 1208 1082 m 1 Y s 1208 1095 m 1 Y s 3 lw 1208 1089 m21 6 lw 1213 1075 m 1 Y s 1213 1087 m 1 Y s 3 lw 1213 1081 m21 6 lw 1218 1080 m 1 Y s 1218 1093 m 1 Y s 3
 lw 1218 1087 m21 6 lw 1222 1071 m 1 Y s 1222 1083 m 1 Y s 3 lw 1222 1078 m21 6 lw 1227 1083 m 1 Y s 1227 1095 m 1 Y s 3 lw 1227 1090 m21 6 lw 1232 1093 m 1 Y s 1232 1106 m 1 Y s 3 lw 1232 1100 m21 6 lw 1237 1084 m 2 Y s 1237 1097 m 1 Y s 3 lw 1237
 1091 m21 6 lw 1241 1080 m 1 Y s 1241 1093 m 1 Y s 3 lw 1241 1087 m21 6 lw 1246 1079 m 1 Y s 1246 1092 m 1 Y s 3 lw 1246 1086 m21 6 lw 1251 1085 m 2 Y s 1251 1098 m 1 Y s 3 lw 1251 1092 m21 6 lw 1255 1075 m 1 Y s 1255 1087 m 2 Y s 3 lw 1255 1082 m21
 6 lw 1260 1090 m 2 Y s 1260 1103 m 1 Y s 3 lw 1260 1097 m21 6 lw 1265 1091 m 1 Y s 1265 1104 m 1 Y s 3 lw 1265 1098 m21 6 lw 1269 1095 m 1 Y s 1269 1108 m 1 Y s 3 lw 1269 1102 m21 6 lw 1274 1092 m 2 Y s 1274 1105 m 2 Y s 3 lw 1274 1099 m21 6 lw 1279
 1092 m 1 Y s 1279 1105 m 1 Y s 3 lw 1279 1099 m21 6 lw 1284 1073 m 2 Y s 1284 1086 m 2 Y s 3 lw 1284 1080 m21 6 lw 1288 1087 m 1 Y s 1288 1100 m 1 Y s 3 lw 1288 1094 m21 6 lw 1293 1072 m 1 Y s 1293 1085 m 1 Y s 3 lw 1293 1079 m21 6 lw 1298 1096 m 2
 Y s 1298 1109 m 2 Y s 3 lw 1298 1104 m21 6 lw 1302 1088 m 2 Y s 1302 1101 m 2 Y s 3 lw 1302 1095 m21 6 lw 1307 1100 m 1 Y s 1307 1113 m 1 Y s 3 lw 1307 1107 m21 6 lw 1312 1091 m 2 Y s 1312 1104 m 2 Y s 3 lw 1312 1099 m21 6 lw 1317 1089 m 2 Y s 1317
 1102 m 2 Y s 3 lw 1317 1096 m21 6 lw 1321 1092 m 2 Y s 1321 1105 m 2 Y s 3 lw 1321 1099 m21 6 lw 1326 1086 m 2 Y s 1326 1100 m 1 Y s 3 lw 1326 1094 m21 6 lw 1331 1081 m 2 Y s 1331 1094 m 2 Y s 3 lw 1331 1089 m21 6 lw 1335 1104 m 2 Y s 1335 1117 m 2
 Y s 3 lw 1335 1111 m21 6 lw 1340 1090 m 2 Y s 1340 1103 m 2 Y s 3 lw 1340 1098 m21 6 lw 1345 1104 m 2 Y s 1345 1117 m 2 Y s 3 lw 1345 1112 m21 6 lw 1349 1092 m 2 Y s 1349 1105 m 2 Y s 3 lw 1349 1099 m21 6 lw 1354 1099 m 2 Y s 1354 1112 m 2 Y s 3 lw
 1354 1106 m21 6 lw 1359 1095 m 2 Y s 1359 1108 m 2 Y s 3 lw 1359 1103 m21 6 lw 1364 1095 m 2 Y s 1364 1108 m 2 Y s 3 lw 1364 1102 m21 6 lw 1368 1103 m 2 Y s 1368 1117 m 2 Y s 3 lw 1368 1111 m21 6 lw 1373 1090 m 2 Y s 1373 1103 m 2 Y s 3 lw 1373 1097
 m21 6 lw 1378 1104 m 2 Y s 1378 1118 m 2 Y s 3 lw 1378 1112 m21 6 lw 1382 1112 m 3 Y s 1382 1126 m 2 Y s 3 lw 1382 1120 m21 6 lw 1387 1099 m 2 Y s 1387 1112 m 3 Y s 3 lw 1387 1107 m21 6 lw 1392 1098 m 3 Y s 1392 1112 m 2 Y s 3 lw 1392 1106 m21 6 lw
 1397 1100 m 2 Y s 1397 1113 m 3 Y s 3 lw 1397 1108 m21 6 lw 1401 1105 m 3 Y s 1401 1119 m 2 Y s 3 lw 1401 1113 m21 6 lw 1406 1094 m 2 Y s 1406 1107 m 3 Y s 3 lw 1406 1102 m21 6 lw 1411 1084 m 2 Y s 1411 1098 m 2 Y s 3 lw 1411 1092 m21 6 lw 1415 1095
 m 3 Y s 1415 1109 m 3 Y s 3 lw 1415 1103 m21 6 lw 1420 1087 m 2 Y s 1420 1101 m 2 Y s 3 lw 1420 1095 m21 6 lw 1425 1100 m 2 Y s 1425 1113 m 3 Y s 3 lw 1425 1108 m21 6 lw 1429 1112 m 3 Y s 1429 1126 m 3 Y s 3 lw 1429 1121 m21 6 lw 1434 1126 m 3 Y s
 1434 1140 m 3 Y s 3 lw 1434 1134 m21 6 lw 1439 1111 m 3 Y s 1439 1125 m 3 Y s 3 lw 1439 1120 m21 6 lw 1444 1105 m 3 Y s 1444 1119 m 3 Y s 3 lw 1444 1113 m21 6 lw 1448 1114 m 3 Y s 1448 1129 m 2 Y s 3 lw 1448 1123 m21 6 lw 1453 1096 m 3 Y s 1453 1111
 m 2 Y s 3 lw 1453 1105 m21 6 lw 1458 1120 m 3 Y s 1458 1135 m 2 Y s 3 lw 1458 1129 m21 6 lw 1462 1113 m 3 Y s 1462 1127 m 3 Y s 3 lw 1462 1121 m21 6 lw 1467 1117 m 3 Y s 1467 1131 m 3 Y s 3 lw 1467 1126 m21 6 lw 1472 1114 m 3 Y s 1472 1129 m 3 Y s 3
 lw 1472 1123 m21 6 lw 1477 1103 m 3 Y s 1477 1118 m 3 Y s 3 lw 1477 1112 m21 6 lw 1481 1107 m 3 Y s 1481 1121 m 3 Y s 3 lw 1481 1116 m21 6 lw 1486 1117 m 3 Y s 1486 1131 m 3 Y s 3 lw 1486 1125 m21 6 lw 1491 1132 m 3 Y s 1491 1146 m 4 Y s 3 lw 1491
 1141 m21 6 lw 1495 1105 m 4 Y s 1495 1120 m 3 Y s 3 lw 1495 1114 m21 6 lw 1500 1109 m 3 Y s 1500 1123 m 4 Y s 3 lw 1500 1118 m21 6 lw 1505 1111 m 3 Y s 1505 1126 m 3 Y s 3 lw 1505 1120 m21 6 lw 1509 1106 m 3 Y s 1509 1121 m 3 Y s 3 lw 1509 1115 m21
 6 lw 1514 1110 m 4 Y s 1514 1125 m 3 Y s 3 lw 1514 1119 m21 6 lw 1519 1109 m 4 Y s 1519 1124 m 3 Y s 3 lw 1519 1118 m21 6 lw 1524 1115 m 4 Y s 1524 1130 m 3 Y s 3 lw 1524 1124 m21 6 lw 1528 1136 m 4 Y s 1528 1151 m 3 Y s 3 lw 1528 1145 m21 6 lw 1533
 1097 m 4 Y s 1533 1112 m 3 Y s 3 lw 1533 1106 m21 6 lw 1538 1109 m 3 Y s 1538 1124 m 3 Y s 3 lw 1538 1118 m21 6 lw 1542 1112 m 3 Y s 1542 1127 m 3 Y s 3 lw 1542 1121 m21 6 lw 1547 1104 m 3 Y s 1547 1118 m 4 Y s 3 lw 1547 1113 m21 6 lw 1552 1116 m 3
 Y s 1552 1131 m 3 Y s 3 lw 1552 1125 m21 6 lw 1557 1120 m 4 Y s 1557 1135 m 4 Y s 3 lw 1557 1130 m21 6 lw 1561 1117 m 4 Y s 1561 1132 m 4 Y s 3 lw 1561 1126 m21 6 lw 1566 1105 m 4 Y s 1566 1120 m 4 Y s 3 lw 1566 1114 m21 6 lw 1571 1116 m 3 Y s 1571
 1131 m 4 Y s 3 lw 1571 1125 m21 6 lw 1575 1109 m 4 Y s 1575 1124 m 4 Y s 3 lw 1575 1119 m21 6 lw 1580 1116 m 4 Y s 1580 1131 m 4 Y s 3 lw 1580 1125 m21 6 lw 1585 1117 m 4 Y s 1585 1132 m 4 Y s 3 lw 1585 1126 m21 6 lw 1589 1096 m 4 Y s 1589 1112 m 3
 Y s 3 lw 1589 1106 m21 6 lw 1594 1120 m 4 Y s 1594 1136 m 4 Y s 3 lw 1594 1130 m21 6 lw 1599 1119 m 4 Y s 1599 1134 m 4 Y s 3 lw 1599 1128 m21 6 lw 1604 1110 m 4 Y s 1604 1126 m 4 Y s 3 lw 1604 1120 m21 6 lw 1608 1120 m 4 Y s 1608 1135 m 5 Y s 3 lw
 1608 1130 m21 6 lw 1613 1122 m 5 Y s 1613 1138 m 4 Y s 3 lw 1613 1132 m21 6 lw 1618 1122 m 5 Y s 1618 1138 m 4 Y s 3 lw 1618 1132 m21 6 lw 1622 1127 m 4 Y s 1622 1142 m 5 Y s 3 lw 1622 1137 m21 6 lw 1627 1141 m 4 Y s 1627 1156 m 5 Y s 3 lw 1627 1151
 m21 6 lw 1632 1131 m 5 Y s 1632 1147 m 4 Y s 3 lw 1632 1141 m21 6 lw 1637 1124 m 5 Y s 1637 1140 m 4 Y s 3 lw 1637 1134 m21 6 lw 1641 1133 m 4 Y s 1641 1148 m 5 Y s 3 lw 1641 1143 m21 6 lw 1646 1110 m 5 Y s 1646 1126 m 5 Y s 3 lw 1646 1120 m21 6 lw
 1651 1092 m 4 Y s 1651 1108 m 4 Y s 3 lw 1651 1102 m21 6 lw 1655 1124 m 5 Y s 1655 1140 m 5 Y s 3 lw 1655 1134 m21 6 lw 1660 1126 m 4 Y s 1660 1142 m 5 Y s 3 lw 1660 1136 m21 6 lw 1665 1114 m 5 Y s 1665 1130 m 5 Y s 3 lw 1665 1125 m21 6 lw 1669 1121
 m 4 Y s 1669 1137 m 5 Y s 3 lw 1669 1131 m21 6 lw 1674 1116 m 5 Y s 1674 1133 m 4 Y s 3 lw 1674 1127 m21 6 lw 1679 1145 m 5 Y s 1679 1161 m 5 Y s 3 lw 1679 1155 m21 6 lw 1684 1135 m 5 Y s 1684 1151 m 5 Y s 3 lw 1684 1146 m21 6 lw 1688 1121 m 5 Y s
 1688 1138 m 5 Y s 3 lw 1688 1132 m21 6 lw 1693 1112 m 5 Y s 1693 1128 m 5 Y s 3 lw 1693 1123 m21 6 lw 1698 1136 m 5 Y s 1698 1153 m 5 Y s 3 lw 1698 1147 m21 6 lw 1702 1134 m 5 Y s 1702 1151 m 5 Y s 3 lw 1702 1145 m21 6 lw 1707 1139 m 5 Y s 1707 1155
 m 6 Y s 3 lw 1707 1150 m21 6 lw 1712 1128 m 6 Y s 1712 1145 m 5 Y s 3 lw 1712 1139 m21 6 lw 1717 1117 m 5 Y s 1717 1134 m 5 Y s 3 lw 1717 1128 m21 6 lw 1721 1119 m 5 Y s 1721 1135 m 6 Y s 3 lw 1721 1130 m21 6 lw 1726 1107 m 5 Y s 1726 1123 m 6 Y s 3
 lw 1726 1118 m21 6 lw 1731 1122 m 5 Y s 1731 1139 m 5 Y s 3 lw 1731 1133 m21 6 lw 1735 1135 m 6 Y s 1735 1152 m 5 Y s 3 lw 1735 1146 m21 6 lw 1740 1144 m 5 Y s 1740 1161 m 5 Y s 3 lw 1740 1155 m21 6 lw 1745 1149 m 5 Y s 1745 1166 m 5 Y s 3 lw 1745
 1160 m21 6 lw 1749 1132 m 5 Y s 1749 1149 m 6 Y s 3 lw 1749 1143 m21 6 lw 1754 1117 m 6 Y s 1754 1134 m 6 Y s 3 lw 1754 1129 m21 6 lw 1759 1116 m 6 Y s 1759 1133 m 6 Y s 3 lw 1759 1128 m21 6 lw 1764 1131 m 6 Y s 1764 1148 m 6 Y s 3 lw 1764 1142 m21
 6 lw 1768 1136 m 6 Y s 1768 1153 m 6 Y s 3 lw 1768 1147 m21 6 lw 1773 1143 m 6 Y s 1773 1160 m 6 Y s 3 lw 1773 1154 m21 6 lw 1778 1127 m 6 Y s 1778 1144 m 6 Y s 3 lw 1778 1139 m21 6 lw 1782 1139 m 6 Y s 1782 1156 m 7 Y s 3 lw 1782 1151 m21 6 lw 1787
 1116 m 6 Y s 1787 1134 m 6 Y s 3 lw 1787 1128 m21 6 lw 1792 1133 m 7 Y s 1792 1151 m 6 Y s 3 lw 1792 1145 m21 6 lw 1797 1106 m 6 Y s 1797 1124 m 6 Y s 3 lw 1797 1118 m21 6 lw 1801 1137 m 6 Y s 1801 1155 m 6 Y s 3 lw 1801 1149 m21 6 lw 1806 1134 m 6
 Y s 1806 1152 m 6 Y s 3 lw 1806 1146 m21 6 lw 1811 1137 m 6 Y s 1811 1154 m 7 Y s 3 lw 1811 1149 m21 6 lw 1815 1115 m 6 Y s 1815 1133 m 6 Y s 3 lw 1815 1127 m21 6 lw 1820 1136 m 6 Y s 1820 1154 m 6 Y s 3 lw 1820 1148 m21 6 lw 1825 1144 m 6 Y s 1825
 1162 m 6 Y s 3 lw 1825 1156 m21 6 lw 1829 1125 m 7 Y s 1829 1143 m 7 Y s 3 lw 1829 1138 m21 6 lw 1834 1137 m 6 Y s 1834 1155 m 7 Y s 3 lw 1834 1149 m21 6 lw 1839 1139 m 7 Y s 1839 1158 m 6 Y s 3 lw 1839 1152 m21 6 lw 1844 1158 m 7 Y s 1844 1176 m 7
 Y s 3 lw 1844 1171 m21 6 lw 1848 1141 m 7 Y s 1848 1159 m 7 Y s 3 lw 1848 1153 m21 6 lw 1853 1133 m 7 Y s 1853 1152 m 7 Y s 3 lw 1853 1146 m21 6 lw 1858 1139 m 7 Y s 1858 1158 m 7 Y s 3 lw 1858 1152 m21 6 lw 1862 1124 m 7 Y s 1862 1142 m 7 Y s 3 lw
 1862 1136 m21 6 lw 1867 1137 m 8 Y s 1867 1156 m 7 Y s 3 lw 1867 1150 m21 6 lw 1872 1134 m 7 Y s 1872 1153 m 7 Y s 3 lw 1872 1147 m21 6 lw 1877 1145 m 8 Y s 1877 1164 m 7 Y s 3 lw 1877 1158 m21 6 lw 1881 1122 m 7 Y s 1881 1141 m 7 Y s 3 lw 1881 1135
 m21 6 lw 1886 1121 m 7 Y s 1886 1140 m 7 Y s 3 lw 1886 1134 m21 6 lw 1891 1141 m 8 Y s 1891 1160 m 8 Y s 3 lw 1891 1155 m21 6 lw 1895 1139 m 7 Y s 1895 1158 m 7 Y s 3 lw 1895 1152 m21 6 lw 1900 1128 m 7 Y s 1900 1147 m 7 Y s 3 lw 1900 1141 m21 6 lw
 1905 1117 m 8 Y s 1905 1136 m 7 Y s 3 lw 1905 1130 m21 6 lw 1909 1120 m 7 Y s 1909 1138 m 8 Y s 3 lw 1909 1133 m21 6 lw 1914 1117 m 7 Y s 1914 1136 m 7 Y s 3 lw 1914 1130 m21 6 lw 1919 1134 m 8 Y s 1919 1154 m 7 Y s 3 lw 1919 1148 m21 6 lw 1924 1152
 m 8 Y s 1924 1171 m 8 Y s 3 lw 1924 1165 m21 6 lw 1928 1135 m 8 Y s 1928 1154 m 8 Y s 3 lw 1928 1148 m21 6 lw 1933 1146 m 8 Y s 1933 1166 m 8 Y s 3 lw 1933 1160 m21 6 lw 1938 1132 m 8 Y s 1938 1151 m 8 Y s 3 lw 1938 1145 m21 6 lw 1942 1150 m 8 Y s
 1942 1169 m 9 Y s 3 lw 1942 1164 m21 6 lw 1947 1132 m 8 Y s 1947 1152 m 8 Y s 3 lw 1947 1146 m21 6 lw 1952 1138 m 9 Y s 1952 1158 m 8 Y s 3 lw 1952 1152 m21 6 lw 1957 1126 m 8 Y s 1957 1146 m 8 Y s 3 lw 1957 1140 m21 6 lw 1961 1127 m 8 Y s 1961 1146
 m 9 Y s 3 lw 1961 1141 m21 6 lw 1966 1141 m 9 Y s 1966 1161 m 9 Y s 3 lw 1966 1156 m21 6 lw 1971 1138 m 8 Y s 1971 1158 m 8 Y s 3 lw 1971 1152 m21 6 lw 1975 1151 m 9 Y s 1975 1171 m 9 Y s 3 lw 1975 1165 m21 6 lw 1980 1146 m 8 Y s 1980 1166 m 8 Y s 3
 lw 1980 1160 m21 6 lw 1985 1125 m 9 Y s 1985 1145 m 9 Y s 3 lw 1985 1139 m21 6 lw 1989 1139 m 9 Y s 1989 1159 m 9 Y s 3 lw 1989 1154 m21 6 lw 1994 1166 m 9 Y s 1994 1187 m 9 Y s 3 lw 1994 1181 m21 6 lw 1999 1125 m 9 Y s 1999 1146 m 9 Y s 3 lw 1999
 1140 m21 6 lw 2004 1128 m 9 Y s 2004 1148 m 9 Y s 3 lw 2004 1142 m21 6 lw 2008 1130 m 9 Y s 2008 1151 m 9 Y s 3 lw 2008 1145 m21 6 lw 2013 1128 m 9 Y s 2013 1148 m 9 Y s 3 lw 2013 1143 m21 6 lw 2018 1128 m 9 Y s 2018 1148 m 9 Y s 3 lw 2018 1142 m21
 6 lw 2022 1116 m 10 Y s 2022 1137 m 9 Y s 3 lw 2022 1131 m21 6 lw 2027 1151 m 10 Y s 2027 1172 m 10 Y s 3 lw 2027 1167 m21 6 lw 2032 1169 m 10 Y s 2032 1191 m 9 Y s 3 lw 2032 1185 m21 6 lw 2036 1173 m 9 Y s 2036 1194 m 9 Y s 3 lw 2036 1188 m21 6 lw
 2041 1149 m 10 Y s 2041 1170 m 10 Y s 3 lw 2041 1165 m21 6 lw 2046 1155 m 10 Y s 2046 1176 m 10 Y s 3 lw 2046 1171 m21 6 lw 2051 1134 m 9 Y s 2051 1155 m 9 Y s 3 lw 2051 1149 m21 6 lw 2055 1116 m 10 Y s 2055 1137 m 10 Y s 3 lw 2055 1132 m21 6 lw
 2060 1164 m 10 Y s 2060 1185 m 10 Y s 3 lw 2060 1179 m21 6 lw 2065 1112 m 10 Y s 2065 1133 m 10 Y s 3 lw 2065 1127 m21 6 lw 2069 1159 m 10 Y s 2069 1180 m 11 Y s 3 lw 2069 1175 m21 6 lw 2074 1140 m 11 Y s 2074 1162 m 10 Y s 3 lw 2074 1156 m21 6 lw
 2079 1145 m 10 Y s 2079 1167 m 10 Y s 3 lw 2079 1161 m21 6 lw 2084 1167 m 11 Y s 2084 1189 m 11 Y s 3 lw 2084 1183 m21 6 lw 2088 1166 m 10 Y s 2088 1188 m 10 Y s 3 lw 2088 1182 m21 6 lw 2093 1160 m 11 Y s 2093 1182 m 10 Y s 3 lw 2093 1176 m21 6 lw
 2098 1137 m 10 Y s 2098 1159 m 10 Y s 3 lw 2098 1153 m21 6 lw 2102 1142 m 10 Y s 2102 1164 m 10 Y s 3 lw 2102 1158 m21 6 lw 2107 1176 m 11 Y s 2107 1199 m 10 Y s 3 lw 2107 1193 m21 6 lw 2112 1160 m 11 Y s 2112 1182 m 11 Y s 3 lw 2112 1177 m21 6 lw
 2116 1162 m 11 Y s 2116 1184 m 11 Y s 3 lw 2116 1179 m21 6 lw 2121 1138 m 11 Y s 2121 1160 m 11 Y s 3 lw 2121 1155 m21 6 lw 2126 1172 m 11 Y s 2126 1195 m 11 Y s 3 lw 2126 1189 m21 6 lw 2131 1140 m 11 Y s 2131 1163 m 11 Y s 3 lw 2131 1157 m21 6 lw
 2135 1135 m 11 Y s 2135 1158 m 11 Y s 3 lw 2135 1152 m21 6 lw 2140 1142 m 11 Y s 2140 1164 m 12 Y s 3 lw 2140 1159 m21 6 lw 2145 1118 m 11 Y s 2145 1141 m 11 Y s 3 lw 2145 1135 m21 6 lw 2149 1155 m 11 Y s 2149 1177 m 12 Y s 3 lw 2149 1172 m21 6 lw
 2154 1144 m 11 Y s 2154 1166 m 12 Y s 3 lw 2154 1161 m21 6 lw 2159 1149 m 12 Y s 2159 1172 m 12 Y s 3 lw 2159 1166 m21 6 lw 2164 1156 m 12 Y s 2164 1179 m 12 Y s 3 lw 2164 1174 m21 6 lw 2168 1115 m 12 Y s 2168 1138 m 11 Y s 3 lw 2168 1132 m21 6 lw
 2173 1128 m 11 Y s 2173 1151 m 11 Y s 3 lw 2173 1145 m21 6 lw 2178 1151 m 12 Y s 2178 1174 m 12 Y s 3 lw 2178 1168 m21 6 lw 2182 1125 m 11 Y s 2182 1148 m 12 Y s 3 lw 2182 1142 m21 6 lw 2187 1137 m 12 Y s 2187 1160 m 12 Y s 3 lw 2187 1155 m21 6 lw
 2192 1131 m 12 Y s 2192 1154 m 12 Y s 3 lw 2192 1149 m21 6 lw 2196 1140 m 12 Y s 2196 1163 m 12 Y s 3 lw 2196 1157 m21 6 lw 2201 1160 m 12 Y s 2201 1184 m 12 Y s 3 lw 2201 1178 m21 6 lw 2206 1117 m 12 Y s 2206 1140 m 12 Y s 3 lw 2206 1134 m21 6 lw
 2211 1158 m 12 Y s 2211 1182 m 12 Y s 3 lw 2211 1176 m21 6 lw 2215 1145 m 13 Y s 2215 1169 m 12 Y s 3 lw 2215 1163 m21 6 lw 2220 1132 m 12 Y s 2220 1156 m 12 Y s 3 lw 2220 1150 m21 6 lw black 340 223 m 1882 X s
 gsave  2268 2234 0 0 C 1923.86 58.2559 t 0 r /Helvetica findfont 83.8316 sf 0 0 m (Q [GeV]) show NC gr  340 279 m -56 Y s 387 251 m -28 Y s 434 251 m -28 Y s 481 251 m -28 Y s 528 279 m -56 Y s 575 251 m -28 Y s 622 251 m -28 Y s 670 251 m -28 Y s
 717 279 m -56 Y s 764 251 m -28 Y s 811 251 m -28 Y s 858 251 m -28 Y s 905 279 m -56 Y s 952 251 m -28 Y s 999 251 m -28 Y s 1046 251 m -28 Y s 1093 279 m -56 Y s 1140 251 m -28 Y s 1187 251 m -28 Y s 1234 251 m -28 Y s 1281 279 m -56 Y s 1328 251
 m -28 Y s 1375 251 m -28 Y s 1422 251 m -28 Y s 1469 279 m -56 Y s 1517 251 m -28 Y s 1564 251 m -28 Y s 1611 251 m -28 Y s 1658 279 m -56 Y s 1705 251 m -28 Y s 1752 251 m -28 Y s 1799 251 m -28 Y s 1846 279 m -56 Y s 1893 251 m -28 Y s 1940 251 m
 -28 Y s 1987 251 m -28 Y s 2034 279 m -56 Y s 2081 251 m -28 Y s 2128 251 m -28 Y s 2175 251 m -28 Y s 2222 279 m -56 Y s
 gsave  2268 2234 0 0 C 322.539 159.138 t 0 r /Helvetica findfont 62.5185 sf 0 0 m (0) show NC gr 
 gsave  2268 2234 0 0 C 484.518 159.138 t 0 r /Helvetica findfont 62.5185 sf 0 0 m (0.2) show NC gr 
 gsave  2268 2234 0 0 C 673.495 159.138 t 0 r /Helvetica findfont 62.5185 sf 0 0 m (0.4) show NC gr 
 gsave  2268 2234 0 0 C 861.05 159.138 t 0 r /Helvetica findfont 62.5185 sf 0 0 m (0.6) show NC gr 
 gsave  2268 2234 0 0 C 1050.03 159.138 t 0 r /Helvetica findfont 62.5185 sf 0 0 m (0.8) show NC gr 
 gsave  2268 2234 0 0 C 1268.84 159.138 t 0 r /Helvetica findfont 62.5185 sf 0 0 m (1) show NC gr 
 gsave  2268 2234 0 0 C 1426.56 159.138 t 0 r /Helvetica findfont 62.5185 sf 0 0 m (1.2) show NC gr 
 gsave  2268 2234 0 0 C 1614.11 159.138 t 0 r /Helvetica findfont 62.5185 sf 0 0 m (1.4) show NC gr 
 gsave  2268 2234 0 0 C 1803.09 159.138 t 0 r /Helvetica findfont 62.5185 sf 0 0 m (1.6) show NC gr 
 gsave  2268 2234 0 0 C 1990.65 159.138 t 0 r /Helvetica findfont 62.5185 sf 0 0 m (1.8) show NC gr 
 gsave  2268 2234 0 0 C 2205.2 159.138 t 0 r /Helvetica findfont 62.5185 sf 0 0 m (2) show NC gr  340 223 m 1966 Y s
 gsave  2268 2234 0 0 C 152.034 1953.7 t 90 r /Helvetica findfont 83.8316 sf 0 0 m (DR\(Q\)) show NC gr  400 402 m -60 X s 370 491 m -30 X s 370 581 m -30 X s 370 670 m -30 X s 400 759 m -60 X s 370 849 m -30 X s 370 938 m -30 X s 370 1027 m -30 X s
 400 1117 m -60 X s 370 1206 m -30 X s 370 1295 m -30 X s 370 1385 m -30 X s 400 1474 m -60 X s 370 1564 m -30 X s 370 1653 m -30 X s 370 1742 m -30 X s 400 1832 m -60 X s 370 1921 m -30 X s 370 2010 m -30 X s 370 2100 m -30 X s 400 2189 m -60 X s
 400 402 m -60 X s 370 313 m -30 X s 370 223 m -30 X s
 gsave  2268 2234 0 0 C 242.97 379.374 t 0 r /Helvetica findfont 62.5185 sf 0 0 m (0.6) show NC gr 
 gsave  2268 2234 0 0 C 242.97 737.434 t 0 r /Helvetica findfont 62.5185 sf 0 0 m (0.8) show NC gr 
 gsave  2268 2234 0 0 C 305.488 1092.65 t 0 r /Helvetica findfont 62.5185 sf 0 0 m (1) show NC gr 
 gsave  2268 2234 0 0 C 242.97 1450.71 t 0 r /Helvetica findfont 62.5185 sf 0 0 m (1.2) show NC gr 
 gsave  2268 2234 0 0 C 242.97 1808.77 t 0 r /Helvetica findfont 62.5185 sf 0 0 m (1.4) show NC gr 
 gsave  2268 2234 0 0 C 242.97 2166.83 t 0 r /Helvetica findfont 62.5185 sf 0 0 m (1.6) show NC gr 
 gsave  2268 2234 0 0 C 906.518 670.653 t 0 r /Helvetica-Bold findfont 72.4646 sf 0 0 m (DR PIONS) show NC gr 
 gsave  2268 2234 0 0 C 906.518 558.404 t 0 r /Helvetica-Bold findfont 72.4646 sf 0 0 m (ref. sample: EVENT MIX) show NC gr 
 gsave  2268 2234 0 0 C 906.518 447.576 t 0 r /Helvetica-Bold findfont 72.4646 sf 0 0 m (VELO tracks multiplicity: 11 \255 20) show NC gr 
 gr  gr showpage
end
%%EOF
