%!PS-Adobe-2.0 EPSF-2.0
%%BoundingBox:  0 0 567 558
%%Title: ./DR_pion_0c65_h3015_3_h3401_3.eps: DR_pion_0c65_h3015_3_h3401_3
%%Creator: ROOT Version 6.06/02
%%CreationDate: Wed Feb  1 16:20:58 2017
%%DocumentNeededResources: ProcSet (FontSetInit)
%%EndComments
%%BeginProlog
80 dict begin
/s {stroke} def /l {lineto} def /m {moveto} def /t {translate} def
/r {rotate} def /rl {roll}  def /R {repeat} def
/d {rlineto} def /rm {rmoveto} def /gr {grestore} def /f {eofill} def
/c {setrgbcolor} def /black {0 setgray} def /sd {setdash} def
/cl {closepath} def /sf {scalefont setfont} def /lw {setlinewidth} def
/box {m dup 0 exch d exch 0 d 0 exch neg d cl} def
/NC{systemdict begin initclip end}def/C{NC box clip newpath}def
/bl {box s} def /bf {gsave box gsave f grestore 1 lw [] 0 sd s grestore} def /Y { 0 exch d} def /X { 0 d} def 
/K {{pop pop 0 moveto} exch kshow} bind def
/ita {/ang 15 def gsave [1 0 ang dup sin exch cos div 1 0 0] concat} def 
/mp {newpath /y exch def /x exch def} def
/side {[w .77 mul w .23 mul] .385 w mul sd w 0 l currentpoint t -144 r} def
/mr {mp x y w2 0 360 arc} def /m24 {mr s} def /m20 {mr f} def
/mb {mp x y w2 add m w2 neg 0 d 0 w neg d w 0 d 0 w d cl} def
/mt {mp x y w2 add m w2 neg w neg d w 0 d cl} def
/m21 {mb f} def /m25 {mb s} def /m22 {mt f} def /m26{mt s} def
/m23 {mp x y w2 sub m w2 w d w neg 0 d cl f} def
/m27 {mp x y w2 add m w3 neg w2 neg d w3 w2 neg d w3 w2 d cl s} def
/m28 {mp x w2 sub y w2 sub w3 add m w3 0 d  0 w3 neg d w3 0 d 0 w3 d w3 0 d  0 w3 d w3 neg 0 d 0 w3 d w3 neg 0 d 0 w3 neg d w3 neg 0 d cl s } def
/m29 {mp gsave x w2 sub y w2 add w3 sub m currentpoint t 4 {side} repeat cl fill gr} def
/m30 {mp gsave x w2 sub y w2 add w3 sub m currentpoint t 4 {side} repeat cl s gr} def
/m31 {mp x y w2 sub m 0 w d x w2 sub y m w 0 d x w2 sub y w2 add m w w neg d x w2 sub y w2 sub m w w d s} def
/m32 {mp x y w2 sub m w2 w d w neg 0 d cl s} def
/m33 {mp x y w2 add m w3 neg w2 neg d w3 w2 neg d w3 w2 d cl f} def
/m34 {mp x w2 sub y w2 sub w3 add m w3 0 d  0 w3 neg d w3 0 d 0 w3 d w3 0 d  0 w3 d w3 neg 0 d 0 w3 d w3 neg 0 d 0 w3 neg d w3 neg 0 d cl f } def
/m2 {mp x y w2 sub m 0 w d x w2 sub y m w 0 d s} def
/m5 {mp x w2 sub y w2 sub m w w d x w2 sub y w2 add m w w neg d s} def
%%IncludeResource: ProcSet (FontSetInit)
%%IncludeResource: font Times-Roman
%%IncludeResource: font Times-Italic
%%IncludeResource: font Times-Bold
%%IncludeResource: font Times-BoldItalic
%%IncludeResource: font Helvetica
%%IncludeResource: font Helvetica-Oblique
%%IncludeResource: font Helvetica-Bold
%%IncludeResource: font Helvetica-BoldOblique
%%IncludeResource: font Courier
%%IncludeResource: font Courier-Oblique
%%IncludeResource: font Courier-Bold
%%IncludeResource: font Courier-BoldOblique
%%IncludeResource: font Symbol
%%IncludeResource: font ZapfDingbats
/reEncode {exch findfont dup length dict begin {1 index /FID eq  {pop pop} {def} ifelse } forall /Encoding exch def currentdict end dup /FontName get exch definefont pop } def [/Times-Bold /Times-Italic /Times-BoldItalic /Helvetica /Helvetica-Oblique
 /Helvetica-Bold /Helvetica-BoldOblique /Courier /Courier-Oblique /Courier-Bold /Courier-BoldOblique /Times-Roman /AvantGarde-Book /AvantGarde-BookOblique /AvantGarde-Demi /AvantGarde-DemiOblique /Bookman-Demi /Bookman-DemiItalic /Bookman-Light
 /Bookman-LightItalic /Helvetica-Narrow /Helvetica-Narrow-Bold /Helvetica-Narrow-BoldOblique /Helvetica-Narrow-Oblique /NewCenturySchlbk-Roman /NewCenturySchlbk-Bold /NewCenturySchlbk-BoldItalic /NewCenturySchlbk-Italic /Palatino-Bold
 /Palatino-BoldItalic /Palatino-Italic /Palatino-Roman ] {ISOLatin1Encoding reEncode } forall
%%EndProlog
%%BeginSetup
%%EndSetup
newpath  gsave  .25 .25 scale  gsave  0 0 t black[  ] 0 sd 6 lw 1 1 1 c 2268 2234 0 0 bf black 3 lw 1 1 1 c 1882 1966 340 223 bf black 1882 1966 340 223 bl 1 1 1 c 1882 1966 340 223 bf black 1882 1966 340 223 bl 0 0 1 c 6 lw 1 1 1 c 0 0 1 c 390 1707
 m 29 Y s 390 1747 m 28 Y s 3 lw /w 14 def /w2 {w 2 div} def /w3 {w 3 div} def 390 1741 m21 6 lw 394 1721 m 26 Y s 394 1759 m 26 Y s 3 lw 394 1753 m21 6 lw 399 1718 m 24 Y s 399 1753 m 24 Y s 3 lw 399 1748 m21 6 lw 404 1559 m 20 Y s 404 1590 m 20 Y s
 3 lw 404 1584 m21 6 lw 408 1608 m 19 Y s 408 1638 m 19 Y s 3 lw 408 1633 m21 6 lw 413 1595 m 17 Y s 413 1623 m 17 Y s 3 lw 413 1618 m21 6 lw 418 1553 m 15 Y s 418 1580 m 15 Y s 3 lw 418 1574 m21 6 lw 423 1494 m 14 Y s 423 1519 m 15 Y s 3 lw 423 1514
 m21 6 lw 427 1482 m 13 Y s 427 1507 m 13 Y s 3 lw 427 1501 m21 6 lw 432 1426 m 12 Y s 432 1450 m 11 Y s 3 lw 432 1444 m21 6 lw 437 1457 m 12 Y s 437 1480 m 11 Y s 3 lw 437 1474 m21 6 lw 441 1417 m 11 Y s 441 1439 m 11 Y s 3 lw 441 1434 m21 6 lw 446
 1382 m 10 Y s 446 1403 m 10 Y s 3 lw 446 1397 m21 6 lw 451 1371 m 9 Y s 451 1392 m 9 Y s 3 lw 451 1386 m21 6 lw 455 1370 m 9 Y s 455 1390 m 9 Y s 3 lw 455 1385 m21 6 lw 460 1338 m 8 Y s 460 1357 m 8 Y s 3 lw 460 1351 m21 6 lw 465 1302 m 7 Y s 465
 1321 m 7 Y s 3 lw 465 1315 m21 6 lw 470 1332 m 7 Y s 470 1350 m 8 Y s 3 lw 470 1345 m21 6 lw 474 1298 m 7 Y s 474 1316 m 7 Y s 3 lw 474 1311 m21 6 lw 479 1278 m 6 Y s 479 1295 m 7 Y s 3 lw 479 1290 m21 6 lw 484 1274 m 6 Y s 484 1291 m 6 Y s 3 lw 484
 1285 m21 6 lw 488 1254 m 5 Y s 488 1271 m 5 Y s 3 lw 488 1265 m21 6 lw 493 1267 m 5 Y s 493 1284 m 5 Y s 3 lw 493 1278 m21 6 lw 498 1259 m 5 Y s 498 1275 m 5 Y s 3 lw 498 1270 m21 6 lw 502 1233 m 5 Y s 502 1249 m 5 Y s 3 lw 502 1243 m21 6 lw 507
 1222 m 5 Y s 507 1238 m 5 Y s 3 lw 507 1232 m21 6 lw 512 1226 m 4 Y s 512 1241 m 5 Y s 3 lw 512 1236 m21 6 lw 517 1224 m 4 Y s 517 1239 m 4 Y s 3 lw 517 1233 m21 6 lw 521 1217 m 4 Y s 521 1232 m 4 Y s 3 lw 521 1227 m21 6 lw 526 1203 m 3 Y s 526 1218
 m 4 Y s 3 lw 526 1212 m21 6 lw 531 1185 m 4 Y s 531 1200 m 4 Y s 3 lw 531 1195 m21 6 lw 535 1194 m 4 Y s 535 1209 m 4 Y s 3 lw 535 1204 m21 6 lw 540 1198 m 3 Y s 540 1212 m 4 Y s 3 lw 540 1207 m21 6 lw 545 1197 m 3 Y s 545 1212 m 3 Y s 3 lw 545 1206
 m21 6 lw 550 1192 m 3 Y s 550 1206 m 4 Y s 3 lw 550 1201 m21 6 lw 554 1186 m 3 Y s 554 1201 m 3 Y s 3 lw 554 1195 m21 6 lw 559 1182 m 3 Y s 559 1196 m 3 Y s 3 lw 559 1191 m21 6 lw 564 1163 m 3 Y s 564 1177 m 3 Y s 3 lw 564 1172 m21 6 lw 568 1153 m 3
 Y s 568 1167 m 3 Y s 3 lw 568 1161 m21 6 lw 573 1171 m 2 Y s 573 1185 m 2 Y s 3 lw 573 1179 m21 6 lw 578 1158 m 2 Y s 578 1172 m 2 Y s 3 lw 578 1166 m21 6 lw 582 1151 m 3 Y s 582 1165 m 3 Y s 3 lw 582 1160 m21 6 lw 587 1145 m 2 Y s 587 1159 m 2 Y s
 3 lw 587 1153 m21 6 lw 592 1153 m 2 Y s 592 1166 m 3 Y s 3 lw 592 1161 m21 6 lw 597 1134 m 2 Y s 597 1148 m 2 Y s 3 lw 597 1142 m21 6 lw 601 1157 m 2 Y s 601 1170 m 2 Y s 3 lw 601 1165 m21 6 lw 606 1130 m 2 Y s 606 1143 m 2 Y s 3 lw 606 1138 m21 6
 lw 611 1139 m 2 Y s 611 1152 m 2 Y s 3 lw 611 1146 m21 6 lw 615 1139 m 2 Y s 615 1152 m 2 Y s 3 lw 615 1146 m21 6 lw 620 1145 m 2 Y s 620 1159 m 1 Y s 3 lw 620 1153 m21 6 lw 625 1130 m 2 Y s 625 1143 m 2 Y s 3 lw 625 1137 m21 6 lw 630 1138 m 2 Y s
 630 1151 m 2 Y s 3 lw 630 1146 m21 6 lw 634 1118 m 1 Y s 634 1131 m 1 Y s 3 lw 634 1125 m21 6 lw 639 1120 m 1 Y s 639 1133 m 1 Y s 3 lw 639 1127 m21 6 lw 644 1123 m 1 Y s 644 1136 m 1 Y s 3 lw 644 1130 m21 6 lw 648 1133 m 1 Y s 648 1146 m 1 Y s 3 lw
 648 1140 m21 6 lw 653 1126 m 2 Y s 653 1139 m 1 Y s 3 lw 653 1133 m21 6 lw 658 1124 m 1 Y s 658 1137 m 1 Y s 3 lw 658 1131 m21 6 lw 662 1110 m 1 Y s 662 1123 m 1 Y s 3 lw 662 1117 m21 6 lw 667 1115 m 1 Y s 667 1128 m 1 Y s 3 lw 667 1122 m21 6 lw 672
 1114 m 1 Y s 672 1126 m 2 Y s 3 lw 672 1121 m21 6 lw 677 1115 m 1 Y s 677 1127 m 1 Y s 3 lw 677 1121 m21 6 lw 681 1112 m 1 Y s 681 1125 m 1 Y s 3 lw 681 1119 m21 6 lw 686 1104 m 1 Y s 686 1116 m 1 Y s 3 lw 686 1111 m21 6 lw 691 1112 m 1 Y s 691 1125
 m 1 Y s 3 lw 691 1119 m21 6 lw 695 1112 m s 695 1124 m 1 Y s 3 lw 695 1118 m21 6 lw 700 1099 m 1 Y s 700 1111 m 1 Y s 3 lw 700 1106 m21 6 lw 705 1104 m 1 Y s 705 1116 m 1 Y s 3 lw 705 1111 m21 6 lw 710 1101 m 1 Y s 710 1114 m s 3 lw 710 1108 m21 6
 lw 714 1106 m 1 Y s 714 1118 m 1 Y s 3 lw 714 1113 m21 6 lw 719 1108 m 1 Y s 719 1120 m 1 Y s 3 lw 719 1115 m21 6 lw 724 1105 m s 724 1117 m 1 Y s 3 lw 724 1111 m21 6 lw 728 1101 m 1 Y s 728 1113 m 1 Y s 3 lw 728 1108 m21 6 lw 733 1099 m s 733 1111
 m s 3 lw 733 1105 m21 6 lw 738 1094 m 1 Y s 738 1106 m 1 Y s 3 lw 738 1101 m21 6 lw 742 1093 m s 742 1105 m s 3 lw 742 1099 m21 6 lw 747 1095 m s 747 1106 m 1 Y s 3 lw 747 1101 m21 6 lw 752 1109 m 1 Y s 752 1121 m 1 Y s 3 lw 752 1116 m21 6 lw 757
 1090 m 1 Y s 757 1102 m 1 Y s 3 lw 757 1097 m21 6 lw 761 1103 m 1 Y s 761 1115 m 1 Y s 3 lw 761 1110 m21 6 lw 766 1097 m s 766 1109 m s 3 lw 766 1103 m21 6 lw 771 1086 m 1 Y s 771 1098 m s 3 lw 771 1092 m21 6 lw 775 1091 m 1 Y s 775 1103 m s 3 lw
 775 1097 m21 6 lw 780 1086 m s 780 1098 m s 3 lw 780 1092 m21 6 lw 785 1091 m s 785 1103 m s 3 lw 785 1097 m21 6 lw 790 1099 m 1 Y s 790 1111 m s 3 lw 790 1105 m21 6 lw 794 1095 m s 794 1107 m s 3 lw 794 1101 m21 6 lw 799 1091 m 1 Y s 799 1103 m s 3
 lw 799 1097 m21 6 lw 804 1090 m 1 Y s 804 1102 m s 3 lw 804 1096 m21 6 lw 808 1085 m s 808 1097 m s 3 lw 808 1091 m21 6 lw 813 1081 m s 813 1092 m s 3 lw 813 1087 m21 6 lw 818 1082 m 1 Y s 818 1094 m s 3 lw 818 1088 m21 6 lw 822 1088 m s 822 1099 m
 1 Y s 3 lw 822 1094 m21 6 lw 827 1085 m s 827 1096 m 1 Y s 3 lw 827 1091 m21 6 lw 832 1075 m s 832 1087 m s 3 lw 832 1081 m21 6 lw 837 1089 m 1 Y s 837 1101 m s 3 lw 837 1095 m21 6 lw 841 1082 m s 841 1093 m s 3 lw 841 1087 m21 6 lw 846 1088 m 1 Y s
 846 1100 m s 3 lw 846 1094 m21 6 lw 851 1090 m s 851 1101 m 1 Y s 3 lw 851 1096 m21 6 lw 855 1085 m s 855 1096 m 1 Y s 3 lw 855 1091 m21 6 lw 860 1084 m 1 Y s 860 1096 m s 3 lw 860 1090 m21 6 lw 865 1070 m s 865 1081 m s 3 lw 865 1075 m21 6 lw 870
 1076 m s 870 1088 m s 3 lw 870 1082 m21 6 lw 874 1092 m s 874 1103 m 1 Y s 3 lw 874 1098 m21 6 lw 879 1077 m 1 Y s 879 1089 m s 3 lw 879 1083 m21 6 lw 884 1065 m s 884 1077 m s 3 lw 884 1071 m21 6 lw 888 1067 m s 888 1078 m s 3 lw 888 1073 m21 6 lw
 893 1082 m s 893 1093 m 1 Y s 3 lw 893 1088 m21 6 lw 898 1086 m 1 Y s 898 1098 m s 3 lw 898 1092 m21 6 lw 902 1082 m s 902 1093 m s 3 lw 902 1088 m21 6 lw 907 1072 m s 907 1083 m s 3 lw 907 1077 m21 6 lw 912 1079 m s 912 1091 m s 3 lw 912 1085 m21 6
 lw 917 1086 m s 917 1098 m s 3 lw 917 1092 m21 6 lw 921 1082 m s 921 1094 m s 3 lw 921 1088 m21 6 lw 926 1073 m s 926 1084 m s 3 lw 926 1079 m21 6 lw 931 1077 m s 931 1088 m s 3 lw 931 1082 m21 6 lw 935 1079 m s 935 1090 m s 3 lw 935 1085 m21 6 lw
 940 1079 m 1 Y s 940 1091 m s 3 lw 940 1085 m21 6 lw 945 1082 m s 945 1093 m 1 Y s 3 lw 945 1088 m21 6 lw 950 1085 m s 950 1096 m 1 Y s 3 lw 950 1091 m21 6 lw 954 1079 m s 954 1090 m 1 Y s 3 lw 954 1085 m21 6 lw 959 1079 m s 959 1090 m s 3 lw 959
 1084 m21 6 lw 964 1080 m s 964 1092 m s 3 lw 964 1086 m21 6 lw 968 1082 m s 968 1093 m 1 Y s 3 lw 968 1088 m21 6 lw 973 1084 m s 973 1096 m s 3 lw 973 1090 m21 6 lw 978 1076 m 1 Y s 978 1088 m s 3 lw 978 1082 m21 6 lw 982 1080 m s 982 1091 m 1 Y s 3
 lw 982 1086 m21 6 lw 987 1082 m s 987 1094 m s 3 lw 987 1088 m21 6 lw 992 1075 m s 992 1087 m s 3 lw 992 1081 m21 6 lw 997 1079 m s 997 1090 m 1 Y s 3 lw 997 1085 m21 6 lw 1001 1085 m s 1001 1097 m s 3 lw 1001 1091 m21 6 lw 1006 1084 m s 1006 1096 m
 s 3 lw 1006 1090 m21 6 lw 1011 1075 m s 1011 1086 m s 3 lw 1011 1080 m21 6 lw 1015 1074 m s 1015 1085 m 1 Y s 3 lw 1015 1080 m21 6 lw 1020 1080 m s 1020 1091 m s 3 lw 1020 1086 m21 6 lw 1025 1074 m s 1025 1086 m s 3 lw 1025 1080 m21 6 lw 1030 1076 m
 s 1030 1087 m 1 Y s 3 lw 1030 1082 m21 6 lw 1034 1080 m s 1034 1092 m s 3 lw 1034 1086 m21 6 lw 1039 1081 m s 1039 1092 m s 3 lw 1039 1087 m21 6 lw 1044 1076 m s 1044 1087 m 1 Y s 3 lw 1044 1082 m21 6 lw 1048 1080 m s 1048 1092 m s 3 lw 1048 1086
 m21 6 lw 1053 1079 m s 1053 1091 m s 3 lw 1053 1085 m21 6 lw 1058 1076 m s 1058 1088 m s 3 lw 1058 1082 m21 6 lw 1062 1089 m 1 Y s 1062 1101 m s 3 lw 1062 1095 m21 6 lw 1067 1088 m s 1067 1099 m 1 Y s 3 lw 1067 1094 m21 6 lw 1072 1082 m 1 Y s 1072
 1094 m s 3 lw 1072 1088 m21 6 lw 1077 1090 m s 1077 1102 m s 3 lw 1077 1096 m21 6 lw 1081 1084 m 1 Y s 1081 1096 m 1 Y s 3 lw 1081 1091 m21 6 lw 1086 1074 m 1 Y s 1086 1086 m 1 Y s 3 lw 1086 1080 m21 6 lw 1091 1075 m s 1091 1086 m 1 Y s 3 lw 1091
 1081 m21 6 lw 1095 1080 m s 1095 1092 m s 3 lw 1095 1086 m21 6 lw 1100 1066 m s 1100 1078 m s 3 lw 1100 1072 m21 6 lw 1105 1083 m 1 Y s 1105 1095 m 1 Y s 3 lw 1105 1089 m21 6 lw 1110 1082 m 1 Y s 1110 1094 m 1 Y s 3 lw 1110 1088 m21 6 lw 1114 1087 m
 s 1114 1099 m s 3 lw 1114 1093 m21 6 lw 1119 1088 m 1 Y s 1119 1100 m 1 Y s 3 lw 1119 1094 m21 6 lw 1124 1085 m 1 Y s 1124 1097 m 1 Y s 3 lw 1124 1092 m21 6 lw 1128 1075 m 1 Y s 1128 1087 m 1 Y s 3 lw 1128 1082 m21 6 lw 1133 1068 m s 1133 1079 m 1 Y
 s 3 lw 1133 1074 m21 6 lw 1138 1088 m 1 Y s 1138 1100 m 1 Y s 3 lw 1138 1094 m21 6 lw 1142 1079 m s 1142 1091 m s 3 lw 1142 1085 m21 6 lw 1147 1086 m s 1147 1098 m s 3 lw 1147 1092 m21 6 lw 1152 1083 m 1 Y s 1152 1095 m 1 Y s 3 lw 1152 1089 m21 6 lw
 1157 1094 m s 1157 1106 m s 3 lw 1157 1100 m21 6 lw 1161 1091 m 1 Y s 1161 1103 m 1 Y s 3 lw 1161 1097 m21 6 lw 1166 1089 m 1 Y s 1166 1101 m 1 Y s 3 lw 1166 1095 m21 6 lw 1171 1085 m 1 Y s 1171 1097 m 1 Y s 3 lw 1171 1092 m21 6 lw 1175 1102 m 1 Y s
 1175 1114 m 1 Y s 3 lw 1175 1108 m21 6 lw 1180 1085 m 1 Y s 1180 1097 m 1 Y s 3 lw 1180 1091 m21 6 lw 1185 1087 m 1 Y s 1185 1099 m 1 Y s 3 lw 1185 1094 m21 6 lw 1190 1085 m 1 Y s 1190 1097 m 1 Y s 3 lw 1190 1091 m21 6 lw 1194 1111 m 1 Y s 1194 1123
 m 1 Y s 3 lw 1194 1118 m21 6 lw 1199 1090 m 1 Y s 1199 1103 m s 3 lw 1199 1097 m21 6 lw 1204 1095 m 1 Y s 1204 1107 m 1 Y s 3 lw 1204 1101 m21 6 lw 1208 1084 m 1 Y s 1208 1096 m 1 Y s 3 lw 1208 1090 m21 6 lw 1213 1099 m 1 Y s 1213 1111 m 1 Y s 3 lw
 1213 1106 m21 6 lw 1218 1099 m 1 Y s 1218 1112 m 1 Y s 3 lw 1218 1106 m21 6 lw 1222 1092 m 1 Y s 1222 1104 m 1 Y s 3 lw 1222 1098 m21 6 lw 1227 1100 m 1 Y s 1227 1112 m 1 Y s 3 lw 1227 1106 m21 6 lw 1232 1086 m s 1232 1098 m 1 Y s 3 lw 1232 1092 m21
 6 lw 1237 1099 m 1 Y s 1237 1112 m 1 Y s 3 lw 1237 1106 m21 6 lw 1241 1085 m 1 Y s 1241 1097 m 1 Y s 3 lw 1241 1092 m21 6 lw 1246 1085 m 1 Y s 1246 1098 m 1 Y s 3 lw 1246 1092 m21 6 lw 1251 1089 m 1 Y s 1251 1102 m 1 Y s 3 lw 1251 1096 m21 6 lw 1255
 1098 m 1 Y s 1255 1110 m 1 Y s 3 lw 1255 1104 m21 6 lw 1260 1091 m 1 Y s 1260 1104 m 1 Y s 3 lw 1260 1098 m21 6 lw 1265 1104 m 1 Y s 1265 1117 m 1 Y s 3 lw 1265 1111 m21 6 lw 1269 1101 m 1 Y s 1269 1114 m 1 Y s 3 lw 1269 1108 m21 6 lw 1274 1091 m 1
 Y s 1274 1103 m 2 Y s 3 lw 1274 1098 m21 6 lw 1279 1085 m 1 Y s 1279 1098 m 1 Y s 3 lw 1279 1092 m21 6 lw 1284 1107 m 1 Y s 1284 1119 m 1 Y s 3 lw 1284 1113 m21 6 lw 1288 1107 m 1 Y s 1288 1120 m 1 Y s 3 lw 1288 1114 m21 6 lw 1293 1092 m 2 Y s 1293
 1105 m 1 Y s 3 lw 1293 1099 m21 6 lw 1298 1096 m 1 Y s 1298 1109 m 1 Y s 3 lw 1298 1103 m21 6 lw 1302 1101 m 1 Y s 1302 1114 m 1 Y s 3 lw 1302 1108 m21 6 lw 1307 1098 m 1 Y s 1307 1110 m 2 Y s 3 lw 1307 1105 m21 6 lw 1312 1098 m 2 Y s 1312 1111 m 1
 Y s 3 lw 1312 1105 m21 6 lw 1317 1107 m 1 Y s 1317 1120 m 1 Y s 3 lw 1317 1114 m21 6 lw 1321 1115 m 2 Y s 1321 1128 m 2 Y s 3 lw 1321 1123 m21 6 lw 1326 1106 m 2 Y s 1326 1119 m 1 Y s 3 lw 1326 1113 m21 6 lw 1331 1093 m 2 Y s 1331 1106 m 1 Y s 3 lw
 1331 1100 m21 6 lw 1335 1110 m 1 Y s 1335 1122 m 2 Y s 3 lw 1335 1117 m21 6 lw 1340 1096 m 1 Y s 1340 1109 m 1 Y s 3 lw 1340 1103 m21 6 lw 1345 1105 m 1 Y s 1345 1118 m 1 Y s 3 lw 1345 1112 m21 6 lw 1349 1112 m 1 Y s 1349 1125 m 1 Y s 3 lw 1349 1119
 m21 6 lw 1354 1110 m 2 Y s 1354 1123 m 2 Y s 3 lw 1354 1118 m21 6 lw 1359 1098 m 1 Y s 1359 1111 m 1 Y s 3 lw 1359 1105 m21 6 lw 1364 1122 m 2 Y s 1364 1135 m 2 Y s 3 lw 1364 1130 m21 6 lw 1368 1093 m 2 Y s 1368 1106 m 2 Y s 3 lw 1368 1100 m21 6 lw
 1373 1095 m 2 Y s 1373 1109 m 1 Y s 3 lw 1373 1103 m21 6 lw 1378 1104 m 1 Y s 1378 1117 m 2 Y s 3 lw 1378 1111 m21 6 lw 1382 1104 m 2 Y s 1382 1117 m 2 Y s 3 lw 1382 1111 m21 6 lw 1387 1101 m 2 Y s 1387 1114 m 2 Y s 3 lw 1387 1109 m21 6 lw 1392 1108
 m 2 Y s 1392 1121 m 2 Y s 3 lw 1392 1115 m21 6 lw 1397 1108 m 2 Y s 1397 1121 m 2 Y s 3 lw 1397 1116 m21 6 lw 1401 1122 m 2 Y s 1401 1136 m 2 Y s 3 lw 1401 1130 m21 6 lw 1406 1098 m 1 Y s 1406 1111 m 2 Y s 3 lw 1406 1105 m21 6 lw 1411 1105 m 2 Y s
 1411 1119 m 1 Y s 3 lw 1411 1113 m21 6 lw 1415 1099 m 2 Y s 1415 1112 m 2 Y s 3 lw 1415 1107 m21 6 lw 1420 1110 m 2 Y s 1420 1123 m 2 Y s 3 lw 1420 1118 m21 6 lw 1425 1107 m 2 Y s 1425 1120 m 2 Y s 3 lw 1425 1114 m21 6 lw 1429 1109 m 2 Y s 1429 1123
 m 2 Y s 3 lw 1429 1117 m21 6 lw 1434 1101 m 2 Y s 1434 1114 m 2 Y s 3 lw 1434 1108 m21 6 lw 1439 1108 m 2 Y s 1439 1121 m 2 Y s 3 lw 1439 1116 m21 6 lw 1444 1099 m 2 Y s 1444 1113 m 2 Y s 3 lw 1444 1107 m21 6 lw 1448 1128 m 2 Y s 1448 1141 m 3 Y s 3
 lw 1448 1136 m21 6 lw 1453 1095 m 3 Y s 1453 1109 m 2 Y s 3 lw 1453 1103 m21 6 lw 1458 1122 m 2 Y s 1458 1135 m 2 Y s 3 lw 1458 1130 m21 6 lw 1462 1099 m 2 Y s 1462 1113 m 2 Y s 3 lw 1462 1107 m21 6 lw 1467 1105 m 2 Y s 1467 1118 m 3 Y s 3 lw 1467
 1113 m21 6 lw 1472 1111 m 2 Y s 1472 1125 m 2 Y s 3 lw 1472 1119 m21 6 lw 1477 1104 m 3 Y s 1477 1118 m 2 Y s 3 lw 1477 1112 m21 6 lw 1481 1108 m 3 Y s 1481 1122 m 2 Y s 3 lw 1481 1116 m21 6 lw 1486 1109 m 2 Y s 1486 1123 m 2 Y s 3 lw 1486 1117 m21
 6 lw 1491 1118 m 3 Y s 1491 1132 m 3 Y s 3 lw 1491 1127 m21 6 lw 1495 1107 m 3 Y s 1495 1121 m 2 Y s 3 lw 1495 1115 m21 6 lw 1500 1115 m 2 Y s 1500 1129 m 2 Y s 3 lw 1500 1123 m21 6 lw 1505 1106 m 2 Y s 1505 1120 m 2 Y s 3 lw 1505 1114 m21 6 lw 1509
 1114 m 2 Y s 1509 1128 m 2 Y s 3 lw 1509 1122 m21 6 lw 1514 1104 m 3 Y s 1514 1118 m 3 Y s 3 lw 1514 1113 m21 6 lw 1519 1119 m 2 Y s 1519 1133 m 2 Y s 3 lw 1519 1127 m21 6 lw 1524 1113 m 3 Y s 1524 1127 m 3 Y s 3 lw 1524 1122 m21 6 lw 1528 1123 m 3
 Y s 1528 1137 m 3 Y s 3 lw 1528 1132 m21 6 lw 1533 1110 m 3 Y s 1533 1125 m 2 Y s 3 lw 1533 1119 m21 6 lw 1538 1118 m 3 Y s 1538 1133 m 2 Y s 3 lw 1538 1127 m21 6 lw 1542 1121 m 3 Y s 1542 1136 m 2 Y s 3 lw 1542 1130 m21 6 lw 1547 1118 m 2 Y s 1547
 1132 m 3 Y s 3 lw 1547 1126 m21 6 lw 1552 1111 m 3 Y s 1552 1126 m 3 Y s 3 lw 1552 1120 m21 6 lw 1557 1105 m 3 Y s 1557 1119 m 3 Y s 3 lw 1557 1113 m21 6 lw 1561 1115 m 3 Y s 1561 1129 m 3 Y s 3 lw 1561 1124 m21 6 lw 1566 1102 m 3 Y s 1566 1116 m 3
 Y s 3 lw 1566 1111 m21 6 lw 1571 1123 m 3 Y s 1571 1137 m 3 Y s 3 lw 1571 1131 m21 6 lw 1575 1118 m 3 Y s 1575 1132 m 3 Y s 3 lw 1575 1126 m21 6 lw 1580 1111 m 3 Y s 1580 1125 m 3 Y s 3 lw 1580 1119 m21 6 lw 1585 1116 m 3 Y s 1585 1130 m 3 Y s 3 lw
 1585 1125 m21 6 lw 1589 1117 m 3 Y s 1589 1132 m 3 Y s 3 lw 1589 1126 m21 6 lw 1594 1117 m 3 Y s 1594 1132 m 3 Y s 3 lw 1594 1126 m21 6 lw 1599 1124 m 3 Y s 1599 1138 m 4 Y s 3 lw 1599 1133 m21 6 lw 1604 1100 m 3 Y s 1604 1114 m 3 Y s 3 lw 1604 1109
 m21 6 lw 1608 1115 m 3 Y s 1608 1129 m 4 Y s 3 lw 1608 1124 m21 6 lw 1613 1117 m 3 Y s 1613 1131 m 4 Y s 3 lw 1613 1126 m21 6 lw 1618 1112 m 4 Y s 1618 1127 m 3 Y s 3 lw 1618 1121 m21 6 lw 1622 1105 m 3 Y s 1622 1120 m 3 Y s 3 lw 1622 1114 m21 6 lw
 1627 1106 m 3 Y s 1627 1121 m 3 Y s 3 lw 1627 1115 m21 6 lw 1632 1113 m 3 Y s 1632 1128 m 3 Y s 3 lw 1632 1122 m21 6 lw 1637 1119 m 4 Y s 1637 1134 m 4 Y s 3 lw 1637 1129 m21 6 lw 1641 1115 m 3 Y s 1641 1130 m 3 Y s 3 lw 1641 1124 m21 6 lw 1646 1130
 m 4 Y s 1646 1145 m 4 Y s 3 lw 1646 1140 m21 6 lw 1651 1103 m 4 Y s 1651 1118 m 4 Y s 3 lw 1651 1113 m21 6 lw 1655 1127 m 4 Y s 1655 1142 m 4 Y s 3 lw 1655 1136 m21 6 lw 1660 1126 m 4 Y s 1660 1141 m 4 Y s 3 lw 1660 1135 m21 6 lw 1665 1118 m 3 Y s
 1665 1133 m 4 Y s 3 lw 1665 1127 m21 6 lw 1669 1117 m 4 Y s 1669 1132 m 4 Y s 3 lw 1669 1127 m21 6 lw 1674 1127 m 4 Y s 1674 1142 m 4 Y s 3 lw 1674 1137 m21 6 lw 1679 1130 m 4 Y s 1679 1145 m 4 Y s 3 lw 1679 1139 m21 6 lw 1684 1115 m 4 Y s 1684 1131
 m 4 Y s 3 lw 1684 1125 m21 6 lw 1688 1111 m 4 Y s 1688 1126 m 4 Y s 3 lw 1688 1120 m21 6 lw 1693 1118 m 4 Y s 1693 1133 m 4 Y s 3 lw 1693 1127 m21 6 lw 1698 1104 m 4 Y s 1698 1119 m 4 Y s 3 lw 1698 1113 m21 6 lw 1702 1110 m 4 Y s 1702 1125 m 4 Y s 3
 lw 1702 1119 m21 6 lw 1707 1118 m 4 Y s 1707 1134 m 4 Y s 3 lw 1707 1128 m21 6 lw 1712 1109 m 4 Y s 1712 1124 m 4 Y s 3 lw 1712 1118 m21 6 lw 1717 1107 m 4 Y s 1717 1122 m 5 Y s 3 lw 1717 1117 m21 6 lw 1721 1122 m 5 Y s 1721 1138 m 4 Y s 3 lw 1721
 1132 m21 6 lw 1726 1123 m 4 Y s 1726 1139 m 4 Y s 3 lw 1726 1133 m21 6 lw 1731 1120 m 4 Y s 1731 1136 m 4 Y s 3 lw 1731 1130 m21 6 lw 1735 1102 m 5 Y s 1735 1118 m 4 Y s 3 lw 1735 1112 m21 6 lw 1740 1118 m 5 Y s 1740 1134 m 5 Y s 3 lw 1740 1129 m21
 6 lw 1745 1132 m 5 Y s 1745 1148 m 4 Y s 3 lw 1745 1142 m21 6 lw 1749 1122 m 5 Y s 1749 1138 m 5 Y s 3 lw 1749 1133 m21 6 lw 1754 1111 m 5 Y s 1754 1127 m 4 Y s 3 lw 1754 1121 m21 6 lw 1759 1120 m 4 Y s 1759 1136 m 4 Y s 3 lw 1759 1130 m21 6 lw 1764
 1133 m 4 Y s 1764 1149 m 4 Y s 3 lw 1764 1143 m21 6 lw 1768 1108 m 4 Y s 1768 1124 m 4 Y s 3 lw 1768 1118 m21 6 lw 1773 1130 m 5 Y s 1773 1146 m 5 Y s 3 lw 1773 1140 m21 6 lw 1778 1110 m 5 Y s 1778 1126 m 5 Y s 3 lw 1778 1120 m21 6 lw 1782 1132 m 5
 Y s 1782 1149 m 4 Y s 3 lw 1782 1143 m21 6 lw 1787 1119 m 5 Y s 1787 1135 m 5 Y s 3 lw 1787 1129 m21 6 lw 1792 1129 m 5 Y s 1792 1145 m 5 Y s 3 lw 1792 1140 m21 6 lw 1797 1131 m 4 Y s 1797 1147 m 5 Y s 3 lw 1797 1141 m21 6 lw 1801 1104 m 5 Y s 1801
 1121 m 4 Y s 3 lw 1801 1115 m21 6 lw 1806 1130 m 5 Y s 1806 1146 m 5 Y s 3 lw 1806 1140 m21 6 lw 1811 1115 m 5 Y s 1811 1132 m 5 Y s 3 lw 1811 1126 m21 6 lw 1815 1113 m 5 Y s 1815 1130 m 5 Y s 3 lw 1815 1124 m21 6 lw 1820 1120 m 5 Y s 1820 1136 m 6
 Y s 3 lw 1820 1131 m21 6 lw 1825 1128 m 5 Y s 1825 1144 m 6 Y s 3 lw 1825 1139 m21 6 lw 1829 1118 m 5 Y s 1829 1134 m 5 Y s 3 lw 1829 1129 m21 6 lw 1834 1106 m 5 Y s 1834 1123 m 5 Y s 3 lw 1834 1117 m21 6 lw 1839 1123 m 5 Y s 1839 1139 m 6 Y s 3 lw
 1839 1134 m21 6 lw 1844 1118 m 6 Y s 1844 1135 m 5 Y s 3 lw 1844 1129 m21 6 lw 1848 1140 m 6 Y s 1848 1157 m 6 Y s 3 lw 1848 1151 m21 6 lw 1853 1119 m 5 Y s 1853 1135 m 6 Y s 3 lw 1853 1130 m21 6 lw 1858 1121 m 5 Y s 1858 1138 m 5 Y s 3 lw 1858 1132
 m21 6 lw 1862 1120 m 6 Y s 1862 1137 m 5 Y s 3 lw 1862 1131 m21 6 lw 1867 1121 m 6 Y s 1867 1138 m 6 Y s 3 lw 1867 1133 m21 6 lw 1872 1121 m 6 Y s 1872 1138 m 6 Y s 3 lw 1872 1132 m21 6 lw 1877 1102 m 6 Y s 1877 1119 m 5 Y s 3 lw 1877 1113 m21 6 lw
 1881 1110 m 5 Y s 1881 1127 m 5 Y s 3 lw 1881 1121 m21 6 lw 1886 1132 m 6 Y s 1886 1150 m 5 Y s 3 lw 1886 1144 m21 6 lw 1891 1116 m 6 Y s 1891 1133 m 6 Y s 3 lw 1891 1128 m21 6 lw 1895 1118 m 6 Y s 1895 1136 m 5 Y s 3 lw 1895 1130 m21 6 lw 1900 1121
 m 6 Y s 1900 1138 m 6 Y s 3 lw 1900 1132 m21 6 lw 1905 1115 m 6 Y s 1905 1132 m 6 Y s 3 lw 1905 1127 m21 6 lw 1909 1115 m 5 Y s 1909 1132 m 6 Y s 3 lw 1909 1126 m21 6 lw 1914 1128 m 6 Y s 1914 1145 m 6 Y s 3 lw 1914 1140 m21 6 lw 1919 1127 m 6 Y s
 1919 1144 m 6 Y s 3 lw 1919 1139 m21 6 lw 1924 1128 m 6 Y s 1924 1145 m 6 Y s 3 lw 1924 1139 m21 6 lw 1928 1120 m 6 Y s 1928 1138 m 6 Y s 3 lw 1928 1132 m21 6 lw 1933 1121 m 6 Y s 1933 1138 m 7 Y s 3 lw 1933 1133 m21 6 lw 1938 1147 m 6 Y s 1938 1165
 m 6 Y s 3 lw 1938 1159 m21 6 lw 1942 1120 m 6 Y s 1942 1137 m 6 Y s 3 lw 1942 1131 m21 6 lw 1947 1123 m 6 Y s 1947 1140 m 7 Y s 3 lw 1947 1135 m21 6 lw 1952 1114 m 7 Y s 1952 1132 m 7 Y s 3 lw 1952 1127 m21 6 lw 1957 1115 m 6 Y s 1957 1132 m 7 Y s 3
 lw 1957 1127 m21 6 lw 1961 1124 m 7 Y s 1961 1142 m 7 Y s 3 lw 1961 1137 m21 6 lw 1966 1100 m 6 Y s 1966 1118 m 6 Y s 3 lw 1966 1112 m21 6 lw 1971 1113 m 6 Y s 1971 1130 m 7 Y s 3 lw 1971 1125 m21 6 lw 1975 1117 m 7 Y s 1975 1135 m 7 Y s 3 lw 1975
 1129 m21 6 lw 1980 1106 m 7 Y s 1980 1124 m 7 Y s 3 lw 1980 1119 m21 6 lw 1985 1120 m 7 Y s 1985 1138 m 7 Y s 3 lw 1985 1133 m21 6 lw 1989 1151 m 7 Y s 1989 1170 m 7 Y s 3 lw 1989 1164 m21 6 lw 1994 1117 m 6 Y s 1994 1135 m 7 Y s 3 lw 1994 1129 m21
 6 lw 1999 1115 m 7 Y s 1999 1133 m 7 Y s 3 lw 1999 1127 m21 6 lw 2004 1144 m 7 Y s 2004 1162 m 8 Y s 3 lw 2004 1157 m21 6 lw 2008 1122 m 8 Y s 2008 1141 m 7 Y s 3 lw 2008 1135 m21 6 lw 2013 1119 m 7 Y s 2013 1137 m 7 Y s 3 lw 2013 1132 m21 6 lw 2018
 1116 m 7 Y s 2018 1134 m 7 Y s 3 lw 2018 1128 m21 6 lw 2022 1138 m 7 Y s 2022 1156 m 8 Y s 3 lw 2022 1151 m21 6 lw 2027 1117 m 7 Y s 2027 1136 m 7 Y s 3 lw 2027 1130 m21 6 lw 2032 1114 m 8 Y s 2032 1133 m 7 Y s 3 lw 2032 1127 m21 6 lw 2036 1124 m 7
 Y s 2036 1142 m 8 Y s 3 lw 2036 1137 m21 6 lw 2041 1096 m 7 Y s 2041 1115 m 7 Y s 3 lw 2041 1109 m21 6 lw 2046 1127 m 8 Y s 2046 1146 m 8 Y s 3 lw 2046 1140 m21 6 lw 2051 1129 m 7 Y s 2051 1148 m 7 Y s 3 lw 2051 1142 m21 6 lw 2055 1144 m 8 Y s 2055
 1164 m 7 Y s 3 lw 2055 1158 m21 6 lw 2060 1127 m 8 Y s 2060 1146 m 8 Y s 3 lw 2060 1141 m21 6 lw 2065 1135 m 7 Y s 2065 1154 m 7 Y s 3 lw 2065 1148 m21 6 lw 2069 1123 m 8 Y s 2069 1143 m 7 Y s 3 lw 2069 1137 m21 6 lw 2074 1121 m 8 Y s 2074 1140 m 8
 Y s 3 lw 2074 1134 m21 6 lw 2079 1137 m 8 Y s 2079 1157 m 8 Y s 3 lw 2079 1151 m21 6 lw 2084 1114 m 7 Y s 2084 1133 m 8 Y s 3 lw 2084 1127 m21 6 lw 2088 1111 m 8 Y s 2088 1130 m 8 Y s 3 lw 2088 1124 m21 6 lw 2093 1125 m 8 Y s 2093 1144 m 8 Y s 3 lw
 2093 1139 m21 6 lw 2098 1124 m 8 Y s 2098 1143 m 8 Y s 3 lw 2098 1137 m21 6 lw 2102 1130 m 8 Y s 2102 1149 m 8 Y s 3 lw 2102 1144 m21 6 lw 2107 1140 m 8 Y s 2107 1160 m 8 Y s 3 lw 2107 1154 m21 6 lw 2112 1110 m 8 Y s 2112 1130 m 8 Y s 3 lw 2112 1124
 m21 6 lw 2116 1113 m 9 Y s 2116 1133 m 8 Y s 3 lw 2116 1127 m21 6 lw 2121 1133 m 8 Y s 2121 1152 m 9 Y s 3 lw 2121 1147 m21 6 lw 2126 1136 m 8 Y s 2126 1156 m 8 Y s 3 lw 2126 1150 m21 6 lw 2131 1131 m 8 Y s 2131 1151 m 8 Y s 3 lw 2131 1145 m21 6 lw
 2135 1128 m 8 Y s 2135 1148 m 8 Y s 3 lw 2135 1142 m21 6 lw 2140 1121 m 8 Y s 2140 1141 m 8 Y s 3 lw 2140 1135 m21 6 lw 2145 1109 m 9 Y s 2145 1129 m 9 Y s 3 lw 2145 1123 m21 6 lw 2149 1102 m 8 Y s 2149 1122 m 8 Y s 3 lw 2149 1116 m21 6 lw 2154 1107
 m 9 Y s 2154 1127 m 9 Y s 3 lw 2154 1122 m21 6 lw 2159 1097 m 9 Y s 2159 1117 m 9 Y s 3 lw 2159 1111 m21 6 lw 2164 1125 m 9 Y s 2164 1145 m 9 Y s 3 lw 2164 1139 m21 6 lw 2168 1111 m 9 Y s 2168 1131 m 9 Y s 3 lw 2168 1126 m21 6 lw 2173 1114 m 9 Y s
 2173 1135 m 9 Y s 3 lw 2173 1129 m21 6 lw 2178 1143 m 9 Y s 2178 1163 m 10 Y s 3 lw 2178 1158 m21 6 lw 2182 1111 m 9 Y s 2182 1131 m 9 Y s 3 lw 2182 1125 m21 6 lw 2187 1146 m 10 Y s 2187 1167 m 9 Y s 3 lw 2187 1161 m21 6 lw 2192 1111 m 10 Y s 2192
 1132 m 9 Y s 3 lw 2192 1126 m21 6 lw 2196 1095 m 9 Y s 2196 1116 m 9 Y s 3 lw 2196 1110 m21 6 lw 2201 1127 m 10 Y s 2201 1148 m 10 Y s 3 lw 2201 1142 m21 6 lw 2206 1117 m 9 Y s 2206 1137 m 10 Y s 3 lw 2206 1132 m21 6 lw 2211 1128 m 10 Y s 2211 1149
 m 10 Y s 3 lw 2211 1144 m21 6 lw 2215 1124 m 10 Y s 2215 1145 m 10 Y s 3 lw 2215 1140 m21 6 lw 2220 1118 m 10 Y s 2220 1139 m 10 Y s 3 lw 2220 1134 m21 6 lw black 340 223 m 1882 X s
 gsave  2268 2234 0 0 C 1923.86 58.2559 t 0 r /Helvetica findfont 83.8316 sf 0 0 m (Q [GeV]) show NC gr  340 279 m -56 Y s 387 251 m -28 Y s 434 251 m -28 Y s 481 251 m -28 Y s 528 279 m -56 Y s 575 251 m -28 Y s 622 251 m -28 Y s 670 251 m -28 Y s
 717 279 m -56 Y s 764 251 m -28 Y s 811 251 m -28 Y s 858 251 m -28 Y s 905 279 m -56 Y s 952 251 m -28 Y s 999 251 m -28 Y s 1046 251 m -28 Y s 1093 279 m -56 Y s 1140 251 m -28 Y s 1187 251 m -28 Y s 1234 251 m -28 Y s 1281 279 m -56 Y s 1328 251
 m -28 Y s 1375 251 m -28 Y s 1422 251 m -28 Y s 1469 279 m -56 Y s 1517 251 m -28 Y s 1564 251 m -28 Y s 1611 251 m -28 Y s 1658 279 m -56 Y s 1705 251 m -28 Y s 1752 251 m -28 Y s 1799 251 m -28 Y s 1846 279 m -56 Y s 1893 251 m -28 Y s 1940 251 m
 -28 Y s 1987 251 m -28 Y s 2034 279 m -56 Y s 2081 251 m -28 Y s 2128 251 m -28 Y s 2175 251 m -28 Y s 2222 279 m -56 Y s
 gsave  2268 2234 0 0 C 322.539 159.138 t 0 r /Helvetica findfont 62.5185 sf 0 0 m (0) show NC gr 
 gsave  2268 2234 0 0 C 484.518 159.138 t 0 r /Helvetica findfont 62.5185 sf 0 0 m (0.2) show NC gr 
 gsave  2268 2234 0 0 C 673.495 159.138 t 0 r /Helvetica findfont 62.5185 sf 0 0 m (0.4) show NC gr 
 gsave  2268 2234 0 0 C 861.05 159.138 t 0 r /Helvetica findfont 62.5185 sf 0 0 m (0.6) show NC gr 
 gsave  2268 2234 0 0 C 1050.03 159.138 t 0 r /Helvetica findfont 62.5185 sf 0 0 m (0.8) show NC gr 
 gsave  2268 2234 0 0 C 1268.84 159.138 t 0 r /Helvetica findfont 62.5185 sf 0 0 m (1) show NC gr 
 gsave  2268 2234 0 0 C 1426.56 159.138 t 0 r /Helvetica findfont 62.5185 sf 0 0 m (1.2) show NC gr 
 gsave  2268 2234 0 0 C 1614.11 159.138 t 0 r /Helvetica findfont 62.5185 sf 0 0 m (1.4) show NC gr 
 gsave  2268 2234 0 0 C 1803.09 159.138 t 0 r /Helvetica findfont 62.5185 sf 0 0 m (1.6) show NC gr 
 gsave  2268 2234 0 0 C 1990.65 159.138 t 0 r /Helvetica findfont 62.5185 sf 0 0 m (1.8) show NC gr 
 gsave  2268 2234 0 0 C 2205.2 159.138 t 0 r /Helvetica findfont 62.5185 sf 0 0 m (2) show NC gr  340 223 m 1966 Y s
 gsave  2268 2234 0 0 C 152.034 1953.7 t 90 r /Helvetica findfont 83.8316 sf 0 0 m (DR\(Q\)) show NC gr  400 402 m -60 X s 370 491 m -30 X s 370 581 m -30 X s 370 670 m -30 X s 400 759 m -60 X s 370 849 m -30 X s 370 938 m -30 X s 370 1027 m -30 X s
 400 1117 m -60 X s 370 1206 m -30 X s 370 1295 m -30 X s 370 1385 m -30 X s 400 1474 m -60 X s 370 1564 m -30 X s 370 1653 m -30 X s 370 1742 m -30 X s 400 1832 m -60 X s 370 1921 m -30 X s 370 2010 m -30 X s 370 2100 m -30 X s 400 2189 m -60 X s
 400 402 m -60 X s 370 313 m -30 X s 370 223 m -30 X s
 gsave  2268 2234 0 0 C 242.97 379.374 t 0 r /Helvetica findfont 62.5185 sf 0 0 m (0.6) show NC gr 
 gsave  2268 2234 0 0 C 242.97 737.434 t 0 r /Helvetica findfont 62.5185 sf 0 0 m (0.8) show NC gr 
 gsave  2268 2234 0 0 C 305.488 1092.65 t 0 r /Helvetica findfont 62.5185 sf 0 0 m (1) show NC gr 
 gsave  2268 2234 0 0 C 242.97 1450.71 t 0 r /Helvetica findfont 62.5185 sf 0 0 m (1.2) show NC gr 
 gsave  2268 2234 0 0 C 242.97 1808.77 t 0 r /Helvetica findfont 62.5185 sf 0 0 m (1.4) show NC gr 
 gsave  2268 2234 0 0 C 242.97 2166.83 t 0 r /Helvetica findfont 62.5185 sf 0 0 m (1.6) show NC gr 
 gsave  2268 2234 0 0 C 906.518 670.653 t 0 r /Helvetica-Bold findfont 72.4646 sf 0 0 m (DR PIONS) show NC gr 
 gsave  2268 2234 0 0 C 906.518 558.404 t 0 r /Helvetica-Bold findfont 72.4646 sf 0 0 m (ref. sample: EVENT MIX) show NC gr 
 gsave  2268 2234 0 0 C 906.518 447.576 t 0 r /Helvetica-Bold findfont 72.4646 sf 0 0 m (VELO tracks multiplicity: 21 \255 60) show NC gr 
 gr  gr showpage
end
%%EOF
