%!PS-Adobe-2.0 EPSF-2.0
%%BoundingBox:  0 0 567 558
%%Title: ./DR_pion_0c65_h3015_1_h3401_1.eps: DR_pion_0c65_h3015_1_h3401_1
%%Creator: ROOT Version 6.06/02
%%CreationDate: Wed Feb  1 16:20:58 2017
%%DocumentNeededResources: ProcSet (FontSetInit)
%%EndComments
%%BeginProlog
80 dict begin
/s {stroke} def /l {lineto} def /m {moveto} def /t {translate} def
/r {rotate} def /rl {roll}  def /R {repeat} def
/d {rlineto} def /rm {rmoveto} def /gr {grestore} def /f {eofill} def
/c {setrgbcolor} def /black {0 setgray} def /sd {setdash} def
/cl {closepath} def /sf {scalefont setfont} def /lw {setlinewidth} def
/box {m dup 0 exch d exch 0 d 0 exch neg d cl} def
/NC{systemdict begin initclip end}def/C{NC box clip newpath}def
/bl {box s} def /bf {gsave box gsave f grestore 1 lw [] 0 sd s grestore} def /Y { 0 exch d} def /X { 0 d} def 
/K {{pop pop 0 moveto} exch kshow} bind def
/ita {/ang 15 def gsave [1 0 ang dup sin exch cos div 1 0 0] concat} def 
/mp {newpath /y exch def /x exch def} def
/side {[w .77 mul w .23 mul] .385 w mul sd w 0 l currentpoint t -144 r} def
/mr {mp x y w2 0 360 arc} def /m24 {mr s} def /m20 {mr f} def
/mb {mp x y w2 add m w2 neg 0 d 0 w neg d w 0 d 0 w d cl} def
/mt {mp x y w2 add m w2 neg w neg d w 0 d cl} def
/m21 {mb f} def /m25 {mb s} def /m22 {mt f} def /m26{mt s} def
/m23 {mp x y w2 sub m w2 w d w neg 0 d cl f} def
/m27 {mp x y w2 add m w3 neg w2 neg d w3 w2 neg d w3 w2 d cl s} def
/m28 {mp x w2 sub y w2 sub w3 add m w3 0 d  0 w3 neg d w3 0 d 0 w3 d w3 0 d  0 w3 d w3 neg 0 d 0 w3 d w3 neg 0 d 0 w3 neg d w3 neg 0 d cl s } def
/m29 {mp gsave x w2 sub y w2 add w3 sub m currentpoint t 4 {side} repeat cl fill gr} def
/m30 {mp gsave x w2 sub y w2 add w3 sub m currentpoint t 4 {side} repeat cl s gr} def
/m31 {mp x y w2 sub m 0 w d x w2 sub y m w 0 d x w2 sub y w2 add m w w neg d x w2 sub y w2 sub m w w d s} def
/m32 {mp x y w2 sub m w2 w d w neg 0 d cl s} def
/m33 {mp x y w2 add m w3 neg w2 neg d w3 w2 neg d w3 w2 d cl f} def
/m34 {mp x w2 sub y w2 sub w3 add m w3 0 d  0 w3 neg d w3 0 d 0 w3 d w3 0 d  0 w3 d w3 neg 0 d 0 w3 d w3 neg 0 d 0 w3 neg d w3 neg 0 d cl f } def
/m2 {mp x y w2 sub m 0 w d x w2 sub y m w 0 d s} def
/m5 {mp x w2 sub y w2 sub m w w d x w2 sub y w2 add m w w neg d s} def
%%IncludeResource: ProcSet (FontSetInit)
%%IncludeResource: font Times-Roman
%%IncludeResource: font Times-Italic
%%IncludeResource: font Times-Bold
%%IncludeResource: font Times-BoldItalic
%%IncludeResource: font Helvetica
%%IncludeResource: font Helvetica-Oblique
%%IncludeResource: font Helvetica-Bold
%%IncludeResource: font Helvetica-BoldOblique
%%IncludeResource: font Courier
%%IncludeResource: font Courier-Oblique
%%IncludeResource: font Courier-Bold
%%IncludeResource: font Courier-BoldOblique
%%IncludeResource: font Symbol
%%IncludeResource: font ZapfDingbats
/reEncode {exch findfont dup length dict begin {1 index /FID eq  {pop pop} {def} ifelse } forall /Encoding exch def currentdict end dup /FontName get exch definefont pop } def [/Times-Bold /Times-Italic /Times-BoldItalic /Helvetica /Helvetica-Oblique
 /Helvetica-Bold /Helvetica-BoldOblique /Courier /Courier-Oblique /Courier-Bold /Courier-BoldOblique /Times-Roman /AvantGarde-Book /AvantGarde-BookOblique /AvantGarde-Demi /AvantGarde-DemiOblique /Bookman-Demi /Bookman-DemiItalic /Bookman-Light
 /Bookman-LightItalic /Helvetica-Narrow /Helvetica-Narrow-Bold /Helvetica-Narrow-BoldOblique /Helvetica-Narrow-Oblique /NewCenturySchlbk-Roman /NewCenturySchlbk-Bold /NewCenturySchlbk-BoldItalic /NewCenturySchlbk-Italic /Palatino-Bold
 /Palatino-BoldItalic /Palatino-Italic /Palatino-Roman ] {ISOLatin1Encoding reEncode } forall
%%EndProlog
%%BeginSetup
%%EndSetup
newpath  gsave  .25 .25 scale  gsave  0 0 t black[  ] 0 sd 6 lw 1 1 1 c 2268 2234 0 0 bf black 3 lw 1 1 1 c 1882 1966 340 223 bf black 1882 1966 340 223 bl 1 1 1 c 1882 1966 340 223 bf black 1882 1966 340 223 bl 0 0 1 c 6 lw 1 1 1 c 0 0 1 c 390 1946
 m 37 Y s 390 1995 m 38 Y s 3 lw /w 14 def /w2 {w 2 div} def /w3 {w 3 div} def 390 1989 m21 6 lw 394 1926 m 34 Y s 394 1972 m 34 Y s 3 lw 394 1966 m21 6 lw 399 1857 m 31 Y s 399 1899 m 30 Y s 3 lw 399 1893 m21 6 lw 404 1787 m 27 Y s 404 1825 m 27 Y s
 3 lw 404 1819 m21 6 lw 408 1777 m 24 Y s 408 1813 m 25 Y s 3 lw 408 1807 m21 6 lw 413 1764 m 23 Y s 413 1798 m 23 Y s 3 lw 413 1793 m21 6 lw 418 1687 m 21 Y s 418 1719 m 21 Y s 3 lw 418 1713 m21 6 lw 423 1673 m 19 Y s 423 1704 m 19 Y s 3 lw 423 1698
 m21 6 lw 427 1674 m 18 Y s 427 1703 m 18 Y s 3 lw 427 1698 m21 6 lw 432 1641 m 17 Y s 432 1669 m 17 Y s 3 lw 432 1663 m21 6 lw 437 1597 m 15 Y s 437 1624 m 15 Y s 3 lw 437 1618 m21 6 lw 441 1584 m 15 Y s 441 1610 m 15 Y s 3 lw 441 1604 m21 6 lw 446
 1595 m 14 Y s 446 1621 m 14 Y s 3 lw 446 1615 m21 6 lw 451 1548 m 13 Y s 451 1573 m 13 Y s 3 lw 451 1567 m21 6 lw 455 1546 m 13 Y s 455 1570 m 13 Y s 3 lw 455 1565 m21 6 lw 460 1513 m 12 Y s 460 1536 m 12 Y s 3 lw 460 1530 m21 6 lw 465 1491 m 11 Y s
 465 1514 m 11 Y s 3 lw 465 1508 m21 6 lw 470 1474 m 10 Y s 470 1496 m 11 Y s 3 lw 470 1490 m21 6 lw 474 1496 m 11 Y s 474 1518 m 11 Y s 3 lw 474 1513 m21 6 lw 479 1444 m 10 Y s 479 1465 m 10 Y s 3 lw 479 1460 m21 6 lw 484 1427 m 9 Y s 484 1448 m 9 Y
 s 3 lw 484 1442 m21 6 lw 488 1451 m 10 Y s 488 1472 m 9 Y s 3 lw 488 1466 m21 6 lw 493 1435 m 9 Y s 493 1455 m 9 Y s 3 lw 493 1449 m21 6 lw 498 1396 m 8 Y s 498 1415 m 9 Y s 3 lw 498 1410 m21 6 lw 502 1369 m 8 Y s 502 1389 m 8 Y s 3 lw 502 1383 m21
 6 lw 507 1394 m 8 Y s 507 1413 m 8 Y s 3 lw 507 1408 m21 6 lw 512 1365 m 7 Y s 512 1384 m 7 Y s 3 lw 512 1378 m21 6 lw 517 1353 m 8 Y s 517 1372 m 7 Y s 3 lw 517 1366 m21 6 lw 521 1363 m 7 Y s 521 1381 m 7 Y s 3 lw 521 1376 m21 6 lw 526 1326 m 7 Y s
 526 1344 m 7 Y s 3 lw 526 1338 m21 6 lw 531 1338 m 6 Y s 531 1356 m 6 Y s 3 lw 531 1350 m21 6 lw 535 1304 m 6 Y s 535 1322 m 6 Y s 3 lw 535 1316 m21 6 lw 540 1340 m 7 Y s 540 1358 m 7 Y s 3 lw 540 1353 m21 6 lw 545 1322 m 6 Y s 545 1339 m 6 Y s 3 lw
 545 1334 m21 6 lw 550 1311 m 6 Y s 550 1328 m 6 Y s 3 lw 550 1323 m21 6 lw 554 1286 m 6 Y s 554 1303 m 6 Y s 3 lw 554 1297 m21 6 lw 559 1262 m 5 Y s 559 1279 m 5 Y s 3 lw 559 1273 m21 6 lw 564 1281 m 6 Y s 564 1298 m 6 Y s 3 lw 564 1292 m21 6 lw 568
 1248 m 5 Y s 568 1265 m 5 Y s 3 lw 568 1259 m21 6 lw 573 1238 m 5 Y s 573 1255 m 5 Y s 3 lw 573 1249 m21 6 lw 578 1256 m 5 Y s 578 1273 m 5 Y s 3 lw 578 1267 m21 6 lw 582 1238 m 5 Y s 582 1255 m 4 Y s 3 lw 582 1249 m21 6 lw 587 1256 m 5 Y s 587 1272
 m 5 Y s 3 lw 587 1267 m21 6 lw 592 1236 m 4 Y s 592 1252 m 4 Y s 3 lw 592 1246 m21 6 lw 597 1229 m 4 Y s 597 1244 m 5 Y s 3 lw 597 1239 m21 6 lw 601 1220 m 5 Y s 601 1236 m 4 Y s 3 lw 601 1230 m21 6 lw 606 1212 m 5 Y s 606 1228 m 4 Y s 3 lw 606 1222
 m21 6 lw 611 1195 m 4 Y s 611 1210 m 4 Y s 3 lw 611 1205 m21 6 lw 615 1207 m 5 Y s 615 1223 m 4 Y s 3 lw 615 1217 m21 6 lw 620 1204 m 4 Y s 620 1219 m 4 Y s 3 lw 620 1213 m21 6 lw 625 1191 m 4 Y s 625 1206 m 4 Y s 3 lw 625 1201 m21 6 lw 630 1190 m 4
 Y s 630 1206 m 3 Y s 3 lw 630 1200 m21 6 lw 634 1176 m 4 Y s 634 1191 m 4 Y s 3 lw 634 1185 m21 6 lw 639 1172 m 4 Y s 639 1187 m 4 Y s 3 lw 639 1182 m21 6 lw 644 1182 m 4 Y s 644 1197 m 3 Y s 3 lw 644 1191 m21 6 lw 648 1175 m 4 Y s 648 1190 m 3 Y s
 3 lw 648 1184 m21 6 lw 653 1172 m 3 Y s 653 1186 m 4 Y s 3 lw 653 1181 m21 6 lw 658 1162 m 3 Y s 658 1177 m 3 Y s 3 lw 658 1171 m21 6 lw 662 1163 m 3 Y s 662 1177 m 3 Y s 3 lw 662 1171 m21 6 lw 667 1169 m 3 Y s 667 1184 m 3 Y s 3 lw 667 1178 m21 6
 lw 672 1153 m 3 Y s 672 1167 m 3 Y s 3 lw 672 1162 m21 6 lw 677 1145 m 3 Y s 677 1159 m 3 Y s 3 lw 677 1154 m21 6 lw 681 1136 m 3 Y s 681 1150 m 3 Y s 3 lw 681 1144 m21 6 lw 686 1140 m 3 Y s 686 1154 m 3 Y s 3 lw 686 1149 m21 6 lw 691 1138 m 3 Y s
 691 1152 m 3 Y s 3 lw 691 1146 m21 6 lw 695 1158 m 3 Y s 695 1172 m 3 Y s 3 lw 695 1167 m21 6 lw 700 1143 m 3 Y s 700 1157 m 3 Y s 3 lw 700 1151 m21 6 lw 705 1148 m 3 Y s 705 1162 m 3 Y s 3 lw 705 1156 m21 6 lw 710 1128 m 2 Y s 710 1142 m 2 Y s 3 lw
 710 1136 m21 6 lw 714 1122 m 3 Y s 714 1136 m 2 Y s 3 lw 714 1130 m21 6 lw 719 1115 m 3 Y s 719 1129 m 3 Y s 3 lw 719 1123 m21 6 lw 724 1143 m 2 Y s 724 1157 m 2 Y s 3 lw 724 1151 m21 6 lw 728 1117 m 2 Y s 728 1131 m 2 Y s 3 lw 728 1125 m21 6 lw 733
 1121 m 2 Y s 733 1135 m 2 Y s 3 lw 733 1129 m21 6 lw 738 1109 m 2 Y s 738 1123 m 2 Y s 3 lw 738 1117 m21 6 lw 742 1110 m 2 Y s 742 1124 m 2 Y s 3 lw 742 1118 m21 6 lw 747 1102 m 2 Y s 747 1116 m 2 Y s 3 lw 747 1110 m21 6 lw 752 1102 m 2 Y s 752 1116
 m 2 Y s 3 lw 752 1110 m21 6 lw 757 1100 m 2 Y s 757 1113 m 2 Y s 3 lw 757 1108 m21 6 lw 761 1101 m 2 Y s 761 1115 m 2 Y s 3 lw 761 1109 m21 6 lw 766 1082 m 2 Y s 766 1096 m 2 Y s 3 lw 766 1090 m21 6 lw 771 1093 m 3 Y s 771 1107 m 2 Y s 3 lw 771 1101
 m21 6 lw 775 1093 m 2 Y s 775 1106 m 3 Y s 3 lw 775 1101 m21 6 lw 780 1098 m 3 Y s 780 1112 m 2 Y s 3 lw 780 1106 m21 6 lw 785 1087 m 2 Y s 785 1101 m 2 Y s 3 lw 785 1095 m21 6 lw 790 1089 m 2 Y s 790 1102 m 2 Y s 3 lw 790 1097 m21 6 lw 794 1090 m 2
 Y s 794 1104 m 2 Y s 3 lw 794 1098 m21 6 lw 799 1092 m 2 Y s 799 1105 m 2 Y s 3 lw 799 1099 m21 6 lw 804 1082 m 2 Y s 804 1095 m 2 Y s 3 lw 804 1089 m21 6 lw 808 1084 m 2 Y s 808 1097 m 2 Y s 3 lw 808 1091 m21 6 lw 813 1072 m 2 Y s 813 1086 m 1 Y s
 3 lw 813 1080 m21 6 lw 818 1095 m 2 Y s 818 1108 m 2 Y s 3 lw 818 1103 m21 6 lw 822 1070 m 2 Y s 822 1083 m 2 Y s 3 lw 822 1078 m21 6 lw 827 1073 m 2 Y s 827 1086 m 2 Y s 3 lw 827 1080 m21 6 lw 832 1070 m 2 Y s 832 1083 m 2 Y s 3 lw 832 1078 m21 6
 lw 837 1071 m 2 Y s 837 1085 m 1 Y s 3 lw 837 1079 m21 6 lw 841 1087 m 2 Y s 841 1101 m 2 Y s 3 lw 841 1095 m21 6 lw 846 1086 m 2 Y s 846 1099 m 2 Y s 3 lw 846 1093 m21 6 lw 851 1071 m 1 Y s 851 1084 m 2 Y s 3 lw 851 1078 m21 6 lw 855 1062 m 2 Y s
 855 1075 m 2 Y s 3 lw 855 1069 m21 6 lw 860 1057 m 2 Y s 860 1070 m 2 Y s 3 lw 860 1065 m21 6 lw 865 1064 m 2 Y s 865 1077 m 2 Y s 3 lw 865 1071 m21 6 lw 870 1067 m 2 Y s 870 1081 m 2 Y s 3 lw 870 1075 m21 6 lw 874 1066 m 2 Y s 874 1079 m 2 Y s 3 lw
 874 1073 m21 6 lw 879 1057 m 2 Y s 879 1070 m 2 Y s 3 lw 879 1064 m21 6 lw 884 1072 m 2 Y s 884 1085 m 2 Y s 3 lw 884 1079 m21 6 lw 888 1056 m 1 Y s 888 1069 m 2 Y s 3 lw 888 1063 m21 6 lw 893 1043 m 1 Y s 893 1056 m 1 Y s 3 lw 893 1050 m21 6 lw 898
 1067 m 2 Y s 898 1080 m 2 Y s 3 lw 898 1074 m21 6 lw 902 1048 m 2 Y s 902 1061 m 2 Y s 3 lw 902 1056 m21 6 lw 907 1050 m 2 Y s 907 1064 m 1 Y s 3 lw 907 1058 m21 6 lw 912 1056 m 2 Y s 912 1069 m 2 Y s 3 lw 912 1064 m21 6 lw 917 1061 m 2 Y s 917 1075
 m 2 Y s 3 lw 917 1069 m21 6 lw 921 1041 m 2 Y s 921 1054 m 2 Y s 3 lw 921 1049 m21 6 lw 926 1064 m 2 Y s 926 1077 m 2 Y s 3 lw 926 1072 m21 6 lw 931 1056 m 2 Y s 931 1069 m 2 Y s 3 lw 931 1063 m21 6 lw 935 1049 m 2 Y s 935 1062 m 2 Y s 3 lw 935 1056
 m21 6 lw 940 1044 m 2 Y s 940 1057 m 2 Y s 3 lw 940 1051 m21 6 lw 945 1061 m 2 Y s 945 1074 m 2 Y s 3 lw 945 1068 m21 6 lw 950 1041 m 2 Y s 950 1054 m 2 Y s 3 lw 950 1048 m21 6 lw 954 1042 m 2 Y s 954 1055 m 2 Y s 3 lw 954 1050 m21 6 lw 959 1052 m 2
 Y s 959 1065 m 2 Y s 3 lw 959 1060 m21 6 lw 964 1039 m 2 Y s 964 1052 m 2 Y s 3 lw 964 1046 m21 6 lw 968 1038 m 2 Y s 968 1052 m 2 Y s 3 lw 968 1046 m21 6 lw 973 1037 m 2 Y s 973 1050 m 2 Y s 3 lw 973 1045 m21 6 lw 978 1055 m 2 Y s 978 1069 m 2 Y s
 3 lw 978 1063 m21 6 lw 982 1033 m 2 Y s 982 1046 m 2 Y s 3 lw 982 1041 m21 6 lw 987 1032 m 2 Y s 987 1045 m 2 Y s 3 lw 987 1040 m21 6 lw 992 1045 m 2 Y s 992 1059 m 2 Y s 3 lw 992 1053 m21 6 lw 997 1044 m 3 Y s 997 1058 m 2 Y s 3 lw 997 1052 m21 6
 lw 1001 1041 m 3 Y s 1001 1055 m 2 Y s 3 lw 1001 1049 m21 6 lw 1006 1034 m 2 Y s 1006 1047 m 2 Y s 3 lw 1006 1041 m21 6 lw 1011 1027 m 2 Y s 1011 1041 m 2 Y s 3 lw 1011 1035 m21 6 lw 1015 1034 m 2 Y s 1015 1048 m 2 Y s 3 lw 1015 1042 m21 6 lw 1020
 1043 m 2 Y s 1020 1057 m 2 Y s 3 lw 1020 1051 m21 6 lw 1025 1031 m 3 Y s 1025 1045 m 2 Y s 3 lw 1025 1039 m21 6 lw 1030 1033 m 2 Y s 1030 1047 m 2 Y s 3 lw 1030 1041 m21 6 lw 1034 1043 m 2 Y s 1034 1057 m 2 Y s 3 lw 1034 1051 m21 6 lw 1039 1053 m 2
 Y s 1039 1066 m 3 Y s 3 lw 1039 1061 m21 6 lw 1044 1038 m 3 Y s 1044 1052 m 2 Y s 3 lw 1044 1046 m21 6 lw 1048 1033 m 2 Y s 1048 1046 m 3 Y s 3 lw 1048 1041 m21 6 lw 1053 1035 m 3 Y s 1053 1049 m 3 Y s 3 lw 1053 1043 m21 6 lw 1058 1047 m 3 Y s 1058
 1061 m 2 Y s 3 lw 1058 1055 m21 6 lw 1062 1048 m 3 Y s 1062 1062 m 3 Y s 3 lw 1062 1056 m21 6 lw 1067 1038 m 3 Y s 1067 1052 m 3 Y s 3 lw 1067 1047 m21 6 lw 1072 1031 m 3 Y s 1072 1045 m 2 Y s 3 lw 1072 1039 m21 6 lw 1077 1016 m 3 Y s 1077 1030 m 3
 Y s 3 lw 1077 1025 m21 6 lw 1081 1029 m 3 Y s 1081 1043 m 3 Y s 3 lw 1081 1037 m21 6 lw 1086 1040 m 3 Y s 1086 1054 m 3 Y s 3 lw 1086 1049 m21 6 lw 1091 1032 m 2 Y s 1091 1045 m 3 Y s 3 lw 1091 1040 m21 6 lw 1095 1044 m 2 Y s 1095 1058 m 2 Y s 3 lw
 1095 1052 m21 6 lw 1100 1047 m 3 Y s 1100 1061 m 3 Y s 3 lw 1100 1056 m21 6 lw 1105 1041 m 3 Y s 1105 1056 m 2 Y s 3 lw 1105 1050 m21 6 lw 1110 1024 m 2 Y s 1110 1038 m 2 Y s 3 lw 1110 1032 m21 6 lw 1114 1038 m 2 Y s 1114 1052 m 3 Y s 3 lw 1114 1046
 m21 6 lw 1119 1036 m 3 Y s 1119 1050 m 3 Y s 3 lw 1119 1044 m21 6 lw 1124 1047 m 3 Y s 1124 1062 m 3 Y s 3 lw 1124 1056 m21 6 lw 1128 1035 m 3 Y s 1128 1049 m 3 Y s 3 lw 1128 1043 m21 6 lw 1133 1038 m 3 Y s 1133 1053 m 3 Y s 3 lw 1133 1047 m21 6 lw
 1138 1050 m 3 Y s 1138 1064 m 3 Y s 3 lw 1138 1059 m21 6 lw 1142 1021 m 3 Y s 1142 1036 m 2 Y s 3 lw 1142 1030 m21 6 lw 1147 1043 m 3 Y s 1147 1057 m 3 Y s 3 lw 1147 1052 m21 6 lw 1152 1055 m 3 Y s 1152 1070 m 3 Y s 3 lw 1152 1064 m21 6 lw 1157 1035
 m 3 Y s 1157 1050 m 3 Y s 3 lw 1157 1044 m21 6 lw 1161 1036 m 4 Y s 1161 1051 m 3 Y s 3 lw 1161 1045 m21 6 lw 1166 1037 m 4 Y s 1166 1052 m 3 Y s 3 lw 1166 1046 m21 6 lw 1171 1048 m 3 Y s 1171 1062 m 3 Y s 3 lw 1171 1056 m21 6 lw 1175 1038 m 3 Y s
 1175 1053 m 3 Y s 3 lw 1175 1047 m21 6 lw 1180 1035 m 3 Y s 1180 1049 m 4 Y s 3 lw 1180 1044 m21 6 lw 1185 1057 m 4 Y s 1185 1072 m 4 Y s 3 lw 1185 1066 m21 6 lw 1190 1045 m 3 Y s 1190 1060 m 3 Y s 3 lw 1190 1054 m21 6 lw 1194 1049 m 3 Y s 1194 1064
 m 3 Y s 3 lw 1194 1058 m21 6 lw 1199 1046 m 3 Y s 1199 1061 m 3 Y s 3 lw 1199 1055 m21 6 lw 1204 1041 m 4 Y s 1204 1056 m 4 Y s 3 lw 1204 1050 m21 6 lw 1208 1048 m 4 Y s 1208 1063 m 4 Y s 3 lw 1208 1057 m21 6 lw 1213 1026 m 3 Y s 1213 1041 m 3 Y s 3
 lw 1213 1035 m21 6 lw 1218 1047 m 4 Y s 1218 1062 m 4 Y s 3 lw 1218 1057 m21 6 lw 1222 1046 m 4 Y s 1222 1061 m 4 Y s 3 lw 1222 1056 m21 6 lw 1227 1060 m 4 Y s 1227 1075 m 4 Y s 3 lw 1227 1069 m21 6 lw 1232 1048 m 4 Y s 1232 1064 m 3 Y s 3 lw 1232
 1058 m21 6 lw 1237 1054 m 4 Y s 1237 1070 m 3 Y s 3 lw 1237 1064 m21 6 lw 1241 1059 m 4 Y s 1241 1074 m 4 Y s 3 lw 1241 1068 m21 6 lw 1246 1022 m 4 Y s 1246 1037 m 4 Y s 3 lw 1246 1031 m21 6 lw 1251 1043 m 4 Y s 1251 1059 m 4 Y s 3 lw 1251 1053 m21
 6 lw 1255 1061 m 4 Y s 1255 1076 m 4 Y s 3 lw 1255 1071 m21 6 lw 1260 1056 m 4 Y s 1260 1072 m 4 Y s 3 lw 1260 1066 m21 6 lw 1265 1049 m 4 Y s 1265 1065 m 4 Y s 3 lw 1265 1059 m21 6 lw 1269 1033 m 4 Y s 1269 1048 m 4 Y s 3 lw 1269 1043 m21 6 lw 1274
 1045 m 4 Y s 1274 1061 m 4 Y s 3 lw 1274 1055 m21 6 lw 1279 1063 m 4 Y s 1279 1078 m 5 Y s 3 lw 1279 1073 m21 6 lw 1284 1041 m 4 Y s 1284 1057 m 4 Y s 3 lw 1284 1051 m21 6 lw 1288 1062 m 5 Y s 1288 1078 m 5 Y s 3 lw 1288 1073 m21 6 lw 1293 1062 m 5
 Y s 1293 1078 m 5 Y s 3 lw 1293 1073 m21 6 lw 1298 1043 m 4 Y s 1298 1059 m 4 Y s 3 lw 1298 1053 m21 6 lw 1302 1069 m 5 Y s 1302 1085 m 5 Y s 3 lw 1302 1079 m21 6 lw 1307 1044 m 4 Y s 1307 1060 m 4 Y s 3 lw 1307 1054 m21 6 lw 1312 1074 m 5 Y s 1312
 1090 m 5 Y s 3 lw 1312 1085 m21 6 lw 1317 1071 m 5 Y s 1317 1087 m 5 Y s 3 lw 1317 1081 m21 6 lw 1321 1035 m 5 Y s 1321 1051 m 5 Y s 3 lw 1321 1046 m21 6 lw 1326 1050 m 5 Y s 1326 1066 m 5 Y s 3 lw 1326 1060 m21 6 lw 1331 1039 m 5 Y s 1331 1055 m 5
 Y s 3 lw 1331 1050 m21 6 lw 1335 1044 m 5 Y s 1335 1060 m 5 Y s 3 lw 1335 1055 m21 6 lw 1340 1043 m 5 Y s 1340 1060 m 5 Y s 3 lw 1340 1054 m21 6 lw 1345 1044 m 5 Y s 1345 1060 m 5 Y s 3 lw 1345 1055 m21 6 lw 1349 1061 m 5 Y s 1349 1078 m 5 Y s 3 lw
 1349 1072 m21 6 lw 1354 1068 m 6 Y s 1354 1085 m 5 Y s 3 lw 1354 1079 m21 6 lw 1359 1067 m 5 Y s 1359 1084 m 5 Y s 3 lw 1359 1078 m21 6 lw 1364 1069 m 5 Y s 1364 1085 m 6 Y s 3 lw 1364 1080 m21 6 lw 1368 1052 m 5 Y s 1368 1068 m 6 Y s 3 lw 1368 1063
 m21 6 lw 1373 1045 m 5 Y s 1373 1061 m 6 Y s 3 lw 1373 1056 m21 6 lw 1378 1069 m 5 Y s 1378 1086 m 5 Y s 3 lw 1378 1080 m21 6 lw 1382 1078 m 6 Y s 1382 1095 m 6 Y s 3 lw 1382 1089 m21 6 lw 1387 1056 m 5 Y s 1387 1073 m 5 Y s 3 lw 1387 1067 m21 6 lw
 1392 1056 m 5 Y s 1392 1073 m 5 Y s 3 lw 1392 1067 m21 6 lw 1397 1058 m 6 Y s 1397 1075 m 6 Y s 3 lw 1397 1070 m21 6 lw 1401 1071 m 6 Y s 1401 1088 m 6 Y s 3 lw 1401 1082 m21 6 lw 1406 1070 m 6 Y s 1406 1087 m 6 Y s 3 lw 1406 1082 m21 6 lw 1411 1061
 m 6 Y s 1411 1078 m 6 Y s 3 lw 1411 1072 m21 6 lw 1415 1052 m 6 Y s 1415 1069 m 6 Y s 3 lw 1415 1064 m21 6 lw 1420 1069 m 6 Y s 1420 1087 m 6 Y s 3 lw 1420 1081 m21 6 lw 1425 1075 m 6 Y s 1425 1093 m 6 Y s 3 lw 1425 1087 m21 6 lw 1429 1090 m 7 Y s
 1429 1108 m 6 Y s 3 lw 1429 1102 m21 6 lw 1434 1057 m 6 Y s 1434 1074 m 6 Y s 3 lw 1434 1068 m21 6 lw 1439 1068 m 6 Y s 1439 1085 m 7 Y s 3 lw 1439 1080 m21 6 lw 1444 1070 m 7 Y s 1444 1088 m 6 Y s 3 lw 1444 1082 m21 6 lw 1448 1066 m 6 Y s 1448 1083
 m 7 Y s 3 lw 1448 1078 m21 6 lw 1453 1060 m 6 Y s 1453 1078 m 6 Y s 3 lw 1453 1072 m21 6 lw 1458 1087 m 6 Y s 1458 1105 m 6 Y s 3 lw 1458 1099 m21 6 lw 1462 1073 m 6 Y s 1462 1091 m 6 Y s 3 lw 1462 1085 m21 6 lw 1467 1090 m 6 Y s 1467 1108 m 7 Y s 3
 lw 1467 1102 m21 6 lw 1472 1080 m 6 Y s 1472 1098 m 7 Y s 3 lw 1472 1092 m21 6 lw 1477 1072 m 6 Y s 1477 1090 m 7 Y s 3 lw 1477 1084 m21 6 lw 1481 1084 m 7 Y s 1481 1103 m 7 Y s 3 lw 1481 1097 m21 6 lw 1486 1075 m 7 Y s 1486 1094 m 7 Y s 3 lw 1486
 1088 m21 6 lw 1491 1088 m 7 Y s 1491 1106 m 7 Y s 3 lw 1491 1100 m21 6 lw 1495 1073 m 7 Y s 1495 1091 m 7 Y s 3 lw 1495 1085 m21 6 lw 1500 1065 m 7 Y s 1500 1083 m 7 Y s 3 lw 1500 1078 m21 6 lw 1505 1093 m 8 Y s 1505 1112 m 8 Y s 3 lw 1505 1107 m21
 6 lw 1509 1077 m 7 Y s 1509 1095 m 8 Y s 3 lw 1509 1090 m21 6 lw 1514 1081 m 7 Y s 1514 1099 m 8 Y s 3 lw 1514 1094 m21 6 lw 1519 1090 m 7 Y s 1519 1109 m 7 Y s 3 lw 1519 1103 m21 6 lw 1524 1083 m 7 Y s 1524 1102 m 7 Y s 3 lw 1524 1096 m21 6 lw 1528
 1079 m 8 Y s 1528 1098 m 8 Y s 3 lw 1528 1093 m21 6 lw 1533 1078 m 7 Y s 1533 1097 m 7 Y s 3 lw 1533 1091 m21 6 lw 1538 1073 m 8 Y s 1538 1092 m 8 Y s 3 lw 1538 1086 m21 6 lw 1542 1092 m 8 Y s 1542 1111 m 8 Y s 3 lw 1542 1105 m21 6 lw 1547 1079 m 8
 Y s 1547 1099 m 7 Y s 3 lw 1547 1093 m21 6 lw 1552 1073 m 8 Y s 1552 1093 m 8 Y s 3 lw 1552 1087 m21 6 lw 1557 1110 m 8 Y s 1557 1130 m 8 Y s 3 lw 1557 1124 m21 6 lw 1561 1105 m 9 Y s 1561 1125 m 8 Y s 3 lw 1561 1119 m21 6 lw 1566 1078 m 8 Y s 1566
 1097 m 8 Y s 3 lw 1566 1091 m21 6 lw 1571 1088 m 8 Y s 1571 1108 m 8 Y s 3 lw 1571 1102 m21 6 lw 1575 1094 m 8 Y s 1575 1114 m 8 Y s 3 lw 1575 1108 m21 6 lw 1580 1109 m 9 Y s 1580 1129 m 9 Y s 3 lw 1580 1124 m21 6 lw 1585 1102 m 9 Y s 1585 1122 m 9
 Y s 3 lw 1585 1117 m21 6 lw 1589 1085 m 8 Y s 1589 1105 m 8 Y s 3 lw 1589 1099 m21 6 lw 1594 1127 m 9 Y s 1594 1147 m 9 Y s 3 lw 1594 1141 m21 6 lw 1599 1108 m 9 Y s 1599 1128 m 9 Y s 3 lw 1599 1122 m21 6 lw 1604 1100 m 9 Y s 1604 1120 m 9 Y s 3 lw
 1604 1115 m21 6 lw 1608 1102 m 9 Y s 1608 1123 m 9 Y s 3 lw 1608 1117 m21 6 lw 1613 1083 m 9 Y s 1613 1104 m 9 Y s 3 lw 1613 1098 m21 6 lw 1618 1108 m 9 Y s 1618 1129 m 9 Y s 3 lw 1618 1123 m21 6 lw 1622 1103 m 10 Y s 1622 1124 m 9 Y s 3 lw 1622
 1118 m21 6 lw 1627 1090 m 9 Y s 1627 1111 m 9 Y s 3 lw 1627 1105 m21 6 lw 1632 1121 m 9 Y s 1632 1142 m 9 Y s 3 lw 1632 1136 m21 6 lw 1637 1108 m 9 Y s 1637 1129 m 9 Y s 3 lw 1637 1123 m21 6 lw 1641 1113 m 10 Y s 1641 1135 m 9 Y s 3 lw 1641 1129 m21
 6 lw 1646 1097 m 10 Y s 1646 1118 m 10 Y s 3 lw 1646 1112 m21 6 lw 1651 1111 m 10 Y s 1651 1133 m 9 Y s 3 lw 1651 1127 m21 6 lw 1655 1100 m 10 Y s 1655 1122 m 10 Y s 3 lw 1655 1116 m21 6 lw 1660 1102 m 10 Y s 1660 1124 m 10 Y s 3 lw 1660 1118 m21 6
 lw 1665 1115 m 10 Y s 1665 1136 m 10 Y s 3 lw 1665 1131 m21 6 lw 1669 1092 m 10 Y s 1669 1114 m 10 Y s 3 lw 1669 1108 m21 6 lw 1674 1092 m 11 Y s 1674 1114 m 10 Y s 3 lw 1674 1108 m21 6 lw 1679 1128 m 10 Y s 1679 1150 m 10 Y s 3 lw 1679 1144 m21 6
 lw 1684 1138 m 11 Y s 1684 1160 m 11 Y s 3 lw 1684 1154 m21 6 lw 1688 1104 m 11 Y s 1688 1126 m 11 Y s 3 lw 1688 1121 m21 6 lw 1693 1110 m 11 Y s 1693 1132 m 11 Y s 3 lw 1693 1126 m21 6 lw 1698 1090 m 10 Y s 1698 1112 m 10 Y s 3 lw 1698 1106 m21 6
 lw 1702 1118 m 11 Y s 1702 1141 m 11 Y s 3 lw 1702 1135 m21 6 lw 1707 1109 m 11 Y s 1707 1131 m 11 Y s 3 lw 1707 1126 m21 6 lw 1712 1128 m 12 Y s 1712 1151 m 11 Y s 3 lw 1712 1145 m21 6 lw 1717 1105 m 11 Y s 1717 1127 m 12 Y s 3 lw 1717 1122 m21 6
 lw 1721 1116 m 11 Y s 1721 1138 m 12 Y s 3 lw 1721 1133 m21 6 lw 1726 1106 m 12 Y s 1726 1129 m 11 Y s 3 lw 1726 1123 m21 6 lw 1731 1118 m 12 Y s 1731 1141 m 12 Y s 3 lw 1731 1136 m21 6 lw 1735 1117 m 11 Y s 1735 1139 m 12 Y s 3 lw 1735 1134 m21 6
 lw 1740 1136 m 12 Y s 1740 1160 m 11 Y s 3 lw 1740 1154 m21 6 lw 1745 1121 m 12 Y s 1745 1144 m 12 Y s 3 lw 1745 1139 m21 6 lw 1749 1131 m 12 Y s 1749 1154 m 12 Y s 3 lw 1749 1149 m21 6 lw 1754 1120 m 12 Y s 1754 1143 m 12 Y s 3 lw 1754 1137 m21 6
 lw 1759 1148 m 13 Y s 1759 1172 m 12 Y s 3 lw 1759 1166 m21 6 lw 1764 1131 m 13 Y s 1764 1155 m 12 Y s 3 lw 1764 1149 m21 6 lw 1768 1140 m 13 Y s 1768 1164 m 13 Y s 3 lw 1768 1159 m21 6 lw 1773 1118 m 12 Y s 1773 1142 m 12 Y s 3 lw 1773 1136 m21 6
 lw 1778 1136 m 13 Y s 1778 1160 m 13 Y s 3 lw 1778 1155 m21 6 lw 1782 1148 m 13 Y s 1782 1173 m 12 Y s 3 lw 1782 1167 m21 6 lw 1787 1123 m 13 Y s 1787 1147 m 13 Y s 3 lw 1787 1141 m21 6 lw 1792 1130 m 13 Y s 1792 1154 m 13 Y s 3 lw 1792 1149 m21 6
 lw 1797 1160 m 13 Y s 1797 1184 m 14 Y s 3 lw 1797 1179 m21 6 lw 1801 1144 m 13 Y s 1801 1169 m 13 Y s 3 lw 1801 1163 m21 6 lw 1806 1166 m 14 Y s 1806 1191 m 14 Y s 3 lw 1806 1186 m21 6 lw 1811 1094 m 13 Y s 1811 1118 m 13 Y s 3 lw 1811 1112 m21 6
 lw 1815 1119 m 13 Y s 1815 1143 m 14 Y s 3 lw 1815 1138 m21 6 lw 1820 1118 m 13 Y s 1820 1142 m 14 Y s 3 lw 1820 1137 m21 6 lw 1825 1121 m 13 Y s 1825 1146 m 13 Y s 3 lw 1825 1140 m21 6 lw 1829 1120 m 13 Y s 1829 1144 m 14 Y s 3 lw 1829 1139 m21 6
 lw 1834 1104 m 13 Y s 1834 1129 m 13 Y s 3 lw 1834 1123 m21 6 lw 1839 1133 m 14 Y s 1839 1158 m 14 Y s 3 lw 1839 1153 m21 6 lw 1844 1120 m 14 Y s 1844 1146 m 14 Y s 3 lw 1844 1140 m21 6 lw 1848 1130 m 15 Y s 1848 1156 m 14 Y s 3 lw 1848 1150 m21 6
 lw 1853 1149 m 14 Y s 1853 1175 m 14 Y s 3 lw 1853 1169 m21 6 lw 1858 1081 m 14 Y s 1858 1106 m 14 Y s 3 lw 1858 1100 m21 6 lw 1862 1131 m 14 Y s 1862 1156 m 15 Y s 3 lw 1862 1151 m21 6 lw 1867 1109 m 15 Y s 1867 1135 m 14 Y s 3 lw 1867 1129 m21 6
 lw 1872 1151 m 15 Y s 1872 1177 m 15 Y s 3 lw 1872 1171 m21 6 lw 1877 1111 m 15 Y s 1877 1137 m 14 Y s 3 lw 1877 1131 m21 6 lw 1881 1137 m 15 Y s 1881 1164 m 14 Y s 3 lw 1881 1158 m21 6 lw 1886 1121 m 15 Y s 1886 1147 m 15 Y s 3 lw 1886 1141 m21 6
 lw 1891 1124 m 15 Y s 1891 1151 m 15 Y s 3 lw 1891 1145 m21 6 lw 1895 1132 m 16 Y s 1895 1159 m 15 Y s 3 lw 1895 1153 m21 6 lw 1900 1152 m 15 Y s 1900 1178 m 16 Y s 3 lw 1900 1173 m21 6 lw 1905 1121 m 15 Y s 1905 1147 m 16 Y s 3 lw 1905 1142 m21 6
 lw 1909 1133 m 15 Y s 1909 1160 m 15 Y s 3 lw 1909 1154 m21 6 lw 1914 1110 m 15 Y s 1914 1136 m 16 Y s 3 lw 1914 1131 m21 6 lw 1919 1149 m 16 Y s 1919 1176 m 16 Y s 3 lw 1919 1170 m21 6 lw 1924 1164 m 16 Y s 1924 1192 m 16 Y s 3 lw 1924 1186 m21 6
 lw 1928 1142 m 16 Y s 1928 1169 m 16 Y s 3 lw 1928 1164 m21 6 lw 1933 1131 m 17 Y s 1933 1159 m 16 Y s 3 lw 1933 1153 m21 6 lw 1938 1118 m 17 Y s 1938 1146 m 16 Y s 3 lw 1938 1140 m21 6 lw 1942 1143 m 17 Y s 1942 1171 m 16 Y s 3 lw 1942 1165 m21 6
 lw 1947 1168 m 17 Y s 1947 1196 m 17 Y s 3 lw 1947 1191 m21 6 lw 1952 1153 m 17 Y s 1952 1181 m 17 Y s 3 lw 1952 1175 m21 6 lw 1957 1157 m 17 Y s 1957 1186 m 17 Y s 3 lw 1957 1180 m21 6 lw 1961 1176 m 18 Y s 1961 1205 m 17 Y s 3 lw 1961 1199 m21 6
 lw 1966 1131 m 17 Y s 1966 1160 m 17 Y s 3 lw 1966 1154 m21 6 lw 1971 1173 m 17 Y s 1971 1202 m 17 Y s 3 lw 1971 1196 m21 6 lw 1975 1137 m 18 Y s 1975 1166 m 17 Y s 3 lw 1975 1160 m21 6 lw 1980 1155 m 17 Y s 1980 1184 m 17 Y s 3 lw 1980 1178 m21 6
 lw 1985 1161 m 17 Y s 1985 1190 m 18 Y s 3 lw 1985 1184 m21 6 lw 1989 1132 m 17 Y s 1989 1161 m 17 Y s 3 lw 1989 1155 m21 6 lw 1994 1150 m 17 Y s 1994 1179 m 18 Y s 3 lw 1994 1173 m21 6 lw 1999 1118 m 18 Y s 1999 1147 m 18 Y s 3 lw 1999 1142 m21 6
 lw 2004 1184 m 18 Y s 2004 1214 m 18 Y s 3 lw 2004 1208 m21 6 lw 2008 1162 m 19 Y s 2008 1192 m 19 Y s 3 lw 2008 1186 m21 6 lw 2013 1181 m 19 Y s 2013 1212 m 19 Y s 3 lw 2013 1206 m21 6 lw 2018 1147 m 19 Y s 2018 1177 m 19 Y s 3 lw 2018 1171 m21 6
 lw 2022 1151 m 19 Y s 2022 1181 m 19 Y s 3 lw 2022 1176 m21 6 lw 2027 1146 m 19 Y s 2027 1176 m 19 Y s 3 lw 2027 1171 m21 6 lw 2032 1189 m 20 Y s 2032 1220 m 19 Y s 3 lw 2032 1214 m21 6 lw 2036 1184 m 19 Y s 2036 1215 m 19 Y s 3 lw 2036 1209 m21 6
 lw 2041 1172 m 20 Y s 2041 1203 m 20 Y s 3 lw 2041 1198 m21 6 lw 2046 1147 m 19 Y s 2046 1177 m 20 Y s 3 lw 2046 1172 m21 6 lw 2051 1155 m 20 Y s 2051 1186 m 20 Y s 3 lw 2051 1181 m21 6 lw 2055 1145 m 20 Y s 2055 1176 m 19 Y s 3 lw 2055 1170 m21 6
 lw 2060 1137 m 20 Y s 2060 1168 m 20 Y s 3 lw 2060 1163 m21 6 lw 2065 1150 m 20 Y s 2065 1181 m 20 Y s 3 lw 2065 1175 m21 6 lw 2069 1165 m 20 Y s 2069 1197 m 20 Y s 3 lw 2069 1191 m21 6 lw 2074 1152 m 20 Y s 2074 1183 m 20 Y s 3 lw 2074 1177 m21 6
 lw 2079 1168 m 21 Y s 2079 1200 m 20 Y s 3 lw 2079 1194 m21 6 lw 2084 1124 m 20 Y s 2084 1156 m 20 Y s 3 lw 2084 1150 m21 6 lw 2088 1153 m 21 Y s 2088 1185 m 20 Y s 3 lw 2088 1179 m21 6 lw 2093 1120 m 21 Y s 2093 1152 m 20 Y s 3 lw 2093 1146 m21 6
 lw 2098 1127 m 20 Y s 2098 1159 m 20 Y s 3 lw 2098 1153 m21 6 lw 2102 1158 m 21 Y s 2102 1190 m 21 Y s 3 lw 2102 1184 m21 6 lw 2107 1168 m 21 Y s 2107 1201 m 21 Y s 3 lw 2107 1195 m21 6 lw 2112 1129 m 21 Y s 2112 1161 m 21 Y s 3 lw 2112 1156 m21 6
 lw 2116 1131 m 21 Y s 2116 1164 m 21 Y s 3 lw 2116 1158 m21 6 lw 2121 1153 m 22 Y s 2121 1186 m 21 Y s 3 lw 2121 1180 m21 6 lw 2126 1201 m 22 Y s 2126 1235 m 22 Y s 3 lw 2126 1229 m21 6 lw 2131 1164 m 22 Y s 2131 1197 m 22 Y s 3 lw 2131 1192 m21 6
 lw 2135 1136 m 22 Y s 2135 1170 m 21 Y s 3 lw 2135 1164 m21 6 lw 2140 1108 m 22 Y s 2140 1141 m 21 Y s 3 lw 2140 1135 m21 6 lw 2145 1150 m 23 Y s 2145 1184 m 22 Y s 3 lw 2145 1178 m21 6 lw 2149 1209 m 23 Y s 2149 1244 m 23 Y s 3 lw 2149 1238 m21 6
 lw 2154 1107 m 22 Y s 2154 1140 m 22 Y s 3 lw 2154 1135 m21 6 lw 2159 1142 m 22 Y s 2159 1176 m 22 Y s 3 lw 2159 1170 m21 6 lw 2164 1109 m 22 Y s 2164 1143 m 22 Y s 3 lw 2164 1137 m21 6 lw 2168 1131 m 22 Y s 2168 1165 m 23 Y s 3 lw 2168 1159 m21 6
 lw 2173 1156 m 23 Y s 2173 1191 m 23 Y s 3 lw 2173 1185 m21 6 lw 2178 1151 m 23 Y s 2178 1185 m 24 Y s 3 lw 2178 1180 m21 6 lw 2182 1165 m 24 Y s 2182 1200 m 24 Y s 3 lw 2182 1194 m21 6 lw 2187 1148 m 24 Y s 2187 1183 m 23 Y s 3 lw 2187 1177 m21 6
 lw 2192 1088 m 23 Y s 2192 1122 m 23 Y s 3 lw 2192 1116 m21 6 lw 2196 1142 m 23 Y s 2196 1177 m 24 Y s 3 lw 2196 1171 m21 6 lw 2201 1196 m 24 Y s 2201 1232 m 24 Y s 3 lw 2201 1226 m21 6 lw 2206 1160 m 24 Y s 2206 1195 m 25 Y s 3 lw 2206 1190 m21 6
 lw 2211 1144 m 25 Y s 2211 1180 m 24 Y s 3 lw 2211 1174 m21 6 lw 2215 1180 m 25 Y s 2215 1216 m 25 Y s 3 lw 2215 1211 m21 6 lw 2220 1155 m 24 Y s 2220 1191 m 24 Y s 3 lw 2220 1185 m21 6 lw black 340 223 m 1882 X s
 gsave  2268 2234 0 0 C 1923.86 58.2559 t 0 r /Helvetica findfont 83.8316 sf 0 0 m (Q [GeV]) show NC gr  340 279 m -56 Y s 387 251 m -28 Y s 434 251 m -28 Y s 481 251 m -28 Y s 528 279 m -56 Y s 575 251 m -28 Y s 622 251 m -28 Y s 670 251 m -28 Y s
 717 279 m -56 Y s 764 251 m -28 Y s 811 251 m -28 Y s 858 251 m -28 Y s 905 279 m -56 Y s 952 251 m -28 Y s 999 251 m -28 Y s 1046 251 m -28 Y s 1093 279 m -56 Y s 1140 251 m -28 Y s 1187 251 m -28 Y s 1234 251 m -28 Y s 1281 279 m -56 Y s 1328 251
 m -28 Y s 1375 251 m -28 Y s 1422 251 m -28 Y s 1469 279 m -56 Y s 1517 251 m -28 Y s 1564 251 m -28 Y s 1611 251 m -28 Y s 1658 279 m -56 Y s 1705 251 m -28 Y s 1752 251 m -28 Y s 1799 251 m -28 Y s 1846 279 m -56 Y s 1893 251 m -28 Y s 1940 251 m
 -28 Y s 1987 251 m -28 Y s 2034 279 m -56 Y s 2081 251 m -28 Y s 2128 251 m -28 Y s 2175 251 m -28 Y s 2222 279 m -56 Y s
 gsave  2268 2234 0 0 C 322.539 159.138 t 0 r /Helvetica findfont 62.5185 sf 0 0 m (0) show NC gr 
 gsave  2268 2234 0 0 C 484.518 159.138 t 0 r /Helvetica findfont 62.5185 sf 0 0 m (0.2) show NC gr 
 gsave  2268 2234 0 0 C 673.495 159.138 t 0 r /Helvetica findfont 62.5185 sf 0 0 m (0.4) show NC gr 
 gsave  2268 2234 0 0 C 861.05 159.138 t 0 r /Helvetica findfont 62.5185 sf 0 0 m (0.6) show NC gr 
 gsave  2268 2234 0 0 C 1050.03 159.138 t 0 r /Helvetica findfont 62.5185 sf 0 0 m (0.8) show NC gr 
 gsave  2268 2234 0 0 C 1268.84 159.138 t 0 r /Helvetica findfont 62.5185 sf 0 0 m (1) show NC gr 
 gsave  2268 2234 0 0 C 1426.56 159.138 t 0 r /Helvetica findfont 62.5185 sf 0 0 m (1.2) show NC gr 
 gsave  2268 2234 0 0 C 1614.11 159.138 t 0 r /Helvetica findfont 62.5185 sf 0 0 m (1.4) show NC gr 
 gsave  2268 2234 0 0 C 1803.09 159.138 t 0 r /Helvetica findfont 62.5185 sf 0 0 m (1.6) show NC gr 
 gsave  2268 2234 0 0 C 1990.65 159.138 t 0 r /Helvetica findfont 62.5185 sf 0 0 m (1.8) show NC gr 
 gsave  2268 2234 0 0 C 2205.2 159.138 t 0 r /Helvetica findfont 62.5185 sf 0 0 m (2) show NC gr  340 223 m 1966 Y s
 gsave  2268 2234 0 0 C 152.034 1953.7 t 90 r /Helvetica findfont 83.8316 sf 0 0 m (DR\(Q\)) show NC gr  400 402 m -60 X s 370 491 m -30 X s 370 581 m -30 X s 370 670 m -30 X s 400 759 m -60 X s 370 849 m -30 X s 370 938 m -30 X s 370 1027 m -30 X s
 400 1117 m -60 X s 370 1206 m -30 X s 370 1295 m -30 X s 370 1385 m -30 X s 400 1474 m -60 X s 370 1564 m -30 X s 370 1653 m -30 X s 370 1742 m -30 X s 400 1832 m -60 X s 370 1921 m -30 X s 370 2010 m -30 X s 370 2100 m -30 X s 400 2189 m -60 X s
 400 402 m -60 X s 370 313 m -30 X s 370 223 m -30 X s
 gsave  2268 2234 0 0 C 242.97 379.374 t 0 r /Helvetica findfont 62.5185 sf 0 0 m (0.6) show NC gr 
 gsave  2268 2234 0 0 C 242.97 737.434 t 0 r /Helvetica findfont 62.5185 sf 0 0 m (0.8) show NC gr 
 gsave  2268 2234 0 0 C 305.488 1092.65 t 0 r /Helvetica findfont 62.5185 sf 0 0 m (1) show NC gr 
 gsave  2268 2234 0 0 C 242.97 1450.71 t 0 r /Helvetica findfont 62.5185 sf 0 0 m (1.2) show NC gr 
 gsave  2268 2234 0 0 C 242.97 1808.77 t 0 r /Helvetica findfont 62.5185 sf 0 0 m (1.4) show NC gr 
 gsave  2268 2234 0 0 C 242.97 2166.83 t 0 r /Helvetica findfont 62.5185 sf 0 0 m (1.6) show NC gr 
 gsave  2268 2234 0 0 C 906.518 670.653 t 0 r /Helvetica-Bold findfont 72.4646 sf 0 0 m (DR PIONS) show NC gr 
 gsave  2268 2234 0 0 C 906.518 558.404 t 0 r /Helvetica-Bold findfont 72.4646 sf 0 0 m (ref. sample: EVENT MIX) show NC gr 
 gsave  2268 2234 0 0 C 906.518 447.576 t 0 r /Helvetica-Bold findfont 72.4646 sf 0 0 m (VELO tracks multiplicity: < 10) show NC gr 
 gr  gr showpage
end
%%EOF
