%!PS-Adobe-2.0 EPSF-2.0
%%BoundingBox:  0 0 567 558
%%Title: ./DR_pion_0c65_h3115_1_h3401_1.eps: DR_pion_0c65_h3115_1_h3401_1
%%Creator: ROOT Version 6.06/02
%%CreationDate: Wed Feb  1 16:20:58 2017
%%DocumentNeededResources: ProcSet (FontSetInit)
%%EndComments
%%BeginProlog
80 dict begin
/s {stroke} def /l {lineto} def /m {moveto} def /t {translate} def
/r {rotate} def /rl {roll}  def /R {repeat} def
/d {rlineto} def /rm {rmoveto} def /gr {grestore} def /f {eofill} def
/c {setrgbcolor} def /black {0 setgray} def /sd {setdash} def
/cl {closepath} def /sf {scalefont setfont} def /lw {setlinewidth} def
/box {m dup 0 exch d exch 0 d 0 exch neg d cl} def
/NC{systemdict begin initclip end}def/C{NC box clip newpath}def
/bl {box s} def /bf {gsave box gsave f grestore 1 lw [] 0 sd s grestore} def /Y { 0 exch d} def /X { 0 d} def 
/K {{pop pop 0 moveto} exch kshow} bind def
/ita {/ang 15 def gsave [1 0 ang dup sin exch cos div 1 0 0] concat} def 
/mp {newpath /y exch def /x exch def} def
/side {[w .77 mul w .23 mul] .385 w mul sd w 0 l currentpoint t -144 r} def
/mr {mp x y w2 0 360 arc} def /m24 {mr s} def /m20 {mr f} def
/mb {mp x y w2 add m w2 neg 0 d 0 w neg d w 0 d 0 w d cl} def
/mt {mp x y w2 add m w2 neg w neg d w 0 d cl} def
/m21 {mb f} def /m25 {mb s} def /m22 {mt f} def /m26{mt s} def
/m23 {mp x y w2 sub m w2 w d w neg 0 d cl f} def
/m27 {mp x y w2 add m w3 neg w2 neg d w3 w2 neg d w3 w2 d cl s} def
/m28 {mp x w2 sub y w2 sub w3 add m w3 0 d  0 w3 neg d w3 0 d 0 w3 d w3 0 d  0 w3 d w3 neg 0 d 0 w3 d w3 neg 0 d 0 w3 neg d w3 neg 0 d cl s } def
/m29 {mp gsave x w2 sub y w2 add w3 sub m currentpoint t 4 {side} repeat cl fill gr} def
/m30 {mp gsave x w2 sub y w2 add w3 sub m currentpoint t 4 {side} repeat cl s gr} def
/m31 {mp x y w2 sub m 0 w d x w2 sub y m w 0 d x w2 sub y w2 add m w w neg d x w2 sub y w2 sub m w w d s} def
/m32 {mp x y w2 sub m w2 w d w neg 0 d cl s} def
/m33 {mp x y w2 add m w3 neg w2 neg d w3 w2 neg d w3 w2 d cl f} def
/m34 {mp x w2 sub y w2 sub w3 add m w3 0 d  0 w3 neg d w3 0 d 0 w3 d w3 0 d  0 w3 d w3 neg 0 d 0 w3 d w3 neg 0 d 0 w3 neg d w3 neg 0 d cl f } def
/m2 {mp x y w2 sub m 0 w d x w2 sub y m w 0 d s} def
/m5 {mp x w2 sub y w2 sub m w w d x w2 sub y w2 add m w w neg d s} def
%%IncludeResource: ProcSet (FontSetInit)
%%IncludeResource: font Times-Roman
%%IncludeResource: font Times-Italic
%%IncludeResource: font Times-Bold
%%IncludeResource: font Times-BoldItalic
%%IncludeResource: font Helvetica
%%IncludeResource: font Helvetica-Oblique
%%IncludeResource: font Helvetica-Bold
%%IncludeResource: font Helvetica-BoldOblique
%%IncludeResource: font Courier
%%IncludeResource: font Courier-Oblique
%%IncludeResource: font Courier-Bold
%%IncludeResource: font Courier-BoldOblique
%%IncludeResource: font Symbol
%%IncludeResource: font ZapfDingbats
/reEncode {exch findfont dup length dict begin {1 index /FID eq  {pop pop} {def} ifelse } forall /Encoding exch def currentdict end dup /FontName get exch definefont pop } def [/Times-Bold /Times-Italic /Times-BoldItalic /Helvetica /Helvetica-Oblique
 /Helvetica-Bold /Helvetica-BoldOblique /Courier /Courier-Oblique /Courier-Bold /Courier-BoldOblique /Times-Roman /AvantGarde-Book /AvantGarde-BookOblique /AvantGarde-Demi /AvantGarde-DemiOblique /Bookman-Demi /Bookman-DemiItalic /Bookman-Light
 /Bookman-LightItalic /Helvetica-Narrow /Helvetica-Narrow-Bold /Helvetica-Narrow-BoldOblique /Helvetica-Narrow-Oblique /NewCenturySchlbk-Roman /NewCenturySchlbk-Bold /NewCenturySchlbk-BoldItalic /NewCenturySchlbk-Italic /Palatino-Bold
 /Palatino-BoldItalic /Palatino-Italic /Palatino-Roman ] {ISOLatin1Encoding reEncode } forall
%%EndProlog
%%BeginSetup
%%EndSetup
newpath  gsave  .25 .25 scale  gsave  0 0 t black[  ] 0 sd 6 lw 1 1 1 c 2268 2234 0 0 bf black 3 lw 1 1 1 c 1882 1966 340 223 bf black 1882 1966 340 223 bl 1 1 1 c 1882 1966 340 223 bf black 1882 1966 340 223 bl 0 0 1 c 6 lw 1 1 1 c 0 0 1 c 390 1089
 m 25 Y s 390 1125 m 25 Y s 3 lw /w 14 def /w2 {w 2 div} def /w3 {w 3 div} def 390 1119 m21 6 lw 394 1102 m 22 Y s 394 1136 m 22 Y s 3 lw 394 1130 m21 6 lw 399 1105 m 20 Y s 399 1136 m 21 Y s 3 lw 399 1131 m21 6 lw 404 1074 m 19 Y s 404 1104 m 18 Y s
 3 lw 404 1098 m21 6 lw 408 1066 m 16 Y s 408 1094 m 16 Y s 3 lw 408 1088 m21 6 lw 413 1175 m 17 Y s 413 1203 m 17 Y s 3 lw 413 1198 m21 6 lw 418 1098 m 14 Y s 418 1124 m 14 Y s 3 lw 418 1118 m21 6 lw 423 1094 m 13 Y s 423 1119 m 13 Y s 3 lw 423 1113
 m21 6 lw 427 1109 m 13 Y s 427 1133 m 13 Y s 3 lw 427 1128 m21 6 lw 432 1114 m 12 Y s 432 1137 m 12 Y s 3 lw 432 1132 m21 6 lw 437 1075 m 11 Y s 437 1098 m 11 Y s 3 lw 437 1092 m21 6 lw 441 1106 m 11 Y s 441 1128 m 11 Y s 3 lw 441 1123 m21 6 lw 446
 1130 m 10 Y s 446 1151 m 11 Y s 3 lw 446 1146 m21 6 lw 451 1105 m 9 Y s 451 1126 m 9 Y s 3 lw 451 1120 m21 6 lw 455 1112 m 9 Y s 455 1132 m 10 Y s 3 lw 455 1127 m21 6 lw 460 1120 m 8 Y s 460 1140 m 9 Y s 3 lw 460 1134 m21 6 lw 465 1069 m 8 Y s 465
 1088 m 8 Y s 3 lw 465 1082 m21 6 lw 470 1089 m 8 Y s 470 1108 m 8 Y s 3 lw 470 1103 m21 6 lw 474 1090 m 7 Y s 474 1109 m 7 Y s 3 lw 474 1103 m21 6 lw 479 1076 m 8 Y s 479 1095 m 7 Y s 3 lw 479 1089 m21 6 lw 484 1045 m 7 Y s 484 1064 m 6 Y s 3 lw 484
 1058 m21 6 lw 488 1088 m 7 Y s 488 1106 m 7 Y s 3 lw 488 1100 m21 6 lw 493 1083 m 6 Y s 493 1101 m 6 Y s 3 lw 493 1095 m21 6 lw 498 1072 m 6 Y s 498 1090 m 6 Y s 3 lw 498 1084 m21 6 lw 502 1062 m 6 Y s 502 1079 m 6 Y s 3 lw 502 1074 m21 6 lw 507
 1076 m 6 Y s 507 1093 m 6 Y s 3 lw 507 1087 m21 6 lw 512 1068 m 5 Y s 512 1085 m 5 Y s 3 lw 512 1079 m21 6 lw 517 1059 m 6 Y s 517 1076 m 5 Y s 3 lw 517 1070 m21 6 lw 521 1063 m 5 Y s 521 1079 m 6 Y s 3 lw 521 1074 m21 6 lw 526 1047 m 5 Y s 526 1064
 m 5 Y s 3 lw 526 1058 m21 6 lw 531 1055 m 4 Y s 531 1071 m 5 Y s 3 lw 531 1065 m21 6 lw 535 1039 m 5 Y s 535 1055 m 5 Y s 3 lw 535 1050 m21 6 lw 540 1053 m 4 Y s 540 1069 m 4 Y s 3 lw 540 1063 m21 6 lw 545 1047 m 4 Y s 545 1063 m 4 Y s 3 lw 545 1057
 m21 6 lw 550 1053 m 4 Y s 550 1069 m 4 Y s 3 lw 550 1063 m21 6 lw 554 1046 m 4 Y s 554 1061 m 4 Y s 3 lw 554 1056 m21 6 lw 559 1035 m 4 Y s 559 1050 m 4 Y s 3 lw 559 1044 m21 6 lw 564 1031 m 4 Y s 564 1047 m 3 Y s 3 lw 564 1041 m21 6 lw 568 1034 m 3
 Y s 568 1049 m 3 Y s 3 lw 568 1043 m21 6 lw 573 1035 m 4 Y s 573 1050 m 4 Y s 3 lw 573 1045 m21 6 lw 578 1032 m 4 Y s 578 1047 m 3 Y s 3 lw 578 1041 m21 6 lw 582 1053 m 4 Y s 582 1068 m 4 Y s 3 lw 582 1062 m21 6 lw 587 1053 m 3 Y s 587 1068 m 3 Y s
 3 lw 587 1062 m21 6 lw 592 1055 m 3 Y s 592 1070 m 3 Y s 3 lw 592 1064 m21 6 lw 597 1049 m 3 Y s 597 1064 m 3 Y s 3 lw 597 1058 m21 6 lw 601 1035 m 3 Y s 601 1050 m 3 Y s 3 lw 601 1044 m21 6 lw 606 1043 m 3 Y s 606 1058 m 3 Y s 3 lw 606 1052 m21 6
 lw 611 1050 m 3 Y s 611 1064 m 3 Y s 3 lw 611 1058 m21 6 lw 615 1046 m 3 Y s 615 1060 m 3 Y s 3 lw 615 1054 m21 6 lw 620 1066 m 3 Y s 620 1081 m 3 Y s 3 lw 620 1075 m21 6 lw 625 1078 m 3 Y s 625 1092 m 3 Y s 3 lw 625 1086 m21 6 lw 630 1079 m 3 Y s
 630 1094 m 3 Y s 3 lw 630 1088 m21 6 lw 634 1087 m 3 Y s 634 1101 m 3 Y s 3 lw 634 1095 m21 6 lw 639 1084 m 3 Y s 639 1099 m 2 Y s 3 lw 639 1093 m21 6 lw 644 1101 m 3 Y s 644 1115 m 3 Y s 3 lw 644 1110 m21 6 lw 648 1099 m 3 Y s 648 1113 m 3 Y s 3 lw
 648 1107 m21 6 lw 653 1090 m 2 Y s 653 1104 m 2 Y s 3 lw 653 1098 m21 6 lw 658 1078 m 3 Y s 658 1092 m 3 Y s 3 lw 658 1087 m21 6 lw 662 1100 m 3 Y s 662 1114 m 3 Y s 3 lw 662 1109 m21 6 lw 667 1090 m 3 Y s 667 1104 m 2 Y s 3 lw 667 1098 m21 6 lw 672
 1095 m 2 Y s 672 1108 m 3 Y s 3 lw 672 1103 m21 6 lw 677 1091 m 2 Y s 677 1105 m 2 Y s 3 lw 677 1099 m21 6 lw 681 1082 m 2 Y s 681 1095 m 3 Y s 3 lw 681 1090 m21 6 lw 686 1092 m 3 Y s 686 1106 m 2 Y s 3 lw 686 1100 m21 6 lw 691 1104 m 2 Y s 691 1118
 m 2 Y s 3 lw 691 1112 m21 6 lw 695 1096 m 2 Y s 695 1109 m 3 Y s 3 lw 695 1104 m21 6 lw 700 1091 m 2 Y s 700 1105 m 2 Y s 3 lw 700 1099 m21 6 lw 705 1091 m 2 Y s 705 1105 m 2 Y s 3 lw 705 1099 m21 6 lw 710 1112 m 2 Y s 710 1126 m 2 Y s 3 lw 710 1120
 m21 6 lw 714 1085 m 2 Y s 714 1098 m 2 Y s 3 lw 714 1093 m21 6 lw 719 1099 m 2 Y s 719 1113 m 2 Y s 3 lw 719 1107 m21 6 lw 724 1119 m 2 Y s 724 1132 m 2 Y s 3 lw 724 1126 m21 6 lw 728 1110 m 2 Y s 728 1123 m 2 Y s 3 lw 728 1117 m21 6 lw 733 1109 m 2
 Y s 733 1122 m 2 Y s 3 lw 733 1117 m21 6 lw 738 1110 m 2 Y s 738 1123 m 2 Y s 3 lw 738 1118 m21 6 lw 742 1113 m 2 Y s 742 1127 m 2 Y s 3 lw 742 1121 m21 6 lw 747 1110 m 2 Y s 747 1123 m 2 Y s 3 lw 747 1118 m21 6 lw 752 1109 m 2 Y s 752 1122 m 2 Y s
 3 lw 752 1116 m21 6 lw 757 1122 m 2 Y s 757 1135 m 2 Y s 3 lw 757 1129 m21 6 lw 761 1115 m 2 Y s 761 1129 m 2 Y s 3 lw 761 1123 m21 6 lw 766 1120 m 2 Y s 766 1133 m 2 Y s 3 lw 766 1127 m21 6 lw 771 1125 m 2 Y s 771 1138 m 2 Y s 3 lw 771 1133 m21 6
 lw 775 1129 m 2 Y s 775 1143 m 1 Y s 3 lw 775 1137 m21 6 lw 780 1130 m 2 Y s 780 1144 m 2 Y s 3 lw 780 1138 m21 6 lw 785 1146 m 2 Y s 785 1159 m 2 Y s 3 lw 785 1154 m21 6 lw 790 1138 m 2 Y s 790 1152 m 2 Y s 3 lw 790 1146 m21 6 lw 794 1139 m 1 Y s
 794 1152 m 2 Y s 3 lw 794 1146 m21 6 lw 799 1149 m 2 Y s 799 1163 m 2 Y s 3 lw 799 1157 m21 6 lw 804 1147 m 2 Y s 804 1160 m 2 Y s 3 lw 804 1155 m21 6 lw 808 1145 m 2 Y s 808 1158 m 2 Y s 3 lw 808 1152 m21 6 lw 813 1157 m 2 Y s 813 1170 m 2 Y s 3 lw
 813 1164 m21 6 lw 818 1148 m 2 Y s 818 1161 m 2 Y s 3 lw 818 1155 m21 6 lw 822 1151 m 2 Y s 822 1164 m 2 Y s 3 lw 822 1158 m21 6 lw 827 1150 m 2 Y s 827 1164 m 2 Y s 3 lw 827 1158 m21 6 lw 832 1161 m 2 Y s 832 1175 m 2 Y s 3 lw 832 1169 m21 6 lw 837
 1187 m 2 Y s 837 1200 m 2 Y s 3 lw 837 1194 m21 6 lw 841 1165 m 2 Y s 841 1179 m 2 Y s 3 lw 841 1173 m21 6 lw 846 1172 m 2 Y s 846 1186 m 2 Y s 3 lw 846 1180 m21 6 lw 851 1178 m 2 Y s 851 1192 m 2 Y s 3 lw 851 1186 m21 6 lw 855 1176 m 2 Y s 855 1190
 m 2 Y s 3 lw 855 1184 m21 6 lw 860 1179 m 2 Y s 860 1192 m 2 Y s 3 lw 860 1187 m21 6 lw 865 1174 m 2 Y s 865 1187 m 2 Y s 3 lw 865 1182 m21 6 lw 870 1180 m 2 Y s 870 1193 m 2 Y s 3 lw 870 1187 m21 6 lw 874 1187 m 2 Y s 874 1201 m 2 Y s 3 lw 874 1195
 m21 6 lw 879 1183 m 2 Y s 879 1196 m 2 Y s 3 lw 879 1191 m21 6 lw 884 1190 m 2 Y s 884 1203 m 3 Y s 3 lw 884 1198 m21 6 lw 888 1181 m 2 Y s 888 1194 m 2 Y s 3 lw 888 1189 m21 6 lw 893 1172 m 2 Y s 893 1186 m 2 Y s 3 lw 893 1180 m21 6 lw 898 1182 m 2
 Y s 898 1195 m 2 Y s 3 lw 898 1189 m21 6 lw 902 1179 m 3 Y s 902 1193 m 2 Y s 3 lw 902 1187 m21 6 lw 907 1185 m 2 Y s 907 1199 m 2 Y s 3 lw 907 1193 m21 6 lw 912 1170 m 2 Y s 912 1184 m 2 Y s 3 lw 912 1178 m21 6 lw 917 1179 m 2 Y s 917 1192 m 2 Y s
 3 lw 917 1187 m21 6 lw 921 1162 m 2 Y s 921 1175 m 2 Y s 3 lw 921 1169 m21 6 lw 926 1188 m 2 Y s 926 1201 m 2 Y s 3 lw 926 1196 m21 6 lw 931 1179 m 2 Y s 931 1192 m 2 Y s 3 lw 931 1187 m21 6 lw 935 1166 m 2 Y s 935 1179 m 2 Y s 3 lw 935 1174 m21 6
 lw 940 1159 m 2 Y s 940 1172 m 2 Y s 3 lw 940 1167 m21 6 lw 945 1158 m 2 Y s 945 1172 m 2 Y s 3 lw 945 1166 m21 6 lw 950 1162 m 2 Y s 950 1175 m 2 Y s 3 lw 950 1169 m21 6 lw 954 1155 m 2 Y s 954 1168 m 2 Y s 3 lw 954 1162 m21 6 lw 959 1158 m 2 Y s
 959 1171 m 2 Y s 3 lw 959 1165 m21 6 lw 964 1140 m 2 Y s 964 1153 m 2 Y s 3 lw 964 1148 m21 6 lw 968 1132 m 2 Y s 968 1145 m 2 Y s 3 lw 968 1140 m21 6 lw 973 1120 m 2 Y s 973 1133 m 2 Y s 3 lw 973 1128 m21 6 lw 978 1129 m 2 Y s 978 1143 m 2 Y s 3 lw
 978 1137 m21 6 lw 982 1111 m 2 Y s 982 1124 m 2 Y s 3 lw 982 1118 m21 6 lw 987 1103 m 2 Y s 987 1116 m 2 Y s 3 lw 987 1111 m21 6 lw 992 1097 m 1 Y s 992 1110 m 2 Y s 3 lw 992 1104 m21 6 lw 997 1093 m 2 Y s 997 1106 m 2 Y s 3 lw 997 1101 m21 6 lw
 1001 1082 m 1 Y s 1001 1095 m 1 Y s 3 lw 1001 1089 m21 6 lw 1006 1076 m 2 Y s 1006 1089 m 2 Y s 3 lw 1006 1083 m21 6 lw 1011 1069 m 2 Y s 1011 1082 m 2 Y s 3 lw 1011 1077 m21 6 lw 1015 1060 m 1 Y s 1015 1073 m 2 Y s 3 lw 1015 1067 m21 6 lw 1020 1063
 m 2 Y s 1020 1076 m 2 Y s 3 lw 1020 1070 m21 6 lw 1025 1027 m 2 Y s 1025 1040 m 2 Y s 3 lw 1025 1035 m21 6 lw 1030 1031 m 2 Y s 1030 1044 m 2 Y s 3 lw 1030 1038 m21 6 lw 1034 1032 m 2 Y s 1034 1045 m 2 Y s 3 lw 1034 1039 m21 6 lw 1039 1025 m 1 Y s
 1039 1038 m 1 Y s 3 lw 1039 1032 m21 6 lw 1044 1032 m 2 Y s 1044 1045 m 2 Y s 3 lw 1044 1040 m21 6 lw 1048 1031 m 2 Y s 1048 1044 m 2 Y s 3 lw 1048 1039 m21 6 lw 1053 1037 m 2 Y s 1053 1050 m 2 Y s 3 lw 1053 1045 m21 6 lw 1058 1046 m 2 Y s 1058 1059
 m 2 Y s 3 lw 1058 1054 m21 6 lw 1062 1042 m 2 Y s 1062 1056 m 2 Y s 3 lw 1062 1050 m21 6 lw 1067 1045 m 2 Y s 1067 1058 m 2 Y s 3 lw 1067 1052 m21 6 lw 1072 1051 m 2 Y s 1072 1064 m 3 Y s 3 lw 1072 1059 m21 6 lw 1077 1035 m 2 Y s 1077 1048 m 2 Y s 3
 lw 1077 1042 m21 6 lw 1081 1050 m 3 Y s 1081 1064 m 2 Y s 3 lw 1081 1058 m21 6 lw 1086 1045 m 2 Y s 1086 1059 m 2 Y s 3 lw 1086 1053 m21 6 lw 1091 1043 m 2 Y s 1091 1056 m 3 Y s 3 lw 1091 1051 m21 6 lw 1095 1057 m 2 Y s 1095 1071 m 2 Y s 3 lw 1095
 1065 m21 6 lw 1100 1029 m 3 Y s 1100 1043 m 2 Y s 3 lw 1100 1037 m21 6 lw 1105 1047 m 2 Y s 1105 1061 m 2 Y s 3 lw 1105 1055 m21 6 lw 1110 1046 m 2 Y s 1110 1060 m 2 Y s 3 lw 1110 1054 m21 6 lw 1114 1055 m 3 Y s 1114 1069 m 3 Y s 3 lw 1114 1063 m21
 6 lw 1119 1063 m 2 Y s 1119 1077 m 2 Y s 3 lw 1119 1071 m21 6 lw 1124 1065 m 3 Y s 1124 1079 m 3 Y s 3 lw 1124 1074 m21 6 lw 1128 1060 m 2 Y s 1128 1074 m 2 Y s 3 lw 1128 1068 m21 6 lw 1133 1061 m 3 Y s 1133 1075 m 3 Y s 3 lw 1133 1070 m21 6 lw 1138
 1078 m 3 Y s 1138 1092 m 3 Y s 3 lw 1138 1086 m21 6 lw 1142 1058 m 2 Y s 1142 1072 m 2 Y s 3 lw 1142 1066 m21 6 lw 1147 1078 m 3 Y s 1147 1092 m 3 Y s 3 lw 1147 1086 m21 6 lw 1152 1079 m 2 Y s 1152 1093 m 3 Y s 3 lw 1152 1087 m21 6 lw 1157 1094 m 3
 Y s 1157 1108 m 3 Y s 3 lw 1157 1102 m21 6 lw 1161 1083 m 3 Y s 1161 1098 m 3 Y s 3 lw 1161 1092 m21 6 lw 1166 1090 m 3 Y s 1166 1104 m 3 Y s 3 lw 1166 1098 m21 6 lw 1171 1099 m 3 Y s 1171 1113 m 3 Y s 3 lw 1171 1108 m21 6 lw 1175 1102 m 3 Y s 1175
 1117 m 3 Y s 3 lw 1175 1111 m21 6 lw 1180 1106 m 3 Y s 1180 1121 m 3 Y s 3 lw 1180 1115 m21 6 lw 1185 1109 m 3 Y s 1185 1124 m 3 Y s 3 lw 1185 1118 m21 6 lw 1190 1105 m 4 Y s 1190 1120 m 3 Y s 3 lw 1190 1114 m21 6 lw 1194 1116 m 3 Y s 1194 1130 m 4
 Y s 3 lw 1194 1125 m21 6 lw 1199 1132 m 3 Y s 1199 1147 m 3 Y s 3 lw 1199 1141 m21 6 lw 1204 1134 m 4 Y s 1204 1149 m 4 Y s 3 lw 1204 1144 m21 6 lw 1208 1138 m 3 Y s 1208 1152 m 4 Y s 3 lw 1208 1147 m21 6 lw 1213 1142 m 4 Y s 1213 1157 m 4 Y s 3 lw
 1213 1151 m21 6 lw 1218 1129 m 4 Y s 1218 1144 m 4 Y s 3 lw 1218 1138 m21 6 lw 1222 1128 m 3 Y s 1222 1143 m 3 Y s 3 lw 1222 1137 m21 6 lw 1227 1179 m 4 Y s 1227 1195 m 4 Y s 3 lw 1227 1189 m21 6 lw 1232 1145 m 3 Y s 1232 1160 m 4 Y s 3 lw 1232 1154
 m21 6 lw 1237 1119 m 4 Y s 1237 1134 m 4 Y s 3 lw 1237 1129 m21 6 lw 1241 1121 m 3 Y s 1241 1136 m 4 Y s 3 lw 1241 1130 m21 6 lw 1246 1103 m 4 Y s 1246 1119 m 3 Y s 3 lw 1246 1113 m21 6 lw 1251 1088 m 4 Y s 1251 1103 m 4 Y s 3 lw 1251 1097 m21 6 lw
 1255 1114 m 4 Y s 1255 1129 m 4 Y s 3 lw 1255 1124 m21 6 lw 1260 1094 m 4 Y s 1260 1109 m 4 Y s 3 lw 1260 1103 m21 6 lw 1265 1098 m 4 Y s 1265 1114 m 4 Y s 3 lw 1265 1108 m21 6 lw 1269 1082 m 4 Y s 1269 1097 m 4 Y s 3 lw 1269 1092 m21 6 lw 1274 1078
 m 4 Y s 1274 1094 m 4 Y s 3 lw 1274 1088 m21 6 lw 1279 1095 m 4 Y s 1279 1110 m 4 Y s 3 lw 1279 1105 m21 6 lw 1284 1096 m 5 Y s 1284 1112 m 4 Y s 3 lw 1284 1106 m21 6 lw 1288 1082 m 4 Y s 1288 1097 m 5 Y s 3 lw 1288 1092 m21 6 lw 1293 1090 m 4 Y s
 1293 1106 m 4 Y s 3 lw 1293 1100 m21 6 lw 1298 1094 m 4 Y s 1298 1110 m 4 Y s 3 lw 1298 1104 m21 6 lw 1302 1089 m 4 Y s 1302 1104 m 5 Y s 3 lw 1302 1099 m21 6 lw 1307 1098 m 5 Y s 1307 1114 m 5 Y s 3 lw 1307 1108 m21 6 lw 1312 1111 m 5 Y s 1312 1127
 m 5 Y s 3 lw 1312 1122 m21 6 lw 1317 1107 m 4 Y s 1317 1123 m 4 Y s 3 lw 1317 1117 m21 6 lw 1321 1068 m 5 Y s 1321 1084 m 4 Y s 3 lw 1321 1078 m21 6 lw 1326 1077 m 5 Y s 1326 1093 m 5 Y s 3 lw 1326 1088 m21 6 lw 1331 1088 m 5 Y s 1331 1104 m 5 Y s 3
 lw 1331 1098 m21 6 lw 1335 1087 m 5 Y s 1335 1103 m 5 Y s 3 lw 1335 1098 m21 6 lw 1340 1086 m 4 Y s 1340 1102 m 4 Y s 3 lw 1340 1096 m21 6 lw 1345 1093 m 5 Y s 1345 1110 m 4 Y s 3 lw 1345 1104 m21 6 lw 1349 1101 m 5 Y s 1349 1117 m 5 Y s 3 lw 1349
 1111 m21 6 lw 1354 1124 m 5 Y s 1354 1140 m 5 Y s 3 lw 1354 1134 m21 6 lw 1359 1095 m 5 Y s 1359 1111 m 5 Y s 3 lw 1359 1106 m21 6 lw 1364 1094 m 5 Y s 1364 1110 m 6 Y s 3 lw 1364 1105 m21 6 lw 1368 1105 m 5 Y s 1368 1121 m 5 Y s 3 lw 1368 1116 m21
 6 lw 1373 1081 m 5 Y s 1373 1097 m 5 Y s 3 lw 1373 1092 m21 6 lw 1378 1098 m 5 Y s 1378 1115 m 5 Y s 3 lw 1378 1109 m21 6 lw 1382 1098 m 6 Y s 1382 1115 m 5 Y s 3 lw 1382 1109 m21 6 lw 1387 1090 m 6 Y s 1387 1107 m 5 Y s 3 lw 1387 1101 m21 6 lw 1392
 1097 m 6 Y s 1392 1114 m 5 Y s 3 lw 1392 1108 m21 6 lw 1397 1087 m 5 Y s 1397 1104 m 5 Y s 3 lw 1397 1098 m21 6 lw 1401 1121 m 5 Y s 1401 1138 m 6 Y s 3 lw 1401 1132 m21 6 lw 1406 1107 m 5 Y s 1406 1124 m 5 Y s 3 lw 1406 1118 m21 6 lw 1411 1120 m 6
 Y s 1411 1137 m 6 Y s 3 lw 1411 1132 m21 6 lw 1415 1106 m 6 Y s 1415 1123 m 6 Y s 3 lw 1415 1118 m21 6 lw 1420 1110 m 6 Y s 1420 1127 m 6 Y s 3 lw 1420 1122 m21 6 lw 1425 1131 m 6 Y s 1425 1148 m 6 Y s 3 lw 1425 1142 m21 6 lw 1429 1131 m 6 Y s 1429
 1149 m 6 Y s 3 lw 1429 1143 m21 6 lw 1434 1097 m 6 Y s 1434 1114 m 6 Y s 3 lw 1434 1109 m21 6 lw 1439 1134 m 6 Y s 1439 1152 m 6 Y s 3 lw 1439 1146 m21 6 lw 1444 1104 m 6 Y s 1444 1122 m 6 Y s 3 lw 1444 1116 m21 6 lw 1448 1103 m 6 Y s 1448 1120 m 6
 Y s 3 lw 1448 1115 m21 6 lw 1453 1098 m 6 Y s 1453 1115 m 6 Y s 3 lw 1453 1109 m21 6 lw 1458 1121 m 6 Y s 1458 1139 m 6 Y s 3 lw 1458 1133 m21 6 lw 1462 1119 m 7 Y s 1462 1137 m 7 Y s 3 lw 1462 1131 m21 6 lw 1467 1119 m 7 Y s 1467 1137 m 7 Y s 3 lw
 1467 1132 m21 6 lw 1472 1122 m 7 Y s 1472 1140 m 7 Y s 3 lw 1472 1135 m21 6 lw 1477 1127 m 7 Y s 1477 1145 m 7 Y s 3 lw 1477 1139 m21 6 lw 1481 1116 m 7 Y s 1481 1134 m 7 Y s 3 lw 1481 1128 m21 6 lw 1486 1137 m 7 Y s 1486 1155 m 7 Y s 3 lw 1486 1150
 m21 6 lw 1491 1135 m 7 Y s 1491 1153 m 7 Y s 3 lw 1491 1147 m21 6 lw 1495 1116 m 7 Y s 1495 1135 m 7 Y s 3 lw 1495 1129 m21 6 lw 1500 1107 m 7 Y s 1500 1125 m 7 Y s 3 lw 1500 1120 m21 6 lw 1505 1129 m 7 Y s 1505 1148 m 7 Y s 3 lw 1505 1142 m21 6 lw
 1509 1117 m 7 Y s 1509 1135 m 7 Y s 3 lw 1509 1130 m21 6 lw 1514 1125 m 7 Y s 1514 1143 m 8 Y s 3 lw 1514 1138 m21 6 lw 1519 1103 m 7 Y s 1519 1121 m 7 Y s 3 lw 1519 1116 m21 6 lw 1524 1124 m 7 Y s 1524 1143 m 7 Y s 3 lw 1524 1137 m21 6 lw 1528 1115
 m 7 Y s 1528 1134 m 7 Y s 3 lw 1528 1128 m21 6 lw 1533 1112 m 7 Y s 1533 1131 m 7 Y s 3 lw 1533 1125 m21 6 lw 1538 1117 m 7 Y s 1538 1135 m 8 Y s 3 lw 1538 1130 m21 6 lw 1542 1121 m 7 Y s 1542 1140 m 7 Y s 3 lw 1542 1134 m21 6 lw 1547 1134 m 8 Y s
 1547 1153 m 8 Y s 3 lw 1547 1147 m21 6 lw 1552 1110 m 7 Y s 1552 1129 m 8 Y s 3 lw 1552 1123 m21 6 lw 1557 1100 m 8 Y s 1557 1119 m 8 Y s 3 lw 1557 1114 m21 6 lw 1561 1117 m 8 Y s 1561 1137 m 8 Y s 3 lw 1561 1131 m21 6 lw 1566 1095 m 8 Y s 1566 1114
 m 8 Y s 3 lw 1566 1108 m21 6 lw 1571 1096 m 8 Y s 1571 1116 m 8 Y s 3 lw 1571 1110 m21 6 lw 1575 1106 m 8 Y s 1575 1125 m 8 Y s 3 lw 1575 1120 m21 6 lw 1580 1112 m 9 Y s 1580 1132 m 8 Y s 3 lw 1580 1126 m21 6 lw 1585 1113 m 8 Y s 1585 1133 m 8 Y s 3
 lw 1585 1127 m21 6 lw 1589 1098 m 8 Y s 1589 1117 m 8 Y s 3 lw 1589 1111 m21 6 lw 1594 1090 m 8 Y s 1594 1110 m 8 Y s 3 lw 1594 1104 m21 6 lw 1599 1100 m 8 Y s 1599 1120 m 8 Y s 3 lw 1599 1114 m21 6 lw 1604 1095 m 9 Y s 1604 1115 m 9 Y s 3 lw 1604
 1110 m21 6 lw 1608 1124 m 9 Y s 1608 1144 m 9 Y s 3 lw 1608 1138 m21 6 lw 1613 1112 m 9 Y s 1613 1132 m 9 Y s 3 lw 1613 1127 m21 6 lw 1618 1117 m 9 Y s 1618 1137 m 9 Y s 3 lw 1618 1132 m21 6 lw 1622 1098 m 9 Y s 1622 1118 m 9 Y s 3 lw 1622 1113 m21
 6 lw 1627 1095 m 9 Y s 1627 1116 m 8 Y s 3 lw 1627 1110 m21 6 lw 1632 1089 m 9 Y s 1632 1110 m 9 Y s 3 lw 1632 1104 m21 6 lw 1637 1123 m 9 Y s 1637 1143 m 10 Y s 3 lw 1637 1138 m21 6 lw 1641 1106 m 9 Y s 1641 1126 m 9 Y s 3 lw 1641 1121 m21 6 lw
 1646 1094 m 9 Y s 1646 1114 m 9 Y s 3 lw 1646 1108 m21 6 lw 1651 1106 m 9 Y s 1651 1127 m 9 Y s 3 lw 1651 1121 m21 6 lw 1655 1126 m 10 Y s 1655 1147 m 9 Y s 3 lw 1655 1141 m21 6 lw 1660 1115 m 9 Y s 1660 1136 m 9 Y s 3 lw 1660 1130 m21 6 lw 1665
 1096 m 10 Y s 1665 1117 m 10 Y s 3 lw 1665 1111 m21 6 lw 1669 1133 m 10 Y s 1669 1155 m 10 Y s 3 lw 1669 1149 m21 6 lw 1674 1112 m 10 Y s 1674 1133 m 10 Y s 3 lw 1674 1127 m21 6 lw 1679 1106 m 10 Y s 1679 1128 m 9 Y s 3 lw 1679 1122 m21 6 lw 1684
 1107 m 10 Y s 1684 1129 m 10 Y s 3 lw 1684 1123 m21 6 lw 1688 1105 m 10 Y s 1688 1127 m 10 Y s 3 lw 1688 1121 m21 6 lw 1693 1111 m 10 Y s 1693 1133 m 10 Y s 3 lw 1693 1127 m21 6 lw 1698 1104 m 10 Y s 1698 1125 m 11 Y s 3 lw 1698 1120 m21 6 lw 1702
 1138 m 11 Y s 1702 1160 m 11 Y s 3 lw 1702 1155 m21 6 lw 1707 1115 m 10 Y s 1707 1137 m 10 Y s 3 lw 1707 1131 m21 6 lw 1712 1117 m 10 Y s 1712 1139 m 10 Y s 3 lw 1712 1133 m21 6 lw 1717 1098 m 10 Y s 1717 1120 m 10 Y s 3 lw 1717 1114 m21 6 lw 1721
 1129 m 11 Y s 1721 1151 m 11 Y s 3 lw 1721 1145 m21 6 lw 1726 1139 m 11 Y s 1726 1161 m 11 Y s 3 lw 1726 1155 m21 6 lw 1731 1095 m 11 Y s 1731 1117 m 11 Y s 3 lw 1731 1111 m21 6 lw 1735 1112 m 11 Y s 1735 1135 m 10 Y s 3 lw 1735 1129 m21 6 lw 1740
 1134 m 11 Y s 1740 1156 m 12 Y s 3 lw 1740 1151 m21 6 lw 1745 1100 m 11 Y s 1745 1123 m 11 Y s 3 lw 1745 1117 m21 6 lw 1749 1131 m 11 Y s 1749 1153 m 12 Y s 3 lw 1749 1148 m21 6 lw 1754 1146 m 12 Y s 1754 1170 m 11 Y s 3 lw 1754 1164 m21 6 lw 1759
 1151 m 12 Y s 1759 1174 m 12 Y s 3 lw 1759 1168 m21 6 lw 1764 1122 m 11 Y s 1764 1145 m 11 Y s 3 lw 1764 1139 m21 6 lw 1768 1142 m 12 Y s 1768 1165 m 12 Y s 3 lw 1768 1160 m21 6 lw 1773 1134 m 12 Y s 1773 1157 m 12 Y s 3 lw 1773 1151 m21 6 lw 1778
 1147 m 12 Y s 1778 1170 m 12 Y s 3 lw 1778 1165 m21 6 lw 1782 1125 m 12 Y s 1782 1148 m 12 Y s 3 lw 1782 1142 m21 6 lw 1787 1141 m 13 Y s 1787 1165 m 12 Y s 3 lw 1787 1159 m21 6 lw 1792 1146 m 13 Y s 1792 1170 m 12 Y s 3 lw 1792 1164 m21 6 lw 1797
 1158 m 13 Y s 1797 1182 m 13 Y s 3 lw 1797 1177 m21 6 lw 1801 1154 m 12 Y s 1801 1178 m 13 Y s 3 lw 1801 1172 m21 6 lw 1806 1126 m 13 Y s 1806 1150 m 13 Y s 3 lw 1806 1145 m21 6 lw 1811 1134 m 13 Y s 1811 1159 m 12 Y s 3 lw 1811 1153 m21 6 lw 1815
 1136 m 13 Y s 1815 1161 m 13 Y s 3 lw 1815 1155 m21 6 lw 1820 1135 m 13 Y s 1820 1160 m 13 Y s 3 lw 1820 1154 m21 6 lw 1825 1143 m 14 Y s 1825 1168 m 13 Y s 3 lw 1825 1162 m21 6 lw 1829 1146 m 14 Y s 1829 1171 m 13 Y s 3 lw 1829 1165 m21 6 lw 1834
 1152 m 13 Y s 1834 1177 m 13 Y s 3 lw 1834 1171 m21 6 lw 1839 1164 m 14 Y s 1839 1189 m 14 Y s 3 lw 1839 1184 m21 6 lw 1844 1127 m 13 Y s 1844 1152 m 13 Y s 3 lw 1844 1146 m21 6 lw 1848 1148 m 14 Y s 1848 1173 m 14 Y s 3 lw 1848 1167 m21 6 lw 1853
 1166 m 14 Y s 1853 1192 m 14 Y s 3 lw 1853 1186 m21 6 lw 1858 1128 m 13 Y s 1858 1153 m 13 Y s 3 lw 1858 1147 m21 6 lw 1862 1158 m 14 Y s 1862 1183 m 15 Y s 3 lw 1862 1178 m21 6 lw 1867 1104 m 14 Y s 1867 1129 m 14 Y s 3 lw 1867 1124 m21 6 lw 1872
 1170 m 14 Y s 1872 1196 m 14 Y s 3 lw 1872 1190 m21 6 lw 1877 1138 m 14 Y s 1877 1164 m 14 Y s 3 lw 1877 1158 m21 6 lw 1881 1138 m 14 Y s 1881 1164 m 14 Y s 3 lw 1881 1158 m21 6 lw 1886 1125 m 15 Y s 1886 1151 m 15 Y s 3 lw 1886 1146 m21 6 lw 1891
 1172 m 15 Y s 1891 1199 m 15 Y s 3 lw 1891 1193 m21 6 lw 1895 1175 m 16 Y s 1895 1202 m 15 Y s 3 lw 1895 1196 m21 6 lw 1900 1141 m 15 Y s 1900 1168 m 15 Y s 3 lw 1900 1162 m21 6 lw 1905 1150 m 15 Y s 1905 1176 m 15 Y s 3 lw 1905 1171 m21 6 lw 1909
 1140 m 15 Y s 1909 1167 m 15 Y s 3 lw 1909 1161 m21 6 lw 1914 1112 m 15 Y s 1914 1138 m 15 Y s 3 lw 1914 1132 m21 6 lw 1919 1157 m 16 Y s 1919 1184 m 16 Y s 3 lw 1919 1178 m21 6 lw 1924 1158 m 16 Y s 1924 1185 m 16 Y s 3 lw 1924 1180 m21 6 lw 1928
 1125 m 16 Y s 1928 1152 m 15 Y s 3 lw 1928 1146 m21 6 lw 1933 1139 m 16 Y s 1933 1166 m 16 Y s 3 lw 1933 1161 m21 6 lw 1938 1118 m 16 Y s 1938 1145 m 16 Y s 3 lw 1938 1139 m21 6 lw 1942 1166 m 16 Y s 1942 1193 m 17 Y s 3 lw 1942 1188 m21 6 lw 1947
 1180 m 16 Y s 1947 1207 m 17 Y s 3 lw 1947 1202 m21 6 lw 1952 1156 m 16 Y s 1952 1183 m 17 Y s 3 lw 1952 1178 m21 6 lw 1957 1192 m 17 Y s 1957 1220 m 17 Y s 3 lw 1957 1215 m21 6 lw 1961 1168 m 17 Y s 1961 1196 m 17 Y s 3 lw 1961 1190 m21 6 lw 1966
 1112 m 16 Y s 1966 1140 m 16 Y s 3 lw 1966 1134 m21 6 lw 1971 1168 m 17 Y s 1971 1196 m 17 Y s 3 lw 1971 1190 m21 6 lw 1975 1121 m 16 Y s 1975 1149 m 16 Y s 3 lw 1975 1143 m21 6 lw 1980 1161 m 17 Y s 1980 1189 m 17 Y s 3 lw 1980 1184 m21 6 lw 1985
 1146 m 17 Y s 1985 1174 m 17 Y s 3 lw 1985 1168 m21 6 lw 1989 1132 m 17 Y s 1989 1161 m 17 Y s 3 lw 1989 1155 m21 6 lw 1994 1141 m 17 Y s 1994 1169 m 18 Y s 3 lw 1994 1164 m21 6 lw 1999 1151 m 18 Y s 1999 1180 m 18 Y s 3 lw 1999 1175 m21 6 lw 2004
 1162 m 18 Y s 2004 1191 m 18 Y s 3 lw 2004 1186 m21 6 lw 2008 1136 m 18 Y s 2008 1165 m 18 Y s 3 lw 2008 1159 m21 6 lw 2013 1186 m 19 Y s 2013 1216 m 18 Y s 3 lw 2013 1210 m21 6 lw 2018 1144 m 18 Y s 2018 1173 m 18 Y s 3 lw 2018 1167 m21 6 lw 2022
 1175 m 18 Y s 2022 1205 m 18 Y s 3 lw 2022 1199 m21 6 lw 2027 1100 m 17 Y s 2027 1129 m 17 Y s 3 lw 2027 1123 m21 6 lw 2032 1152 m 18 Y s 2032 1182 m 18 Y s 3 lw 2032 1176 m21 6 lw 2036 1183 m 19 Y s 2036 1213 m 19 Y s 3 lw 2036 1207 m21 6 lw 2041
 1137 m 18 Y s 2041 1166 m 19 Y s 3 lw 2041 1161 m21 6 lw 2046 1138 m 19 Y s 2046 1168 m 19 Y s 3 lw 2046 1163 m21 6 lw 2051 1163 m 19 Y s 2051 1194 m 19 Y s 3 lw 2051 1188 m21 6 lw 2055 1147 m 19 Y s 2055 1177 m 19 Y s 3 lw 2055 1172 m21 6 lw 2060
 1136 m 19 Y s 2060 1166 m 19 Y s 3 lw 2060 1160 m21 6 lw 2065 1185 m 20 Y s 2065 1216 m 20 Y s 3 lw 2065 1210 m21 6 lw 2069 1215 m 20 Y s 2069 1247 m 20 Y s 3 lw 2069 1241 m21 6 lw 2074 1156 m 19 Y s 2074 1187 m 19 Y s 3 lw 2074 1181 m21 6 lw 2079
 1163 m 20 Y s 2079 1195 m 19 Y s 3 lw 2079 1189 m21 6 lw 2084 1122 m 20 Y s 2084 1153 m 20 Y s 3 lw 2084 1147 m21 6 lw 2088 1130 m 20 Y s 2088 1161 m 20 Y s 3 lw 2088 1155 m21 6 lw 2093 1156 m 20 Y s 2093 1187 m 20 Y s 3 lw 2093 1182 m21 6 lw 2098
 1201 m 21 Y s 2098 1233 m 21 Y s 3 lw 2098 1227 m21 6 lw 2102 1122 m 20 Y s 2102 1154 m 20 Y s 3 lw 2102 1148 m21 6 lw 2107 1135 m 20 Y s 2107 1167 m 20 Y s 3 lw 2107 1161 m21 6 lw 2112 1138 m 20 Y s 2112 1170 m 20 Y s 3 lw 2112 1164 m21 6 lw 2116
 1173 m 21 Y s 2116 1206 m 21 Y s 3 lw 2116 1200 m21 6 lw 2121 1124 m 21 Y s 2121 1156 m 20 Y s 3 lw 2121 1150 m21 6 lw 2126 1138 m 21 Y s 2126 1171 m 20 Y s 3 lw 2126 1165 m21 6 lw 2131 1188 m 22 Y s 2131 1222 m 21 Y s 3 lw 2131 1216 m21 6 lw 2135
 1165 m 22 Y s 2135 1198 m 22 Y s 3 lw 2135 1192 m21 6 lw 2140 1134 m 22 Y s 2140 1167 m 21 Y s 3 lw 2140 1161 m21 6 lw 2145 1162 m 21 Y s 2145 1195 m 22 Y s 3 lw 2145 1189 m21 6 lw 2149 1172 m 22 Y s 2149 1205 m 22 Y s 3 lw 2149 1200 m21 6 lw 2154
 1181 m 22 Y s 2154 1215 m 22 Y s 3 lw 2154 1209 m21 6 lw 2159 1167 m 22 Y s 2159 1200 m 23 Y s 3 lw 2159 1195 m21 6 lw 2164 1143 m 22 Y s 2164 1177 m 22 Y s 3 lw 2164 1171 m21 6 lw 2168 1218 m 23 Y s 2168 1253 m 23 Y s 3 lw 2168 1247 m21 6 lw 2173
 1190 m 23 Y s 2173 1224 m 23 Y s 3 lw 2173 1219 m21 6 lw 2178 1141 m 22 Y s 2178 1175 m 22 Y s 3 lw 2178 1169 m21 6 lw 2182 1143 m 23 Y s 2182 1177 m 23 Y s 3 lw 2182 1171 m21 6 lw 2187 1171 m 24 Y s 2187 1206 m 23 Y s 3 lw 2187 1200 m21 6 lw 2192
 1115 m 23 Y s 2192 1149 m 23 Y s 3 lw 2192 1144 m21 6 lw 2196 1171 m 24 Y s 2196 1206 m 24 Y s 3 lw 2196 1201 m21 6 lw 2201 1182 m 24 Y s 2201 1217 m 24 Y s 3 lw 2201 1212 m21 6 lw 2206 1169 m 24 Y s 2206 1204 m 24 Y s 3 lw 2206 1198 m21 6 lw 2211
 1178 m 24 Y s 2211 1213 m 24 Y s 3 lw 2211 1208 m21 6 lw 2215 1177 m 24 Y s 2215 1213 m 24 Y s 3 lw 2215 1207 m21 6 lw 2220 1179 m 25 Y s 2220 1215 m 24 Y s 3 lw 2220 1209 m21 6 lw black 340 223 m 1882 X s
 gsave  2268 2234 0 0 C 1923.86 58.2559 t 0 r /Helvetica findfont 83.8316 sf 0 0 m (Q [GeV]) show NC gr  340 279 m -56 Y s 387 251 m -28 Y s 434 251 m -28 Y s 481 251 m -28 Y s 528 279 m -56 Y s 575 251 m -28 Y s 622 251 m -28 Y s 670 251 m -28 Y s
 717 279 m -56 Y s 764 251 m -28 Y s 811 251 m -28 Y s 858 251 m -28 Y s 905 279 m -56 Y s 952 251 m -28 Y s 999 251 m -28 Y s 1046 251 m -28 Y s 1093 279 m -56 Y s 1140 251 m -28 Y s 1187 251 m -28 Y s 1234 251 m -28 Y s 1281 279 m -56 Y s 1328 251
 m -28 Y s 1375 251 m -28 Y s 1422 251 m -28 Y s 1469 279 m -56 Y s 1517 251 m -28 Y s 1564 251 m -28 Y s 1611 251 m -28 Y s 1658 279 m -56 Y s 1705 251 m -28 Y s 1752 251 m -28 Y s 1799 251 m -28 Y s 1846 279 m -56 Y s 1893 251 m -28 Y s 1940 251 m
 -28 Y s 1987 251 m -28 Y s 2034 279 m -56 Y s 2081 251 m -28 Y s 2128 251 m -28 Y s 2175 251 m -28 Y s 2222 279 m -56 Y s
 gsave  2268 2234 0 0 C 322.539 159.138 t 0 r /Helvetica findfont 62.5185 sf 0 0 m (0) show NC gr 
 gsave  2268 2234 0 0 C 484.518 159.138 t 0 r /Helvetica findfont 62.5185 sf 0 0 m (0.2) show NC gr 
 gsave  2268 2234 0 0 C 673.495 159.138 t 0 r /Helvetica findfont 62.5185 sf 0 0 m (0.4) show NC gr 
 gsave  2268 2234 0 0 C 861.05 159.138 t 0 r /Helvetica findfont 62.5185 sf 0 0 m (0.6) show NC gr 
 gsave  2268 2234 0 0 C 1050.03 159.138 t 0 r /Helvetica findfont 62.5185 sf 0 0 m (0.8) show NC gr 
 gsave  2268 2234 0 0 C 1268.84 159.138 t 0 r /Helvetica findfont 62.5185 sf 0 0 m (1) show NC gr 
 gsave  2268 2234 0 0 C 1426.56 159.138 t 0 r /Helvetica findfont 62.5185 sf 0 0 m (1.2) show NC gr 
 gsave  2268 2234 0 0 C 1614.11 159.138 t 0 r /Helvetica findfont 62.5185 sf 0 0 m (1.4) show NC gr 
 gsave  2268 2234 0 0 C 1803.09 159.138 t 0 r /Helvetica findfont 62.5185 sf 0 0 m (1.6) show NC gr 
 gsave  2268 2234 0 0 C 1990.65 159.138 t 0 r /Helvetica findfont 62.5185 sf 0 0 m (1.8) show NC gr 
 gsave  2268 2234 0 0 C 2205.2 159.138 t 0 r /Helvetica findfont 62.5185 sf 0 0 m (2) show NC gr  340 223 m 1966 Y s
 gsave  2268 2234 0 0 C 152.034 1953.7 t 90 r /Helvetica findfont 83.8316 sf 0 0 m (DR\(Q\)) show NC gr  400 402 m -60 X s 370 491 m -30 X s 370 581 m -30 X s 370 670 m -30 X s 400 759 m -60 X s 370 849 m -30 X s 370 938 m -30 X s 370 1027 m -30 X s
 400 1117 m -60 X s 370 1206 m -30 X s 370 1295 m -30 X s 370 1385 m -30 X s 400 1474 m -60 X s 370 1564 m -30 X s 370 1653 m -30 X s 370 1742 m -30 X s 400 1832 m -60 X s 370 1921 m -30 X s 370 2010 m -30 X s 370 2100 m -30 X s 400 2189 m -60 X s
 400 402 m -60 X s 370 313 m -30 X s 370 223 m -30 X s
 gsave  2268 2234 0 0 C 242.97 379.374 t 0 r /Helvetica findfont 62.5185 sf 0 0 m (0.6) show NC gr 
 gsave  2268 2234 0 0 C 242.97 737.434 t 0 r /Helvetica findfont 62.5185 sf 0 0 m (0.8) show NC gr 
 gsave  2268 2234 0 0 C 305.488 1092.65 t 0 r /Helvetica findfont 62.5185 sf 0 0 m (1) show NC gr 
 gsave  2268 2234 0 0 C 242.97 1450.71 t 0 r /Helvetica findfont 62.5185 sf 0 0 m (1.2) show NC gr 
 gsave  2268 2234 0 0 C 242.97 1808.77 t 0 r /Helvetica findfont 62.5185 sf 0 0 m (1.4) show NC gr 
 gsave  2268 2234 0 0 C 242.97 2166.83 t 0 r /Helvetica findfont 62.5185 sf 0 0 m (1.6) show NC gr 
 gsave  2268 2234 0 0 C 906.518 670.653 t 0 r /Helvetica-Bold findfont 72.4646 sf 0 0 m (DR PIONS) show NC gr 
 gsave  2268 2234 0 0 C 906.518 558.404 t 0 r /Helvetica-Bold findfont 72.4646 sf 0 0 m (ref. sample: EVENT MIX) show NC gr 
 gsave  2268 2234 0 0 C 906.518 447.576 t 0 r /Helvetica-Bold findfont 72.4646 sf 0 0 m (VELO tracks multiplicity: < 10) show NC gr 
 gr  gr showpage
end
%%EOF
