%!PS-Adobe-2.0 EPSF-2.0
%%BoundingBox:  0 0 567 558
%%Title: ./DR_pion_0c65_h3115_3_h3401_3.eps: DR_pion_0c65_h3115_3_h3401_3
%%Creator: ROOT Version 6.06/02
%%CreationDate: Wed Feb  1 16:20:58 2017
%%DocumentNeededResources: ProcSet (FontSetInit)
%%EndComments
%%BeginProlog
80 dict begin
/s {stroke} def /l {lineto} def /m {moveto} def /t {translate} def
/r {rotate} def /rl {roll}  def /R {repeat} def
/d {rlineto} def /rm {rmoveto} def /gr {grestore} def /f {eofill} def
/c {setrgbcolor} def /black {0 setgray} def /sd {setdash} def
/cl {closepath} def /sf {scalefont setfont} def /lw {setlinewidth} def
/box {m dup 0 exch d exch 0 d 0 exch neg d cl} def
/NC{systemdict begin initclip end}def/C{NC box clip newpath}def
/bl {box s} def /bf {gsave box gsave f grestore 1 lw [] 0 sd s grestore} def /Y { 0 exch d} def /X { 0 d} def 
/K {{pop pop 0 moveto} exch kshow} bind def
/ita {/ang 15 def gsave [1 0 ang dup sin exch cos div 1 0 0] concat} def 
/mp {newpath /y exch def /x exch def} def
/side {[w .77 mul w .23 mul] .385 w mul sd w 0 l currentpoint t -144 r} def
/mr {mp x y w2 0 360 arc} def /m24 {mr s} def /m20 {mr f} def
/mb {mp x y w2 add m w2 neg 0 d 0 w neg d w 0 d 0 w d cl} def
/mt {mp x y w2 add m w2 neg w neg d w 0 d cl} def
/m21 {mb f} def /m25 {mb s} def /m22 {mt f} def /m26{mt s} def
/m23 {mp x y w2 sub m w2 w d w neg 0 d cl f} def
/m27 {mp x y w2 add m w3 neg w2 neg d w3 w2 neg d w3 w2 d cl s} def
/m28 {mp x w2 sub y w2 sub w3 add m w3 0 d  0 w3 neg d w3 0 d 0 w3 d w3 0 d  0 w3 d w3 neg 0 d 0 w3 d w3 neg 0 d 0 w3 neg d w3 neg 0 d cl s } def
/m29 {mp gsave x w2 sub y w2 add w3 sub m currentpoint t 4 {side} repeat cl fill gr} def
/m30 {mp gsave x w2 sub y w2 add w3 sub m currentpoint t 4 {side} repeat cl s gr} def
/m31 {mp x y w2 sub m 0 w d x w2 sub y m w 0 d x w2 sub y w2 add m w w neg d x w2 sub y w2 sub m w w d s} def
/m32 {mp x y w2 sub m w2 w d w neg 0 d cl s} def
/m33 {mp x y w2 add m w3 neg w2 neg d w3 w2 neg d w3 w2 d cl f} def
/m34 {mp x w2 sub y w2 sub w3 add m w3 0 d  0 w3 neg d w3 0 d 0 w3 d w3 0 d  0 w3 d w3 neg 0 d 0 w3 d w3 neg 0 d 0 w3 neg d w3 neg 0 d cl f } def
/m2 {mp x y w2 sub m 0 w d x w2 sub y m w 0 d s} def
/m5 {mp x w2 sub y w2 sub m w w d x w2 sub y w2 add m w w neg d s} def
%%IncludeResource: ProcSet (FontSetInit)
%%IncludeResource: font Times-Roman
%%IncludeResource: font Times-Italic
%%IncludeResource: font Times-Bold
%%IncludeResource: font Times-BoldItalic
%%IncludeResource: font Helvetica
%%IncludeResource: font Helvetica-Oblique
%%IncludeResource: font Helvetica-Bold
%%IncludeResource: font Helvetica-BoldOblique
%%IncludeResource: font Courier
%%IncludeResource: font Courier-Oblique
%%IncludeResource: font Courier-Bold
%%IncludeResource: font Courier-BoldOblique
%%IncludeResource: font Symbol
%%IncludeResource: font ZapfDingbats
/reEncode {exch findfont dup length dict begin {1 index /FID eq  {pop pop} {def} ifelse } forall /Encoding exch def currentdict end dup /FontName get exch definefont pop } def [/Times-Bold /Times-Italic /Times-BoldItalic /Helvetica /Helvetica-Oblique
 /Helvetica-Bold /Helvetica-BoldOblique /Courier /Courier-Oblique /Courier-Bold /Courier-BoldOblique /Times-Roman /AvantGarde-Book /AvantGarde-BookOblique /AvantGarde-Demi /AvantGarde-DemiOblique /Bookman-Demi /Bookman-DemiItalic /Bookman-Light
 /Bookman-LightItalic /Helvetica-Narrow /Helvetica-Narrow-Bold /Helvetica-Narrow-BoldOblique /Helvetica-Narrow-Oblique /NewCenturySchlbk-Roman /NewCenturySchlbk-Bold /NewCenturySchlbk-BoldItalic /NewCenturySchlbk-Italic /Palatino-Bold
 /Palatino-BoldItalic /Palatino-Italic /Palatino-Roman ] {ISOLatin1Encoding reEncode } forall
%%EndProlog
%%BeginSetup
%%EndSetup
newpath  gsave  .25 .25 scale  gsave  0 0 t black[  ] 0 sd 6 lw 1 1 1 c 2268 2234 0 0 bf black 3 lw 1 1 1 c 1882 1966 340 223 bf black 1882 1966 340 223 bl 1 1 1 c 1882 1966 340 223 bf black 1882 1966 340 223 bl 0 0 1 c 6 lw 1 1 1 c 0 0 1 c 390 1033
 m 19 Y s 390 1063 m 20 Y s 3 lw /w 14 def /w2 {w 2 div} def /w3 {w 3 div} def 390 1058 m21 6 lw 394 1067 m 17 Y s 394 1096 m 18 Y s 3 lw 394 1090 m21 6 lw 399 1087 m 16 Y s 399 1115 m 16 Y s 3 lw 399 1109 m21 6 lw 404 1003 m 13 Y s 404 1028 m 13 Y s
 3 lw 404 1022 m21 6 lw 408 1081 m 13 Y s 408 1105 m 14 Y s 3 lw 408 1100 m21 6 lw 413 1096 m 12 Y s 413 1120 m 12 Y s 3 lw 413 1114 m21 6 lw 418 1075 m 11 Y s 418 1097 m 11 Y s 3 lw 418 1092 m21 6 lw 423 1069 m 10 Y s 423 1090 m 11 Y s 3 lw 423 1085
 m21 6 lw 427 1073 m 10 Y s 427 1094 m 10 Y s 3 lw 427 1088 m21 6 lw 432 1053 m 9 Y s 432 1073 m 9 Y s 3 lw 432 1068 m21 6 lw 437 1080 m 8 Y s 437 1100 m 8 Y s 3 lw 437 1094 m21 6 lw 441 1071 m 8 Y s 441 1090 m 8 Y s 3 lw 441 1084 m21 6 lw 446 1062 m
 7 Y s 446 1080 m 8 Y s 3 lw 446 1075 m21 6 lw 451 1079 m 7 Y s 451 1097 m 7 Y s 3 lw 451 1091 m21 6 lw 455 1090 m 6 Y s 455 1108 m 6 Y s 3 lw 455 1102 m21 6 lw 460 1071 m 7 Y s 460 1089 m 6 Y s 3 lw 460 1083 m21 6 lw 465 1050 m 5 Y s 465 1067 m 5 Y
 s 3 lw 465 1061 m21 6 lw 470 1086 m 5 Y s 470 1103 m 5 Y s 3 lw 470 1097 m21 6 lw 474 1070 m 5 Y s 474 1087 m 5 Y s 3 lw 474 1081 m21 6 lw 479 1060 m 5 Y s 479 1077 m 5 Y s 3 lw 479 1071 m21 6 lw 484 1062 m 5 Y s 484 1079 m 4 Y s 3 lw 484 1073 m21 6
 lw 488 1059 m 5 Y s 488 1075 m 5 Y s 3 lw 488 1069 m21 6 lw 493 1075 m 4 Y s 493 1091 m 4 Y s 3 lw 493 1085 m21 6 lw 498 1074 m 4 Y s 498 1089 m 4 Y s 3 lw 498 1083 m21 6 lw 502 1052 m 4 Y s 502 1067 m 4 Y s 3 lw 502 1061 m21 6 lw 507 1057 m 3 Y s
 507 1072 m 3 Y s 3 lw 507 1066 m21 6 lw 512 1053 m 3 Y s 512 1068 m 3 Y s 3 lw 512 1062 m21 6 lw 517 1058 m 3 Y s 517 1073 m 3 Y s 3 lw 517 1067 m21 6 lw 521 1059 m 3 Y s 521 1074 m 3 Y s 3 lw 521 1068 m21 6 lw 526 1064 m 3 Y s 526 1079 m 3 Y s 3 lw
 526 1073 m21 6 lw 531 1051 m 3 Y s 531 1065 m 3 Y s 3 lw 531 1060 m21 6 lw 535 1066 m 3 Y s 535 1080 m 3 Y s 3 lw 535 1074 m21 6 lw 540 1058 m 3 Y s 540 1073 m 2 Y s 3 lw 540 1067 m21 6 lw 545 1070 m 3 Y s 545 1084 m 3 Y s 3 lw 545 1079 m21 6 lw 550
 1069 m 3 Y s 550 1083 m 3 Y s 3 lw 550 1077 m21 6 lw 554 1070 m 3 Y s 554 1084 m 2 Y s 3 lw 554 1078 m21 6 lw 559 1072 m 2 Y s 559 1085 m 3 Y s 3 lw 559 1080 m21 6 lw 564 1072 m 3 Y s 564 1086 m 2 Y s 3 lw 564 1080 m21 6 lw 568 1054 m 2 Y s 568 1067
 m 2 Y s 3 lw 568 1061 m21 6 lw 573 1055 m 2 Y s 573 1069 m 2 Y s 3 lw 573 1063 m21 6 lw 578 1061 m 2 Y s 578 1075 m 2 Y s 3 lw 578 1069 m21 6 lw 582 1065 m 2 Y s 582 1078 m 2 Y s 3 lw 582 1073 m21 6 lw 587 1056 m 2 Y s 587 1070 m 1 Y s 3 lw 587 1064
 m21 6 lw 592 1066 m 1 Y s 592 1079 m 2 Y s 3 lw 592 1073 m21 6 lw 597 1063 m 1 Y s 597 1076 m 1 Y s 3 lw 597 1070 m21 6 lw 601 1077 m 2 Y s 601 1090 m 2 Y s 3 lw 601 1085 m21 6 lw 606 1052 m 2 Y s 606 1065 m 2 Y s 3 lw 606 1060 m21 6 lw 611 1072 m 1
 Y s 611 1085 m 1 Y s 3 lw 611 1079 m21 6 lw 615 1075 m 2 Y s 615 1088 m 2 Y s 3 lw 615 1083 m21 6 lw 620 1081 m 2 Y s 620 1094 m 2 Y s 3 lw 620 1089 m21 6 lw 625 1079 m 2 Y s 625 1092 m 1 Y s 3 lw 625 1086 m21 6 lw 630 1089 m 2 Y s 630 1102 m 2 Y s
 3 lw 630 1097 m21 6 lw 634 1084 m 2 Y s 634 1097 m 1 Y s 3 lw 634 1091 m21 6 lw 639 1097 m 1 Y s 639 1110 m 1 Y s 3 lw 639 1104 m21 6 lw 644 1091 m 2 Y s 644 1104 m 1 Y s 3 lw 644 1098 m21 6 lw 648 1099 m 1 Y s 648 1111 m 2 Y s 3 lw 648 1106 m21 6
 lw 653 1093 m 1 Y s 653 1106 m 1 Y s 3 lw 653 1100 m21 6 lw 658 1094 m 1 Y s 658 1106 m 1 Y s 3 lw 658 1101 m21 6 lw 662 1088 m 1 Y s 662 1100 m 1 Y s 3 lw 662 1095 m21 6 lw 667 1086 m 1 Y s 667 1099 m 1 Y s 3 lw 667 1093 m21 6 lw 672 1095 m 1 Y s
 672 1107 m 1 Y s 3 lw 672 1101 m21 6 lw 677 1096 m 1 Y s 677 1109 m 1 Y s 3 lw 677 1103 m21 6 lw 681 1096 m s 681 1108 m 1 Y s 3 lw 681 1102 m21 6 lw 686 1091 m 1 Y s 686 1103 m 1 Y s 3 lw 686 1097 m21 6 lw 691 1100 m 1 Y s 691 1113 m 1 Y s 3 lw 691
 1107 m21 6 lw 695 1095 m 1 Y s 695 1107 m 1 Y s 3 lw 695 1101 m21 6 lw 700 1093 m s 700 1105 m s 3 lw 700 1099 m21 6 lw 705 1096 m 1 Y s 705 1108 m 1 Y s 3 lw 705 1102 m21 6 lw 710 1091 m 1 Y s 710 1103 m 1 Y s 3 lw 710 1098 m21 6 lw 714 1105 m 1 Y
 s 714 1117 m 1 Y s 3 lw 714 1111 m21 6 lw 719 1104 m s 719 1116 m s 3 lw 719 1110 m21 6 lw 724 1103 m s 724 1115 m s 3 lw 724 1109 m21 6 lw 728 1092 m s 728 1104 m s 3 lw 728 1098 m21 6 lw 733 1100 m 1 Y s 733 1112 m 1 Y s 3 lw 733 1107 m21 6 lw 738
 1095 m 1 Y s 738 1107 m 1 Y s 3 lw 738 1102 m21 6 lw 742 1092 m 1 Y s 742 1104 m s 3 lw 742 1098 m21 6 lw 747 1101 m 1 Y s 747 1113 m 1 Y s 3 lw 747 1108 m21 6 lw 752 1112 m s 752 1124 m s 3 lw 752 1118 m21 6 lw 757 1095 m 1 Y s 757 1107 m 1 Y s 3
 lw 757 1102 m21 6 lw 761 1108 m 1 Y s 761 1120 m s 3 lw 761 1114 m21 6 lw 766 1101 m s 766 1113 m s 3 lw 766 1107 m21 6 lw 771 1099 m s 771 1111 m s 3 lw 771 1105 m21 6 lw 775 1105 m 1 Y s 775 1117 m s 3 lw 775 1111 m21 6 lw 780 1100 m s 780 1112 m
 s 3 lw 780 1106 m21 6 lw 785 1111 m s 785 1122 m 1 Y s 3 lw 785 1117 m21 6 lw 790 1116 m 1 Y s 790 1128 m 1 Y s 3 lw 790 1123 m21 6 lw 794 1116 m 1 Y s 794 1128 m 1 Y s 3 lw 794 1122 m21 6 lw 799 1114 m s 799 1126 m s 3 lw 799 1120 m21 6 lw 804 1106
 m s 804 1117 m 1 Y s 3 lw 804 1112 m21 6 lw 808 1108 m s 808 1120 m s 3 lw 808 1114 m21 6 lw 813 1104 m s 813 1116 m s 3 lw 813 1110 m21 6 lw 818 1111 m s 818 1122 m 1 Y s 3 lw 818 1117 m21 6 lw 822 1121 m s 822 1132 m 1 Y s 3 lw 822 1127 m21 6 lw
 827 1111 m s 827 1122 m s 3 lw 827 1116 m21 6 lw 832 1110 m s 832 1121 m 1 Y s 3 lw 832 1116 m21 6 lw 837 1119 m 1 Y s 837 1131 m s 3 lw 837 1125 m21 6 lw 841 1109 m s 841 1121 m s 3 lw 841 1115 m21 6 lw 846 1121 m s 846 1132 m 1 Y s 3 lw 846 1127
 m21 6 lw 851 1118 m 1 Y s 851 1130 m s 3 lw 851 1124 m21 6 lw 855 1121 m 1 Y s 855 1133 m s 3 lw 855 1127 m21 6 lw 860 1125 m s 860 1137 m s 3 lw 860 1131 m21 6 lw 865 1104 m 1 Y s 865 1116 m s 3 lw 865 1110 m21 6 lw 870 1116 m 1 Y s 870 1128 m s 3
 lw 870 1122 m21 6 lw 874 1134 m s 874 1146 m s 3 lw 874 1140 m21 6 lw 879 1119 m s 879 1130 m s 3 lw 879 1124 m21 6 lw 884 1114 m 1 Y s 884 1126 m s 3 lw 884 1120 m21 6 lw 888 1114 m s 888 1126 m s 3 lw 888 1120 m21 6 lw 893 1121 m s 893 1133 m s 3
 lw 893 1127 m21 6 lw 898 1130 m s 898 1142 m s 3 lw 898 1136 m21 6 lw 902 1126 m 1 Y s 902 1138 m s 3 lw 902 1132 m21 6 lw 907 1116 m 1 Y s 907 1128 m s 3 lw 907 1122 m21 6 lw 912 1121 m s 912 1132 m 1 Y s 3 lw 912 1127 m21 6 lw 917 1129 m s 917
 1141 m s 3 lw 917 1135 m21 6 lw 921 1120 m s 921 1132 m s 3 lw 921 1126 m21 6 lw 926 1104 m s 926 1115 m s 3 lw 926 1110 m21 6 lw 931 1120 m s 931 1131 m s 3 lw 931 1125 m21 6 lw 935 1120 m s 935 1131 m 1 Y s 3 lw 935 1126 m21 6 lw 940 1123 m s 940
 1135 m s 3 lw 940 1129 m21 6 lw 945 1113 m 1 Y s 945 1125 m s 3 lw 945 1119 m21 6 lw 950 1114 m s 950 1126 m s 3 lw 950 1120 m21 6 lw 954 1111 m s 954 1123 m s 3 lw 954 1117 m21 6 lw 959 1102 m s 959 1114 m s 3 lw 959 1108 m21 6 lw 964 1108 m s 964
 1119 m 1 Y s 3 lw 964 1114 m21 6 lw 968 1107 m s 968 1119 m s 3 lw 968 1113 m21 6 lw 973 1104 m s 973 1116 m s 3 lw 973 1110 m21 6 lw 978 1095 m 1 Y s 978 1107 m s 3 lw 978 1101 m21 6 lw 982 1093 m s 982 1105 m s 3 lw 982 1099 m21 6 lw 987 1091 m 1
 Y s 987 1103 m s 3 lw 987 1097 m21 6 lw 992 1089 m s 992 1100 m s 3 lw 992 1095 m21 6 lw 997 1088 m s 997 1099 m s 3 lw 997 1093 m21 6 lw 1001 1092 m 1 Y s 1001 1104 m s 3 lw 1001 1098 m21 6 lw 1006 1083 m s 1006 1095 m s 3 lw 1006 1089 m21 6 lw
 1011 1076 m s 1011 1087 m s 3 lw 1011 1082 m21 6 lw 1015 1068 m s 1015 1079 m s 3 lw 1015 1073 m21 6 lw 1020 1069 m s 1020 1081 m s 3 lw 1020 1075 m21 6 lw 1025 1062 m s 1025 1074 m s 3 lw 1025 1068 m21 6 lw 1030 1057 m s 1030 1069 m s 3 lw 1030
 1063 m21 6 lw 1034 1060 m s 1034 1072 m s 3 lw 1034 1066 m21 6 lw 1039 1069 m s 1039 1081 m s 3 lw 1039 1075 m21 6 lw 1044 1071 m s 1044 1082 m 1 Y s 3 lw 1044 1077 m21 6 lw 1048 1081 m 1 Y s 1048 1093 m s 3 lw 1048 1087 m21 6 lw 1053 1070 m s 1053
 1082 m s 3 lw 1053 1076 m21 6 lw 1058 1070 m s 1058 1081 m 1 Y s 3 lw 1058 1076 m21 6 lw 1062 1076 m s 1062 1087 m 1 Y s 3 lw 1062 1082 m21 6 lw 1067 1076 m s 1067 1087 m 1 Y s 3 lw 1067 1082 m21 6 lw 1072 1077 m s 1072 1089 m s 3 lw 1072 1083 m21 6
 lw 1077 1085 m 1 Y s 1077 1097 m s 3 lw 1077 1091 m21 6 lw 1081 1074 m s 1081 1086 m s 3 lw 1081 1080 m21 6 lw 1086 1073 m s 1086 1084 m 1 Y s 3 lw 1086 1079 m21 6 lw 1091 1078 m s 1091 1089 m 1 Y s 3 lw 1091 1084 m21 6 lw 1095 1079 m s 1095 1091 m
 s 3 lw 1095 1085 m21 6 lw 1100 1069 m 1 Y s 1100 1081 m s 3 lw 1100 1075 m21 6 lw 1105 1083 m 1 Y s 1105 1095 m 1 Y s 3 lw 1105 1090 m21 6 lw 1110 1086 m 1 Y s 1110 1098 m 1 Y s 3 lw 1110 1092 m21 6 lw 1114 1091 m s 1114 1103 m s 3 lw 1114 1097 m21
 6 lw 1119 1091 m 1 Y s 1119 1103 m 1 Y s 3 lw 1119 1097 m21 6 lw 1124 1089 m s 1124 1101 m s 3 lw 1124 1095 m21 6 lw 1128 1079 m s 1128 1091 m s 3 lw 1128 1085 m21 6 lw 1133 1079 m 1 Y s 1133 1091 m 1 Y s 3 lw 1133 1086 m21 6 lw 1138 1098 m s 1138
 1110 m s 3 lw 1138 1104 m21 6 lw 1142 1084 m 1 Y s 1142 1096 m 1 Y s 3 lw 1142 1091 m21 6 lw 1147 1094 m 1 Y s 1147 1106 m 1 Y s 3 lw 1147 1101 m21 6 lw 1152 1099 m 1 Y s 1152 1111 m 1 Y s 3 lw 1152 1105 m21 6 lw 1157 1105 m 1 Y s 1157 1117 m 1 Y s
 3 lw 1157 1112 m21 6 lw 1161 1111 m 1 Y s 1161 1123 m 1 Y s 3 lw 1161 1117 m21 6 lw 1166 1098 m 1 Y s 1166 1110 m 1 Y s 3 lw 1166 1105 m21 6 lw 1171 1101 m 1 Y s 1171 1113 m 1 Y s 3 lw 1171 1107 m21 6 lw 1175 1112 m 1 Y s 1175 1124 m 1 Y s 3 lw 1175
 1118 m21 6 lw 1180 1102 m 1 Y s 1180 1114 m 1 Y s 3 lw 1180 1108 m21 6 lw 1185 1108 m 1 Y s 1185 1120 m 1 Y s 3 lw 1185 1114 m21 6 lw 1190 1110 m 1 Y s 1190 1123 m s 3 lw 1190 1117 m21 6 lw 1194 1128 m 1 Y s 1194 1140 m 1 Y s 3 lw 1194 1135 m21 6 lw
 1199 1110 m 1 Y s 1199 1122 m 1 Y s 3 lw 1199 1116 m21 6 lw 1204 1119 m 1 Y s 1204 1131 m 1 Y s 3 lw 1204 1125 m21 6 lw 1208 1108 m 1 Y s 1208 1120 m 1 Y s 3 lw 1208 1114 m21 6 lw 1213 1129 m 1 Y s 1213 1141 m 1 Y s 3 lw 1213 1135 m21 6 lw 1218 1129
 m 1 Y s 1218 1141 m 1 Y s 3 lw 1218 1136 m21 6 lw 1222 1117 m 1 Y s 1222 1129 m 1 Y s 3 lw 1222 1124 m21 6 lw 1227 1131 m 1 Y s 1227 1143 m 1 Y s 3 lw 1227 1138 m21 6 lw 1232 1113 m 1 Y s 1232 1125 m 1 Y s 3 lw 1232 1119 m21 6 lw 1237 1121 m 1 Y s
 1237 1134 m 1 Y s 3 lw 1237 1128 m21 6 lw 1241 1111 m 1 Y s 1241 1123 m 1 Y s 3 lw 1241 1117 m21 6 lw 1246 1108 m 1 Y s 1246 1121 m 1 Y s 3 lw 1246 1115 m21 6 lw 1251 1108 m 1 Y s 1251 1121 m 1 Y s 3 lw 1251 1115 m21 6 lw 1255 1114 m 1 Y s 1255 1126
 m 1 Y s 3 lw 1255 1120 m21 6 lw 1260 1110 m 1 Y s 1260 1122 m 2 Y s 3 lw 1260 1117 m21 6 lw 1265 1120 m 2 Y s 1265 1133 m 1 Y s 3 lw 1265 1127 m21 6 lw 1269 1118 m 1 Y s 1269 1131 m 1 Y s 3 lw 1269 1125 m21 6 lw 1274 1116 m 1 Y s 1274 1128 m 1 Y s 3
 lw 1274 1123 m21 6 lw 1279 1109 m 1 Y s 1279 1122 m 1 Y s 3 lw 1279 1116 m21 6 lw 1284 1121 m 2 Y s 1284 1134 m 1 Y s 3 lw 1284 1128 m21 6 lw 1288 1118 m 1 Y s 1288 1130 m 2 Y s 3 lw 1288 1125 m21 6 lw 1293 1108 m 2 Y s 1293 1121 m 1 Y s 3 lw 1293
 1115 m21 6 lw 1298 1115 m 1 Y s 1298 1128 m 1 Y s 3 lw 1298 1122 m21 6 lw 1302 1116 m 1 Y s 1302 1129 m 1 Y s 3 lw 1302 1123 m21 6 lw 1307 1122 m 1 Y s 1307 1134 m 2 Y s 3 lw 1307 1129 m21 6 lw 1312 1122 m 1 Y s 1312 1134 m 2 Y s 3 lw 1312 1129 m21
 6 lw 1317 1122 m 2 Y s 1317 1135 m 2 Y s 3 lw 1317 1129 m21 6 lw 1321 1131 m 1 Y s 1321 1144 m 1 Y s 3 lw 1321 1138 m21 6 lw 1326 1121 m 2 Y s 1326 1134 m 2 Y s 3 lw 1326 1128 m21 6 lw 1331 1117 m 1 Y s 1331 1130 m 1 Y s 3 lw 1331 1124 m21 6 lw 1335
 1121 m 1 Y s 1335 1134 m 1 Y s 3 lw 1335 1128 m21 6 lw 1340 1110 m 2 Y s 1340 1123 m 1 Y s 3 lw 1340 1117 m21 6 lw 1345 1123 m 2 Y s 1345 1136 m 2 Y s 3 lw 1345 1131 m21 6 lw 1349 1125 m 2 Y s 1349 1138 m 2 Y s 3 lw 1349 1132 m21 6 lw 1354 1132 m 2
 Y s 1354 1145 m 2 Y s 3 lw 1354 1140 m21 6 lw 1359 1125 m 1 Y s 1359 1138 m 2 Y s 3 lw 1359 1132 m21 6 lw 1364 1144 m 1 Y s 1364 1157 m 1 Y s 3 lw 1364 1151 m21 6 lw 1368 1107 m 2 Y s 1368 1120 m 2 Y s 3 lw 1368 1114 m21 6 lw 1373 1108 m 2 Y s 1373
 1121 m 2 Y s 3 lw 1373 1116 m21 6 lw 1378 1117 m 2 Y s 1378 1130 m 2 Y s 3 lw 1378 1124 m21 6 lw 1382 1116 m 1 Y s 1382 1129 m 2 Y s 3 lw 1382 1123 m21 6 lw 1387 1124 m 1 Y s 1387 1137 m 2 Y s 3 lw 1387 1131 m21 6 lw 1392 1122 m 2 Y s 1392 1135 m 2
 Y s 3 lw 1392 1129 m21 6 lw 1397 1125 m 2 Y s 1397 1138 m 2 Y s 3 lw 1397 1133 m21 6 lw 1401 1138 m 2 Y s 1401 1151 m 2 Y s 3 lw 1401 1146 m21 6 lw 1406 1119 m 2 Y s 1406 1132 m 2 Y s 3 lw 1406 1126 m21 6 lw 1411 1120 m 2 Y s 1411 1133 m 2 Y s 3 lw
 1411 1127 m21 6 lw 1415 1114 m 2 Y s 1415 1128 m 2 Y s 3 lw 1415 1122 m21 6 lw 1420 1127 m 2 Y s 1420 1141 m 2 Y s 3 lw 1420 1135 m21 6 lw 1425 1130 m 2 Y s 1425 1143 m 3 Y s 3 lw 1425 1138 m21 6 lw 1429 1129 m 2 Y s 1429 1143 m 2 Y s 3 lw 1429 1137
 m21 6 lw 1434 1118 m 2 Y s 1434 1132 m 2 Y s 3 lw 1434 1126 m21 6 lw 1439 1122 m 2 Y s 1439 1135 m 2 Y s 3 lw 1439 1129 m21 6 lw 1444 1122 m 2 Y s 1444 1135 m 2 Y s 3 lw 1444 1130 m21 6 lw 1448 1143 m 2 Y s 1448 1156 m 3 Y s 3 lw 1448 1151 m21 6 lw
 1453 1115 m 2 Y s 1453 1129 m 2 Y s 3 lw 1453 1123 m21 6 lw 1458 1130 m 2 Y s 1458 1143 m 3 Y s 3 lw 1458 1138 m21 6 lw 1462 1117 m 2 Y s 1462 1131 m 2 Y s 3 lw 1462 1125 m21 6 lw 1467 1129 m 2 Y s 1467 1143 m 2 Y s 3 lw 1467 1137 m21 6 lw 1472 1134
 m 2 Y s 1472 1147 m 3 Y s 3 lw 1472 1142 m21 6 lw 1477 1131 m 3 Y s 1477 1145 m 2 Y s 3 lw 1477 1139 m21 6 lw 1481 1137 m 3 Y s 1481 1151 m 3 Y s 3 lw 1481 1145 m21 6 lw 1486 1125 m 3 Y s 1486 1139 m 3 Y s 3 lw 1486 1134 m21 6 lw 1491 1139 m 2 Y s
 1491 1152 m 3 Y s 3 lw 1491 1147 m21 6 lw 1495 1133 m 3 Y s 1495 1147 m 3 Y s 3 lw 1495 1141 m21 6 lw 1500 1138 m 2 Y s 1500 1151 m 3 Y s 3 lw 1500 1146 m21 6 lw 1505 1132 m 3 Y s 1505 1146 m 3 Y s 3 lw 1505 1140 m21 6 lw 1509 1131 m 3 Y s 1509 1145
 m 3 Y s 3 lw 1509 1139 m21 6 lw 1514 1124 m 2 Y s 1514 1138 m 2 Y s 3 lw 1514 1132 m21 6 lw 1519 1128 m 3 Y s 1519 1142 m 3 Y s 3 lw 1519 1137 m21 6 lw 1524 1129 m 3 Y s 1524 1143 m 3 Y s 3 lw 1524 1137 m21 6 lw 1528 1132 m 2 Y s 1528 1146 m 2 Y s 3
 lw 1528 1140 m21 6 lw 1533 1130 m 2 Y s 1533 1144 m 3 Y s 3 lw 1533 1138 m21 6 lw 1538 1139 m 3 Y s 1538 1153 m 3 Y s 3 lw 1538 1147 m21 6 lw 1542 1137 m 2 Y s 1542 1151 m 3 Y s 3 lw 1542 1145 m21 6 lw 1547 1134 m 3 Y s 1547 1148 m 3 Y s 3 lw 1547
 1143 m21 6 lw 1552 1129 m 3 Y s 1552 1143 m 3 Y s 3 lw 1552 1138 m21 6 lw 1557 1124 m 3 Y s 1557 1138 m 3 Y s 3 lw 1557 1133 m21 6 lw 1561 1136 m 3 Y s 1561 1150 m 3 Y s 3 lw 1561 1144 m21 6 lw 1566 1122 m 3 Y s 1566 1137 m 3 Y s 3 lw 1566 1131 m21
 6 lw 1571 1141 m 3 Y s 1571 1155 m 3 Y s 3 lw 1571 1149 m21 6 lw 1575 1131 m 3 Y s 1575 1145 m 3 Y s 3 lw 1575 1140 m21 6 lw 1580 1129 m 3 Y s 1580 1143 m 3 Y s 3 lw 1580 1138 m21 6 lw 1585 1135 m 3 Y s 1585 1150 m 3 Y s 3 lw 1585 1144 m21 6 lw 1589
 1136 m 3 Y s 1589 1150 m 4 Y s 3 lw 1589 1145 m21 6 lw 1594 1133 m 3 Y s 1594 1148 m 3 Y s 3 lw 1594 1142 m21 6 lw 1599 1144 m 3 Y s 1599 1158 m 4 Y s 3 lw 1599 1153 m21 6 lw 1604 1123 m 3 Y s 1604 1137 m 4 Y s 3 lw 1604 1132 m21 6 lw 1608 1137 m 3
 Y s 1608 1151 m 4 Y s 3 lw 1608 1146 m21 6 lw 1613 1136 m 3 Y s 1613 1150 m 4 Y s 3 lw 1613 1145 m21 6 lw 1618 1124 m 4 Y s 1618 1139 m 3 Y s 3 lw 1618 1133 m21 6 lw 1622 1113 m 4 Y s 1622 1128 m 3 Y s 3 lw 1622 1122 m21 6 lw 1627 1139 m 4 Y s 1627
 1154 m 4 Y s 3 lw 1627 1148 m21 6 lw 1632 1131 m 4 Y s 1632 1146 m 3 Y s 3 lw 1632 1140 m21 6 lw 1637 1138 m 3 Y s 1637 1153 m 3 Y s 3 lw 1637 1147 m21 6 lw 1641 1142 m 4 Y s 1641 1157 m 4 Y s 3 lw 1641 1151 m21 6 lw 1646 1140 m 3 Y s 1646 1155 m 3
 Y s 3 lw 1646 1149 m21 6 lw 1651 1127 m 4 Y s 1651 1142 m 4 Y s 3 lw 1651 1136 m21 6 lw 1655 1137 m 4 Y s 1655 1152 m 4 Y s 3 lw 1655 1147 m21 6 lw 1660 1141 m 4 Y s 1660 1156 m 4 Y s 3 lw 1660 1151 m21 6 lw 1665 1138 m 4 Y s 1665 1153 m 4 Y s 3 lw
 1665 1147 m21 6 lw 1669 1139 m 4 Y s 1669 1155 m 4 Y s 3 lw 1669 1149 m21 6 lw 1674 1154 m 4 Y s 1674 1169 m 4 Y s 3 lw 1674 1164 m21 6 lw 1679 1147 m 4 Y s 1679 1163 m 4 Y s 3 lw 1679 1157 m21 6 lw 1684 1131 m 4 Y s 1684 1147 m 4 Y s 3 lw 1684 1141
 m21 6 lw 1688 1132 m 4 Y s 1688 1147 m 4 Y s 3 lw 1688 1141 m21 6 lw 1693 1137 m 4 Y s 1693 1152 m 4 Y s 3 lw 1693 1147 m21 6 lw 1698 1129 m 4 Y s 1698 1144 m 4 Y s 3 lw 1698 1139 m21 6 lw 1702 1135 m 4 Y s 1702 1151 m 4 Y s 3 lw 1702 1145 m21 6 lw
 1707 1129 m 4 Y s 1707 1144 m 4 Y s 3 lw 1707 1138 m21 6 lw 1712 1128 m 4 Y s 1712 1144 m 4 Y s 3 lw 1712 1138 m21 6 lw 1717 1126 m 5 Y s 1717 1142 m 4 Y s 3 lw 1717 1136 m21 6 lw 1721 1144 m 4 Y s 1721 1159 m 5 Y s 3 lw 1721 1154 m21 6 lw 1726 1145
 m 4 Y s 1726 1160 m 5 Y s 3 lw 1726 1155 m21 6 lw 1731 1148 m 4 Y s 1731 1163 m 5 Y s 3 lw 1731 1158 m21 6 lw 1735 1130 m 5 Y s 1735 1146 m 4 Y s 3 lw 1735 1140 m21 6 lw 1740 1147 m 4 Y s 1740 1163 m 4 Y s 3 lw 1740 1157 m21 6 lw 1745 1154 m 5 Y s
 1745 1170 m 5 Y s 3 lw 1745 1165 m21 6 lw 1749 1145 m 4 Y s 1749 1161 m 4 Y s 3 lw 1749 1155 m21 6 lw 1754 1123 m 5 Y s 1754 1139 m 5 Y s 3 lw 1754 1134 m21 6 lw 1759 1144 m 5 Y s 1759 1160 m 5 Y s 3 lw 1759 1154 m21 6 lw 1764 1158 m 5 Y s 1764 1174
 m 5 Y s 3 lw 1764 1169 m21 6 lw 1768 1136 m 5 Y s 1768 1152 m 5 Y s 3 lw 1768 1147 m21 6 lw 1773 1138 m 5 Y s 1773 1154 m 5 Y s 3 lw 1773 1149 m21 6 lw 1778 1143 m 5 Y s 1778 1159 m 5 Y s 3 lw 1778 1154 m21 6 lw 1782 1152 m 5 Y s 1782 1168 m 5 Y s 3
 lw 1782 1163 m21 6 lw 1787 1141 m 5 Y s 1787 1157 m 5 Y s 3 lw 1787 1151 m21 6 lw 1792 1150 m 4 Y s 1792 1166 m 5 Y s 3 lw 1792 1160 m21 6 lw 1797 1139 m 5 Y s 1797 1155 m 5 Y s 3 lw 1797 1149 m21 6 lw 1801 1128 m 5 Y s 1801 1144 m 5 Y s 3 lw 1801
 1139 m21 6 lw 1806 1156 m 5 Y s 1806 1172 m 5 Y s 3 lw 1806 1167 m21 6 lw 1811 1129 m 5 Y s 1811 1145 m 5 Y s 3 lw 1811 1140 m21 6 lw 1815 1145 m 5 Y s 1815 1161 m 6 Y s 3 lw 1815 1156 m21 6 lw 1820 1150 m 5 Y s 1820 1166 m 6 Y s 3 lw 1820 1161 m21
 6 lw 1825 1151 m 5 Y s 1825 1168 m 5 Y s 3 lw 1825 1162 m21 6 lw 1829 1133 m 5 Y s 1829 1149 m 5 Y s 3 lw 1829 1144 m21 6 lw 1834 1139 m 5 Y s 1834 1156 m 5 Y s 3 lw 1834 1150 m21 6 lw 1839 1135 m 6 Y s 1839 1152 m 5 Y s 3 lw 1839 1146 m21 6 lw 1844
 1146 m 5 Y s 1844 1163 m 5 Y s 3 lw 1844 1157 m21 6 lw 1848 1161 m 6 Y s 1848 1178 m 6 Y s 3 lw 1848 1173 m21 6 lw 1853 1135 m 6 Y s 1853 1152 m 6 Y s 3 lw 1853 1147 m21 6 lw 1858 1133 m 5 Y s 1858 1150 m 5 Y s 3 lw 1858 1144 m21 6 lw 1862 1148 m 6
 Y s 1862 1165 m 6 Y s 3 lw 1862 1160 m21 6 lw 1867 1147 m 5 Y s 1867 1164 m 5 Y s 3 lw 1867 1158 m21 6 lw 1872 1161 m 6 Y s 1872 1178 m 6 Y s 3 lw 1872 1173 m21 6 lw 1877 1131 m 6 Y s 1877 1148 m 6 Y s 3 lw 1877 1143 m21 6 lw 1881 1147 m 6 Y s 1881
 1164 m 6 Y s 3 lw 1881 1158 m21 6 lw 1886 1152 m 6 Y s 1886 1169 m 6 Y s 3 lw 1886 1163 m21 6 lw 1891 1139 m 6 Y s 1891 1156 m 6 Y s 3 lw 1891 1151 m21 6 lw 1895 1147 m 5 Y s 1895 1164 m 6 Y s 3 lw 1895 1158 m21 6 lw 1900 1146 m 6 Y s 1900 1164 m 6
 Y s 3 lw 1900 1158 m21 6 lw 1905 1147 m 6 Y s 1905 1165 m 6 Y s 3 lw 1905 1159 m21 6 lw 1909 1130 m 6 Y s 1909 1147 m 6 Y s 3 lw 1909 1141 m21 6 lw 1914 1142 m 7 Y s 1914 1160 m 6 Y s 3 lw 1914 1154 m21 6 lw 1919 1159 m 6 Y s 1919 1177 m 6 Y s 3 lw
 1919 1171 m21 6 lw 1924 1145 m 6 Y s 1924 1163 m 6 Y s 3 lw 1924 1157 m21 6 lw 1928 1151 m 6 Y s 1928 1169 m 6 Y s 3 lw 1928 1163 m21 6 lw 1933 1142 m 7 Y s 1933 1160 m 6 Y s 3 lw 1933 1154 m21 6 lw 1938 1166 m 6 Y s 1938 1184 m 6 Y s 3 lw 1938 1178
 m21 6 lw 1942 1160 m 7 Y s 1942 1178 m 7 Y s 3 lw 1942 1173 m21 6 lw 1947 1154 m 7 Y s 1947 1172 m 7 Y s 3 lw 1947 1166 m21 6 lw 1952 1145 m 7 Y s 1952 1163 m 7 Y s 3 lw 1952 1157 m21 6 lw 1957 1144 m 6 Y s 1957 1162 m 6 Y s 3 lw 1957 1156 m21 6 lw
 1961 1155 m 7 Y s 1961 1173 m 7 Y s 3 lw 1961 1167 m21 6 lw 1966 1121 m 7 Y s 1966 1139 m 7 Y s 3 lw 1966 1133 m21 6 lw 1971 1146 m 7 Y s 1971 1164 m 7 Y s 3 lw 1971 1159 m21 6 lw 1975 1150 m 7 Y s 1975 1169 m 7 Y s 3 lw 1975 1163 m21 6 lw 1980 1137
 m 7 Y s 1980 1155 m 7 Y s 3 lw 1980 1150 m21 6 lw 1985 1151 m 6 Y s 1985 1169 m 7 Y s 3 lw 1985 1163 m21 6 lw 1989 1171 m 7 Y s 1989 1189 m 7 Y s 3 lw 1989 1183 m21 6 lw 1994 1139 m 7 Y s 1994 1158 m 7 Y s 3 lw 1994 1152 m21 6 lw 1999 1149 m 7 Y s
 1999 1167 m 7 Y s 3 lw 1999 1162 m21 6 lw 2004 1153 m 7 Y s 2004 1171 m 8 Y s 3 lw 2004 1166 m21 6 lw 2008 1150 m 7 Y s 2008 1169 m 7 Y s 3 lw 2008 1163 m21 6 lw 2013 1148 m 7 Y s 2013 1166 m 8 Y s 3 lw 2013 1161 m21 6 lw 2018 1153 m 7 Y s 2018 1171
 m 8 Y s 3 lw 2018 1166 m21 6 lw 2022 1161 m 7 Y s 2022 1180 m 7 Y s 3 lw 2022 1174 m21 6 lw 2027 1142 m 7 Y s 2027 1161 m 7 Y s 3 lw 2027 1155 m21 6 lw 2032 1144 m 7 Y s 2032 1163 m 7 Y s 3 lw 2032 1157 m21 6 lw 2036 1149 m 7 Y s 2036 1168 m 7 Y s 3
 lw 2036 1162 m21 6 lw 2041 1141 m 8 Y s 2041 1160 m 8 Y s 3 lw 2041 1155 m21 6 lw 2046 1149 m 8 Y s 2046 1168 m 8 Y s 3 lw 2046 1163 m21 6 lw 2051 1134 m 8 Y s 2051 1153 m 7 Y s 3 lw 2051 1147 m21 6 lw 2055 1172 m 8 Y s 2055 1191 m 8 Y s 3 lw 2055
 1185 m21 6 lw 2060 1153 m 8 Y s 2060 1172 m 8 Y s 3 lw 2060 1166 m21 6 lw 2065 1155 m 8 Y s 2065 1175 m 8 Y s 3 lw 2065 1169 m21 6 lw 2069 1152 m 8 Y s 2069 1172 m 8 Y s 3 lw 2069 1166 m21 6 lw 2074 1160 m 8 Y s 2074 1179 m 8 Y s 3 lw 2074 1173 m21
 6 lw 2079 1153 m 8 Y s 2079 1172 m 8 Y s 3 lw 2079 1166 m21 6 lw 2084 1158 m 8 Y s 2084 1177 m 8 Y s 3 lw 2084 1172 m21 6 lw 2088 1136 m 8 Y s 2088 1156 m 8 Y s 3 lw 2088 1150 m21 6 lw 2093 1148 m 8 Y s 2093 1168 m 8 Y s 3 lw 2093 1162 m21 6 lw 2098
 1154 m 8 Y s 2098 1173 m 9 Y s 3 lw 2098 1168 m21 6 lw 2102 1160 m 8 Y s 2102 1180 m 8 Y s 3 lw 2102 1174 m21 6 lw 2107 1166 m 9 Y s 2107 1186 m 8 Y s 3 lw 2107 1180 m21 6 lw 2112 1133 m 9 Y s 2112 1153 m 8 Y s 3 lw 2112 1147 m21 6 lw 2116 1135 m 8
 Y s 2116 1155 m 8 Y s 3 lw 2116 1149 m21 6 lw 2121 1165 m 9 Y s 2121 1185 m 9 Y s 3 lw 2121 1180 m21 6 lw 2126 1162 m 9 Y s 2126 1182 m 9 Y s 3 lw 2126 1176 m21 6 lw 2131 1142 m 8 Y s 2131 1162 m 8 Y s 3 lw 2131 1156 m21 6 lw 2135 1166 m 9 Y s 2135
 1186 m 9 Y s 3 lw 2135 1181 m21 6 lw 2140 1156 m 9 Y s 2140 1176 m 9 Y s 3 lw 2140 1170 m21 6 lw 2145 1135 m 9 Y s 2145 1155 m 9 Y s 3 lw 2145 1150 m21 6 lw 2149 1146 m 9 Y s 2149 1166 m 9 Y s 3 lw 2149 1160 m21 6 lw 2154 1137 m 8 Y s 2154 1157 m 9
 Y s 3 lw 2154 1151 m21 6 lw 2159 1128 m 9 Y s 2159 1148 m 9 Y s 3 lw 2159 1143 m21 6 lw 2164 1154 m 9 Y s 2164 1174 m 9 Y s 3 lw 2164 1169 m21 6 lw 2168 1138 m 9 Y s 2168 1158 m 9 Y s 3 lw 2168 1152 m21 6 lw 2173 1150 m 10 Y s 2173 1171 m 9 Y s 3 lw
 2173 1165 m21 6 lw 2178 1183 m 9 Y s 2178 1203 m 10 Y s 3 lw 2178 1198 m21 6 lw 2182 1151 m 10 Y s 2182 1172 m 10 Y s 3 lw 2182 1167 m21 6 lw 2187 1163 m 9 Y s 2187 1184 m 9 Y s 3 lw 2187 1178 m21 6 lw 2192 1147 m 9 Y s 2192 1168 m 9 Y s 3 lw 2192
 1162 m21 6 lw 2196 1134 m 9 Y s 2196 1155 m 9 Y s 3 lw 2196 1149 m21 6 lw 2201 1179 m 10 Y s 2201 1200 m 10 Y s 3 lw 2201 1194 m21 6 lw 2206 1157 m 10 Y s 2206 1178 m 10 Y s 3 lw 2206 1173 m21 6 lw 2211 1166 m 10 Y s 2211 1188 m 9 Y s 3 lw 2211 1182
 m21 6 lw 2215 1163 m 10 Y s 2215 1184 m 10 Y s 3 lw 2215 1178 m21 6 lw 2220 1140 m 10 Y s 2220 1161 m 10 Y s 3 lw 2220 1156 m21 6 lw black 340 223 m 1882 X s
 gsave  2268 2234 0 0 C 1923.86 58.2559 t 0 r /Helvetica findfont 83.8316 sf 0 0 m (Q [GeV]) show NC gr  340 279 m -56 Y s 387 251 m -28 Y s 434 251 m -28 Y s 481 251 m -28 Y s 528 279 m -56 Y s 575 251 m -28 Y s 622 251 m -28 Y s 670 251 m -28 Y s
 717 279 m -56 Y s 764 251 m -28 Y s 811 251 m -28 Y s 858 251 m -28 Y s 905 279 m -56 Y s 952 251 m -28 Y s 999 251 m -28 Y s 1046 251 m -28 Y s 1093 279 m -56 Y s 1140 251 m -28 Y s 1187 251 m -28 Y s 1234 251 m -28 Y s 1281 279 m -56 Y s 1328 251
 m -28 Y s 1375 251 m -28 Y s 1422 251 m -28 Y s 1469 279 m -56 Y s 1517 251 m -28 Y s 1564 251 m -28 Y s 1611 251 m -28 Y s 1658 279 m -56 Y s 1705 251 m -28 Y s 1752 251 m -28 Y s 1799 251 m -28 Y s 1846 279 m -56 Y s 1893 251 m -28 Y s 1940 251 m
 -28 Y s 1987 251 m -28 Y s 2034 279 m -56 Y s 2081 251 m -28 Y s 2128 251 m -28 Y s 2175 251 m -28 Y s 2222 279 m -56 Y s
 gsave  2268 2234 0 0 C 322.539 159.138 t 0 r /Helvetica findfont 62.5185 sf 0 0 m (0) show NC gr 
 gsave  2268 2234 0 0 C 484.518 159.138 t 0 r /Helvetica findfont 62.5185 sf 0 0 m (0.2) show NC gr 
 gsave  2268 2234 0 0 C 673.495 159.138 t 0 r /Helvetica findfont 62.5185 sf 0 0 m (0.4) show NC gr 
 gsave  2268 2234 0 0 C 861.05 159.138 t 0 r /Helvetica findfont 62.5185 sf 0 0 m (0.6) show NC gr 
 gsave  2268 2234 0 0 C 1050.03 159.138 t 0 r /Helvetica findfont 62.5185 sf 0 0 m (0.8) show NC gr 
 gsave  2268 2234 0 0 C 1268.84 159.138 t 0 r /Helvetica findfont 62.5185 sf 0 0 m (1) show NC gr 
 gsave  2268 2234 0 0 C 1426.56 159.138 t 0 r /Helvetica findfont 62.5185 sf 0 0 m (1.2) show NC gr 
 gsave  2268 2234 0 0 C 1614.11 159.138 t 0 r /Helvetica findfont 62.5185 sf 0 0 m (1.4) show NC gr 
 gsave  2268 2234 0 0 C 1803.09 159.138 t 0 r /Helvetica findfont 62.5185 sf 0 0 m (1.6) show NC gr 
 gsave  2268 2234 0 0 C 1990.65 159.138 t 0 r /Helvetica findfont 62.5185 sf 0 0 m (1.8) show NC gr 
 gsave  2268 2234 0 0 C 2205.2 159.138 t 0 r /Helvetica findfont 62.5185 sf 0 0 m (2) show NC gr  340 223 m 1966 Y s
 gsave  2268 2234 0 0 C 152.034 1953.7 t 90 r /Helvetica findfont 83.8316 sf 0 0 m (DR\(Q\)) show NC gr  400 402 m -60 X s 370 491 m -30 X s 370 581 m -30 X s 370 670 m -30 X s 400 759 m -60 X s 370 849 m -30 X s 370 938 m -30 X s 370 1027 m -30 X s
 400 1117 m -60 X s 370 1206 m -30 X s 370 1295 m -30 X s 370 1385 m -30 X s 400 1474 m -60 X s 370 1564 m -30 X s 370 1653 m -30 X s 370 1742 m -30 X s 400 1832 m -60 X s 370 1921 m -30 X s 370 2010 m -30 X s 370 2100 m -30 X s 400 2189 m -60 X s
 400 402 m -60 X s 370 313 m -30 X s 370 223 m -30 X s
 gsave  2268 2234 0 0 C 242.97 379.374 t 0 r /Helvetica findfont 62.5185 sf 0 0 m (0.6) show NC gr 
 gsave  2268 2234 0 0 C 242.97 737.434 t 0 r /Helvetica findfont 62.5185 sf 0 0 m (0.8) show NC gr 
 gsave  2268 2234 0 0 C 305.488 1092.65 t 0 r /Helvetica findfont 62.5185 sf 0 0 m (1) show NC gr 
 gsave  2268 2234 0 0 C 242.97 1450.71 t 0 r /Helvetica findfont 62.5185 sf 0 0 m (1.2) show NC gr 
 gsave  2268 2234 0 0 C 242.97 1808.77 t 0 r /Helvetica findfont 62.5185 sf 0 0 m (1.4) show NC gr 
 gsave  2268 2234 0 0 C 242.97 2166.83 t 0 r /Helvetica findfont 62.5185 sf 0 0 m (1.6) show NC gr 
 gsave  2268 2234 0 0 C 906.518 670.653 t 0 r /Helvetica-Bold findfont 72.4646 sf 0 0 m (DR PIONS) show NC gr 
 gsave  2268 2234 0 0 C 906.518 558.404 t 0 r /Helvetica-Bold findfont 72.4646 sf 0 0 m (ref. sample: EVENT MIX) show NC gr 
 gsave  2268 2234 0 0 C 906.518 447.576 t 0 r /Helvetica-Bold findfont 72.4646 sf 0 0 m (VELO tracks multiplicity: 21 \255 60) show NC gr 
 gr  gr showpage
end
%%EOF
