%!PS-Adobe-2.0 EPSF-2.0
%%BoundingBox:  0 0 567 558
%%Title: ./DR_pion_0c65_h3115_2_h3401_2.eps: DR_pion_0c65_h3115_2_h3401_2
%%Creator: ROOT Version 6.06/02
%%CreationDate: Wed Feb  1 16:20:58 2017
%%DocumentNeededResources: ProcSet (FontSetInit)
%%EndComments
%%BeginProlog
80 dict begin
/s {stroke} def /l {lineto} def /m {moveto} def /t {translate} def
/r {rotate} def /rl {roll}  def /R {repeat} def
/d {rlineto} def /rm {rmoveto} def /gr {grestore} def /f {eofill} def
/c {setrgbcolor} def /black {0 setgray} def /sd {setdash} def
/cl {closepath} def /sf {scalefont setfont} def /lw {setlinewidth} def
/box {m dup 0 exch d exch 0 d 0 exch neg d cl} def
/NC{systemdict begin initclip end}def/C{NC box clip newpath}def
/bl {box s} def /bf {gsave box gsave f grestore 1 lw [] 0 sd s grestore} def /Y { 0 exch d} def /X { 0 d} def 
/K {{pop pop 0 moveto} exch kshow} bind def
/ita {/ang 15 def gsave [1 0 ang dup sin exch cos div 1 0 0] concat} def 
/mp {newpath /y exch def /x exch def} def
/side {[w .77 mul w .23 mul] .385 w mul sd w 0 l currentpoint t -144 r} def
/mr {mp x y w2 0 360 arc} def /m24 {mr s} def /m20 {mr f} def
/mb {mp x y w2 add m w2 neg 0 d 0 w neg d w 0 d 0 w d cl} def
/mt {mp x y w2 add m w2 neg w neg d w 0 d cl} def
/m21 {mb f} def /m25 {mb s} def /m22 {mt f} def /m26{mt s} def
/m23 {mp x y w2 sub m w2 w d w neg 0 d cl f} def
/m27 {mp x y w2 add m w3 neg w2 neg d w3 w2 neg d w3 w2 d cl s} def
/m28 {mp x w2 sub y w2 sub w3 add m w3 0 d  0 w3 neg d w3 0 d 0 w3 d w3 0 d  0 w3 d w3 neg 0 d 0 w3 d w3 neg 0 d 0 w3 neg d w3 neg 0 d cl s } def
/m29 {mp gsave x w2 sub y w2 add w3 sub m currentpoint t 4 {side} repeat cl fill gr} def
/m30 {mp gsave x w2 sub y w2 add w3 sub m currentpoint t 4 {side} repeat cl s gr} def
/m31 {mp x y w2 sub m 0 w d x w2 sub y m w 0 d x w2 sub y w2 add m w w neg d x w2 sub y w2 sub m w w d s} def
/m32 {mp x y w2 sub m w2 w d w neg 0 d cl s} def
/m33 {mp x y w2 add m w3 neg w2 neg d w3 w2 neg d w3 w2 d cl f} def
/m34 {mp x w2 sub y w2 sub w3 add m w3 0 d  0 w3 neg d w3 0 d 0 w3 d w3 0 d  0 w3 d w3 neg 0 d 0 w3 d w3 neg 0 d 0 w3 neg d w3 neg 0 d cl f } def
/m2 {mp x y w2 sub m 0 w d x w2 sub y m w 0 d s} def
/m5 {mp x w2 sub y w2 sub m w w d x w2 sub y w2 add m w w neg d s} def
%%IncludeResource: ProcSet (FontSetInit)
%%IncludeResource: font Times-Roman
%%IncludeResource: font Times-Italic
%%IncludeResource: font Times-Bold
%%IncludeResource: font Times-BoldItalic
%%IncludeResource: font Helvetica
%%IncludeResource: font Helvetica-Oblique
%%IncludeResource: font Helvetica-Bold
%%IncludeResource: font Helvetica-BoldOblique
%%IncludeResource: font Courier
%%IncludeResource: font Courier-Oblique
%%IncludeResource: font Courier-Bold
%%IncludeResource: font Courier-BoldOblique
%%IncludeResource: font Symbol
%%IncludeResource: font ZapfDingbats
/reEncode {exch findfont dup length dict begin {1 index /FID eq  {pop pop} {def} ifelse } forall /Encoding exch def currentdict end dup /FontName get exch definefont pop } def [/Times-Bold /Times-Italic /Times-BoldItalic /Helvetica /Helvetica-Oblique
 /Helvetica-Bold /Helvetica-BoldOblique /Courier /Courier-Oblique /Courier-Bold /Courier-BoldOblique /Times-Roman /AvantGarde-Book /AvantGarde-BookOblique /AvantGarde-Demi /AvantGarde-DemiOblique /Bookman-Demi /Bookman-DemiItalic /Bookman-Light
 /Bookman-LightItalic /Helvetica-Narrow /Helvetica-Narrow-Bold /Helvetica-Narrow-BoldOblique /Helvetica-Narrow-Oblique /NewCenturySchlbk-Roman /NewCenturySchlbk-Bold /NewCenturySchlbk-BoldItalic /NewCenturySchlbk-Italic /Palatino-Bold
 /Palatino-BoldItalic /Palatino-Italic /Palatino-Roman ] {ISOLatin1Encoding reEncode } forall
%%EndProlog
%%BeginSetup
%%EndSetup
newpath  gsave  .25 .25 scale  gsave  0 0 t black[  ] 0 sd 6 lw 1 1 1 c 2268 2234 0 0 bf black 3 lw 1 1 1 c 1882 1966 340 223 bf black 1882 1966 340 223 bl 1 1 1 c 1882 1966 340 223 bf black 1882 1966 340 223 bl 0 0 1 c 6 lw 1 1 1 c 0 0 1 c 390 1069
 m 18 Y s 390 1099 m 18 Y s 3 lw /w 14 def /w2 {w 2 div} def /w3 {w 3 div} def 390 1093 m21 6 lw 394 1070 m 16 Y s 394 1097 m 17 Y s 3 lw 394 1092 m21 6 lw 399 1108 m 15 Y s 399 1135 m 15 Y s 3 lw 399 1129 m21 6 lw 404 1073 m 14 Y s 404 1098 m 14 Y s
 3 lw 404 1092 m21 6 lw 408 1068 m 13 Y s 408 1092 m 12 Y s 3 lw 408 1086 m21 6 lw 413 1072 m 11 Y s 413 1094 m 11 Y s 3 lw 413 1088 m21 6 lw 418 1076 m 10 Y s 418 1097 m 11 Y s 3 lw 418 1092 m21 6 lw 423 1079 m 10 Y s 423 1100 m 10 Y s 3 lw 423 1095
 m21 6 lw 427 1077 m 9 Y s 427 1097 m 9 Y s 3 lw 427 1091 m21 6 lw 432 1062 m 8 Y s 432 1081 m 8 Y s 3 lw 432 1075 m21 6 lw 437 1104 m 8 Y s 437 1124 m 8 Y s 3 lw 437 1118 m21 6 lw 441 1078 m 7 Y s 441 1096 m 8 Y s 3 lw 441 1091 m21 6 lw 446 1095 m 7
 Y s 446 1114 m 7 Y s 3 lw 446 1108 m21 6 lw 451 1081 m 7 Y s 451 1099 m 6 Y s 3 lw 451 1093 m21 6 lw 455 1090 m 6 Y s 455 1108 m 6 Y s 3 lw 455 1102 m21 6 lw 460 1071 m 6 Y s 460 1088 m 6 Y s 3 lw 460 1083 m21 6 lw 465 1070 m 5 Y s 465 1087 m 5 Y s
 3 lw 465 1081 m21 6 lw 470 1075 m 5 Y s 470 1092 m 5 Y s 3 lw 470 1086 m21 6 lw 474 1075 m 5 Y s 474 1091 m 5 Y s 3 lw 474 1085 m21 6 lw 479 1060 m 5 Y s 479 1076 m 5 Y s 3 lw 479 1070 m21 6 lw 484 1060 m 4 Y s 484 1075 m 5 Y s 3 lw 484 1070 m21 6
 lw 488 1070 m 4 Y s 488 1085 m 4 Y s 3 lw 488 1080 m21 6 lw 493 1059 m 4 Y s 493 1074 m 4 Y s 3 lw 493 1069 m21 6 lw 498 1073 m 4 Y s 498 1088 m 4 Y s 3 lw 498 1083 m21 6 lw 502 1065 m 4 Y s 502 1080 m 4 Y s 3 lw 502 1074 m21 6 lw 507 1066 m 3 Y s
 507 1081 m 3 Y s 3 lw 507 1075 m21 6 lw 512 1052 m 3 Y s 512 1067 m 3 Y s 3 lw 512 1061 m21 6 lw 517 1067 m 3 Y s 517 1081 m 3 Y s 3 lw 517 1076 m21 6 lw 521 1058 m 3 Y s 521 1073 m 3 Y s 3 lw 521 1067 m21 6 lw 526 1055 m 3 Y s 526 1069 m 3 Y s 3 lw
 526 1064 m21 6 lw 531 1062 m 3 Y s 531 1076 m 3 Y s 3 lw 531 1070 m21 6 lw 535 1053 m 2 Y s 535 1067 m 2 Y s 3 lw 535 1061 m21 6 lw 540 1038 m 2 Y s 540 1051 m 3 Y s 3 lw 540 1046 m21 6 lw 545 1043 m 2 Y s 545 1056 m 2 Y s 3 lw 545 1051 m21 6 lw 550
 1051 m 2 Y s 550 1064 m 2 Y s 3 lw 550 1059 m21 6 lw 554 1046 m 2 Y s 554 1060 m 2 Y s 3 lw 554 1054 m21 6 lw 559 1057 m 2 Y s 559 1070 m 2 Y s 3 lw 559 1064 m21 6 lw 564 1038 m 1 Y s 564 1051 m 2 Y s 3 lw 564 1045 m21 6 lw 568 1043 m 1 Y s 568 1056
 m 2 Y s 3 lw 568 1050 m21 6 lw 573 1046 m 2 Y s 573 1059 m 2 Y s 3 lw 573 1054 m21 6 lw 578 1035 m 1 Y s 578 1048 m 1 Y s 3 lw 578 1042 m21 6 lw 582 1048 m 1 Y s 582 1060 m 2 Y s 3 lw 582 1055 m21 6 lw 587 1052 m 2 Y s 587 1065 m 2 Y s 3 lw 587 1060
 m21 6 lw 592 1041 m 1 Y s 592 1053 m 2 Y s 3 lw 592 1048 m21 6 lw 597 1043 m 1 Y s 597 1056 m 1 Y s 3 lw 597 1050 m21 6 lw 601 1054 m 2 Y s 601 1067 m 1 Y s 3 lw 601 1061 m21 6 lw 606 1053 m 1 Y s 606 1065 m 2 Y s 3 lw 606 1060 m21 6 lw 611 1066 m 2
 Y s 611 1079 m 1 Y s 3 lw 611 1073 m21 6 lw 615 1050 m 1 Y s 615 1063 m 1 Y s 3 lw 615 1057 m21 6 lw 620 1069 m 1 Y s 620 1081 m 2 Y s 3 lw 620 1076 m21 6 lw 625 1066 m 1 Y s 625 1079 m 1 Y s 3 lw 625 1073 m21 6 lw 630 1076 m 1 Y s 630 1088 m 1 Y s
 3 lw 630 1082 m21 6 lw 634 1095 m 1 Y s 634 1107 m 2 Y s 3 lw 634 1102 m21 6 lw 639 1074 m 1 Y s 639 1086 m 1 Y s 3 lw 639 1080 m21 6 lw 644 1093 m 1 Y s 644 1106 m 1 Y s 3 lw 644 1100 m21 6 lw 648 1077 m 1 Y s 648 1089 m 1 Y s 3 lw 648 1083 m21 6
 lw 653 1078 m 1 Y s 653 1090 m 1 Y s 3 lw 653 1085 m21 6 lw 658 1084 m s 658 1096 m 1 Y s 3 lw 658 1090 m21 6 lw 662 1083 m 1 Y s 662 1095 m 1 Y s 3 lw 662 1090 m21 6 lw 667 1075 m 1 Y s 667 1088 m s 3 lw 667 1082 m21 6 lw 672 1086 m 1 Y s 672 1099
 m s 3 lw 672 1093 m21 6 lw 677 1094 m 1 Y s 677 1106 m 1 Y s 3 lw 677 1100 m21 6 lw 681 1089 m 1 Y s 681 1101 m 1 Y s 3 lw 681 1095 m21 6 lw 686 1092 m s 686 1104 m s 3 lw 686 1098 m21 6 lw 691 1087 m s 691 1099 m s 3 lw 691 1093 m21 6 lw 695 1087 m
 s 695 1099 m s 3 lw 695 1093 m21 6 lw 700 1081 m 1 Y s 700 1093 m s 3 lw 700 1087 m21 6 lw 705 1091 m s 705 1103 m s 3 lw 705 1097 m21 6 lw 710 1094 m 1 Y s 710 1106 m 1 Y s 3 lw 710 1101 m21 6 lw 714 1084 m s 714 1096 m s 3 lw 714 1090 m21 6 lw 719
 1094 m 1 Y s 719 1106 m s 3 lw 719 1100 m21 6 lw 724 1096 m s 724 1107 m 1 Y s 3 lw 724 1102 m21 6 lw 728 1087 m s 728 1099 m s 3 lw 728 1093 m21 6 lw 733 1104 m s 733 1116 m s 3 lw 733 1110 m21 6 lw 738 1099 m s 738 1111 m s 3 lw 738 1105 m21 6 lw
 742 1105 m s 742 1116 m 1 Y s 3 lw 742 1111 m21 6 lw 747 1114 m s 747 1125 m 1 Y s 3 lw 747 1120 m21 6 lw 752 1107 m s 752 1119 m s 3 lw 752 1113 m21 6 lw 757 1103 m s 757 1115 m s 3 lw 757 1109 m21 6 lw 761 1104 m s 761 1115 m 1 Y s 3 lw 761 1110
 m21 6 lw 766 1102 m s 766 1114 m s 3 lw 766 1108 m21 6 lw 771 1116 m s 771 1127 m 1 Y s 3 lw 771 1122 m21 6 lw 775 1112 m s 775 1124 m s 3 lw 775 1118 m21 6 lw 780 1106 m s 780 1118 m s 3 lw 780 1112 m21 6 lw 785 1105 m s 785 1116 m s 3 lw 785 1111
 m21 6 lw 790 1117 m s 790 1128 m s 3 lw 790 1122 m21 6 lw 794 1118 m s 794 1130 m s 3 lw 794 1124 m21 6 lw 799 1108 m s 799 1119 m 1 Y s 3 lw 799 1114 m21 6 lw 804 1111 m s 804 1123 m s 3 lw 804 1117 m21 6 lw 808 1122 m s 808 1134 m s 3 lw 808 1128
 m21 6 lw 813 1125 m 1 Y s 813 1137 m s 3 lw 813 1131 m21 6 lw 818 1103 m s 818 1114 m s 3 lw 818 1108 m21 6 lw 822 1120 m s 822 1131 m s 3 lw 822 1126 m21 6 lw 827 1129 m 1 Y s 827 1141 m s 3 lw 827 1135 m21 6 lw 832 1120 m s 832 1132 m s 3 lw 832
 1126 m21 6 lw 837 1128 m s 837 1139 m s 3 lw 837 1133 m21 6 lw 841 1122 m s 841 1133 m 1 Y s 3 lw 841 1128 m21 6 lw 846 1127 m s 846 1138 m 1 Y s 3 lw 846 1133 m21 6 lw 851 1130 m s 851 1142 m s 3 lw 851 1136 m21 6 lw 855 1130 m s 855 1141 m s 3 lw
 855 1135 m21 6 lw 860 1130 m 1 Y s 860 1142 m s 3 lw 860 1136 m21 6 lw 865 1144 m s 865 1156 m s 3 lw 865 1150 m21 6 lw 870 1138 m s 870 1150 m s 3 lw 870 1144 m21 6 lw 874 1138 m s 874 1150 m s 3 lw 874 1144 m21 6 lw 879 1130 m s 879 1142 m s 3 lw
 879 1136 m21 6 lw 884 1132 m s 884 1143 m s 3 lw 884 1137 m21 6 lw 888 1145 m s 888 1156 m 1 Y s 3 lw 888 1151 m21 6 lw 893 1146 m s 893 1157 m s 3 lw 893 1152 m21 6 lw 898 1141 m s 898 1152 m 1 Y s 3 lw 898 1147 m21 6 lw 902 1133 m s 902 1144 m 1 Y
 s 3 lw 902 1139 m21 6 lw 907 1137 m s 907 1148 m 1 Y s 3 lw 907 1143 m21 6 lw 912 1133 m s 912 1144 m 1 Y s 3 lw 912 1139 m21 6 lw 917 1122 m s 917 1133 m 1 Y s 3 lw 917 1128 m21 6 lw 921 1129 m s 921 1140 m 1 Y s 3 lw 921 1135 m21 6 lw 926 1149 m s
 926 1161 m s 3 lw 926 1155 m21 6 lw 931 1133 m s 931 1144 m 1 Y s 3 lw 931 1139 m21 6 lw 935 1126 m s 935 1137 m 1 Y s 3 lw 935 1132 m21 6 lw 940 1123 m s 940 1135 m s 3 lw 940 1129 m21 6 lw 945 1118 m s 945 1129 m s 3 lw 945 1123 m21 6 lw 950 1124
 m 1 Y s 950 1136 m s 3 lw 950 1130 m21 6 lw 954 1110 m 1 Y s 954 1122 m s 3 lw 954 1116 m21 6 lw 959 1114 m s 959 1126 m s 3 lw 959 1120 m21 6 lw 964 1129 m 1 Y s 964 1141 m s 3 lw 964 1135 m21 6 lw 968 1114 m s 968 1125 m 1 Y s 3 lw 968 1120 m21 6
 lw 973 1108 m s 973 1120 m s 3 lw 973 1114 m21 6 lw 978 1104 m s 978 1116 m s 3 lw 978 1110 m21 6 lw 982 1090 m s 982 1101 m s 3 lw 982 1095 m21 6 lw 987 1085 m 1 Y s 987 1097 m s 3 lw 987 1091 m21 6 lw 992 1098 m s 992 1109 m 1 Y s 3 lw 992 1104
 m21 6 lw 997 1079 m s 997 1090 m s 3 lw 997 1084 m21 6 lw 1001 1076 m s 1001 1087 m s 3 lw 1001 1081 m21 6 lw 1006 1076 m s 1006 1087 m s 3 lw 1006 1081 m21 6 lw 1011 1069 m s 1011 1080 m s 3 lw 1011 1074 m21 6 lw 1015 1064 m s 1015 1076 m s 3 lw
 1015 1070 m21 6 lw 1020 1056 m s 1020 1068 m s 3 lw 1020 1062 m21 6 lw 1025 1053 m s 1025 1065 m s 3 lw 1025 1059 m21 6 lw 1030 1048 m s 1030 1059 m s 3 lw 1030 1053 m21 6 lw 1034 1041 m s 1034 1052 m s 3 lw 1034 1046 m21 6 lw 1039 1061 m s 1039
 1072 m s 3 lw 1039 1067 m21 6 lw 1044 1056 m s 1044 1067 m s 3 lw 1044 1062 m21 6 lw 1048 1062 m 1 Y s 1048 1074 m s 3 lw 1048 1068 m21 6 lw 1053 1048 m s 1053 1060 m s 3 lw 1053 1054 m21 6 lw 1058 1062 m s 1058 1073 m 1 Y s 3 lw 1058 1068 m21 6 lw
 1062 1062 m s 1062 1073 m s 3 lw 1062 1067 m21 6 lw 1067 1065 m 1 Y s 1067 1077 m s 3 lw 1067 1071 m21 6 lw 1072 1062 m s 1072 1074 m s 3 lw 1072 1068 m21 6 lw 1077 1051 m s 1077 1063 m s 3 lw 1077 1057 m21 6 lw 1081 1070 m s 1081 1082 m s 3 lw 1081
 1076 m21 6 lw 1086 1080 m s 1086 1091 m 1 Y s 3 lw 1086 1086 m21 6 lw 1091 1071 m s 1091 1083 m s 3 lw 1091 1077 m21 6 lw 1095 1071 m s 1095 1082 m 1 Y s 3 lw 1095 1077 m21 6 lw 1100 1083 m 1 Y s 1100 1095 m s 3 lw 1100 1089 m21 6 lw 1105 1078 m s
 1105 1089 m 1 Y s 3 lw 1105 1084 m21 6 lw 1110 1072 m 1 Y s 1110 1084 m 1 Y s 3 lw 1110 1078 m21 6 lw 1114 1075 m s 1114 1087 m s 3 lw 1114 1081 m21 6 lw 1119 1067 m 1 Y s 1119 1079 m 1 Y s 3 lw 1119 1073 m21 6 lw 1124 1087 m 1 Y s 1124 1099 m 1 Y s
 3 lw 1124 1094 m21 6 lw 1128 1088 m 1 Y s 1128 1100 m 1 Y s 3 lw 1128 1094 m21 6 lw 1133 1084 m 1 Y s 1133 1096 m 1 Y s 3 lw 1133 1091 m21 6 lw 1138 1082 m 1 Y s 1138 1094 m 1 Y s 3 lw 1138 1088 m21 6 lw 1142 1101 m 1 Y s 1142 1113 m 1 Y s 3 lw 1142
 1107 m21 6 lw 1147 1098 m 1 Y s 1147 1110 m 1 Y s 3 lw 1147 1104 m21 6 lw 1152 1103 m 1 Y s 1152 1115 m 1 Y s 3 lw 1152 1110 m21 6 lw 1157 1096 m 1 Y s 1157 1108 m 1 Y s 3 lw 1157 1102 m21 6 lw 1161 1086 m 1 Y s 1161 1098 m 1 Y s 3 lw 1161 1093 m21
 6 lw 1166 1103 m s 1166 1115 m 1 Y s 3 lw 1166 1109 m21 6 lw 1171 1106 m 1 Y s 1171 1118 m 1 Y s 3 lw 1171 1113 m21 6 lw 1175 1110 m 1 Y s 1175 1123 m 1 Y s 3 lw 1175 1117 m21 6 lw 1180 1101 m 1 Y s 1180 1114 m s 3 lw 1180 1108 m21 6 lw 1185 1098 m
 1 Y s 1185 1111 m 1 Y s 3 lw 1185 1105 m21 6 lw 1190 1112 m 1 Y s 1190 1124 m 1 Y s 3 lw 1190 1118 m21 6 lw 1194 1117 m 1 Y s 1194 1129 m 1 Y s 3 lw 1194 1123 m21 6 lw 1199 1119 m 1 Y s 1199 1131 m 1 Y s 3 lw 1199 1126 m21 6 lw 1204 1130 m 1 Y s
 1204 1143 m 1 Y s 3 lw 1204 1137 m21 6 lw 1208 1130 m 1 Y s 1208 1143 m 1 Y s 3 lw 1208 1137 m21 6 lw 1213 1126 m 1 Y s 1213 1138 m 2 Y s 3 lw 1213 1133 m21 6 lw 1218 1128 m 1 Y s 1218 1141 m 1 Y s 3 lw 1218 1135 m21 6 lw 1222 1126 m 1 Y s 1222 1138
 m 2 Y s 3 lw 1222 1133 m21 6 lw 1227 1137 m 1 Y s 1227 1150 m 1 Y s 3 lw 1227 1144 m21 6 lw 1232 1131 m 1 Y s 1232 1143 m 2 Y s 3 lw 1232 1138 m21 6 lw 1237 1134 m 2 Y s 1237 1147 m 1 Y s 3 lw 1237 1141 m21 6 lw 1241 1112 m 1 Y s 1241 1125 m 1 Y s 3
 lw 1241 1119 m21 6 lw 1246 1115 m 1 Y s 1246 1128 m 1 Y s 3 lw 1246 1122 m21 6 lw 1251 1122 m 1 Y s 1251 1134 m 2 Y s 3 lw 1251 1129 m21 6 lw 1255 1110 m 2 Y s 1255 1123 m 1 Y s 3 lw 1255 1117 m21 6 lw 1260 1117 m 1 Y s 1260 1130 m 1 Y s 3 lw 1260
 1124 m21 6 lw 1265 1113 m 1 Y s 1265 1126 m 1 Y s 3 lw 1265 1120 m21 6 lw 1269 1115 m 1 Y s 1269 1128 m 1 Y s 3 lw 1269 1122 m21 6 lw 1274 1119 m 1 Y s 1274 1132 m 1 Y s 3 lw 1274 1126 m21 6 lw 1279 1125 m 1 Y s 1279 1138 m 1 Y s 3 lw 1279 1132 m21
 6 lw 1284 1098 m 1 Y s 1284 1110 m 2 Y s 3 lw 1284 1105 m21 6 lw 1288 1098 m 2 Y s 1288 1111 m 2 Y s 3 lw 1288 1106 m21 6 lw 1293 1096 m 2 Y s 1293 1109 m 2 Y s 3 lw 1293 1103 m21 6 lw 1298 1117 m 2 Y s 1298 1130 m 2 Y s 3 lw 1298 1124 m21 6 lw 1302
 1109 m 1 Y s 1302 1122 m 1 Y s 3 lw 1302 1116 m21 6 lw 1307 1124 m 1 Y s 1307 1137 m 1 Y s 3 lw 1307 1131 m21 6 lw 1312 1115 m 2 Y s 1312 1128 m 2 Y s 3 lw 1312 1123 m21 6 lw 1317 1114 m 2 Y s 1317 1127 m 2 Y s 3 lw 1317 1122 m21 6 lw 1321 1125 m 2
 Y s 1321 1139 m 1 Y s 3 lw 1321 1133 m21 6 lw 1326 1114 m 2 Y s 1326 1127 m 2 Y s 3 lw 1326 1122 m21 6 lw 1331 1100 m 2 Y s 1331 1113 m 2 Y s 3 lw 1331 1107 m21 6 lw 1335 1129 m 2 Y s 1335 1142 m 2 Y s 3 lw 1335 1136 m21 6 lw 1340 1118 m 1 Y s 1340
 1131 m 2 Y s 3 lw 1340 1125 m21 6 lw 1345 1118 m 2 Y s 1345 1131 m 2 Y s 3 lw 1345 1125 m21 6 lw 1349 1122 m 2 Y s 1349 1136 m 2 Y s 3 lw 1349 1130 m21 6 lw 1354 1118 m 2 Y s 1354 1132 m 2 Y s 3 lw 1354 1126 m21 6 lw 1359 1118 m 2 Y s 1359 1131 m 2
 Y s 3 lw 1359 1126 m21 6 lw 1364 1123 m 2 Y s 1364 1136 m 2 Y s 3 lw 1364 1131 m21 6 lw 1368 1131 m 2 Y s 1368 1144 m 3 Y s 3 lw 1368 1139 m21 6 lw 1373 1116 m 3 Y s 1373 1130 m 2 Y s 3 lw 1373 1124 m21 6 lw 1378 1125 m 2 Y s 1378 1138 m 2 Y s 3 lw
 1378 1132 m21 6 lw 1382 1138 m 2 Y s 1382 1151 m 3 Y s 3 lw 1382 1146 m21 6 lw 1387 1128 m 2 Y s 1387 1142 m 2 Y s 3 lw 1387 1136 m21 6 lw 1392 1129 m 2 Y s 1392 1143 m 2 Y s 3 lw 1392 1137 m21 6 lw 1397 1120 m 2 Y s 1397 1133 m 3 Y s 3 lw 1397 1128
 m21 6 lw 1401 1127 m 2 Y s 1401 1140 m 3 Y s 3 lw 1401 1135 m21 6 lw 1406 1125 m 2 Y s 1406 1139 m 2 Y s 3 lw 1406 1133 m21 6 lw 1411 1121 m 3 Y s 1411 1135 m 3 Y s 3 lw 1411 1129 m21 6 lw 1415 1115 m 2 Y s 1415 1129 m 2 Y s 3 lw 1415 1123 m21 6 lw
 1420 1113 m 2 Y s 1420 1126 m 3 Y s 3 lw 1420 1121 m21 6 lw 1425 1125 m 2 Y s 1425 1139 m 2 Y s 3 lw 1425 1133 m21 6 lw 1429 1145 m 3 Y s 1429 1160 m 2 Y s 3 lw 1429 1154 m21 6 lw 1434 1148 m 3 Y s 1434 1162 m 3 Y s 3 lw 1434 1157 m21 6 lw 1439 1144
 m 3 Y s 1439 1158 m 3 Y s 3 lw 1439 1152 m21 6 lw 1444 1127 m 2 Y s 1444 1141 m 2 Y s 3 lw 1444 1135 m21 6 lw 1448 1124 m 3 Y s 1448 1139 m 2 Y s 3 lw 1448 1133 m21 6 lw 1453 1128 m 3 Y s 1453 1142 m 3 Y s 3 lw 1453 1137 m21 6 lw 1458 1152 m 3 Y s
 1458 1166 m 3 Y s 3 lw 1458 1160 m21 6 lw 1462 1146 m 3 Y s 1462 1160 m 3 Y s 3 lw 1462 1154 m21 6 lw 1467 1146 m 3 Y s 1467 1161 m 3 Y s 3 lw 1467 1155 m21 6 lw 1472 1138 m 3 Y s 1472 1153 m 3 Y s 3 lw 1472 1147 m21 6 lw 1477 1135 m 3 Y s 1477 1150
 m 3 Y s 3 lw 1477 1144 m21 6 lw 1481 1131 m 3 Y s 1481 1145 m 3 Y s 3 lw 1481 1139 m21 6 lw 1486 1149 m 4 Y s 1486 1164 m 3 Y s 3 lw 1486 1158 m21 6 lw 1491 1149 m 4 Y s 1491 1164 m 3 Y s 3 lw 1491 1158 m21 6 lw 1495 1132 m 3 Y s 1495 1146 m 3 Y s 3
 lw 1495 1140 m21 6 lw 1500 1136 m 4 Y s 1500 1151 m 3 Y s 3 lw 1500 1145 m21 6 lw 1505 1130 m 3 Y s 1505 1145 m 3 Y s 3 lw 1505 1139 m21 6 lw 1509 1135 m 3 Y s 1509 1150 m 3 Y s 3 lw 1509 1144 m21 6 lw 1514 1126 m 3 Y s 1514 1140 m 4 Y s 3 lw 1514
 1135 m21 6 lw 1519 1129 m 4 Y s 1519 1144 m 3 Y s 3 lw 1519 1138 m21 6 lw 1524 1141 m 4 Y s 1524 1156 m 3 Y s 3 lw 1524 1150 m21 6 lw 1528 1157 m 4 Y s 1528 1172 m 3 Y s 3 lw 1528 1166 m21 6 lw 1533 1124 m 3 Y s 1533 1139 m 3 Y s 3 lw 1533 1133 m21
 6 lw 1538 1149 m 4 Y s 1538 1164 m 4 Y s 3 lw 1538 1159 m21 6 lw 1542 1128 m 3 Y s 1542 1143 m 3 Y s 3 lw 1542 1137 m21 6 lw 1547 1133 m 4 Y s 1547 1148 m 3 Y s 3 lw 1547 1142 m21 6 lw 1552 1135 m 4 Y s 1552 1150 m 4 Y s 3 lw 1552 1145 m21 6 lw 1557
 1133 m 4 Y s 1557 1148 m 4 Y s 3 lw 1557 1143 m21 6 lw 1561 1129 m 4 Y s 1561 1144 m 4 Y s 3 lw 1561 1138 m21 6 lw 1566 1139 m 4 Y s 1566 1154 m 4 Y s 3 lw 1566 1149 m21 6 lw 1571 1140 m 4 Y s 1571 1155 m 4 Y s 3 lw 1571 1150 m21 6 lw 1575 1127 m 4
 Y s 1575 1142 m 4 Y s 3 lw 1575 1137 m21 6 lw 1580 1129 m 4 Y s 1580 1145 m 3 Y s 3 lw 1580 1139 m21 6 lw 1585 1139 m 4 Y s 1585 1155 m 4 Y s 3 lw 1585 1149 m21 6 lw 1589 1122 m 4 Y s 1589 1138 m 3 Y s 3 lw 1589 1132 m21 6 lw 1594 1139 m 4 Y s 1594
 1155 m 4 Y s 3 lw 1594 1149 m21 6 lw 1599 1132 m 4 Y s 1599 1147 m 4 Y s 3 lw 1599 1142 m21 6 lw 1604 1135 m 4 Y s 1604 1151 m 4 Y s 3 lw 1604 1145 m21 6 lw 1608 1135 m 4 Y s 1608 1151 m 4 Y s 3 lw 1608 1145 m21 6 lw 1613 1145 m 4 Y s 1613 1160 m 4
 Y s 3 lw 1613 1155 m21 6 lw 1618 1144 m 5 Y s 1618 1160 m 4 Y s 3 lw 1618 1154 m21 6 lw 1622 1142 m 4 Y s 1622 1158 m 4 Y s 3 lw 1622 1152 m21 6 lw 1627 1155 m 4 Y s 1627 1170 m 5 Y s 3 lw 1627 1165 m21 6 lw 1632 1151 m 4 Y s 1632 1167 m 4 Y s 3 lw
 1632 1161 m21 6 lw 1637 1149 m 4 Y s 1637 1165 m 4 Y s 3 lw 1637 1159 m21 6 lw 1641 1148 m 4 Y s 1641 1164 m 4 Y s 3 lw 1641 1158 m21 6 lw 1646 1129 m 5 Y s 1646 1145 m 5 Y s 3 lw 1646 1139 m21 6 lw 1651 1118 m 4 Y s 1651 1134 m 4 Y s 3 lw 1651 1128
 m21 6 lw 1655 1155 m 5 Y s 1655 1171 m 5 Y s 3 lw 1655 1165 m21 6 lw 1660 1142 m 5 Y s 1660 1159 m 4 Y s 3 lw 1660 1153 m21 6 lw 1665 1136 m 5 Y s 1665 1152 m 5 Y s 3 lw 1665 1147 m21 6 lw 1669 1134 m 5 Y s 1669 1150 m 5 Y s 3 lw 1669 1144 m21 6 lw
 1674 1140 m 5 Y s 1674 1156 m 5 Y s 3 lw 1674 1151 m21 6 lw 1679 1160 m 5 Y s 1679 1177 m 5 Y s 3 lw 1679 1171 m21 6 lw 1684 1159 m 5 Y s 1684 1176 m 5 Y s 3 lw 1684 1170 m21 6 lw 1688 1153 m 5 Y s 1688 1170 m 5 Y s 3 lw 1688 1164 m21 6 lw 1693 1135
 m 5 Y s 1693 1152 m 5 Y s 3 lw 1693 1146 m21 6 lw 1698 1155 m 5 Y s 1698 1171 m 6 Y s 3 lw 1698 1166 m21 6 lw 1702 1159 m 5 Y s 1702 1175 m 6 Y s 3 lw 1702 1170 m21 6 lw 1707 1167 m 6 Y s 1707 1184 m 5 Y s 3 lw 1707 1178 m21 6 lw 1712 1139 m 5 Y s
 1712 1156 m 5 Y s 3 lw 1712 1150 m21 6 lw 1717 1151 m 6 Y s 1717 1168 m 6 Y s 3 lw 1717 1163 m21 6 lw 1721 1135 m 5 Y s 1721 1152 m 5 Y s 3 lw 1721 1146 m21 6 lw 1726 1130 m 5 Y s 1726 1147 m 5 Y s 3 lw 1726 1141 m21 6 lw 1731 1138 m 5 Y s 1731 1154
 m 6 Y s 3 lw 1731 1149 m21 6 lw 1735 1170 m 6 Y s 1735 1187 m 6 Y s 3 lw 1735 1181 m21 6 lw 1740 1147 m 5 Y s 1740 1164 m 5 Y s 3 lw 1740 1158 m21 6 lw 1745 1166 m 5 Y s 1745 1183 m 5 Y s 3 lw 1745 1177 m21 6 lw 1749 1165 m 6 Y s 1749 1183 m 6 Y s 3
 lw 1749 1177 m21 6 lw 1754 1160 m 5 Y s 1754 1177 m 6 Y s 3 lw 1754 1171 m21 6 lw 1759 1145 m 6 Y s 1759 1162 m 6 Y s 3 lw 1759 1156 m21 6 lw 1764 1148 m 6 Y s 1764 1166 m 6 Y s 3 lw 1764 1160 m21 6 lw 1768 1153 m 6 Y s 1768 1170 m 6 Y s 3 lw 1768
 1165 m21 6 lw 1773 1161 m 7 Y s 1773 1179 m 6 Y s 3 lw 1773 1173 m21 6 lw 1778 1143 m 6 Y s 1778 1160 m 6 Y s 3 lw 1778 1155 m21 6 lw 1782 1165 m 6 Y s 1782 1182 m 7 Y s 3 lw 1782 1177 m21 6 lw 1787 1123 m 6 Y s 1787 1140 m 6 Y s 3 lw 1787 1135 m21
 6 lw 1792 1156 m 6 Y s 1792 1174 m 6 Y s 3 lw 1792 1168 m21 6 lw 1797 1157 m 6 Y s 1797 1174 m 7 Y s 3 lw 1797 1169 m21 6 lw 1801 1161 m 7 Y s 1801 1179 m 6 Y s 3 lw 1801 1173 m21 6 lw 1806 1160 m 6 Y s 1806 1178 m 6 Y s 3 lw 1806 1172 m21 6 lw 1811
 1163 m 6 Y s 1811 1181 m 6 Y s 3 lw 1811 1175 m21 6 lw 1815 1136 m 7 Y s 1815 1154 m 7 Y s 3 lw 1815 1148 m21 6 lw 1820 1167 m 7 Y s 1820 1186 m 6 Y s 3 lw 1820 1180 m21 6 lw 1825 1161 m 7 Y s 1825 1179 m 7 Y s 3 lw 1825 1174 m21 6 lw 1829 1147 m 6
 Y s 1829 1165 m 7 Y s 3 lw 1829 1159 m21 6 lw 1834 1141 m 7 Y s 1834 1159 m 7 Y s 3 lw 1834 1153 m21 6 lw 1839 1165 m 7 Y s 1839 1183 m 7 Y s 3 lw 1839 1178 m21 6 lw 1844 1180 m 7 Y s 1844 1199 m 7 Y s 3 lw 1844 1193 m21 6 lw 1848 1175 m 7 Y s 1848
 1194 m 7 Y s 3 lw 1848 1188 m21 6 lw 1853 1158 m 8 Y s 1853 1177 m 7 Y s 3 lw 1853 1171 m21 6 lw 1858 1172 m 7 Y s 1858 1190 m 7 Y s 3 lw 1858 1184 m21 6 lw 1862 1157 m 7 Y s 1862 1175 m 7 Y s 3 lw 1862 1170 m21 6 lw 1867 1176 m 7 Y s 1867 1195 m 7
 Y s 3 lw 1867 1189 m21 6 lw 1872 1148 m 7 Y s 1872 1167 m 7 Y s 3 lw 1872 1161 m21 6 lw 1877 1167 m 7 Y s 1877 1186 m 7 Y s 3 lw 1877 1180 m21 6 lw 1881 1159 m 7 Y s 1881 1178 m 7 Y s 3 lw 1881 1172 m21 6 lw 1886 1157 m 8 Y s 1886 1176 m 8 Y s 3 lw
 1886 1170 m21 6 lw 1891 1171 m 8 Y s 1891 1190 m 8 Y s 3 lw 1891 1184 m21 6 lw 1895 1163 m 8 Y s 1895 1182 m 8 Y s 3 lw 1895 1176 m21 6 lw 1900 1149 m 7 Y s 1900 1167 m 8 Y s 3 lw 1900 1162 m21 6 lw 1905 1146 m 8 Y s 1905 1165 m 8 Y s 3 lw 1905 1160
 m21 6 lw 1909 1159 m 8 Y s 1909 1178 m 8 Y s 3 lw 1909 1172 m21 6 lw 1914 1153 m 8 Y s 1914 1172 m 8 Y s 3 lw 1914 1167 m21 6 lw 1919 1177 m 9 Y s 1919 1197 m 8 Y s 3 lw 1919 1191 m21 6 lw 1924 1159 m 8 Y s 1924 1178 m 8 Y s 3 lw 1924 1172 m21 6 lw
 1928 1180 m 8 Y s 1928 1199 m 8 Y s 3 lw 1928 1193 m21 6 lw 1933 1175 m 8 Y s 1933 1194 m 8 Y s 3 lw 1933 1188 m21 6 lw 1938 1154 m 9 Y s 1938 1174 m 8 Y s 3 lw 1938 1168 m21 6 lw 1942 1203 m 9 Y s 1942 1223 m 9 Y s 3 lw 1942 1217 m21 6 lw 1947 1153
 m 8 Y s 1947 1173 m 8 Y s 3 lw 1947 1167 m21 6 lw 1952 1170 m 8 Y s 1952 1190 m 8 Y s 3 lw 1952 1184 m21 6 lw 1957 1132 m 8 Y s 1957 1151 m 9 Y s 3 lw 1957 1146 m21 6 lw 1961 1151 m 9 Y s 1961 1171 m 8 Y s 3 lw 1961 1165 m21 6 lw 1966 1184 m 9 Y s
 1966 1204 m 9 Y s 3 lw 1966 1199 m21 6 lw 1971 1151 m 9 Y s 1971 1171 m 9 Y s 3 lw 1971 1166 m21 6 lw 1975 1174 m 9 Y s 1975 1194 m 9 Y s 3 lw 1975 1189 m21 6 lw 1980 1168 m 9 Y s 1980 1189 m 8 Y s 3 lw 1980 1183 m21 6 lw 1985 1160 m 9 Y s 1985 1180
 m 9 Y s 3 lw 1985 1174 m21 6 lw 1989 1165 m 9 Y s 1989 1185 m 9 Y s 3 lw 1989 1180 m21 6 lw 1994 1178 m 10 Y s 1994 1199 m 9 Y s 3 lw 1994 1193 m21 6 lw 1999 1158 m 9 Y s 1999 1178 m 9 Y s 3 lw 1999 1173 m21 6 lw 2004 1157 m 9 Y s 2004 1177 m 9 Y s
 3 lw 2004 1171 m21 6 lw 2008 1160 m 9 Y s 2008 1180 m 10 Y s 3 lw 2008 1175 m21 6 lw 2013 1146 m 9 Y s 2013 1167 m 9 Y s 3 lw 2013 1161 m21 6 lw 2018 1161 m 10 Y s 2018 1182 m 9 Y s 3 lw 2018 1176 m21 6 lw 2022 1159 m 9 Y s 2022 1180 m 9 Y s 3 lw
 2022 1174 m21 6 lw 2027 1174 m 10 Y s 2027 1195 m 10 Y s 3 lw 2027 1190 m21 6 lw 2032 1179 m 10 Y s 2032 1200 m 10 Y s 3 lw 2032 1195 m21 6 lw 2036 1192 m 10 Y s 2036 1213 m 10 Y s 3 lw 2036 1208 m21 6 lw 2041 1178 m 10 Y s 2041 1199 m 10 Y s 3 lw
 2041 1193 m21 6 lw 2046 1199 m 10 Y s 2046 1220 m 11 Y s 3 lw 2046 1215 m21 6 lw 2051 1192 m 10 Y s 2051 1213 m 10 Y s 3 lw 2051 1207 m21 6 lw 2055 1138 m 10 Y s 2055 1159 m 10 Y s 3 lw 2055 1154 m21 6 lw 2060 1175 m 11 Y s 2060 1197 m 10 Y s 3 lw
 2060 1191 m21 6 lw 2065 1157 m 10 Y s 2065 1178 m 10 Y s 3 lw 2065 1172 m21 6 lw 2069 1166 m 10 Y s 2069 1187 m 10 Y s 3 lw 2069 1182 m21 6 lw 2074 1177 m 10 Y s 2074 1199 m 10 Y s 3 lw 2074 1193 m21 6 lw 2079 1163 m 10 Y s 2079 1185 m 10 Y s 3 lw
 2079 1179 m21 6 lw 2084 1185 m 11 Y s 2084 1207 m 11 Y s 3 lw 2084 1201 m21 6 lw 2088 1181 m 11 Y s 2088 1203 m 11 Y s 3 lw 2088 1197 m21 6 lw 2093 1179 m 10 Y s 2093 1201 m 10 Y s 3 lw 2093 1195 m21 6 lw 2098 1156 m 10 Y s 2098 1178 m 10 Y s 3 lw
 2098 1172 m21 6 lw 2102 1167 m 11 Y s 2102 1189 m 11 Y s 3 lw 2102 1184 m21 6 lw 2107 1206 m 11 Y s 2107 1229 m 11 Y s 3 lw 2107 1223 m21 6 lw 2112 1172 m 11 Y s 2112 1194 m 11 Y s 3 lw 2112 1189 m21 6 lw 2116 1177 m 11 Y s 2116 1199 m 11 Y s 3 lw
 2116 1193 m21 6 lw 2121 1168 m 11 Y s 2121 1190 m 11 Y s 3 lw 2121 1185 m21 6 lw 2126 1176 m 12 Y s 2126 1199 m 11 Y s 3 lw 2126 1193 m21 6 lw 2131 1162 m 11 Y s 2131 1184 m 11 Y s 3 lw 2131 1178 m21 6 lw 2135 1164 m 11 Y s 2135 1186 m 11 Y s 3 lw
 2135 1180 m21 6 lw 2140 1195 m 12 Y s 2140 1218 m 12 Y s 3 lw 2140 1213 m21 6 lw 2145 1159 m 11 Y s 2145 1182 m 11 Y s 3 lw 2145 1176 m21 6 lw 2149 1181 m 11 Y s 2149 1204 m 11 Y s 3 lw 2149 1198 m21 6 lw 2154 1194 m 12 Y s 2154 1217 m 12 Y s 3 lw
 2154 1212 m21 6 lw 2159 1177 m 11 Y s 2159 1200 m 11 Y s 3 lw 2159 1194 m21 6 lw 2164 1188 m 12 Y s 2164 1211 m 12 Y s 3 lw 2164 1206 m21 6 lw 2168 1129 m 11 Y s 2168 1152 m 11 Y s 3 lw 2168 1146 m21 6 lw 2173 1168 m 12 Y s 2173 1191 m 12 Y s 3 lw
 2173 1185 m21 6 lw 2178 1180 m 13 Y s 2178 1204 m 12 Y s 3 lw 2178 1198 m21 6 lw 2182 1156 m 12 Y s 2182 1179 m 12 Y s 3 lw 2182 1173 m21 6 lw 2187 1188 m 12 Y s 2187 1212 m 12 Y s 3 lw 2187 1206 m21 6 lw 2192 1163 m 12 Y s 2192 1187 m 12 Y s 3 lw
 2192 1181 m21 6 lw 2196 1161 m 12 Y s 2196 1184 m 13 Y s 3 lw 2196 1179 m21 6 lw 2201 1192 m 12 Y s 2201 1216 m 12 Y s 3 lw 2201 1210 m21 6 lw 2206 1139 m 12 Y s 2206 1162 m 13 Y s 3 lw 2206 1157 m21 6 lw 2211 1190 m 12 Y s 2211 1214 m 13 Y s 3 lw
 2211 1208 m21 6 lw 2215 1179 m 13 Y s 2215 1203 m 13 Y s 3 lw 2215 1197 m21 6 lw 2220 1187 m 12 Y s 2220 1211 m 13 Y s 3 lw 2220 1205 m21 6 lw black 340 223 m 1882 X s
 gsave  2268 2234 0 0 C 1923.86 58.2559 t 0 r /Helvetica findfont 83.8316 sf 0 0 m (Q [GeV]) show NC gr  340 279 m -56 Y s 387 251 m -28 Y s 434 251 m -28 Y s 481 251 m -28 Y s 528 279 m -56 Y s 575 251 m -28 Y s 622 251 m -28 Y s 670 251 m -28 Y s
 717 279 m -56 Y s 764 251 m -28 Y s 811 251 m -28 Y s 858 251 m -28 Y s 905 279 m -56 Y s 952 251 m -28 Y s 999 251 m -28 Y s 1046 251 m -28 Y s 1093 279 m -56 Y s 1140 251 m -28 Y s 1187 251 m -28 Y s 1234 251 m -28 Y s 1281 279 m -56 Y s 1328 251
 m -28 Y s 1375 251 m -28 Y s 1422 251 m -28 Y s 1469 279 m -56 Y s 1517 251 m -28 Y s 1564 251 m -28 Y s 1611 251 m -28 Y s 1658 279 m -56 Y s 1705 251 m -28 Y s 1752 251 m -28 Y s 1799 251 m -28 Y s 1846 279 m -56 Y s 1893 251 m -28 Y s 1940 251 m
 -28 Y s 1987 251 m -28 Y s 2034 279 m -56 Y s 2081 251 m -28 Y s 2128 251 m -28 Y s 2175 251 m -28 Y s 2222 279 m -56 Y s
 gsave  2268 2234 0 0 C 322.539 159.138 t 0 r /Helvetica findfont 62.5185 sf 0 0 m (0) show NC gr 
 gsave  2268 2234 0 0 C 484.518 159.138 t 0 r /Helvetica findfont 62.5185 sf 0 0 m (0.2) show NC gr 
 gsave  2268 2234 0 0 C 673.495 159.138 t 0 r /Helvetica findfont 62.5185 sf 0 0 m (0.4) show NC gr 
 gsave  2268 2234 0 0 C 861.05 159.138 t 0 r /Helvetica findfont 62.5185 sf 0 0 m (0.6) show NC gr 
 gsave  2268 2234 0 0 C 1050.03 159.138 t 0 r /Helvetica findfont 62.5185 sf 0 0 m (0.8) show NC gr 
 gsave  2268 2234 0 0 C 1268.84 159.138 t 0 r /Helvetica findfont 62.5185 sf 0 0 m (1) show NC gr 
 gsave  2268 2234 0 0 C 1426.56 159.138 t 0 r /Helvetica findfont 62.5185 sf 0 0 m (1.2) show NC gr 
 gsave  2268 2234 0 0 C 1614.11 159.138 t 0 r /Helvetica findfont 62.5185 sf 0 0 m (1.4) show NC gr 
 gsave  2268 2234 0 0 C 1803.09 159.138 t 0 r /Helvetica findfont 62.5185 sf 0 0 m (1.6) show NC gr 
 gsave  2268 2234 0 0 C 1990.65 159.138 t 0 r /Helvetica findfont 62.5185 sf 0 0 m (1.8) show NC gr 
 gsave  2268 2234 0 0 C 2205.2 159.138 t 0 r /Helvetica findfont 62.5185 sf 0 0 m (2) show NC gr  340 223 m 1966 Y s
 gsave  2268 2234 0 0 C 152.034 1953.7 t 90 r /Helvetica findfont 83.8316 sf 0 0 m (DR\(Q\)) show NC gr  400 402 m -60 X s 370 491 m -30 X s 370 581 m -30 X s 370 670 m -30 X s 400 759 m -60 X s 370 849 m -30 X s 370 938 m -30 X s 370 1027 m -30 X s
 400 1117 m -60 X s 370 1206 m -30 X s 370 1295 m -30 X s 370 1385 m -30 X s 400 1474 m -60 X s 370 1564 m -30 X s 370 1653 m -30 X s 370 1742 m -30 X s 400 1832 m -60 X s 370 1921 m -30 X s 370 2010 m -30 X s 370 2100 m -30 X s 400 2189 m -60 X s
 400 402 m -60 X s 370 313 m -30 X s 370 223 m -30 X s
 gsave  2268 2234 0 0 C 242.97 379.374 t 0 r /Helvetica findfont 62.5185 sf 0 0 m (0.6) show NC gr 
 gsave  2268 2234 0 0 C 242.97 737.434 t 0 r /Helvetica findfont 62.5185 sf 0 0 m (0.8) show NC gr 
 gsave  2268 2234 0 0 C 305.488 1092.65 t 0 r /Helvetica findfont 62.5185 sf 0 0 m (1) show NC gr 
 gsave  2268 2234 0 0 C 242.97 1450.71 t 0 r /Helvetica findfont 62.5185 sf 0 0 m (1.2) show NC gr 
 gsave  2268 2234 0 0 C 242.97 1808.77 t 0 r /Helvetica findfont 62.5185 sf 0 0 m (1.4) show NC gr 
 gsave  2268 2234 0 0 C 242.97 2166.83 t 0 r /Helvetica findfont 62.5185 sf 0 0 m (1.6) show NC gr 
 gsave  2268 2234 0 0 C 906.518 670.653 t 0 r /Helvetica-Bold findfont 72.4646 sf 0 0 m (DR PIONS) show NC gr 
 gsave  2268 2234 0 0 C 906.518 558.404 t 0 r /Helvetica-Bold findfont 72.4646 sf 0 0 m (ref. sample: EVENT MIX) show NC gr 
 gsave  2268 2234 0 0 C 906.518 447.576 t 0 r /Helvetica-Bold findfont 72.4646 sf 0 0 m (VELO tracks multiplicity: 11 \255 20) show NC gr 
 gr  gr showpage
end
%%EOF
