%!PS-Adobe-2.0 EPSF-2.0
%%BoundingBox:  0 0 567 558
%%Title: ./DR_pion_0c65_h3015_3_h3401_3_compare.eps: DR_pion_0c65_h3015_3_h3401_3_compare
%%Creator: ROOT Version 6.06/02
%%CreationDate: Wed Jan 25 15:00:45 2017
%%DocumentNeededResources: ProcSet (FontSetInit)
%%EndComments
%%BeginProlog
80 dict begin
/s {stroke} def /l {lineto} def /m {moveto} def /t {translate} def
/r {rotate} def /rl {roll}  def /R {repeat} def
/d {rlineto} def /rm {rmoveto} def /gr {grestore} def /f {eofill} def
/c {setrgbcolor} def /black {0 setgray} def /sd {setdash} def
/cl {closepath} def /sf {scalefont setfont} def /lw {setlinewidth} def
/box {m dup 0 exch d exch 0 d 0 exch neg d cl} def
/NC{systemdict begin initclip end}def/C{NC box clip newpath}def
/bl {box s} def /bf {gsave box gsave f grestore 1 lw [] 0 sd s grestore} def /Y { 0 exch d} def /X { 0 d} def 
/K {{pop pop 0 moveto} exch kshow} bind def
/ita {/ang 15 def gsave [1 0 ang dup sin exch cos div 1 0 0] concat} def 
/mp {newpath /y exch def /x exch def} def
/side {[w .77 mul w .23 mul] .385 w mul sd w 0 l currentpoint t -144 r} def
/mr {mp x y w2 0 360 arc} def /m24 {mr s} def /m20 {mr f} def
/mb {mp x y w2 add m w2 neg 0 d 0 w neg d w 0 d 0 w d cl} def
/mt {mp x y w2 add m w2 neg w neg d w 0 d cl} def
/m21 {mb f} def /m25 {mb s} def /m22 {mt f} def /m26{mt s} def
/m23 {mp x y w2 sub m w2 w d w neg 0 d cl f} def
/m27 {mp x y w2 add m w3 neg w2 neg d w3 w2 neg d w3 w2 d cl s} def
/m28 {mp x w2 sub y w2 sub w3 add m w3 0 d  0 w3 neg d w3 0 d 0 w3 d w3 0 d  0 w3 d w3 neg 0 d 0 w3 d w3 neg 0 d 0 w3 neg d w3 neg 0 d cl s } def
/m29 {mp gsave x w2 sub y w2 add w3 sub m currentpoint t 4 {side} repeat cl fill gr} def
/m30 {mp gsave x w2 sub y w2 add w3 sub m currentpoint t 4 {side} repeat cl s gr} def
/m31 {mp x y w2 sub m 0 w d x w2 sub y m w 0 d x w2 sub y w2 add m w w neg d x w2 sub y w2 sub m w w d s} def
/m32 {mp x y w2 sub m w2 w d w neg 0 d cl s} def
/m33 {mp x y w2 add m w3 neg w2 neg d w3 w2 neg d w3 w2 d cl f} def
/m34 {mp x w2 sub y w2 sub w3 add m w3 0 d  0 w3 neg d w3 0 d 0 w3 d w3 0 d  0 w3 d w3 neg 0 d 0 w3 d w3 neg 0 d 0 w3 neg d w3 neg 0 d cl f } def
/m2 {mp x y w2 sub m 0 w d x w2 sub y m w 0 d s} def
/m5 {mp x w2 sub y w2 sub m w w d x w2 sub y w2 add m w w neg d s} def
%%IncludeResource: ProcSet (FontSetInit)
%%IncludeResource: font Times-Roman
%%IncludeResource: font Times-Italic
%%IncludeResource: font Times-Bold
%%IncludeResource: font Times-BoldItalic
%%IncludeResource: font Helvetica
%%IncludeResource: font Helvetica-Oblique
%%IncludeResource: font Helvetica-Bold
%%IncludeResource: font Helvetica-BoldOblique
%%IncludeResource: font Courier
%%IncludeResource: font Courier-Oblique
%%IncludeResource: font Courier-Bold
%%IncludeResource: font Courier-BoldOblique
%%IncludeResource: font Symbol
%%IncludeResource: font ZapfDingbats
/reEncode {exch findfont dup length dict begin {1 index /FID eq  {pop pop} {def} ifelse } forall /Encoding exch def currentdict end dup /FontName get exch definefont pop } def [/Times-Bold /Times-Italic /Times-BoldItalic /Helvetica /Helvetica-Oblique
 /Helvetica-Bold /Helvetica-BoldOblique /Courier /Courier-Oblique /Courier-Bold /Courier-BoldOblique /Times-Roman /AvantGarde-Book /AvantGarde-BookOblique /AvantGarde-Demi /AvantGarde-DemiOblique /Bookman-Demi /Bookman-DemiItalic /Bookman-Light
 /Bookman-LightItalic /Helvetica-Narrow /Helvetica-Narrow-Bold /Helvetica-Narrow-BoldOblique /Helvetica-Narrow-Oblique /NewCenturySchlbk-Roman /NewCenturySchlbk-Bold /NewCenturySchlbk-BoldItalic /NewCenturySchlbk-Italic /Palatino-Bold
 /Palatino-BoldItalic /Palatino-Italic /Palatino-Roman ] {ISOLatin1Encoding reEncode } forall
%%EndProlog
%%BeginSetup
%%EndSetup
newpath  gsave  .25 .25 scale  gsave  0 0 t black[  ] 0 sd 6 lw 1 1 1 c 2268 2234 0 0 bf black 3 lw 1 1 1 c 1882 1966 340 223 bf black 1882 1966 340 223 bl 1 1 1 c 1882 1966 340 223 bf black 1882 1966 340 223 bl 0 0 1 c 6 lw 1 1 1 c 0 0 1 c 406 1669
 m 17 Y s 406 1697 m 17 Y s 3 lw /w 11 def /w2 {w 2 div} def /w3 {w 3 div} def 406 1692 m21 6 lw 425 1495 m 12 Y s 425 1518 m 11 Y s 3 lw 425 1512 m21 6 lw 444 1407 m 8 Y s 444 1426 m 8 Y s 3 lw 444 1421 m21 6 lw 463 1329 m 6 Y s 463 1346 m 6 Y s 3
 lw 463 1341 m21 6 lw 481 1281 m 4 Y s 481 1297 m 4 Y s 3 lw 481 1291 m21 6 lw 500 1258 m 3 Y s 500 1273 m 3 Y s 3 lw 500 1267 m21 6 lw 519 1223 m 3 Y s 519 1237 m 3 Y s 3 lw 519 1231 m21 6 lw 538 1198 m 2 Y s 538 1212 m 2 Y s 3 lw 538 1206 m21 6 lw
 557 1167 m 1 Y s 557 1180 m 1 Y s 3 lw 557 1174 m21 6 lw 575 1152 m 1 Y s 575 1165 m 1 Y s 3 lw 575 1159 m21 6 lw 594 1133 m 1 Y s 594 1145 m 1 Y s 3 lw 594 1140 m21 6 lw 613 1134 m 1 Y s 613 1146 m 1 Y s 3 lw 613 1141 m21 6 lw 632 1134 m s 632 1146
 m s 3 lw 632 1140 m21 6 lw 651 1120 m s 651 1131 m 1 Y s 3 lw 651 1126 m21 6 lw 670 1113 m s 670 1125 m s 3 lw 670 1119 m21 6 lw 688 1105 m s 688 1116 m s 3 lw 688 1110 m21 6 lw 3 lw 707 1109 m21 6 lw 3 lw 726 1099 m21 6 lw 3 lw 745 1105 m21 6 lw 3
 lw 764 1097 m21 6 lw 3 lw 782 1099 m21 6 lw 3 lw 801 1087 m21 6 lw 3 lw 820 1088 m21 6 lw 3 lw 839 1093 m21 6 lw 3 lw 858 1079 m21 6 lw 3 lw 877 1085 m21 6 lw 3 lw 895 1088 m21 6 lw 3 lw 914 1089 m21 6 lw 3 lw 933 1082 m21 6 lw 3 lw 952 1096 m21 6
 lw 3 lw 971 1084 m21 6 lw 3 lw 990 1080 m21 6 lw 3 lw 1008 1086 m21 6 lw 3 lw 1027 1085 m21 6 lw 3 lw 1046 1076 m21 6 lw 3 lw 1065 1090 m21 6 lw 3 lw 1084 1095 m21 6 lw 3 lw 1102 1094 m21 6 lw 3 lw 1121 1088 m21 6 lw 3 lw 1140 1093 m21 6 lw 3 lw
 1159 1098 m21 6 lw 3 lw 1178 1094 m21 6 lw 3 lw 1197 1105 m21 6 lw 3 lw 1215 1098 m21 6 lw 1234 1094 m s 1234 1106 m s 3 lw 1234 1100 m21 6 lw 1253 1091 m s 1253 1103 m s 3 lw 1253 1097 m21 6 lw 1272 1091 m s 1272 1103 m s 3 lw 1272 1097 m21 6 lw
 1291 1100 m 1 Y s 1291 1112 m s 3 lw 1291 1106 m21 6 lw 1309 1103 m 1 Y s 1309 1115 m 1 Y s 3 lw 1309 1110 m21 6 lw 1328 1111 m 1 Y s 1328 1123 m 1 Y s 3 lw 1328 1117 m21 6 lw 1347 1099 m 1 Y s 1347 1111 m 1 Y s 3 lw 1347 1106 m21 6 lw 1366 1111 m s
 1366 1123 m s 3 lw 1366 1117 m21 6 lw 1385 1099 m 1 Y s 1385 1112 m s 3 lw 1385 1106 m21 6 lw 1404 1110 m 1 Y s 1404 1122 m 1 Y s 3 lw 1404 1117 m21 6 lw 1422 1108 m 1 Y s 1422 1120 m 1 Y s 3 lw 1422 1114 m21 6 lw 1441 1108 m 1 Y s 1441 1120 m 1 Y s
 3 lw 1441 1115 m21 6 lw 1460 1116 m 1 Y s 1460 1128 m 1 Y s 3 lw 1460 1123 m21 6 lw 1479 1109 m 1 Y s 1479 1122 m 1 Y s 3 lw 1479 1116 m21 6 lw 1498 1117 m 2 Y s 1498 1130 m 1 Y s 3 lw 1498 1124 m21 6 lw 1517 1120 m 1 Y s 1517 1132 m 2 Y s 3 lw 1517
 1127 m21 6 lw 1535 1120 m 2 Y s 1535 1133 m 2 Y s 3 lw 1535 1128 m21 6 lw 1554 1116 m 2 Y s 1554 1129 m 2 Y s 3 lw 1554 1123 m21 6 lw 1573 1113 m 2 Y s 1573 1127 m 1 Y s 3 lw 1573 1121 m21 6 lw 1592 1120 m 2 Y s 1592 1134 m 2 Y s 3 lw 1592 1128 m21
 6 lw 1611 1123 m 2 Y s 1611 1136 m 2 Y s 3 lw 1611 1130 m21 6 lw 1629 1107 m 2 Y s 1629 1120 m 3 Y s 3 lw 1629 1115 m21 6 lw 1648 1124 m 3 Y s 1648 1138 m 3 Y s 3 lw 1648 1133 m21 6 lw 1667 1125 m 3 Y s 1667 1139 m 3 Y s 3 lw 1667 1133 m21 6 lw 1686
 1129 m 3 Y s 1686 1143 m 3 Y s 3 lw 1686 1138 m21 6 lw 1705 1114 m 3 Y s 1705 1128 m 3 Y s 3 lw 1705 1122 m21 6 lw 1724 1108 m 3 Y s 1724 1122 m 3 Y s 3 lw 1724 1116 m21 6 lw 1742 1112 m 3 Y s 1742 1126 m 3 Y s 3 lw 1742 1120 m21 6 lw 1761 1121 m 3
 Y s 1761 1135 m 3 Y s 3 lw 1761 1130 m21 6 lw 1780 1136 m 4 Y s 1780 1151 m 3 Y s 3 lw 1780 1145 m21 6 lw 1799 1123 m 4 Y s 1799 1138 m 4 Y s 3 lw 1799 1133 m21 6 lw 1818 1136 m 4 Y s 1818 1152 m 3 Y s 3 lw 1818 1146 m21 6 lw 1837 1120 m 4 Y s 1837
 1135 m 4 Y s 3 lw 1837 1129 m21 6 lw 1855 1133 m 4 Y s 1855 1149 m 4 Y s 3 lw 1855 1143 m21 6 lw 1874 1125 m 4 Y s 1874 1141 m 4 Y s 3 lw 1874 1135 m21 6 lw 1893 1131 m 4 Y s 1893 1147 m 4 Y s 3 lw 1893 1141 m21 6 lw 1912 1134 m 4 Y s 1912 1150 m 4
 Y s 3 lw 1912 1144 m21 6 lw 1931 1116 m 5 Y s 1931 1132 m 5 Y s 3 lw 1931 1126 m21 6 lw 1949 1144 m 5 Y s 1949 1160 m 5 Y s 3 lw 1949 1154 m21 6 lw 1968 1121 m 5 Y s 1968 1137 m 5 Y s 3 lw 1968 1131 m21 6 lw 1987 1128 m 5 Y s 1987 1145 m 5 Y s 3 lw
 1987 1139 m21 6 lw 2006 1129 m 6 Y s 2006 1146 m 5 Y s 3 lw 2006 1140 m21 6 lw 2025 1131 m 6 Y s 2025 1148 m 5 Y s 3 lw 2025 1142 m21 6 lw 2044 1122 m 6 Y s 2044 1139 m 6 Y s 3 lw 2044 1133 m21 6 lw 2062 1129 m 6 Y s 2062 1146 m 6 Y s 3 lw 2062 1140
 m21 6 lw 2081 1129 m 7 Y s 2081 1147 m 6 Y s 3 lw 2081 1141 m21 6 lw 2100 1142 m 6 Y s 2100 1160 m 6 Y s 3 lw 2100 1154 m21 6 lw 2119 1125 m 7 Y s 2119 1143 m 7 Y s 3 lw 2119 1138 m21 6 lw 2138 1113 m 7 Y s 2138 1131 m 7 Y s 3 lw 2138 1126 m21 6 lw
 2156 1118 m 7 Y s 2156 1136 m 7 Y s 3 lw 2156 1131 m21 6 lw 2175 1127 m 7 Y s 2175 1146 m 7 Y s 3 lw 2175 1140 m21 6 lw 2194 1112 m 7 Y s 2194 1130 m 7 Y s 3 lw 2194 1125 m21 6 lw 2213 1136 m 7 Y s 2213 1155 m 7 Y s 3 lw 2213 1149 m21 6 lw black 340
 223 m 1882 X s
 gsave  2268 2234 0 0 C 1923.86 58.2559 t 0 r /Helvetica findfont 83.8316 sf 0 0 m (Q [GeV]) show NC gr  340 279 m -56 Y s 387 251 m -28 Y s 434 251 m -28 Y s 481 251 m -28 Y s 528 279 m -56 Y s 575 251 m -28 Y s 622 251 m -28 Y s 670 251 m -28 Y s
 717 279 m -56 Y s 764 251 m -28 Y s 811 251 m -28 Y s 858 251 m -28 Y s 905 279 m -56 Y s 952 251 m -28 Y s 999 251 m -28 Y s 1046 251 m -28 Y s 1093 279 m -56 Y s 1140 251 m -28 Y s 1187 251 m -28 Y s 1234 251 m -28 Y s 1281 279 m -56 Y s 1328 251
 m -28 Y s 1375 251 m -28 Y s 1422 251 m -28 Y s 1469 279 m -56 Y s 1517 251 m -28 Y s 1564 251 m -28 Y s 1611 251 m -28 Y s 1658 279 m -56 Y s 1705 251 m -28 Y s 1752 251 m -28 Y s 1799 251 m -28 Y s 1846 279 m -56 Y s 1893 251 m -28 Y s 1940 251 m
 -28 Y s 1987 251 m -28 Y s 2034 279 m -56 Y s 2081 251 m -28 Y s 2128 251 m -28 Y s 2175 251 m -28 Y s 2222 279 m -56 Y s
 gsave  2268 2234 0 0 C 322.539 159.138 t 0 r /Helvetica findfont 62.5185 sf 0 0 m (0) show NC gr 
 gsave  2268 2234 0 0 C 484.518 159.138 t 0 r /Helvetica findfont 62.5185 sf 0 0 m (0.2) show NC gr 
 gsave  2268 2234 0 0 C 673.495 159.138 t 0 r /Helvetica findfont 62.5185 sf 0 0 m (0.4) show NC gr 
 gsave  2268 2234 0 0 C 861.05 159.138 t 0 r /Helvetica findfont 62.5185 sf 0 0 m (0.6) show NC gr 
 gsave  2268 2234 0 0 C 1050.03 159.138 t 0 r /Helvetica findfont 62.5185 sf 0 0 m (0.8) show NC gr 
 gsave  2268 2234 0 0 C 1268.84 159.138 t 0 r /Helvetica findfont 62.5185 sf 0 0 m (1) show NC gr 
 gsave  2268 2234 0 0 C 1426.56 159.138 t 0 r /Helvetica findfont 62.5185 sf 0 0 m (1.2) show NC gr 
 gsave  2268 2234 0 0 C 1614.11 159.138 t 0 r /Helvetica findfont 62.5185 sf 0 0 m (1.4) show NC gr 
 gsave  2268 2234 0 0 C 1803.09 159.138 t 0 r /Helvetica findfont 62.5185 sf 0 0 m (1.6) show NC gr 
 gsave  2268 2234 0 0 C 1990.65 159.138 t 0 r /Helvetica findfont 62.5185 sf 0 0 m (1.8) show NC gr 
 gsave  2268 2234 0 0 C 2205.2 159.138 t 0 r /Helvetica findfont 62.5185 sf 0 0 m (2) show NC gr  340 223 m 1966 Y s
 gsave  2268 2234 0 0 C 152.034 1450.71 t 90 r /Helvetica findfont 83.8316 sf 0 0 m ( DR\(Q\) / \(0.02 GeV\)) show NC gr  400 402 m -60 X s 370 491 m -30 X s 370 581 m -30 X s 370 670 m -30 X s 400 759 m -60 X s 370 849 m -30 X s 370 938 m -30 X s
 370 1027 m -30 X s 400 1117 m -60 X s 370 1206 m -30 X s 370 1295 m -30 X s 370 1385 m -30 X s 400 1474 m -60 X s 370 1564 m -30 X s 370 1653 m -30 X s 370 1742 m -30 X s 400 1832 m -60 X s 370 1921 m -30 X s 370 2010 m -30 X s 370 2100 m -30 X s
 400 2189 m -60 X s 400 402 m -60 X s 370 313 m -30 X s 370 223 m -30 X s
 gsave  2268 2234 0 0 C 242.97 379.374 t 0 r /Helvetica findfont 62.5185 sf 0 0 m (0.6) show NC gr 
 gsave  2268 2234 0 0 C 242.97 737.434 t 0 r /Helvetica findfont 62.5185 sf 0 0 m (0.8) show NC gr 
 gsave  2268 2234 0 0 C 305.488 1092.65 t 0 r /Helvetica findfont 62.5185 sf 0 0 m (1) show NC gr 
 gsave  2268 2234 0 0 C 242.97 1450.71 t 0 r /Helvetica findfont 62.5185 sf 0 0 m (1.2) show NC gr 
 gsave  2268 2234 0 0 C 242.97 1808.77 t 0 r /Helvetica findfont 62.5185 sf 0 0 m (1.4) show NC gr 
 gsave  2268 2234 0 0 C 242.97 2166.83 t 0 r /Helvetica findfont 62.5185 sf 0 0 m (1.6) show NC gr  1 0 0 c 1 1 1 c 1 0 0 c 406 1587 m 15 Y s 406 1613 m 15 Y s 3 lw 406 1608 m21 6 lw 425 1495 m 10 Y s 425 1516 m 10 Y s 3 lw 425 1511 m21 6 lw 444 1413
 m 7 Y s 444 1431 m 7 Y s 3 lw 444 1425 m21 6 lw 463 1331 m 5 Y s 463 1347 m 6 Y s 3 lw 463 1342 m21 6 lw 481 1286 m 4 Y s 481 1302 m 3 Y s 3 lw 481 1296 m21 6 lw 500 1250 m 3 Y s 500 1264 m 3 Y s 3 lw 500 1258 m21 6 lw 519 1224 m 3 Y s 519 1238 m 2
 Y s 3 lw 519 1232 m21 6 lw 538 1190 m 1 Y s 538 1203 m 1 Y s 3 lw 538 1197 m21 6 lw 557 1167 m 1 Y s 557 1179 m 1 Y s 3 lw 557 1173 m21 6 lw 575 1174 m 1 Y s 575 1187 m 1 Y s 3 lw 575 1181 m21 6 lw 594 1149 m 1 Y s 594 1161 m 1 Y s 3 lw 594 1156 m21
 6 lw 613 1136 m s 613 1148 m s 3 lw 613 1142 m21 6 lw 632 1127 m s 632 1138 m s 3 lw 632 1133 m21 6 lw 3 lw 651 1127 m21 6 lw 3 lw 670 1126 m21 6 lw 3 lw 688 1115 m21 6 lw 3 lw 707 1118 m21 6 lw 3 lw 726 1107 m21 6 lw 3 lw 745 1102 m21 6 lw 3 lw 764
 1101 m21 6 lw 3 lw 782 1097 m21 6 lw 3 lw 801 1099 m21 6 lw 3 lw 820 1087 m21 6 lw 3 lw 839 1098 m21 6 lw 3 lw 858 1087 m21 6 lw 3 lw 877 1082 m21 6 lw 3 lw 895 1080 m21 6 lw 3 lw 914 1083 m21 6 lw 3 lw 933 1088 m21 6 lw 3 lw 952 1089 m21 6 lw 3 lw
 971 1082 m21 6 lw 3 lw 990 1084 m21 6 lw 3 lw 1008 1089 m21 6 lw 3 lw 1027 1090 m21 6 lw 3 lw 1046 1079 m21 6 lw 3 lw 1065 1085 m21 6 lw 3 lw 1084 1078 m21 6 lw 3 lw 1102 1093 m21 6 lw 3 lw 1121 1093 m21 6 lw 3 lw 1140 1094 m21 6 lw 3 lw 1159 1092
 m21 6 lw 3 lw 1178 1108 m21 6 lw 3 lw 1197 1098 m21 6 lw 3 lw 1215 1098 m21 6 lw 3 lw 1234 1105 m21 6 lw 3 lw 1253 1093 m21 6 lw 3 lw 1272 1102 m21 6 lw 3 lw 1291 1117 m21 6 lw 3 lw 1309 1108 m21 6 lw 1328 1108 m s 1328 1120 m s 3 lw 1328 1114 m21 6
 lw 1347 1096 m s 1347 1107 m s 3 lw 1347 1102 m21 6 lw 1366 1100 m s 1366 1112 m s 3 lw 1366 1106 m21 6 lw 1385 1107 m s 1385 1119 m s 3 lw 1385 1113 m21 6 lw 1404 1099 m s 1404 1111 m s 3 lw 1404 1105 m21 6 lw 1422 1108 m s 1422 1120 m s 3 lw 1422
 1114 m21 6 lw 1441 1109 m 1 Y s 1441 1121 m 1 Y s 3 lw 1441 1116 m21 6 lw 1460 1110 m s 1460 1122 m 1 Y s 3 lw 1460 1116 m21 6 lw 1479 1111 m 1 Y s 1479 1124 m s 3 lw 1479 1118 m21 6 lw 1498 1116 m 1 Y s 1498 1128 m 1 Y s 3 lw 1498 1123 m21 6 lw
 1517 1118 m 1 Y s 1517 1131 m 1 Y s 3 lw 1517 1125 m21 6 lw 1535 1113 m 1 Y s 1535 1125 m 1 Y s 3 lw 1535 1120 m21 6 lw 1554 1116 m 1 Y s 1554 1129 m 1 Y s 3 lw 1554 1123 m21 6 lw 1573 1119 m 2 Y s 1573 1132 m 1 Y s 3 lw 1573 1126 m21 6 lw 1592 1116
 m 2 Y s 1592 1129 m 1 Y s 3 lw 1592 1123 m21 6 lw 1611 1126 m 1 Y s 1611 1139 m 1 Y s 3 lw 1611 1133 m21 6 lw 1629 1121 m 1 Y s 1629 1134 m 1 Y s 3 lw 1629 1128 m21 6 lw 1648 1124 m 2 Y s 1648 1137 m 2 Y s 3 lw 1648 1132 m21 6 lw 1667 1136 m 2 Y s
 1667 1150 m 1 Y s 3 lw 1667 1144 m21 6 lw 1686 1122 m 2 Y s 1686 1136 m 2 Y s 3 lw 1686 1130 m21 6 lw 1705 1117 m 2 Y s 1705 1130 m 2 Y s 3 lw 1705 1125 m21 6 lw 1724 1133 m 3 Y s 1724 1147 m 2 Y s 3 lw 1724 1141 m21 6 lw 1742 1109 m 2 Y s 1742 1123
 m 2 Y s 3 lw 1742 1117 m21 6 lw 1761 1117 m 2 Y s 1761 1131 m 2 Y s 3 lw 1761 1125 m21 6 lw 1780 1110 m 2 Y s 1780 1124 m 2 Y s 3 lw 1780 1118 m21 6 lw 1799 1111 m 3 Y s 1799 1125 m 3 Y s 3 lw 1799 1119 m21 6 lw 1818 1118 m 3 Y s 1818 1132 m 3 Y s 3
 lw 1818 1127 m21 6 lw 1837 1105 m 3 Y s 1837 1119 m 3 Y s 3 lw 1837 1113 m21 6 lw 1855 1130 m 3 Y s 1855 1144 m 4 Y s 3 lw 1855 1139 m21 6 lw 1874 1121 m 3 Y s 1874 1135 m 4 Y s 3 lw 1874 1130 m21 6 lw 1893 1105 m 4 Y s 1893 1120 m 4 Y s 3 lw 1893
 1115 m21 6 lw 1912 1135 m 4 Y s 1912 1151 m 3 Y s 3 lw 1912 1145 m21 6 lw 1931 1126 m 4 Y s 1931 1141 m 4 Y s 3 lw 1931 1136 m21 6 lw 1949 1119 m 4 Y s 1949 1134 m 4 Y s 3 lw 1949 1128 m21 6 lw 1968 1122 m 4 Y s 1968 1138 m 4 Y s 3 lw 1968 1132 m21
 6 lw 1987 1116 m 5 Y s 1987 1132 m 4 Y s 3 lw 1987 1126 m21 6 lw 2006 1134 m 4 Y s 2006 1149 m 5 Y s 3 lw 2006 1144 m21 6 lw 2025 1119 m 5 Y s 2025 1135 m 5 Y s 3 lw 2025 1129 m21 6 lw 2044 1111 m 5 Y s 2044 1127 m 5 Y s 3 lw 2044 1121 m21 6 lw 2062
 1117 m 5 Y s 2062 1133 m 5 Y s 3 lw 2062 1127 m21 6 lw 2081 1130 m 5 Y s 2081 1147 m 5 Y s 3 lw 2081 1141 m21 6 lw 2100 1141 m 6 Y s 2100 1158 m 5 Y s 3 lw 2100 1152 m21 6 lw 2119 1110 m 6 Y s 2119 1127 m 5 Y s 3 lw 2119 1121 m21 6 lw 2138 1108 m 6
 Y s 2138 1125 m 6 Y s 3 lw 2138 1119 m21 6 lw 2156 1127 m 6 Y s 2156 1144 m 6 Y s 3 lw 2156 1139 m21 6 lw 2175 1149 m 7 Y s 2175 1167 m 6 Y s 3 lw 2175 1161 m21 6 lw 2194 1111 m 6 Y s 2194 1129 m 6 Y s 3 lw 2194 1123 m21 6 lw 2213 1135 m 6 Y s 2213
 1152 m 7 Y s 3 lw 2213 1147 m21 6 lw 0 1 0 c 1 1 1 c 0 1 0 c 406 1606 m 21 Y s 406 1638 m 21 Y s 3 lw 406 1633 m21 6 lw 425 1552 m 15 Y s 425 1578 m 16 Y s 3 lw 425 1573 m21 6 lw 444 1391 m 11 Y s 444 1413 m 11 Y s 3 lw 444 1408 m21 6 lw 463 1356 m
 9 Y s 463 1377 m 8 Y s 3 lw 463 1371 m21 6 lw 481 1292 m 7 Y s 481 1310 m 7 Y s 3 lw 481 1304 m21 6 lw 500 1255 m 6 Y s 500 1272 m 6 Y s 3 lw 500 1266 m21 6 lw 519 1229 m 5 Y s 519 1246 m 4 Y s 3 lw 519 1240 m21 6 lw 538 1193 m 4 Y s 538 1209 m 4 Y
 s 3 lw 538 1203 m21 6 lw 557 1160 m 4 Y s 557 1175 m 4 Y s 3 lw 557 1170 m21 6 lw 575 1149 m 3 Y s 575 1163 m 3 Y s 3 lw 575 1157 m21 6 lw 594 1146 m 3 Y s 594 1160 m 3 Y s 3 lw 594 1155 m21 6 lw 613 1141 m 3 Y s 613 1155 m 2 Y s 3 lw 613 1149 m21 6
 lw 632 1136 m 2 Y s 632 1149 m 2 Y s 3 lw 632 1143 m21 6 lw 651 1124 m 2 Y s 651 1137 m 2 Y s 3 lw 651 1132 m21 6 lw 670 1118 m 2 Y s 670 1131 m 2 Y s 3 lw 670 1126 m21 6 lw 688 1128 m 2 Y s 688 1141 m 1 Y s 3 lw 688 1135 m21 6 lw 707 1104 m 1 Y s
 707 1117 m 1 Y s 3 lw 707 1111 m21 6 lw 726 1107 m 2 Y s 726 1120 m 1 Y s 3 lw 726 1114 m21 6 lw 745 1096 m 1 Y s 745 1108 m 1 Y s 3 lw 745 1103 m21 6 lw 764 1101 m 1 Y s 764 1114 m 1 Y s 3 lw 764 1108 m21 6 lw 782 1104 m 1 Y s 782 1116 m 1 Y s 3 lw
 782 1111 m21 6 lw 801 1090 m s 801 1102 m s 3 lw 801 1096 m21 6 lw 820 1085 m s 820 1096 m 1 Y s 3 lw 820 1091 m21 6 lw 839 1081 m s 839 1093 m s 3 lw 839 1087 m21 6 lw 858 1077 m s 858 1088 m 1 Y s 3 lw 858 1083 m21 6 lw 877 1070 m 1 Y s 877 1082 m
 s 3 lw 877 1076 m21 6 lw 895 1083 m s 895 1095 m s 3 lw 895 1089 m21 6 lw 914 1078 m 1 Y s 914 1090 m 1 Y s 3 lw 914 1085 m21 6 lw 933 1073 m 1 Y s 933 1085 m 1 Y s 3 lw 933 1080 m21 6 lw 952 1073 m s 952 1085 m s 3 lw 952 1079 m21 6 lw 971 1071 m 1
 Y s 971 1083 m 1 Y s 3 lw 971 1078 m21 6 lw 990 1082 m s 990 1094 m s 3 lw 990 1088 m21 6 lw 1008 1087 m 1 Y s 1008 1099 m 1 Y s 3 lw 1008 1093 m21 6 lw 1027 1079 m s 1027 1091 m s 3 lw 1027 1085 m21 6 lw 1046 1079 m 1 Y s 1046 1091 m 1 Y s 3 lw
 1046 1086 m21 6 lw 1065 1075 m 1 Y s 1065 1087 m 1 Y s 3 lw 1065 1082 m21 6 lw 1084 1079 m 1 Y s 1084 1091 m 1 Y s 3 lw 1084 1086 m21 6 lw 1102 1101 m 1 Y s 1102 1114 m s 3 lw 1102 1108 m21 6 lw 1121 1090 m 1 Y s 1121 1103 m s 3 lw 1121 1097 m21 6
 lw 1140 1083 m 1 Y s 1140 1096 m 1 Y s 3 lw 1140 1090 m21 6 lw 1159 1081 m 1 Y s 1159 1094 m 1 Y s 3 lw 1159 1088 m21 6 lw 1178 1088 m 1 Y s 1178 1100 m 1 Y s 3 lw 1178 1094 m21 6 lw 1197 1082 m 1 Y s 1197 1095 m 1 Y s 3 lw 1197 1089 m21 6 lw 1215
 1088 m 1 Y s 1215 1101 m 1 Y s 3 lw 1215 1095 m21 6 lw 1234 1088 m 2 Y s 1234 1101 m 1 Y s 3 lw 1234 1095 m21 6 lw 1253 1086 m 1 Y s 1253 1099 m 1 Y s 3 lw 1253 1093 m21 6 lw 1272 1089 m 1 Y s 1272 1102 m 1 Y s 3 lw 1272 1096 m21 6 lw 1291 1108 m 2
 Y s 1291 1121 m 2 Y s 3 lw 1291 1116 m21 6 lw 1309 1085 m 1 Y s 1309 1098 m 1 Y s 3 lw 1309 1092 m21 6 lw 1328 1099 m 2 Y s 1328 1112 m 2 Y s 3 lw 1328 1107 m21 6 lw 1347 1092 m 1 Y s 1347 1105 m 2 Y s 3 lw 1347 1099 m21 6 lw 1366 1104 m 2 Y s 1366
 1117 m 2 Y s 3 lw 1366 1112 m21 6 lw 1385 1095 m 2 Y s 1385 1108 m 2 Y s 3 lw 1385 1102 m21 6 lw 1404 1099 m 2 Y s 1404 1113 m 2 Y s 3 lw 1404 1107 m21 6 lw 1422 1105 m 2 Y s 1422 1118 m 3 Y s 3 lw 1422 1113 m21 6 lw 1441 1098 m 3 Y s 1441 1112 m 3
 Y s 3 lw 1441 1107 m21 6 lw 1460 1103 m 3 Y s 1460 1117 m 3 Y s 3 lw 1460 1111 m21 6 lw 1479 1110 m 3 Y s 1479 1124 m 3 Y s 3 lw 1479 1119 m21 6 lw 1498 1099 m 3 Y s 1498 1114 m 3 Y s 3 lw 1498 1108 m21 6 lw 1517 1094 m 3 Y s 1517 1108 m 3 Y s 3 lw
 1517 1102 m21 6 lw 1535 1112 m 3 Y s 1535 1127 m 3 Y s 3 lw 1535 1121 m21 6 lw 1554 1133 m 3 Y s 1554 1148 m 3 Y s 3 lw 1554 1142 m21 6 lw 1573 1107 m 3 Y s 1573 1122 m 3 Y s 3 lw 1573 1116 m21 6 lw 1592 1120 m 4 Y s 1592 1135 m 4 Y s 3 lw 1592 1129
 m21 6 lw 1611 1109 m 4 Y s 1611 1124 m 4 Y s 3 lw 1611 1118 m21 6 lw 1629 1133 m 4 Y s 1629 1148 m 4 Y s 3 lw 1629 1143 m21 6 lw 1648 1115 m 4 Y s 1648 1130 m 4 Y s 3 lw 1648 1125 m21 6 lw 1667 1119 m 4 Y s 1667 1135 m 4 Y s 3 lw 1667 1129 m21 6 lw
 1686 1109 m 4 Y s 1686 1125 m 4 Y s 3 lw 1686 1119 m21 6 lw 1705 1125 m 5 Y s 1705 1141 m 5 Y s 3 lw 1705 1135 m21 6 lw 1724 1122 m 5 Y s 1724 1138 m 5 Y s 3 lw 1724 1132 m21 6 lw 1742 1106 m 5 Y s 1742 1122 m 5 Y s 3 lw 1742 1117 m21 6 lw 1761 1123
 m 5 Y s 1761 1139 m 5 Y s 3 lw 1761 1133 m21 6 lw 1780 1094 m 6 Y s 1780 1111 m 5 Y s 3 lw 1780 1105 m21 6 lw 1799 1124 m 5 Y s 1799 1140 m 6 Y s 3 lw 1799 1135 m21 6 lw 1818 1117 m 6 Y s 1818 1134 m 6 Y s 3 lw 1818 1129 m21 6 lw 1837 1114 m 6 Y s
 1837 1131 m 6 Y s 3 lw 1837 1126 m21 6 lw 1855 1127 m 6 Y s 1855 1145 m 6 Y s 3 lw 1855 1139 m21 6 lw 1874 1120 m 7 Y s 1874 1138 m 6 Y s 3 lw 1874 1132 m21 6 lw 1893 1129 m 7 Y s 1893 1147 m 6 Y s 3 lw 1893 1141 m21 6 lw 1912 1097 m 6 Y s 1912 1115
 m 6 Y s 3 lw 1912 1109 m21 6 lw 1931 1113 m 7 Y s 1931 1131 m 7 Y s 3 lw 1931 1126 m21 6 lw 1949 1114 m 7 Y s 1949 1132 m 7 Y s 3 lw 1949 1127 m21 6 lw 1968 1124 m 8 Y s 1968 1143 m 7 Y s 3 lw 1968 1137 m21 6 lw 1987 1110 m 8 Y s 1987 1129 m 7 Y s 3
 lw 1987 1123 m21 6 lw 2006 1145 m 8 Y s 2006 1165 m 7 Y s 3 lw 2006 1159 m21 6 lw 2025 1115 m 8 Y s 2025 1134 m 8 Y s 3 lw 2025 1129 m21 6 lw 2044 1148 m 8 Y s 2044 1167 m 9 Y s 3 lw 2044 1162 m21 6 lw 2062 1125 m 9 Y s 2062 1145 m 9 Y s 3 lw 2062
 1139 m21 6 lw 2081 1139 m 9 Y s 2081 1159 m 9 Y s 3 lw 2081 1154 m21 6 lw 2100 1138 m 8 Y s 2100 1158 m 9 Y s 3 lw 2100 1152 m21 6 lw 2119 1119 m 9 Y s 2119 1140 m 9 Y s 3 lw 2119 1134 m21 6 lw 2138 1119 m 10 Y s 2138 1140 m 9 Y s 3 lw 2138 1134 m21
 6 lw 2156 1129 m 10 Y s 2156 1150 m 10 Y s 3 lw 2156 1145 m21 6 lw 2175 1149 m 11 Y s 2175 1171 m 10 Y s 3 lw 2175 1165 m21 6 lw 2194 1128 m 10 Y s 2194 1149 m 11 Y s 3 lw 2194 1144 m21 6 lw 2213 1109 m 10 Y s 2213 1131 m 10 Y s 3 lw 2213 1125 m21 6
 lw black 1 1 1 c 680 447 1474 1675 bf black 1474 1675 m 680 X s 2154 1675 m 447 Y s 2154 2122 m -680 X s 1474 2122 m -447 Y s
 gsave  2268 2234 0 0 C 1490.5 2041.8 t 0 r /Helvetica findfont 68.202 sf 0 0 m (nr PVs) show NC gr 
 gsave  2268 2234 0 0 C 1643.95 1929.55 t 0 r /Helvetica findfont 68.202 sf 0 0 m (1) show NC gr  0 0 1 c 1559 1921 m 67 Y s 3 lw 1559 1954 m21 6 lw black
 gsave  2268 2234 0 0 C 1643.95 1818.72 t 0 r /Helvetica findfont 68.202 sf 0 0 m (2) show NC gr  1 0 0 c 1559 1809 m 67 Y s 3 lw 1559 1843 m21 6 lw black
 gsave  2268 2234 0 0 C 1643.95 1706.47 t 0 r /Helvetica findfont 68.202 sf 0 0 m (3 or 4) show NC gr  0 1 0 c 1559 1698 m 67 Y s 3 lw 1559 1731 m21 6 lw black
 gsave  2268 2234 0 0 C 906.518 670.653 t 0 r /Helvetica-Bold findfont 72.4646 sf 0 0 m (DR PIONS) show NC gr 
 gsave  2268 2234 0 0 C 906.518 558.404 t 0 r /Helvetica-Bold findfont 72.4646 sf 0 0 m (ref. sample: EVENT MIX) show NC gr 
 gsave  2268 2234 0 0 C 906.518 447.576 t 0 r /Helvetica-Bold findfont 72.4646 sf 0 0 m (VELO tracks multiplicity: 21 \255 60) show NC gr 
 gr  gr showpage
end
%%EOF
