%!PS-Adobe-2.0 EPSF-2.0
%%BoundingBox:  0 0 567 558
%%Title: ./DR_pion_0c65_h3015_2_h3401_2_compare.eps: DR_pion_0c65_h3015_2_h3401_2_compare
%%Creator: ROOT Version 6.06/02
%%CreationDate: Wed Jan 25 15:00:45 2017
%%DocumentNeededResources: ProcSet (FontSetInit)
%%EndComments
%%BeginProlog
80 dict begin
/s {stroke} def /l {lineto} def /m {moveto} def /t {translate} def
/r {rotate} def /rl {roll}  def /R {repeat} def
/d {rlineto} def /rm {rmoveto} def /gr {grestore} def /f {eofill} def
/c {setrgbcolor} def /black {0 setgray} def /sd {setdash} def
/cl {closepath} def /sf {scalefont setfont} def /lw {setlinewidth} def
/box {m dup 0 exch d exch 0 d 0 exch neg d cl} def
/NC{systemdict begin initclip end}def/C{NC box clip newpath}def
/bl {box s} def /bf {gsave box gsave f grestore 1 lw [] 0 sd s grestore} def /Y { 0 exch d} def /X { 0 d} def 
/K {{pop pop 0 moveto} exch kshow} bind def
/ita {/ang 15 def gsave [1 0 ang dup sin exch cos div 1 0 0] concat} def 
/mp {newpath /y exch def /x exch def} def
/side {[w .77 mul w .23 mul] .385 w mul sd w 0 l currentpoint t -144 r} def
/mr {mp x y w2 0 360 arc} def /m24 {mr s} def /m20 {mr f} def
/mb {mp x y w2 add m w2 neg 0 d 0 w neg d w 0 d 0 w d cl} def
/mt {mp x y w2 add m w2 neg w neg d w 0 d cl} def
/m21 {mb f} def /m25 {mb s} def /m22 {mt f} def /m26{mt s} def
/m23 {mp x y w2 sub m w2 w d w neg 0 d cl f} def
/m27 {mp x y w2 add m w3 neg w2 neg d w3 w2 neg d w3 w2 d cl s} def
/m28 {mp x w2 sub y w2 sub w3 add m w3 0 d  0 w3 neg d w3 0 d 0 w3 d w3 0 d  0 w3 d w3 neg 0 d 0 w3 d w3 neg 0 d 0 w3 neg d w3 neg 0 d cl s } def
/m29 {mp gsave x w2 sub y w2 add w3 sub m currentpoint t 4 {side} repeat cl fill gr} def
/m30 {mp gsave x w2 sub y w2 add w3 sub m currentpoint t 4 {side} repeat cl s gr} def
/m31 {mp x y w2 sub m 0 w d x w2 sub y m w 0 d x w2 sub y w2 add m w w neg d x w2 sub y w2 sub m w w d s} def
/m32 {mp x y w2 sub m w2 w d w neg 0 d cl s} def
/m33 {mp x y w2 add m w3 neg w2 neg d w3 w2 neg d w3 w2 d cl f} def
/m34 {mp x w2 sub y w2 sub w3 add m w3 0 d  0 w3 neg d w3 0 d 0 w3 d w3 0 d  0 w3 d w3 neg 0 d 0 w3 d w3 neg 0 d 0 w3 neg d w3 neg 0 d cl f } def
/m2 {mp x y w2 sub m 0 w d x w2 sub y m w 0 d s} def
/m5 {mp x w2 sub y w2 sub m w w d x w2 sub y w2 add m w w neg d s} def
%%IncludeResource: ProcSet (FontSetInit)
%%IncludeResource: font Times-Roman
%%IncludeResource: font Times-Italic
%%IncludeResource: font Times-Bold
%%IncludeResource: font Times-BoldItalic
%%IncludeResource: font Helvetica
%%IncludeResource: font Helvetica-Oblique
%%IncludeResource: font Helvetica-Bold
%%IncludeResource: font Helvetica-BoldOblique
%%IncludeResource: font Courier
%%IncludeResource: font Courier-Oblique
%%IncludeResource: font Courier-Bold
%%IncludeResource: font Courier-BoldOblique
%%IncludeResource: font Symbol
%%IncludeResource: font ZapfDingbats
/reEncode {exch findfont dup length dict begin {1 index /FID eq  {pop pop} {def} ifelse } forall /Encoding exch def currentdict end dup /FontName get exch definefont pop } def [/Times-Bold /Times-Italic /Times-BoldItalic /Helvetica /Helvetica-Oblique
 /Helvetica-Bold /Helvetica-BoldOblique /Courier /Courier-Oblique /Courier-Bold /Courier-BoldOblique /Times-Roman /AvantGarde-Book /AvantGarde-BookOblique /AvantGarde-Demi /AvantGarde-DemiOblique /Bookman-Demi /Bookman-DemiItalic /Bookman-Light
 /Bookman-LightItalic /Helvetica-Narrow /Helvetica-Narrow-Bold /Helvetica-Narrow-BoldOblique /Helvetica-Narrow-Oblique /NewCenturySchlbk-Roman /NewCenturySchlbk-Bold /NewCenturySchlbk-BoldItalic /NewCenturySchlbk-Italic /Palatino-Bold
 /Palatino-BoldItalic /Palatino-Italic /Palatino-Roman ] {ISOLatin1Encoding reEncode } forall
%%EndProlog
%%BeginSetup
%%EndSetup
newpath  gsave  .25 .25 scale  gsave  0 0 t black[  ] 0 sd 6 lw 1 1 1 c 2268 2234 0 0 bf black 3 lw 1 1 1 c 1882 1966 340 223 bf black 1882 1966 340 223 bl 1 1 1 c 1882 1966 340 223 bf black 1882 1966 340 223 bl 0 0 1 c 6 lw 1 1 1 c 0 0 1 c 406 1690
 m 16 Y s 406 1717 m 16 Y s 3 lw /w 11 def /w2 {w 2 div} def /w3 {w 3 div} def 406 1711 m21 6 lw 425 1573 m 11 Y s 425 1595 m 11 Y s 3 lw 425 1590 m21 6 lw 444 1478 m 8 Y s 444 1497 m 8 Y s 3 lw 444 1491 m21 6 lw 463 1392 m 6 Y s 463 1409 m 6 Y s 3
 lw 463 1403 m21 6 lw 481 1355 m 4 Y s 481 1371 m 4 Y s 3 lw 481 1365 m21 6 lw 500 1272 m 3 Y s 500 1286 m 4 Y s 3 lw 500 1281 m21 6 lw 519 1263 m 3 Y s 519 1278 m 2 Y s 3 lw 519 1272 m21 6 lw 538 1230 m 2 Y s 538 1243 m 2 Y s 3 lw 538 1238 m21 6 lw
 557 1196 m 2 Y s 557 1209 m 2 Y s 3 lw 557 1203 m21 6 lw 575 1177 m 1 Y s 575 1189 m 2 Y s 3 lw 575 1184 m21 6 lw 594 1171 m 1 Y s 594 1183 m 1 Y s 3 lw 594 1178 m21 6 lw 613 1142 m 1 Y s 613 1154 m 1 Y s 3 lw 613 1148 m21 6 lw 632 1130 m 1 Y s 632
 1142 m s 3 lw 632 1136 m21 6 lw 651 1114 m s 651 1126 m s 3 lw 651 1120 m21 6 lw 670 1126 m s 670 1137 m s 3 lw 670 1132 m21 6 lw 3 lw 688 1122 m21 6 lw 3 lw 707 1106 m21 6 lw 3 lw 726 1112 m21 6 lw 3 lw 745 1100 m21 6 lw 3 lw 764 1090 m21 6 lw 3 lw
 782 1095 m21 6 lw 3 lw 801 1085 m21 6 lw 3 lw 820 1074 m21 6 lw 3 lw 839 1076 m21 6 lw 3 lw 858 1069 m21 6 lw 3 lw 877 1070 m21 6 lw 3 lw 895 1076 m21 6 lw 3 lw 914 1063 m21 6 lw 3 lw 933 1073 m21 6 lw 3 lw 952 1070 m21 6 lw 3 lw 971 1076 m21 6 lw 3
 lw 990 1079 m21 6 lw 3 lw 1008 1077 m21 6 lw 3 lw 1027 1077 m21 6 lw 3 lw 1046 1072 m21 6 lw 3 lw 1065 1082 m21 6 lw 3 lw 1084 1069 m21 6 lw 3 lw 1102 1082 m21 6 lw 3 lw 1121 1082 m21 6 lw 3 lw 1140 1079 m21 6 lw 3 lw 1159 1087 m21 6 lw 1178 1076 m
 s 1178 1087 m s 3 lw 1178 1081 m21 6 lw 1197 1087 m 1 Y s 1197 1099 m s 3 lw 1197 1093 m21 6 lw 1215 1081 m s 1215 1093 m s 3 lw 1215 1087 m21 6 lw 1234 1075 m 1 Y s 1234 1087 m s 3 lw 1234 1081 m21 6 lw 1253 1087 m s 1253 1099 m s 3 lw 1253 1093
 m21 6 lw 1272 1088 m 1 Y s 1272 1100 m 1 Y s 3 lw 1272 1094 m21 6 lw 1291 1106 m 1 Y s 1291 1118 m 1 Y s 3 lw 1291 1113 m21 6 lw 1309 1097 m 1 Y s 1309 1109 m 1 Y s 3 lw 1309 1103 m21 6 lw 1328 1100 m 1 Y s 1328 1112 m 1 Y s 3 lw 1328 1106 m21 6 lw
 1347 1099 m 1 Y s 1347 1111 m 1 Y s 3 lw 1347 1106 m21 6 lw 1366 1096 m 1 Y s 1366 1109 m 1 Y s 3 lw 1366 1103 m21 6 lw 1385 1100 m 2 Y s 1385 1113 m 1 Y s 3 lw 1385 1107 m21 6 lw 1404 1104 m 1 Y s 1404 1117 m 1 Y s 3 lw 1404 1111 m21 6 lw 1422 1098
 m 1 Y s 1422 1111 m 1 Y s 3 lw 1422 1105 m21 6 lw 1441 1125 m 2 Y s 1441 1138 m 2 Y s 3 lw 1441 1132 m21 6 lw 1460 1120 m 2 Y s 1460 1133 m 2 Y s 3 lw 1460 1128 m21 6 lw 1479 1100 m 1 Y s 1479 1113 m 2 Y s 3 lw 1479 1107 m21 6 lw 1498 1112 m 2 Y s
 1498 1125 m 2 Y s 3 lw 1498 1119 m21 6 lw 1517 1114 m 2 Y s 1517 1127 m 3 Y s 3 lw 1517 1122 m21 6 lw 1535 1121 m 3 Y s 1535 1135 m 2 Y s 3 lw 1535 1129 m21 6 lw 1554 1113 m 2 Y s 1554 1126 m 3 Y s 3 lw 1554 1121 m21 6 lw 1573 1115 m 3 Y s 1573 1129
 m 3 Y s 3 lw 1573 1123 m21 6 lw 1592 1109 m 2 Y s 1592 1123 m 3 Y s 3 lw 1592 1117 m21 6 lw 1611 1119 m 3 Y s 1611 1134 m 3 Y s 3 lw 1611 1128 m21 6 lw 1629 1139 m 3 Y s 1629 1153 m 4 Y s 3 lw 1629 1148 m21 6 lw 1648 1129 m 4 Y s 1648 1144 m 3 Y s 3
 lw 1648 1138 m21 6 lw 1667 1129 m 3 Y s 1667 1144 m 3 Y s 3 lw 1667 1138 m21 6 lw 1686 1116 m 3 Y s 1686 1131 m 3 Y s 3 lw 1686 1125 m21 6 lw 1705 1126 m 4 Y s 1705 1141 m 4 Y s 3 lw 1705 1135 m21 6 lw 1724 1116 m 4 Y s 1724 1132 m 4 Y s 3 lw 1724
 1126 m21 6 lw 1742 1124 m 4 Y s 1742 1140 m 4 Y s 3 lw 1742 1134 m21 6 lw 1761 1134 m 5 Y s 1761 1150 m 4 Y s 3 lw 1761 1144 m21 6 lw 1780 1133 m 4 Y s 1780 1149 m 4 Y s 3 lw 1780 1143 m21 6 lw 1799 1121 m 5 Y s 1799 1137 m 5 Y s 3 lw 1799 1132 m21
 6 lw 1818 1134 m 5 Y s 1818 1150 m 5 Y s 3 lw 1818 1145 m21 6 lw 1837 1138 m 5 Y s 1837 1154 m 5 Y s 3 lw 1837 1148 m21 6 lw 1855 1120 m 5 Y s 1855 1136 m 6 Y s 3 lw 1855 1131 m21 6 lw 1874 1133 m 5 Y s 1874 1150 m 5 Y s 3 lw 1874 1144 m21 6 lw 1893
 1137 m 6 Y s 1893 1154 m 6 Y s 3 lw 1893 1149 m21 6 lw 1912 1127 m 6 Y s 1912 1145 m 6 Y s 3 lw 1912 1139 m21 6 lw 1931 1146 m 7 Y s 1931 1164 m 6 Y s 3 lw 1931 1158 m21 6 lw 1949 1121 m 6 Y s 1949 1138 m 7 Y s 3 lw 1949 1133 m21 6 lw 1968 1145 m 7
 Y s 1968 1163 m 7 Y s 3 lw 1968 1158 m21 6 lw 1987 1124 m 7 Y s 1987 1142 m 7 Y s 3 lw 1987 1136 m21 6 lw 2006 1144 m 7 Y s 2006 1162 m 8 Y s 3 lw 2006 1157 m21 6 lw 2025 1149 m 7 Y s 2025 1168 m 7 Y s 3 lw 2025 1162 m21 6 lw 2044 1141 m 8 Y s 2044
 1160 m 8 Y s 3 lw 2044 1154 m21 6 lw 2062 1119 m 8 Y s 2062 1138 m 8 Y s 3 lw 2062 1132 m21 6 lw 2081 1160 m 8 Y s 2081 1180 m 8 Y s 3 lw 2081 1174 m21 6 lw 2100 1142 m 8 Y s 2100 1162 m 8 Y s 3 lw 2100 1156 m21 6 lw 2119 1148 m 8 Y s 2119 1168 m 9
 Y s 3 lw 2119 1162 m21 6 lw 2138 1125 m 9 Y s 2138 1146 m 8 Y s 3 lw 2138 1140 m21 6 lw 2156 1148 m 10 Y s 2156 1169 m 9 Y s 3 lw 2156 1163 m21 6 lw 2175 1155 m 10 Y s 2175 1176 m 10 Y s 3 lw 2175 1171 m21 6 lw 2194 1128 m 10 Y s 2194 1149 m 10 Y s
 3 lw 2194 1144 m21 6 lw 2213 1108 m 10 Y s 2213 1129 m 10 Y s 3 lw 2213 1124 m21 6 lw black 340 223 m 1882 X s
 gsave  2268 2234 0 0 C 1923.86 58.2559 t 0 r /Helvetica findfont 83.8316 sf 0 0 m (Q [GeV]) show NC gr  340 279 m -56 Y s 387 251 m -28 Y s 434 251 m -28 Y s 481 251 m -28 Y s 528 279 m -56 Y s 575 251 m -28 Y s 622 251 m -28 Y s 670 251 m -28 Y s
 717 279 m -56 Y s 764 251 m -28 Y s 811 251 m -28 Y s 858 251 m -28 Y s 905 279 m -56 Y s 952 251 m -28 Y s 999 251 m -28 Y s 1046 251 m -28 Y s 1093 279 m -56 Y s 1140 251 m -28 Y s 1187 251 m -28 Y s 1234 251 m -28 Y s 1281 279 m -56 Y s 1328 251
 m -28 Y s 1375 251 m -28 Y s 1422 251 m -28 Y s 1469 279 m -56 Y s 1517 251 m -28 Y s 1564 251 m -28 Y s 1611 251 m -28 Y s 1658 279 m -56 Y s 1705 251 m -28 Y s 1752 251 m -28 Y s 1799 251 m -28 Y s 1846 279 m -56 Y s 1893 251 m -28 Y s 1940 251 m
 -28 Y s 1987 251 m -28 Y s 2034 279 m -56 Y s 2081 251 m -28 Y s 2128 251 m -28 Y s 2175 251 m -28 Y s 2222 279 m -56 Y s
 gsave  2268 2234 0 0 C 322.539 159.138 t 0 r /Helvetica findfont 62.5185 sf 0 0 m (0) show NC gr 
 gsave  2268 2234 0 0 C 484.518 159.138 t 0 r /Helvetica findfont 62.5185 sf 0 0 m (0.2) show NC gr 
 gsave  2268 2234 0 0 C 673.495 159.138 t 0 r /Helvetica findfont 62.5185 sf 0 0 m (0.4) show NC gr 
 gsave  2268 2234 0 0 C 861.05 159.138 t 0 r /Helvetica findfont 62.5185 sf 0 0 m (0.6) show NC gr 
 gsave  2268 2234 0 0 C 1050.03 159.138 t 0 r /Helvetica findfont 62.5185 sf 0 0 m (0.8) show NC gr 
 gsave  2268 2234 0 0 C 1268.84 159.138 t 0 r /Helvetica findfont 62.5185 sf 0 0 m (1) show NC gr 
 gsave  2268 2234 0 0 C 1426.56 159.138 t 0 r /Helvetica findfont 62.5185 sf 0 0 m (1.2) show NC gr 
 gsave  2268 2234 0 0 C 1614.11 159.138 t 0 r /Helvetica findfont 62.5185 sf 0 0 m (1.4) show NC gr 
 gsave  2268 2234 0 0 C 1803.09 159.138 t 0 r /Helvetica findfont 62.5185 sf 0 0 m (1.6) show NC gr 
 gsave  2268 2234 0 0 C 1990.65 159.138 t 0 r /Helvetica findfont 62.5185 sf 0 0 m (1.8) show NC gr 
 gsave  2268 2234 0 0 C 2205.2 159.138 t 0 r /Helvetica findfont 62.5185 sf 0 0 m (2) show NC gr  340 223 m 1966 Y s
 gsave  2268 2234 0 0 C 152.034 1450.71 t 90 r /Helvetica findfont 83.8316 sf 0 0 m ( DR\(Q\) / \(0.02 GeV\)) show NC gr  400 402 m -60 X s 370 491 m -30 X s 370 581 m -30 X s 370 670 m -30 X s 400 759 m -60 X s 370 849 m -30 X s 370 938 m -30 X s
 370 1027 m -30 X s 400 1117 m -60 X s 370 1206 m -30 X s 370 1295 m -30 X s 370 1385 m -30 X s 400 1474 m -60 X s 370 1564 m -30 X s 370 1653 m -30 X s 370 1742 m -30 X s 400 1832 m -60 X s 370 1921 m -30 X s 370 2010 m -30 X s 370 2100 m -30 X s
 400 2189 m -60 X s 400 402 m -60 X s 370 313 m -30 X s 370 223 m -30 X s
 gsave  2268 2234 0 0 C 242.97 379.374 t 0 r /Helvetica findfont 62.5185 sf 0 0 m (0.6) show NC gr 
 gsave  2268 2234 0 0 C 242.97 737.434 t 0 r /Helvetica findfont 62.5185 sf 0 0 m (0.8) show NC gr 
 gsave  2268 2234 0 0 C 305.488 1092.65 t 0 r /Helvetica findfont 62.5185 sf 0 0 m (1) show NC gr 
 gsave  2268 2234 0 0 C 242.97 1450.71 t 0 r /Helvetica findfont 62.5185 sf 0 0 m (1.2) show NC gr 
 gsave  2268 2234 0 0 C 242.97 1808.77 t 0 r /Helvetica findfont 62.5185 sf 0 0 m (1.4) show NC gr 
 gsave  2268 2234 0 0 C 242.97 2166.83 t 0 r /Helvetica findfont 62.5185 sf 0 0 m (1.6) show NC gr  1 0 0 c 1 1 1 c 1 0 0 c 406 1694 m 13 Y s 406 1719 m 14 Y s 3 lw 406 1713 m21 6 lw 425 1582 m 9 Y s 425 1603 m 9 Y s 3 lw 425 1597 m21 6 lw 444 1458 m
 7 Y s 444 1476 m 7 Y s 3 lw 444 1470 m21 6 lw 463 1410 m 5 Y s 463 1427 m 4 Y s 3 lw 463 1421 m21 6 lw 481 1339 m 3 Y s 481 1354 m 3 Y s 3 lw 481 1348 m21 6 lw 500 1286 m 3 Y s 500 1300 m 3 Y s 3 lw 500 1295 m21 6 lw 519 1259 m 2 Y s 519 1272 m 2 Y
 s 3 lw 519 1267 m21 6 lw 538 1230 m 2 Y s 538 1243 m 2 Y s 3 lw 538 1238 m21 6 lw 557 1212 m 1 Y s 557 1224 m 1 Y s 3 lw 557 1219 m21 6 lw 575 1195 m 1 Y s 575 1207 m 1 Y s 3 lw 575 1202 m21 6 lw 594 1165 m 1 Y s 594 1177 m 1 Y s 3 lw 594 1171 m21 6
 lw 613 1159 m s 613 1170 m 1 Y s 3 lw 613 1165 m21 6 lw 3 lw 632 1151 m21 6 lw 3 lw 651 1135 m21 6 lw 3 lw 670 1118 m21 6 lw 3 lw 688 1113 m21 6 lw 3 lw 707 1112 m21 6 lw 3 lw 726 1107 m21 6 lw 3 lw 745 1107 m21 6 lw 3 lw 764 1090 m21 6 lw 3 lw 782
 1083 m21 6 lw 3 lw 801 1087 m21 6 lw 3 lw 820 1086 m21 6 lw 3 lw 839 1072 m21 6 lw 3 lw 858 1074 m21 6 lw 3 lw 877 1078 m21 6 lw 3 lw 895 1075 m21 6 lw 3 lw 914 1069 m21 6 lw 3 lw 933 1068 m21 6 lw 3 lw 952 1076 m21 6 lw 3 lw 971 1069 m21 6 lw 3 lw
 990 1064 m21 6 lw 3 lw 1008 1071 m21 6 lw 3 lw 1027 1071 m21 6 lw 3 lw 1046 1071 m21 6 lw 3 lw 1065 1069 m21 6 lw 3 lw 1084 1074 m21 6 lw 3 lw 1102 1079 m21 6 lw 3 lw 1121 1080 m21 6 lw 3 lw 1140 1084 m21 6 lw 3 lw 1159 1081 m21 6 lw 3 lw 1178 1085
 m21 6 lw 3 lw 1197 1081 m21 6 lw 3 lw 1215 1087 m21 6 lw 3 lw 1234 1098 m21 6 lw 3 lw 1253 1093 m21 6 lw 3 lw 1272 1083 m21 6 lw 1291 1095 m s 1291 1106 m s 3 lw 1291 1100 m21 6 lw 1309 1091 m s 1309 1102 m s 3 lw 1309 1096 m21 6 lw 1328 1089 m 1 Y
 s 1328 1101 m s 3 lw 1328 1095 m21 6 lw 1347 1095 m s 1347 1107 m s 3 lw 1347 1101 m21 6 lw 1366 1101 m 1 Y s 1366 1113 m 1 Y s 3 lw 1366 1107 m21 6 lw 1385 1097 m 1 Y s 1385 1109 m 1 Y s 3 lw 1385 1103 m21 6 lw 1404 1097 m 1 Y s 1404 1109 m 1 Y s 3
 lw 1404 1103 m21 6 lw 1422 1109 m 1 Y s 1422 1121 m 1 Y s 3 lw 1422 1115 m21 6 lw 1441 1105 m 1 Y s 1441 1117 m 1 Y s 3 lw 1441 1111 m21 6 lw 1460 1109 m 1 Y s 1460 1121 m 1 Y s 3 lw 1460 1116 m21 6 lw 1479 1114 m 1 Y s 1479 1127 m 1 Y s 3 lw 1479
 1121 m21 6 lw 1498 1107 m 1 Y s 1498 1119 m 1 Y s 3 lw 1498 1114 m21 6 lw 1517 1116 m 2 Y s 1517 1129 m 1 Y s 3 lw 1517 1123 m21 6 lw 1535 1125 m 2 Y s 1535 1138 m 2 Y s 3 lw 1535 1133 m21 6 lw 1554 1124 m 2 Y s 1554 1137 m 2 Y s 3 lw 1554 1132 m21
 6 lw 1573 1124 m 2 Y s 1573 1138 m 1 Y s 3 lw 1573 1132 m21 6 lw 1592 1135 m 2 Y s 1592 1149 m 2 Y s 3 lw 1592 1143 m21 6 lw 1611 1126 m 2 Y s 1611 1140 m 2 Y s 3 lw 1611 1134 m21 6 lw 1629 1125 m 2 Y s 1629 1139 m 2 Y s 3 lw 1629 1133 m21 6 lw 1648
 1133 m 2 Y s 1648 1146 m 3 Y s 3 lw 1648 1141 m21 6 lw 1667 1134 m 2 Y s 1667 1148 m 2 Y s 3 lw 1667 1142 m21 6 lw 1686 1133 m 2 Y s 1686 1147 m 2 Y s 3 lw 1686 1141 m21 6 lw 1705 1133 m 2 Y s 1705 1147 m 3 Y s 3 lw 1705 1141 m21 6 lw 1724 1125 m 3
 Y s 1724 1139 m 3 Y s 3 lw 1724 1134 m21 6 lw 1742 1142 m 3 Y s 1742 1157 m 3 Y s 3 lw 1742 1151 m21 6 lw 1761 1140 m 3 Y s 1761 1155 m 3 Y s 3 lw 1761 1149 m21 6 lw 1780 1137 m 3 Y s 1780 1152 m 3 Y s 3 lw 1780 1146 m21 6 lw 1799 1131 m 4 Y s 1799
 1146 m 4 Y s 3 lw 1799 1140 m21 6 lw 1818 1137 m 4 Y s 1818 1153 m 4 Y s 3 lw 1818 1147 m21 6 lw 1837 1129 m 4 Y s 1837 1145 m 4 Y s 3 lw 1837 1139 m21 6 lw 1855 1138 m 4 Y s 1855 1153 m 5 Y s 3 lw 1855 1148 m21 6 lw 1874 1148 m 4 Y s 1874 1164 m 4
 Y s 3 lw 1874 1158 m21 6 lw 1893 1134 m 5 Y s 1893 1150 m 5 Y s 3 lw 1893 1144 m21 6 lw 1912 1138 m 5 Y s 1912 1154 m 5 Y s 3 lw 1912 1148 m21 6 lw 1931 1129 m 5 Y s 1931 1145 m 5 Y s 3 lw 1931 1139 m21 6 lw 1949 1127 m 5 Y s 1949 1144 m 5 Y s 3 lw
 1949 1138 m21 6 lw 1968 1150 m 6 Y s 1968 1167 m 6 Y s 3 lw 1968 1161 m21 6 lw 1987 1156 m 6 Y s 1987 1173 m 6 Y s 3 lw 1987 1167 m21 6 lw 2006 1154 m 6 Y s 2006 1171 m 6 Y s 3 lw 2006 1165 m21 6 lw 2025 1123 m 6 Y s 2025 1141 m 6 Y s 3 lw 2025 1135
 m21 6 lw 2044 1122 m 7 Y s 2044 1140 m 6 Y s 3 lw 2044 1134 m21 6 lw 2062 1158 m 6 Y s 2062 1176 m 6 Y s 3 lw 2062 1170 m21 6 lw 2081 1148 m 7 Y s 2081 1167 m 7 Y s 3 lw 2081 1161 m21 6 lw 2100 1157 m 8 Y s 2100 1176 m 7 Y s 3 lw 2100 1170 m21 6 lw
 2119 1137 m 7 Y s 2119 1156 m 7 Y s 3 lw 2119 1150 m21 6 lw 2138 1160 m 7 Y s 2138 1179 m 8 Y s 3 lw 2138 1173 m21 6 lw 2156 1144 m 7 Y s 2156 1163 m 8 Y s 3 lw 2156 1157 m21 6 lw 2175 1129 m 8 Y s 2175 1148 m 8 Y s 3 lw 2175 1143 m21 6 lw 2194 1143
 m 9 Y s 2194 1163 m 8 Y s 3 lw 2194 1157 m21 6 lw 2213 1118 m 8 Y s 2213 1138 m 8 Y s 3 lw 2213 1132 m21 6 lw 0 1 0 c 1 1 1 c 0 1 0 c 406 1664 m 19 Y s 406 1695 m 19 Y s 3 lw 406 1689 m21 6 lw 425 1561 m 13 Y s 425 1585 m 14 Y s 3 lw 425 1580 m21 6
 lw 444 1445 m 9 Y s 444 1466 m 10 Y s 3 lw 444 1460 m21 6 lw 463 1388 m 7 Y s 463 1407 m 7 Y s 3 lw 463 1401 m21 6 lw 481 1345 m 6 Y s 481 1362 m 7 Y s 3 lw 481 1357 m21 6 lw 500 1304 m 5 Y s 500 1320 m 5 Y s 3 lw 500 1314 m21 6 lw 519 1262 m 4 Y s
 519 1277 m 4 Y s 3 lw 519 1271 m21 6 lw 538 1223 m 3 Y s 538 1237 m 4 Y s 3 lw 538 1232 m21 6 lw 557 1211 m 3 Y s 557 1226 m 3 Y s 3 lw 557 1220 m21 6 lw 575 1175 m 2 Y s 575 1189 m 2 Y s 3 lw 575 1183 m21 6 lw 594 1181 m 2 Y s 594 1195 m 2 Y s 3 lw
 594 1189 m21 6 lw 613 1145 m 2 Y s 613 1158 m 2 Y s 3 lw 613 1153 m21 6 lw 632 1142 m 1 Y s 632 1155 m 1 Y s 3 lw 632 1149 m21 6 lw 651 1118 m 1 Y s 651 1131 m 1 Y s 3 lw 651 1125 m21 6 lw 670 1121 m 1 Y s 670 1134 m 1 Y s 3 lw 670 1128 m21 6 lw 688
 1123 m 1 Y s 688 1135 m 1 Y s 3 lw 688 1130 m21 6 lw 707 1099 m s 707 1111 m 1 Y s 3 lw 707 1105 m21 6 lw 726 1094 m s 726 1106 m s 3 lw 726 1100 m21 6 lw 745 1093 m 1 Y s 745 1105 m 1 Y s 3 lw 745 1099 m21 6 lw 764 1094 m s 764 1106 m s 3 lw 764
 1100 m21 6 lw 782 1080 m 1 Y s 782 1092 m s 3 lw 782 1086 m21 6 lw 801 1080 m s 801 1091 m 1 Y s 3 lw 801 1086 m21 6 lw 820 1080 m s 820 1091 m 1 Y s 3 lw 820 1086 m21 6 lw 839 1072 m s 839 1084 m s 3 lw 839 1078 m21 6 lw 858 1073 m s 858 1084 m s 3
 lw 858 1079 m21 6 lw 877 1065 m s 877 1076 m 1 Y s 3 lw 877 1071 m21 6 lw 895 1070 m s 895 1081 m 1 Y s 3 lw 895 1076 m21 6 lw 914 1072 m s 914 1083 m s 3 lw 914 1077 m21 6 lw 933 1066 m s 933 1078 m s 3 lw 933 1072 m21 6 lw 952 1064 m s 952 1076 m
 s 3 lw 952 1070 m21 6 lw 971 1056 m s 971 1068 m s 3 lw 971 1062 m21 6 lw 990 1068 m s 990 1079 m 1 Y s 3 lw 990 1074 m21 6 lw 1008 1069 m s 1008 1081 m s 3 lw 1008 1075 m21 6 lw 1027 1063 m 1 Y s 1027 1075 m 1 Y s 3 lw 1027 1069 m21 6 lw 1046 1070
 m s 1046 1082 m s 3 lw 1046 1076 m21 6 lw 1065 1066 m 1 Y s 1065 1078 m 1 Y s 3 lw 1065 1072 m21 6 lw 1084 1065 m 1 Y s 1084 1077 m 1 Y s 3 lw 1084 1072 m21 6 lw 1102 1059 m 1 Y s 1102 1071 m 1 Y s 3 lw 1102 1066 m21 6 lw 1121 1068 m s 1121 1080 m 1
 Y s 3 lw 1121 1074 m21 6 lw 1140 1073 m 1 Y s 1140 1085 m 1 Y s 3 lw 1140 1079 m21 6 lw 1159 1075 m 1 Y s 1159 1088 m 1 Y s 3 lw 1159 1082 m21 6 lw 1178 1084 m 1 Y s 1178 1097 m 1 Y s 3 lw 1178 1091 m21 6 lw 1197 1074 m 1 Y s 1197 1086 m 1 Y s 3 lw
 1197 1081 m21 6 lw 1215 1064 m 1 Y s 1215 1076 m 1 Y s 3 lw 1215 1070 m21 6 lw 1234 1077 m 1 Y s 1234 1090 m 1 Y s 3 lw 1234 1084 m21 6 lw 1253 1078 m 2 Y s 1253 1091 m 1 Y s 3 lw 1253 1085 m21 6 lw 1272 1103 m 2 Y s 1272 1116 m 2 Y s 3 lw 1272 1111
 m21 6 lw 1291 1103 m 2 Y s 1291 1116 m 2 Y s 3 lw 1291 1111 m21 6 lw 1309 1082 m 2 Y s 1309 1095 m 2 Y s 3 lw 1309 1089 m21 6 lw 1328 1095 m 2 Y s 1328 1108 m 2 Y s 3 lw 1328 1103 m21 6 lw 1347 1091 m 2 Y s 1347 1104 m 2 Y s 3 lw 1347 1098 m21 6 lw
 1366 1085 m 2 Y s 1366 1098 m 3 Y s 3 lw 1366 1093 m21 6 lw 1385 1096 m 2 Y s 1385 1110 m 2 Y s 3 lw 1385 1104 m21 6 lw 1404 1103 m 3 Y s 1404 1117 m 3 Y s 3 lw 1404 1111 m21 6 lw 1422 1106 m 2 Y s 1422 1120 m 2 Y s 3 lw 1422 1114 m21 6 lw 1441 1113
 m 2 Y s 1441 1127 m 3 Y s 3 lw 1441 1121 m21 6 lw 1460 1104 m 2 Y s 1460 1118 m 3 Y s 3 lw 1460 1112 m21 6 lw 1479 1115 m 3 Y s 1479 1130 m 3 Y s 3 lw 1479 1124 m21 6 lw 1498 1118 m 4 Y s 1498 1133 m 3 Y s 3 lw 1498 1127 m21 6 lw 1517 1117 m 3 Y s
 1517 1132 m 3 Y s 3 lw 1517 1126 m21 6 lw 1535 1102 m 4 Y s 1535 1117 m 4 Y s 3 lw 1535 1112 m21 6 lw 1554 1113 m 3 Y s 1554 1128 m 4 Y s 3 lw 1554 1122 m21 6 lw 1573 1120 m 4 Y s 1573 1135 m 4 Y s 3 lw 1573 1130 m21 6 lw 1592 1116 m 4 Y s 1592 1131
 m 4 Y s 3 lw 1592 1125 m21 6 lw 1611 1126 m 4 Y s 1611 1141 m 5 Y s 3 lw 1611 1136 m21 6 lw 1629 1134 m 4 Y s 1629 1149 m 5 Y s 3 lw 1629 1144 m21 6 lw 1648 1123 m 4 Y s 1648 1139 m 5 Y s 3 lw 1648 1133 m21 6 lw 1667 1123 m 5 Y s 1667 1139 m 5 Y s 3
 lw 1667 1133 m21 6 lw 1686 1137 m 5 Y s 1686 1154 m 5 Y s 3 lw 1686 1148 m21 6 lw 1705 1124 m 5 Y s 1705 1141 m 5 Y s 3 lw 1705 1135 m21 6 lw 1724 1123 m 5 Y s 1724 1140 m 5 Y s 3 lw 1724 1134 m21 6 lw 1742 1140 m 6 Y s 1742 1157 m 6 Y s 3 lw 1742
 1152 m21 6 lw 1761 1122 m 6 Y s 1761 1139 m 6 Y s 3 lw 1761 1134 m21 6 lw 1780 1115 m 7 Y s 1780 1133 m 6 Y s 3 lw 1780 1127 m21 6 lw 1799 1159 m 6 Y s 1799 1177 m 6 Y s 3 lw 1799 1171 m21 6 lw 1818 1125 m 6 Y s 1818 1143 m 6 Y s 3 lw 1818 1137 m21
 6 lw 1837 1154 m 7 Y s 1837 1173 m 7 Y s 3 lw 1837 1167 m21 6 lw 1855 1140 m 7 Y s 1855 1159 m 7 Y s 3 lw 1855 1153 m21 6 lw 1874 1101 m 7 Y s 1874 1119 m 7 Y s 3 lw 1874 1113 m21 6 lw 1893 1154 m 8 Y s 1893 1173 m 8 Y s 3 lw 1893 1168 m21 6 lw 1912
 1149 m 8 Y s 1912 1168 m 8 Y s 3 lw 1912 1163 m21 6 lw 1931 1148 m 8 Y s 1931 1168 m 8 Y s 3 lw 1931 1162 m21 6 lw 1949 1143 m 8 Y s 1949 1163 m 8 Y s 3 lw 1949 1157 m21 6 lw 1968 1139 m 9 Y s 1968 1160 m 8 Y s 3 lw 1968 1154 m21 6 lw 1987 1139 m 9
 Y s 1987 1159 m 9 Y s 3 lw 1987 1153 m21 6 lw 2006 1145 m 9 Y s 2006 1166 m 9 Y s 3 lw 2006 1160 m21 6 lw 2025 1138 m 9 Y s 2025 1159 m 9 Y s 3 lw 2025 1153 m21 6 lw 2044 1143 m 10 Y s 2044 1164 m 10 Y s 3 lw 2044 1159 m21 6 lw 2062 1156 m 10 Y s
 2062 1177 m 10 Y s 3 lw 2062 1172 m21 6 lw 2081 1183 m 11 Y s 2081 1206 m 10 Y s 3 lw 2081 1200 m21 6 lw 2100 1139 m 11 Y s 2100 1161 m 11 Y s 3 lw 2100 1156 m21 6 lw 2119 1175 m 12 Y s 2119 1198 m 11 Y s 3 lw 2119 1192 m21 6 lw 2138 1130 m 11 Y s
 2138 1152 m 12 Y s 3 lw 2138 1147 m21 6 lw 2156 1134 m 11 Y s 2156 1157 m 11 Y s 3 lw 2156 1151 m21 6 lw 2175 1131 m 12 Y s 2175 1154 m 12 Y s 3 lw 2175 1149 m21 6 lw 2194 1148 m 12 Y s 2194 1172 m 12 Y s 3 lw 2194 1166 m21 6 lw 2213 1128 m 13 Y s
 2213 1152 m 12 Y s 3 lw 2213 1146 m21 6 lw black 1 1 1 c 680 447 1474 1675 bf black 1474 1675 m 680 X s 2154 1675 m 447 Y s 2154 2122 m -680 X s 1474 2122 m -447 Y s
 gsave  2268 2234 0 0 C 1490.5 2041.8 t 0 r /Helvetica findfont 68.202 sf 0 0 m (nr PVs) show NC gr 
 gsave  2268 2234 0 0 C 1643.95 1929.55 t 0 r /Helvetica findfont 68.202 sf 0 0 m (1) show NC gr  0 0 1 c 1559 1921 m 67 Y s 3 lw 1559 1954 m21 6 lw black
 gsave  2268 2234 0 0 C 1643.95 1818.72 t 0 r /Helvetica findfont 68.202 sf 0 0 m (2) show NC gr  1 0 0 c 1559 1809 m 67 Y s 3 lw 1559 1843 m21 6 lw black
 gsave  2268 2234 0 0 C 1643.95 1706.47 t 0 r /Helvetica findfont 68.202 sf 0 0 m (3 or 4) show NC gr  0 1 0 c 1559 1698 m 67 Y s 3 lw 1559 1731 m21 6 lw black
 gsave  2268 2234 0 0 C 906.518 670.653 t 0 r /Helvetica-Bold findfont 72.4646 sf 0 0 m (DR PIONS) show NC gr 
 gsave  2268 2234 0 0 C 906.518 558.404 t 0 r /Helvetica-Bold findfont 72.4646 sf 0 0 m (ref. sample: EVENT MIX) show NC gr 
 gsave  2268 2234 0 0 C 906.518 447.576 t 0 r /Helvetica-Bold findfont 72.4646 sf 0 0 m (VELO tracks multiplicity: 11 \255 20) show NC gr 
 gr  gr showpage
end
%%EOF
