%!PS-Adobe-2.0 EPSF-2.0
%%BoundingBox:  0 0 567 558
%%Title: ./DR_pion_0c65_h3015_1_h3401_1_compare.eps: DR_pion_0c65_h3015_1_h3401_1_compare
%%Creator: ROOT Version 6.06/02
%%CreationDate: Wed Jan 25 15:00:45 2017
%%DocumentNeededResources: ProcSet (FontSetInit)
%%EndComments
%%BeginProlog
80 dict begin
/s {stroke} def /l {lineto} def /m {moveto} def /t {translate} def
/r {rotate} def /rl {roll}  def /R {repeat} def
/d {rlineto} def /rm {rmoveto} def /gr {grestore} def /f {eofill} def
/c {setrgbcolor} def /black {0 setgray} def /sd {setdash} def
/cl {closepath} def /sf {scalefont setfont} def /lw {setlinewidth} def
/box {m dup 0 exch d exch 0 d 0 exch neg d cl} def
/NC{systemdict begin initclip end}def/C{NC box clip newpath}def
/bl {box s} def /bf {gsave box gsave f grestore 1 lw [] 0 sd s grestore} def /Y { 0 exch d} def /X { 0 d} def 
/K {{pop pop 0 moveto} exch kshow} bind def
/ita {/ang 15 def gsave [1 0 ang dup sin exch cos div 1 0 0] concat} def 
/mp {newpath /y exch def /x exch def} def
/side {[w .77 mul w .23 mul] .385 w mul sd w 0 l currentpoint t -144 r} def
/mr {mp x y w2 0 360 arc} def /m24 {mr s} def /m20 {mr f} def
/mb {mp x y w2 add m w2 neg 0 d 0 w neg d w 0 d 0 w d cl} def
/mt {mp x y w2 add m w2 neg w neg d w 0 d cl} def
/m21 {mb f} def /m25 {mb s} def /m22 {mt f} def /m26{mt s} def
/m23 {mp x y w2 sub m w2 w d w neg 0 d cl f} def
/m27 {mp x y w2 add m w3 neg w2 neg d w3 w2 neg d w3 w2 d cl s} def
/m28 {mp x w2 sub y w2 sub w3 add m w3 0 d  0 w3 neg d w3 0 d 0 w3 d w3 0 d  0 w3 d w3 neg 0 d 0 w3 d w3 neg 0 d 0 w3 neg d w3 neg 0 d cl s } def
/m29 {mp gsave x w2 sub y w2 add w3 sub m currentpoint t 4 {side} repeat cl fill gr} def
/m30 {mp gsave x w2 sub y w2 add w3 sub m currentpoint t 4 {side} repeat cl s gr} def
/m31 {mp x y w2 sub m 0 w d x w2 sub y m w 0 d x w2 sub y w2 add m w w neg d x w2 sub y w2 sub m w w d s} def
/m32 {mp x y w2 sub m w2 w d w neg 0 d cl s} def
/m33 {mp x y w2 add m w3 neg w2 neg d w3 w2 neg d w3 w2 d cl f} def
/m34 {mp x w2 sub y w2 sub w3 add m w3 0 d  0 w3 neg d w3 0 d 0 w3 d w3 0 d  0 w3 d w3 neg 0 d 0 w3 d w3 neg 0 d 0 w3 neg d w3 neg 0 d cl f } def
/m2 {mp x y w2 sub m 0 w d x w2 sub y m w 0 d s} def
/m5 {mp x w2 sub y w2 sub m w w d x w2 sub y w2 add m w w neg d s} def
%%IncludeResource: ProcSet (FontSetInit)
%%IncludeResource: font Times-Roman
%%IncludeResource: font Times-Italic
%%IncludeResource: font Times-Bold
%%IncludeResource: font Times-BoldItalic
%%IncludeResource: font Helvetica
%%IncludeResource: font Helvetica-Oblique
%%IncludeResource: font Helvetica-Bold
%%IncludeResource: font Helvetica-BoldOblique
%%IncludeResource: font Courier
%%IncludeResource: font Courier-Oblique
%%IncludeResource: font Courier-Bold
%%IncludeResource: font Courier-BoldOblique
%%IncludeResource: font Symbol
%%IncludeResource: font ZapfDingbats
/reEncode {exch findfont dup length dict begin {1 index /FID eq  {pop pop} {def} ifelse } forall /Encoding exch def currentdict end dup /FontName get exch definefont pop } def [/Times-Bold /Times-Italic /Times-BoldItalic /Helvetica /Helvetica-Oblique
 /Helvetica-Bold /Helvetica-BoldOblique /Courier /Courier-Oblique /Courier-Bold /Courier-BoldOblique /Times-Roman /AvantGarde-Book /AvantGarde-BookOblique /AvantGarde-Demi /AvantGarde-DemiOblique /Bookman-Demi /Bookman-DemiItalic /Bookman-Light
 /Bookman-LightItalic /Helvetica-Narrow /Helvetica-Narrow-Bold /Helvetica-Narrow-BoldOblique /Helvetica-Narrow-Oblique /NewCenturySchlbk-Roman /NewCenturySchlbk-Bold /NewCenturySchlbk-BoldItalic /NewCenturySchlbk-Italic /Palatino-Bold
 /Palatino-BoldItalic /Palatino-Italic /Palatino-Roman ] {ISOLatin1Encoding reEncode } forall
%%EndProlog
%%BeginSetup
%%EndSetup
newpath  gsave  .25 .25 scale  gsave  0 0 t black[  ] 0 sd 6 lw 1 1 1 c 2268 2234 0 0 bf black 3 lw 1 1 1 c 1882 1966 340 223 bf black 1882 1966 340 223 bl 1 1 1 c 1882 1966 340 223 bf black 1882 1966 340 223 bl 0 0 1 c 6 lw 1 1 1 c 0 0 1 c 406 1857
 m 23 Y s 406 1891 m 22 Y s 3 lw /w 11 def /w2 {w 2 div} def /w3 {w 3 div} def 406 1885 m21 6 lw 425 1707 m 16 Y s 425 1734 m 16 Y s 3 lw 425 1728 m21 6 lw 444 1595 m 12 Y s 444 1618 m 12 Y s 3 lw 444 1612 m21 6 lw 463 1523 m 9 Y s 463 1544 m 9 Y s 3
 lw 463 1538 m21 6 lw 481 1483 m 8 Y s 481 1502 m 8 Y s 3 lw 481 1496 m21 6 lw 500 1386 m 7 Y s 500 1404 m 6 Y s 3 lw 500 1398 m21 6 lw 519 1344 m 5 Y s 519 1361 m 5 Y s 3 lw 519 1355 m21 6 lw 538 1313 m 5 Y s 538 1329 m 5 Y s 3 lw 538 1324 m21 6 lw
 557 1304 m 4 Y s 557 1320 m 4 Y s 3 lw 557 1314 m21 6 lw 575 1241 m 4 Y s 575 1256 m 3 Y s 3 lw 575 1250 m21 6 lw 594 1223 m 3 Y s 594 1237 m 3 Y s 3 lw 594 1232 m21 6 lw 613 1213 m 3 Y s 613 1227 m 3 Y s 3 lw 613 1222 m21 6 lw 632 1174 m 2 Y s 632
 1188 m 2 Y s 3 lw 632 1182 m21 6 lw 651 1176 m 2 Y s 651 1190 m 2 Y s 3 lw 651 1184 m21 6 lw 670 1143 m 1 Y s 670 1156 m 2 Y s 3 lw 670 1150 m21 6 lw 688 1145 m 1 Y s 688 1158 m 1 Y s 3 lw 688 1152 m21 6 lw 707 1129 m 1 Y s 707 1142 m 1 Y s 3 lw 707
 1136 m21 6 lw 726 1134 m 2 Y s 726 1147 m 1 Y s 3 lw 726 1141 m21 6 lw 745 1102 m 1 Y s 745 1114 m 1 Y s 3 lw 745 1109 m21 6 lw 764 1121 m 1 Y s 764 1134 m 1 Y s 3 lw 764 1128 m21 6 lw 782 1098 m 1 Y s 782 1110 m 1 Y s 3 lw 782 1104 m21 6 lw 801
 1082 m 1 Y s 801 1094 m 1 Y s 3 lw 801 1088 m21 6 lw 820 1075 m s 820 1087 m 1 Y s 3 lw 820 1081 m21 6 lw 839 1073 m 1 Y s 839 1085 m 1 Y s 3 lw 839 1080 m21 6 lw 858 1059 m s 858 1071 m s 3 lw 858 1065 m21 6 lw 877 1060 m 1 Y s 877 1072 m 1 Y s 3
 lw 877 1067 m21 6 lw 895 1059 m s 895 1071 m 1 Y s 3 lw 895 1065 m21 6 lw 914 1040 m 1 Y s 914 1052 m 1 Y s 3 lw 914 1047 m21 6 lw 933 1044 m 1 Y s 933 1056 m 1 Y s 3 lw 933 1050 m21 6 lw 952 1038 m s 952 1050 m 1 Y s 3 lw 952 1044 m21 6 lw 971 1044
 m 1 Y s 971 1056 m 1 Y s 3 lw 971 1051 m21 6 lw 990 1040 m s 990 1052 m 1 Y s 3 lw 990 1046 m21 6 lw 1008 1045 m 1 Y s 1008 1057 m 1 Y s 3 lw 1008 1051 m21 6 lw 1027 1037 m 1 Y s 1027 1049 m 1 Y s 3 lw 1027 1043 m21 6 lw 1046 1043 m 2 Y s 1046 1056
 m 1 Y s 3 lw 1046 1050 m21 6 lw 1065 1035 m 1 Y s 1065 1047 m 2 Y s 3 lw 1065 1042 m21 6 lw 1084 1032 m 1 Y s 1084 1045 m 1 Y s 3 lw 1084 1039 m21 6 lw 1102 1037 m 2 Y s 1102 1050 m 2 Y s 3 lw 1102 1044 m21 6 lw 1121 1031 m 2 Y s 1121 1044 m 2 Y s 3
 lw 1121 1039 m21 6 lw 1140 1049 m 2 Y s 1140 1063 m 1 Y s 3 lw 1140 1057 m21 6 lw 1159 1052 m 2 Y s 1159 1066 m 2 Y s 3 lw 1159 1060 m21 6 lw 1178 1044 m 2 Y s 1178 1058 m 2 Y s 3 lw 1178 1052 m21 6 lw 1197 1052 m 2 Y s 1197 1065 m 3 Y s 3 lw 1197
 1060 m21 6 lw 1215 1035 m 2 Y s 1215 1048 m 3 Y s 3 lw 1215 1043 m21 6 lw 1234 1044 m 2 Y s 1234 1058 m 2 Y s 3 lw 1234 1052 m21 6 lw 1253 1038 m 2 Y s 1253 1052 m 2 Y s 3 lw 1253 1046 m21 6 lw 1272 1043 m 3 Y s 1272 1057 m 3 Y s 3 lw 1272 1052 m21
 6 lw 1291 1059 m 3 Y s 1291 1073 m 3 Y s 3 lw 1291 1068 m21 6 lw 1309 1058 m 3 Y s 1309 1072 m 4 Y s 3 lw 1309 1067 m21 6 lw 1328 1049 m 3 Y s 1328 1063 m 4 Y s 3 lw 1328 1058 m21 6 lw 1347 1047 m 3 Y s 1347 1062 m 3 Y s 3 lw 1347 1056 m21 6 lw 1366
 1064 m 4 Y s 1366 1079 m 4 Y s 3 lw 1366 1073 m21 6 lw 1385 1075 m 4 Y s 1385 1090 m 4 Y s 3 lw 1385 1084 m21 6 lw 1404 1066 m 4 Y s 1404 1081 m 5 Y s 3 lw 1404 1076 m21 6 lw 1422 1072 m 5 Y s 1422 1088 m 5 Y s 3 lw 1422 1083 m21 6 lw 1441 1079 m 5
 Y s 1441 1095 m 5 Y s 3 lw 1441 1089 m21 6 lw 1460 1076 m 5 Y s 1460 1092 m 5 Y s 3 lw 1460 1087 m21 6 lw 1479 1066 m 5 Y s 1479 1083 m 5 Y s 3 lw 1479 1077 m21 6 lw 1498 1092 m 5 Y s 1498 1108 m 6 Y s 3 lw 1498 1103 m21 6 lw 1517 1096 m 6 Y s 1517
 1114 m 5 Y s 3 lw 1517 1108 m21 6 lw 1535 1088 m 6 Y s 1535 1105 m 6 Y s 3 lw 1535 1099 m21 6 lw 1554 1134 m 7 Y s 1554 1152 m 6 Y s 3 lw 1554 1146 m21 6 lw 1573 1107 m 7 Y s 1573 1125 m 6 Y s 3 lw 1573 1119 m21 6 lw 1592 1128 m 7 Y s 1592 1146 m 7
 Y s 3 lw 1592 1140 m21 6 lw 1611 1110 m 7 Y s 1611 1128 m 7 Y s 3 lw 1611 1122 m21 6 lw 1629 1110 m 7 Y s 1629 1128 m 8 Y s 3 lw 1629 1123 m21 6 lw 1648 1117 m 8 Y s 1648 1136 m 8 Y s 3 lw 1648 1131 m21 6 lw 1667 1116 m 8 Y s 1667 1136 m 8 Y s 3 lw
 1667 1130 m21 6 lw 1686 1121 m 8 Y s 1686 1140 m 9 Y s 3 lw 1686 1135 m21 6 lw 1705 1118 m 8 Y s 1705 1138 m 8 Y s 3 lw 1705 1132 m21 6 lw 1724 1106 m 9 Y s 1724 1126 m 9 Y s 3 lw 1724 1120 m21 6 lw 1742 1124 m 10 Y s 1742 1145 m 9 Y s 3 lw 1742
 1139 m21 6 lw 1761 1116 m 9 Y s 1761 1137 m 9 Y s 3 lw 1761 1131 m21 6 lw 1780 1127 m 10 Y s 1780 1148 m 10 Y s 3 lw 1780 1142 m21 6 lw 1799 1141 m 10 Y s 1799 1163 m 10 Y s 3 lw 1799 1157 m21 6 lw 1818 1137 m 10 Y s 1818 1159 m 11 Y s 3 lw 1818
 1153 m21 6 lw 1837 1104 m 10 Y s 1837 1126 m 11 Y s 3 lw 1837 1120 m21 6 lw 1855 1139 m 11 Y s 1855 1162 m 11 Y s 3 lw 1855 1156 m21 6 lw 1874 1113 m 12 Y s 1874 1136 m 12 Y s 3 lw 1874 1131 m21 6 lw 1893 1114 m 12 Y s 1893 1137 m 12 Y s 3 lw 1893
 1131 m21 6 lw 1912 1161 m 12 Y s 1912 1185 m 13 Y s 3 lw 1912 1179 m21 6 lw 1931 1143 m 13 Y s 1931 1167 m 14 Y s 3 lw 1931 1162 m21 6 lw 1949 1143 m 13 Y s 1949 1168 m 13 Y s 3 lw 1949 1162 m21 6 lw 1968 1142 m 14 Y s 1968 1167 m 14 Y s 3 lw 1968
 1162 m21 6 lw 1987 1167 m 15 Y s 1987 1193 m 15 Y s 3 lw 1987 1188 m21 6 lw 2006 1117 m 14 Y s 2006 1143 m 14 Y s 3 lw 2006 1137 m21 6 lw 2025 1161 m 15 Y s 2025 1187 m 16 Y s 3 lw 2025 1182 m21 6 lw 2044 1159 m 16 Y s 2044 1187 m 16 Y s 3 lw 2044
 1181 m21 6 lw 2062 1160 m 16 Y s 2062 1188 m 16 Y s 3 lw 2062 1182 m21 6 lw 2081 1143 m 17 Y s 2081 1171 m 17 Y s 3 lw 2081 1165 m21 6 lw 2100 1161 m 18 Y s 2100 1190 m 17 Y s 3 lw 2100 1184 m21 6 lw 2119 1174 m 18 Y s 2119 1204 m 18 Y s 3 lw 2119
 1198 m21 6 lw 2138 1115 m 17 Y s 2138 1144 m 17 Y s 3 lw 2138 1138 m21 6 lw 2156 1152 m 19 Y s 2156 1182 m 19 Y s 3 lw 2156 1176 m21 6 lw 2175 1153 m 19 Y s 2175 1183 m 20 Y s 3 lw 2175 1178 m21 6 lw 2194 1108 m 19 Y s 2194 1138 m 19 Y s 3 lw 2194
 1132 m21 6 lw 2213 1152 m 20 Y s 2213 1183 m 21 Y s 3 lw 2213 1178 m21 6 lw black 340 223 m 1882 X s
 gsave  2268 2234 0 0 C 1923.86 58.2559 t 0 r /Helvetica findfont 83.8316 sf 0 0 m (Q [GeV]) show NC gr  340 279 m -56 Y s 387 251 m -28 Y s 434 251 m -28 Y s 481 251 m -28 Y s 528 279 m -56 Y s 575 251 m -28 Y s 622 251 m -28 Y s 670 251 m -28 Y s
 717 279 m -56 Y s 764 251 m -28 Y s 811 251 m -28 Y s 858 251 m -28 Y s 905 279 m -56 Y s 952 251 m -28 Y s 999 251 m -28 Y s 1046 251 m -28 Y s 1093 279 m -56 Y s 1140 251 m -28 Y s 1187 251 m -28 Y s 1234 251 m -28 Y s 1281 279 m -56 Y s 1328 251
 m -28 Y s 1375 251 m -28 Y s 1422 251 m -28 Y s 1469 279 m -56 Y s 1517 251 m -28 Y s 1564 251 m -28 Y s 1611 251 m -28 Y s 1658 279 m -56 Y s 1705 251 m -28 Y s 1752 251 m -28 Y s 1799 251 m -28 Y s 1846 279 m -56 Y s 1893 251 m -28 Y s 1940 251 m
 -28 Y s 1987 251 m -28 Y s 2034 279 m -56 Y s 2081 251 m -28 Y s 2128 251 m -28 Y s 2175 251 m -28 Y s 2222 279 m -56 Y s
 gsave  2268 2234 0 0 C 322.539 159.138 t 0 r /Helvetica findfont 62.5185 sf 0 0 m (0) show NC gr 
 gsave  2268 2234 0 0 C 484.518 159.138 t 0 r /Helvetica findfont 62.5185 sf 0 0 m (0.2) show NC gr 
 gsave  2268 2234 0 0 C 673.495 159.138 t 0 r /Helvetica findfont 62.5185 sf 0 0 m (0.4) show NC gr 
 gsave  2268 2234 0 0 C 861.05 159.138 t 0 r /Helvetica findfont 62.5185 sf 0 0 m (0.6) show NC gr 
 gsave  2268 2234 0 0 C 1050.03 159.138 t 0 r /Helvetica findfont 62.5185 sf 0 0 m (0.8) show NC gr 
 gsave  2268 2234 0 0 C 1268.84 159.138 t 0 r /Helvetica findfont 62.5185 sf 0 0 m (1) show NC gr 
 gsave  2268 2234 0 0 C 1426.56 159.138 t 0 r /Helvetica findfont 62.5185 sf 0 0 m (1.2) show NC gr 
 gsave  2268 2234 0 0 C 1614.11 159.138 t 0 r /Helvetica findfont 62.5185 sf 0 0 m (1.4) show NC gr 
 gsave  2268 2234 0 0 C 1803.09 159.138 t 0 r /Helvetica findfont 62.5185 sf 0 0 m (1.6) show NC gr 
 gsave  2268 2234 0 0 C 1990.65 159.138 t 0 r /Helvetica findfont 62.5185 sf 0 0 m (1.8) show NC gr 
 gsave  2268 2234 0 0 C 2205.2 159.138 t 0 r /Helvetica findfont 62.5185 sf 0 0 m (2) show NC gr  340 223 m 1966 Y s
 gsave  2268 2234 0 0 C 152.034 1450.71 t 90 r /Helvetica findfont 83.8316 sf 0 0 m ( DR\(Q\) / \(0.02 GeV\)) show NC gr  400 402 m -60 X s 370 491 m -30 X s 370 581 m -30 X s 370 670 m -30 X s 400 759 m -60 X s 370 849 m -30 X s 370 938 m -30 X s
 370 1027 m -30 X s 400 1117 m -60 X s 370 1206 m -30 X s 370 1295 m -30 X s 370 1385 m -30 X s 400 1474 m -60 X s 370 1564 m -30 X s 370 1653 m -30 X s 370 1742 m -30 X s 400 1832 m -60 X s 370 1921 m -30 X s 370 2010 m -30 X s 370 2100 m -30 X s
 400 2189 m -60 X s 400 402 m -60 X s 370 313 m -30 X s 370 223 m -30 X s
 gsave  2268 2234 0 0 C 242.97 379.374 t 0 r /Helvetica findfont 62.5185 sf 0 0 m (0.6) show NC gr 
 gsave  2268 2234 0 0 C 242.97 737.434 t 0 r /Helvetica findfont 62.5185 sf 0 0 m (0.8) show NC gr 
 gsave  2268 2234 0 0 C 305.488 1092.65 t 0 r /Helvetica findfont 62.5185 sf 0 0 m (1) show NC gr 
 gsave  2268 2234 0 0 C 242.97 1450.71 t 0 r /Helvetica findfont 62.5185 sf 0 0 m (1.2) show NC gr 
 gsave  2268 2234 0 0 C 242.97 1808.77 t 0 r /Helvetica findfont 62.5185 sf 0 0 m (1.4) show NC gr 
 gsave  2268 2234 0 0 C 242.97 2166.83 t 0 r /Helvetica findfont 62.5185 sf 0 0 m (1.6) show NC gr  1 0 0 c 1 1 1 c 1 0 0 c 406 1799 m 19 Y s 406 1830 m 19 Y s 3 lw 406 1824 m21 6 lw 425 1664 m 14 Y s 425 1689 m 14 Y s 3 lw 425 1684 m21 6 lw 444 1616
 m 11 Y s 444 1638 m 10 Y s 3 lw 444 1632 m21 6 lw 463 1521 m 8 Y s 463 1540 m 8 Y s 3 lw 463 1535 m21 6 lw 481 1450 m 7 Y s 481 1468 m 7 Y s 3 lw 481 1462 m21 6 lw 500 1388 m 5 Y s 500 1405 m 5 Y s 3 lw 500 1399 m21 6 lw 519 1349 m 5 Y s 519 1365 m
 5 Y s 3 lw 519 1360 m21 6 lw 538 1324 m 4 Y s 538 1339 m 4 Y s 3 lw 538 1334 m21 6 lw 557 1294 m 3 Y s 557 1309 m 3 Y s 3 lw 557 1303 m21 6 lw 575 1247 m 3 Y s 575 1261 m 3 Y s 3 lw 575 1256 m21 6 lw 594 1234 m 3 Y s 594 1248 m 2 Y s 3 lw 594 1242
 m21 6 lw 613 1211 m 2 Y s 613 1225 m 2 Y s 3 lw 613 1219 m21 6 lw 632 1191 m 2 Y s 632 1204 m 2 Y s 3 lw 632 1198 m21 6 lw 651 1172 m 1 Y s 651 1185 m 1 Y s 3 lw 651 1179 m21 6 lw 670 1159 m 1 Y s 670 1171 m 1 Y s 3 lw 670 1166 m21 6 lw 688 1143 m 1
 Y s 688 1155 m 1 Y s 3 lw 688 1150 m21 6 lw 707 1144 m s 707 1156 m 1 Y s 3 lw 707 1150 m21 6 lw 726 1117 m 1 Y s 726 1129 m 1 Y s 3 lw 726 1123 m21 6 lw 745 1105 m 1 Y s 745 1117 m 1 Y s 3 lw 745 1112 m21 6 lw 764 1097 m 1 Y s 764 1109 m 1 Y s 3 lw
 764 1104 m21 6 lw 782 1094 m 1 Y s 782 1106 m 1 Y s 3 lw 782 1100 m21 6 lw 801 1087 m 1 Y s 801 1099 m s 3 lw 801 1093 m21 6 lw 820 1077 m s 820 1089 m s 3 lw 820 1083 m21 6 lw 839 1080 m 1 Y s 839 1092 m s 3 lw 839 1086 m21 6 lw 858 1063 m s 858
 1075 m s 3 lw 858 1069 m21 6 lw 877 1070 m s 877 1081 m 1 Y s 3 lw 877 1076 m21 6 lw 895 1054 m s 895 1065 m 1 Y s 3 lw 895 1060 m21 6 lw 914 1051 m s 914 1063 m s 3 lw 914 1057 m21 6 lw 933 1048 m s 933 1060 m s 3 lw 933 1054 m21 6 lw 952 1053 m s
 952 1064 m 1 Y s 3 lw 952 1059 m21 6 lw 971 1037 m s 971 1048 m 1 Y s 3 lw 971 1043 m21 6 lw 990 1043 m 1 Y s 990 1055 m s 3 lw 990 1049 m21 6 lw 1008 1037 m s 1008 1049 m s 3 lw 1008 1043 m21 6 lw 1027 1043 m s 1027 1054 m 1 Y s 3 lw 1027 1049 m21
 6 lw 1046 1044 m 1 Y s 1046 1056 m 1 Y s 3 lw 1046 1050 m21 6 lw 1065 1042 m 1 Y s 1065 1054 m 1 Y s 3 lw 1065 1048 m21 6 lw 1084 1032 m 1 Y s 1084 1044 m 1 Y s 3 lw 1084 1038 m21 6 lw 1102 1043 m 1 Y s 1102 1055 m 1 Y s 3 lw 1102 1049 m21 6 lw 1121
 1049 m 1 Y s 1121 1061 m 1 Y s 3 lw 1121 1055 m21 6 lw 1140 1044 m 1 Y s 1140 1057 m 1 Y s 3 lw 1140 1051 m21 6 lw 1159 1036 m 1 Y s 1159 1048 m 2 Y s 3 lw 1159 1043 m21 6 lw 1178 1052 m 2 Y s 1178 1065 m 2 Y s 3 lw 1178 1059 m21 6 lw 1197 1038 m 2
 Y s 1197 1051 m 1 Y s 3 lw 1197 1045 m21 6 lw 1215 1059 m 2 Y s 1215 1072 m 2 Y s 3 lw 1215 1066 m21 6 lw 1234 1059 m 2 Y s 1234 1072 m 2 Y s 3 lw 1234 1066 m21 6 lw 1253 1062 m 2 Y s 1253 1075 m 2 Y s 3 lw 1253 1069 m21 6 lw 1272 1047 m 3 Y s 1272
 1061 m 2 Y s 3 lw 1272 1055 m21 6 lw 1291 1054 m 2 Y s 1291 1067 m 2 Y s 3 lw 1291 1061 m21 6 lw 1309 1070 m 2 Y s 1309 1084 m 2 Y s 3 lw 1309 1078 m21 6 lw 1328 1060 m 3 Y s 1328 1074 m 3 Y s 3 lw 1328 1068 m21 6 lw 1347 1059 m 3 Y s 1347 1073 m 3
 Y s 3 lw 1347 1067 m21 6 lw 1366 1071 m 3 Y s 1366 1085 m 3 Y s 3 lw 1366 1080 m21 6 lw 1385 1064 m 3 Y s 1385 1079 m 3 Y s 3 lw 1385 1073 m21 6 lw 1404 1076 m 3 Y s 1404 1091 m 3 Y s 3 lw 1404 1085 m21 6 lw 1422 1073 m 3 Y s 1422 1088 m 3 Y s 3 lw
 1422 1082 m21 6 lw 1441 1069 m 4 Y s 1441 1084 m 4 Y s 3 lw 1441 1078 m21 6 lw 1460 1096 m 4 Y s 1460 1111 m 4 Y s 3 lw 1460 1105 m21 6 lw 1479 1078 m 5 Y s 1479 1094 m 4 Y s 3 lw 1479 1088 m21 6 lw 1498 1088 m 5 Y s 1498 1104 m 4 Y s 3 lw 1498 1098
 m21 6 lw 1517 1074 m 5 Y s 1517 1090 m 5 Y s 3 lw 1517 1085 m21 6 lw 1535 1087 m 4 Y s 1535 1103 m 5 Y s 3 lw 1535 1097 m21 6 lw 1554 1076 m 5 Y s 1554 1093 m 5 Y s 3 lw 1554 1087 m21 6 lw 1573 1099 m 6 Y s 1573 1116 m 6 Y s 3 lw 1573 1110 m21 6 lw
 1592 1102 m 6 Y s 1592 1119 m 6 Y s 3 lw 1592 1114 m21 6 lw 1611 1110 m 6 Y s 1611 1127 m 6 Y s 3 lw 1611 1122 m21 6 lw 1629 1108 m 6 Y s 1629 1125 m 7 Y s 3 lw 1629 1120 m21 6 lw 1648 1107 m 7 Y s 1648 1125 m 7 Y s 3 lw 1648 1119 m21 6 lw 1667 1104
 m 7 Y s 1667 1122 m 7 Y s 3 lw 1667 1117 m21 6 lw 1686 1117 m 7 Y s 1686 1135 m 7 Y s 3 lw 1686 1129 m21 6 lw 1705 1108 m 7 Y s 1705 1127 m 7 Y s 3 lw 1705 1121 m21 6 lw 1724 1107 m 8 Y s 1724 1126 m 8 Y s 3 lw 1724 1121 m21 6 lw 1742 1128 m 8 Y s
 1742 1147 m 8 Y s 3 lw 1742 1142 m21 6 lw 1761 1147 m 8 Y s 1761 1167 m 8 Y s 3 lw 1761 1161 m21 6 lw 1780 1140 m 8 Y s 1780 1160 m 9 Y s 3 lw 1780 1154 m21 6 lw 1799 1121 m 9 Y s 1799 1141 m 9 Y s 3 lw 1799 1136 m21 6 lw 1818 1111 m 9 Y s 1818 1131
 m 9 Y s 3 lw 1818 1125 m21 6 lw 1837 1125 m 10 Y s 1837 1146 m 10 Y s 3 lw 1837 1140 m21 6 lw 1855 1112 m 10 Y s 1855 1133 m 10 Y s 3 lw 1855 1127 m21 6 lw 1874 1119 m 10 Y s 1874 1140 m 11 Y s 3 lw 1874 1135 m21 6 lw 1893 1140 m 11 Y s 1893 1162 m
 11 Y s 3 lw 1893 1157 m21 6 lw 1912 1120 m 11 Y s 1912 1143 m 11 Y s 3 lw 1912 1137 m21 6 lw 1931 1144 m 12 Y s 1931 1167 m 12 Y s 3 lw 1931 1162 m21 6 lw 1949 1140 m 12 Y s 1949 1163 m 12 Y s 3 lw 1949 1157 m21 6 lw 1968 1142 m 12 Y s 1968 1165 m
 13 Y s 3 lw 1968 1160 m21 6 lw 1987 1179 m 13 Y s 1987 1203 m 13 Y s 3 lw 1987 1198 m21 6 lw 2006 1161 m 14 Y s 2006 1186 m 13 Y s 3 lw 2006 1180 m21 6 lw 2025 1196 m 14 Y s 2025 1221 m 14 Y s 3 lw 2025 1216 m21 6 lw 2044 1163 m 14 Y s 2044 1188 m
 14 Y s 3 lw 2044 1183 m21 6 lw 2062 1137 m 14 Y s 2062 1163 m 14 Y s 3 lw 2062 1157 m21 6 lw 2081 1173 m 15 Y s 2081 1199 m 15 Y s 3 lw 2081 1194 m21 6 lw 2100 1124 m 15 Y s 2100 1151 m 14 Y s 3 lw 2100 1145 m21 6 lw 2119 1195 m 17 Y s 2119 1223 m
 16 Y s 3 lw 2119 1217 m21 6 lw 2138 1165 m 16 Y s 2138 1193 m 16 Y s 3 lw 2138 1187 m21 6 lw 2156 1121 m 16 Y s 2156 1148 m 17 Y s 3 lw 2156 1143 m21 6 lw 2175 1150 m 17 Y s 2175 1179 m 17 Y s 3 lw 2175 1173 m21 6 lw 2194 1131 m 17 Y s 2194 1160 m
 17 Y s 3 lw 2194 1154 m21 6 lw 2213 1143 m 18 Y s 2213 1173 m 18 Y s 3 lw 2213 1167 m21 6 lw 0 1 0 c 1 1 1 c 0 1 0 c 406 1734 m 26 Y s 406 1771 m 26 Y s 3 lw 406 1765 m21 6 lw 425 1673 m 20 Y s 425 1704 m 19 Y s 3 lw 425 1698 m21 6 lw 444 1577 m 15
 Y s 444 1604 m 14 Y s 3 lw 444 1598 m21 6 lw 463 1442 m 12 Y s 463 1465 m 12 Y s 3 lw 463 1460 m21 6 lw 481 1437 m 10 Y s 481 1459 m 10 Y s 3 lw 481 1453 m21 6 lw 500 1392 m 8 Y s 500 1412 m 8 Y s 3 lw 500 1406 m21 6 lw 519 1333 m 7 Y s 519 1352 m 7
 Y s 3 lw 519 1346 m21 6 lw 538 1296 m 7 Y s 538 1314 m 7 Y s 3 lw 538 1308 m21 6 lw 557 1273 m 6 Y s 557 1290 m 6 Y s 3 lw 557 1285 m21 6 lw 575 1240 m 5 Y s 575 1257 m 5 Y s 3 lw 575 1251 m21 6 lw 594 1232 m 5 Y s 594 1248 m 5 Y s 3 lw 594 1243 m21
 6 lw 613 1206 m 5 Y s 613 1222 m 4 Y s 3 lw 613 1216 m21 6 lw 632 1179 m 4 Y s 632 1194 m 4 Y s 3 lw 632 1188 m21 6 lw 651 1172 m 4 Y s 651 1187 m 4 Y s 3 lw 651 1182 m21 6 lw 670 1156 m 4 Y s 670 1171 m 3 Y s 3 lw 670 1165 m21 6 lw 688 1143 m 3 Y s
 688 1157 m 3 Y s 3 lw 688 1151 m21 6 lw 707 1125 m 3 Y s 707 1139 m 3 Y s 3 lw 707 1134 m21 6 lw 726 1111 m 2 Y s 726 1125 m 2 Y s 3 lw 726 1119 m21 6 lw 745 1119 m 3 Y s 745 1133 m 3 Y s 3 lw 745 1128 m21 6 lw 764 1094 m 2 Y s 764 1108 m 2 Y s 3 lw
 764 1102 m21 6 lw 782 1096 m 3 Y s 782 1110 m 2 Y s 3 lw 782 1104 m21 6 lw 801 1099 m 3 Y s 801 1113 m 2 Y s 3 lw 801 1107 m21 6 lw 820 1075 m 2 Y s 820 1088 m 2 Y s 3 lw 820 1083 m21 6 lw 839 1093 m 2 Y s 839 1107 m 2 Y s 3 lw 839 1101 m21 6 lw 858
 1064 m 2 Y s 858 1078 m 2 Y s 3 lw 858 1072 m21 6 lw 877 1058 m 2 Y s 877 1071 m 2 Y s 3 lw 877 1065 m21 6 lw 895 1055 m 2 Y s 895 1069 m 2 Y s 3 lw 895 1063 m21 6 lw 914 1060 m 2 Y s 914 1073 m 2 Y s 3 lw 914 1068 m21 6 lw 933 1063 m 2 Y s 933 1077
 m 2 Y s 3 lw 933 1071 m21 6 lw 952 1067 m 2 Y s 952 1081 m 2 Y s 3 lw 952 1075 m21 6 lw 971 1046 m 2 Y s 971 1060 m 2 Y s 3 lw 971 1054 m21 6 lw 990 1034 m 2 Y s 990 1048 m 2 Y s 3 lw 990 1042 m21 6 lw 1008 1035 m 2 Y s 1008 1049 m 2 Y s 3 lw 1008
 1043 m21 6 lw 1027 1038 m 3 Y s 1027 1052 m 3 Y s 3 lw 1027 1047 m21 6 lw 1046 1057 m 2 Y s 1046 1071 m 2 Y s 3 lw 1046 1065 m21 6 lw 1065 1044 m 3 Y s 1065 1058 m 3 Y s 3 lw 1065 1052 m21 6 lw 1084 1043 m 3 Y s 1084 1057 m 3 Y s 3 lw 1084 1052 m21
 6 lw 1102 1037 m 3 Y s 1102 1051 m 3 Y s 3 lw 1102 1046 m21 6 lw 1121 1044 m 3 Y s 1121 1058 m 3 Y s 3 lw 1121 1052 m21 6 lw 1140 1033 m 3 Y s 1140 1048 m 3 Y s 3 lw 1140 1042 m21 6 lw 1159 1032 m 3 Y s 1159 1047 m 3 Y s 3 lw 1159 1041 m21 6 lw 1178
 1037 m 3 Y s 1178 1052 m 3 Y s 3 lw 1178 1046 m21 6 lw 1197 1050 m 3 Y s 1197 1065 m 3 Y s 3 lw 1197 1059 m21 6 lw 1215 1058 m 4 Y s 1215 1074 m 3 Y s 3 lw 1215 1068 m21 6 lw 1234 1064 m 4 Y s 1234 1079 m 4 Y s 3 lw 1234 1073 m21 6 lw 1253 1035 m 4
 Y s 1253 1050 m 4 Y s 3 lw 1253 1045 m21 6 lw 1272 1071 m 4 Y s 1272 1086 m 5 Y s 3 lw 1272 1081 m21 6 lw 1291 1049 m 4 Y s 1291 1065 m 4 Y s 3 lw 1291 1059 m21 6 lw 1309 1055 m 4 Y s 1309 1071 m 4 Y s 3 lw 1309 1065 m21 6 lw 1328 1048 m 5 Y s 1328
 1065 m 5 Y s 3 lw 1328 1059 m21 6 lw 1347 1051 m 5 Y s 1347 1068 m 5 Y s 3 lw 1347 1062 m21 6 lw 1366 1043 m 5 Y s 1366 1060 m 5 Y s 3 lw 1366 1054 m21 6 lw 1385 1063 m 6 Y s 1385 1080 m 6 Y s 3 lw 1385 1075 m21 6 lw 1404 1063 m 6 Y s 1404 1081 m 5
 Y s 3 lw 1404 1075 m21 6 lw 1422 1084 m 6 Y s 1422 1101 m 6 Y s 3 lw 1422 1095 m21 6 lw 1441 1052 m 6 Y s 1441 1069 m 7 Y s 3 lw 1441 1064 m21 6 lw 1460 1077 m 6 Y s 1460 1095 m 7 Y s 3 lw 1460 1089 m21 6 lw 1479 1070 m 7 Y s 1479 1089 m 7 Y s 3 lw
 1479 1083 m21 6 lw 1498 1082 m 7 Y s 1498 1100 m 8 Y s 3 lw 1498 1095 m21 6 lw 1517 1076 m 7 Y s 1517 1095 m 7 Y s 3 lw 1517 1089 m21 6 lw 1535 1081 m 8 Y s 1535 1101 m 7 Y s 3 lw 1535 1095 m21 6 lw 1554 1087 m 8 Y s 1554 1107 m 8 Y s 3 lw 1554 1101
 m21 6 lw 1573 1075 m 8 Y s 1573 1094 m 9 Y s 3 lw 1573 1089 m21 6 lw 1592 1119 m 9 Y s 1592 1140 m 9 Y s 3 lw 1592 1134 m21 6 lw 1611 1110 m 10 Y s 1611 1131 m 9 Y s 3 lw 1611 1125 m21 6 lw 1629 1120 m 10 Y s 1629 1141 m 10 Y s 3 lw 1629 1136 m21 6
 lw 1648 1119 m 10 Y s 1648 1140 m 10 Y s 3 lw 1648 1135 m21 6 lw 1667 1086 m 10 Y s 1667 1107 m 10 Y s 3 lw 1667 1101 m21 6 lw 1686 1110 m 10 Y s 1686 1132 m 10 Y s 3 lw 1686 1126 m21 6 lw 1705 1120 m 12 Y s 1705 1143 m 11 Y s 3 lw 1705 1137 m21 6
 lw 1724 1129 m 11 Y s 1724 1152 m 11 Y s 3 lw 1724 1146 m21 6 lw 1742 1089 m 12 Y s 1742 1112 m 12 Y s 3 lw 1742 1106 m21 6 lw 1761 1117 m 12 Y s 1761 1140 m 12 Y s 3 lw 1761 1135 m21 6 lw 1780 1149 m 13 Y s 1780 1173 m 13 Y s 3 lw 1780 1167 m21 6
 lw 1799 1170 m 13 Y s 1799 1194 m 14 Y s 3 lw 1799 1189 m21 6 lw 1818 1107 m 13 Y s 1818 1131 m 14 Y s 3 lw 1818 1126 m21 6 lw 1837 1129 m 14 Y s 1837 1155 m 14 Y s 3 lw 1837 1149 m21 6 lw 1855 1093 m 14 Y s 1855 1119 m 14 Y s 3 lw 1855 1113 m21 6
 lw 1874 1159 m 15 Y s 1874 1185 m 15 Y s 3 lw 1874 1179 m21 6 lw 1893 1130 m 15 Y s 1893 1157 m 15 Y s 3 lw 1893 1151 m21 6 lw 1912 1139 m 15 Y s 1912 1166 m 16 Y s 3 lw 1912 1160 m21 6 lw 1931 1191 m 17 Y s 1931 1219 m 17 Y s 3 lw 1931 1214 m21 6
 lw 1949 1137 m 17 Y s 1949 1166 m 16 Y s 3 lw 1949 1160 m21 6 lw 1968 1163 m 17 Y s 1968 1192 m 17 Y s 3 lw 1968 1186 m21 6 lw 1987 1132 m 18 Y s 1987 1161 m 18 Y s 3 lw 1987 1155 m21 6 lw 2006 1206 m 20 Y s 2006 1237 m 19 Y s 3 lw 2006 1231 m21 6
 lw 2025 1153 m 19 Y s 2025 1183 m 19 Y s 3 lw 2025 1178 m21 6 lw 2044 1170 m 20 Y s 2044 1201 m 20 Y s 3 lw 2044 1195 m21 6 lw 2062 1131 m 20 Y s 2062 1162 m 20 Y s 3 lw 2062 1156 m21 6 lw 2081 1195 m 21 Y s 2081 1227 m 21 Y s 3 lw 2081 1222 m21 6
 lw 2100 1168 m 21 Y s 2100 1201 m 21 Y s 3 lw 2100 1195 m21 6 lw 2119 1175 m 22 Y s 2119 1208 m 23 Y s 3 lw 2119 1203 m21 6 lw 2138 1153 m 22 Y s 2138 1187 m 22 Y s 3 lw 2138 1181 m21 6 lw 2156 1125 m 23 Y s 2156 1159 m 22 Y s 3 lw 2156 1153 m21 6
 lw 2175 1190 m 24 Y s 2175 1226 m 24 Y s 3 lw 2175 1220 m21 6 lw 2194 1161 m 24 Y s 2194 1196 m 25 Y s 3 lw 2194 1191 m21 6 lw 2213 1200 m 26 Y s 2213 1237 m 26 Y s 3 lw 2213 1231 m21 6 lw black 1 1 1 c 680 447 1474 1675 bf black 1474 1675 m 680 X s
 2154 1675 m 447 Y s 2154 2122 m -680 X s 1474 2122 m -447 Y s
 gsave  2268 2234 0 0 C 1490.5 2041.8 t 0 r /Helvetica findfont 68.202 sf 0 0 m (nr PVs) show NC gr 
 gsave  2268 2234 0 0 C 1643.95 1929.55 t 0 r /Helvetica findfont 68.202 sf 0 0 m (1) show NC gr  0 0 1 c 1559 1921 m 67 Y s 3 lw 1559 1954 m21 6 lw black
 gsave  2268 2234 0 0 C 1643.95 1818.72 t 0 r /Helvetica findfont 68.202 sf 0 0 m (2) show NC gr  1 0 0 c 1559 1809 m 67 Y s 3 lw 1559 1843 m21 6 lw black
 gsave  2268 2234 0 0 C 1643.95 1706.47 t 0 r /Helvetica findfont 68.202 sf 0 0 m (3 or 4) show NC gr  0 1 0 c 1559 1698 m 67 Y s 3 lw 1559 1731 m21 6 lw black
 gsave  2268 2234 0 0 C 906.518 670.653 t 0 r /Helvetica-Bold findfont 72.4646 sf 0 0 m (DR PIONS) show NC gr 
 gsave  2268 2234 0 0 C 906.518 558.404 t 0 r /Helvetica-Bold findfont 72.4646 sf 0 0 m (ref. sample: EVENT MIX) show NC gr 
 gsave  2268 2234 0 0 C 906.518 447.576 t 0 r /Helvetica-Bold findfont 72.4646 sf 0 0 m (VELO tracks multiplicity: < 10) show NC gr 
 gr  gr showpage
end
%%EOF
