%!PS-Adobe-2.0 EPSF-2.0
%%BoundingBox:  0 0 567 546
%%Title: plots/effMultCh.eps: cd1
%%Creator: ROOT Version 5.34/36
%%CreationDate: Wed Jan 25 13:11:48 2017
%%EndComments
%%BeginProlog
80 dict begin
/s {stroke} def /l {lineto} def /m {moveto} def /t {translate} def
/r {rotate} def /rl {roll}  def /R {repeat} def
/d {rlineto} def /rm {rmoveto} def /gr {grestore} def /f {eofill} def
/c {setrgbcolor} def /black {0 setgray} def /sd {setdash} def
/cl {closepath} def /sf {scalefont setfont} def /lw {setlinewidth} def
/box {m dup 0 exch d exch 0 d 0 exch neg d cl} def
/NC{systemdict begin initclip end}def/C{NC box clip newpath}def
/bl {box s} def /bf {gsave box gsave f grestore 1 lw [] 0 sd s grestore} def /Y { 0 exch d} def /X { 0 d} def 
/K {{pop pop 0 moveto} exch kshow} bind def
/ita {/ang 15 def gsave [1 0 ang dup sin exch cos div 1 0 0] concat} def 
/mp {newpath /y exch def /x exch def} def
/side {[w .77 mul w .23 mul] .385 w mul sd w 0 l currentpoint t -144 r} def
/mr {mp x y w2 0 360 arc} def /m24 {mr s} def /m20 {mr f} def
/mb {mp x y w2 add m w2 neg 0 d 0 w neg d w 0 d 0 w d cl} def
/mt {mp x y w2 add m w2 neg w neg d w 0 d cl} def
/m21 {mb f} def /m25 {mb s} def /m22 {mt f} def /m26{mt s} def
/m23 {mp x y w2 sub m w2 w d w neg 0 d cl f} def
/m27 {mp x y w2 add m w3 neg w2 neg d w3 w2 neg d w3 w2 d cl s} def
/m28 {mp x w2 sub y w2 sub w3 add m w3 0 d  0 w3 neg d w3 0 d 0 w3 d w3 0 d  0 w3 d w3 neg 0 d 0 w3 d w3 neg 0 d 0 w3 neg d w3 neg 0 d cl s } def
/m29 {mp gsave x w2 sub y w2 add w3 sub m currentpoint t 4 {side} repeat cl fill gr} def
/m30 {mp gsave x w2 sub y w2 add w3 sub m currentpoint t 4 {side} repeat cl s gr} def
/m31 {mp x y w2 sub m 0 w d x w2 sub y m w 0 d x w2 sub y w2 add m w w neg d x w2 sub y w2 sub m w w d s} def
/m32 {mp x y w2 sub m w2 w d w neg 0 d cl s} def
/m33 {mp x y w2 add m w3 neg w2 neg d w3 w2 neg d w3 w2 d cl f} def
/m34 {mp x w2 sub y w2 sub w3 add m w3 0 d  0 w3 neg d w3 0 d 0 w3 d w3 0 d  0 w3 d w3 neg 0 d 0 w3 d w3 neg 0 d 0 w3 neg d w3 neg 0 d cl f } def
/m2 {mp x y w2 sub m 0 w d x w2 sub y m w 0 d s} def
/m5 {mp x w2 sub y w2 sub m w w d x w2 sub y w2 add m w w neg d s} def
/reEncode {exch findfont dup length dict begin {1 index /FID eq  {pop pop} {def} ifelse } forall /Encoding exch def currentdict end dup /FontName get exch definefont pop } def [/Times-Bold /Times-Italic /Times-BoldItalic /Helvetica /Helvetica-Oblique
 /Helvetica-Bold /Helvetica-BoldOblique /Courier /Courier-Oblique /Courier-Bold /Courier-BoldOblique /Times-Roman /AvantGarde-Book /AvantGarde-BookOblique /AvantGarde-Demi /AvantGarde-DemiOblique /Bookman-Demi /Bookman-DemiItalic /Bookman-Light
 /Bookman-LightItalic /Helvetica-Narrow /Helvetica-Narrow-Bold /Helvetica-Narrow-BoldOblique /Helvetica-Narrow-Oblique /NewCenturySchlbk-Roman /NewCenturySchlbk-Bold /NewCenturySchlbk-BoldItalic /NewCenturySchlbk-Italic /Palatino-Bold
 /Palatino-BoldItalic /Palatino-Italic /Palatino-Roman ] {ISOLatin1Encoding reEncode } forall
%%EndProlog
%%BeginSetup
%%EndSetup
newpath  gsave  .25 .25 scale  gsave  0 0 t 1 0 0 c[  ] 0 sd 3 lw 1 1 1 c 2268 2184 0 0 bf black 1 1 1 c 1814 1748 227 218 bf black 1814 1748 227 218 bl 6 lw 1 1 1 c black 227 1883 m 155 X -206 Y 26 X -183 Y 26 X -158 Y 26 X -135 Y 26 X -117 Y 26 X
 -103 Y 26 X -87 Y 26 X -80 Y 26 X -69 Y 26 X -61 Y 25 X -54 Y 26 X -51 Y 26 X -43 Y 26 X -40 Y 26 X -36 Y 26 X -30 Y 26 X -28 Y 26 X -23 Y 26 X -21 Y 26 X -18 Y 26 X -16 Y 26 X -15 Y 25 X -12 Y 26 X -12 Y 26 X -10 Y 26 X -8 Y 26 X -7 Y 26 X -6 Y 26
 X -5 Y 26 X -5 Y 26 X -4 Y 26 X -3 Y 26 X -3 Y 26 X -3 Y 25 X -2 Y 26 X -1 Y 26 X -2 Y 26 X -1 Y 26 X -2 Y 52 X -1 Y 26 X -1 Y 52 X -1 Y 77 X -1 Y 415 X -1 Y 52 X s 3 lw 227 218 m 1814 X s
 gsave  2268 2184 0 0 C 128.934 68.259 t 0 r /Helvetica findfont 83.4277 sf 0 0 m (Cut on VELO track multiplicity per reconstructed PV) show NC gr  227 271 m -53 Y s 279 245 m -27 Y s 330 245 m -27 Y s 382 245 m -27 Y s 434 245 m -27 Y s 486 271 m
 -53 Y s 538 245 m -27 Y s 590 245 m -27 Y s 641 245 m -27 Y s 693 245 m -27 Y s 745 271 m -53 Y s 797 245 m -27 Y s 849 245 m -27 Y s 901 245 m -27 Y s 952 245 m -27 Y s 1004 271 m -53 Y s 1056 245 m -27 Y s 1108 245 m -27 Y s 1160 245 m -27 Y s
 1212 245 m -27 Y s 1263 271 m -53 Y s 1315 245 m -27 Y s 1367 245 m -27 Y s 1419 245 m -27 Y s 1471 245 m -27 Y s 1523 271 m -53 Y s 1574 245 m -27 Y s 1626 245 m -27 Y s 1678 245 m -27 Y s 1730 245 m -27 Y s 1782 271 m -53 Y s 1834 245 m -27 Y s
 1885 245 m -27 Y s 1937 245 m -27 Y s 1989 245 m -27 Y s 2041 271 m -53 Y s
 gsave  2268 2184 0 0 C 204.777 155.479 t 0 r /Helvetica findfont 60.6747 sf 0 0 m (0) show NC gr 
 gsave  2268 2184 0 0 C 451.268 155.479 t 0 r /Helvetica findfont 60.6747 sf 0 0 m (10) show NC gr 
 gsave  2268 2184 0 0 C 709.135 155.479 t 0 r /Helvetica findfont 60.6747 sf 0 0 m (20) show NC gr 
 gsave  2268 2184 0 0 C 967.003 155.479 t 0 r /Helvetica findfont 60.6747 sf 0 0 m (30) show NC gr 
 gsave  2268 2184 0 0 C 1228.66 155.479 t 0 r /Helvetica findfont 60.6747 sf 0 0 m (40) show NC gr 
 gsave  2268 2184 0 0 C 1486.53 155.479 t 0 r /Helvetica findfont 60.6747 sf 0 0 m (50) show NC gr 
 gsave  2268 2184 0 0 C 1744.4 155.479 t 0 r /Helvetica findfont 60.6747 sf 0 0 m (60) show NC gr 
 gsave  2268 2184 0 0 C 2006.06 155.479 t 0 r /Helvetica findfont 60.6747 sf 0 0 m (70) show NC gr  227 218 m 1748 Y s
 gsave  2268 2184 0 0 C 72.0512 1611.67 t 90 r /Helvetica findfont 83.4277 sf 0 0 m (Efficiency) show NC gr  281 218 m -54 X s 254 302 m -27 X s 254 385 m -27 X s 254 468 m -27 X s 281 551 m -54 X s 254 634 m -27 X s 254 718 m -27 X s 254 801 m -27 X
 s 281 884 m -54 X s 254 967 m -27 X s 254 1051 m -27 X s 254 1134 m -27 X s 281 1217 m -54 X s 254 1300 m -27 X s 254 1383 m -27 X s 254 1467 m -27 X s 281 1550 m -54 X s 254 1633 m -27 X s 254 1716 m -27 X s 254 1799 m -27 X s 281 1883 m -54 X s
 281 1883 m -54 X s
 gsave  2268 2184 0 0 C 178.232 197.193 t 0 r /Helvetica findfont 60.6747 sf 0 0 m (0) show NC gr 
 gsave  2268 2184 0 0 C 128.934 530.904 t 0 r /Helvetica findfont 60.6747 sf 0 0 m (0.2) show NC gr 
 gsave  2268 2184 0 0 C 128.934 864.614 t 0 r /Helvetica findfont 60.6747 sf 0 0 m (0.4) show NC gr 
 gsave  2268 2184 0 0 C 128.934 1194.53 t 0 r /Helvetica findfont 60.6747 sf 0 0 m (0.6) show NC gr 
 gsave  2268 2184 0 0 C 128.934 1528.24 t 0 r /Helvetica findfont 60.6747 sf 0 0 m (0.8) show NC gr 
 gsave  2268 2184 0 0 C 189.608 1858.16 t 0 r /Helvetica findfont 60.6747 sf 0 0 m (1) show NC gr  1 0 0 c 6 lw 486 1883 m -1665 Y s 532 298 m -46 -80 d -46 80 d s 745 1883 m -1665 Y s 791 298 m -46 -80 d -46 80 d s 1782 1883 m -1665 Y s 1828 298 m
 -46 -80 d -46 80 d s
 gr  gr showpage
end
%%EOF
