%!PS-Adobe-2.0 EPSF-2.0
%%BoundingBox:  0 0 567 546
%%Title: plotsPV/effPVs.eps: cd9003
%%Creator: ROOT Version 5.34/10
%%CreationDate: Mon Feb  2 16:42:45 2015
%%EndComments
%%BeginProlog
80 dict begin
/s {stroke} def /l {lineto} def /m {moveto} def /t {translate} def
/r {rotate} def /rl {roll}  def /R {repeat} def
/d {rlineto} def /rm {rmoveto} def /gr {grestore} def /f {eofill} def
/c {setrgbcolor} def /black {0 setgray} def /sd {setdash} def
/cl {closepath} def /sf {scalefont setfont} def /lw {setlinewidth} def
/box {m dup 0 exch d exch 0 d 0 exch neg d cl} def
/NC{systemdict begin initclip end}def/C{NC box clip newpath}def
/bl {box s} def /bf {box f} def /Y { 0 exch d} def /X { 0 d} def 
/K {{pop pop 0 moveto} exch kshow} bind def
/ita {/ang 15 def gsave [1 0 ang dup sin exch cos div 1 0 0] concat} def 
/mp {newpath /y exch def /x exch def} def
/side {[w .77 mul w .23 mul] .385 w mul sd w 0 l currentpoint t -144 r} def
/mr {mp x y w2 0 360 arc} def /m24 {mr s} def /m20 {mr f} def
/mb {mp x y w2 add m w2 neg 0 d 0 w neg d w 0 d 0 w d cl} def
/mt {mp x y w2 add m w2 neg w neg d w 0 d cl} def
/m21 {mb f} def /m25 {mb s} def /m22 {mt f} def /m26{mt s} def
/m23 {mp x y w2 sub m w2 w d w neg 0 d cl f} def
/m27 {mp x y w2 add m w3 neg w2 neg d w3 w2 neg d w3 w2 d cl s} def
/m28 {mp x w2 sub y w2 sub w3 add m w3 0 d  0 w3 neg d w3 0 d 0 w3 d w3 0 d  0 w3 d w3 neg 0 d 0 w3 d w3 neg 0 d 0 w3 neg d w3 neg 0 d cl s } def
/m29 {mp gsave x w2 sub y w2 add w3 sub m currentpoint t 4 {side} repeat cl fill gr} def
/m30 {mp gsave x w2 sub y w2 add w3 sub m currentpoint t 4 {side} repeat cl s gr} def
/m31 {mp x y w2 sub m 0 w d x w2 sub y m w 0 d x w2 sub y w2 add m w w neg d x w2 sub y w2 sub m w w d s} def
/m32 {mp x y w2 sub m w2 w d w neg 0 d cl s} def
/m33 {mp x y w2 add m w3 neg w2 neg d w3 w2 neg d w3 w2 d cl f} def
/m34 {mp x w2 sub y w2 sub w3 add m w3 0 d  0 w3 neg d w3 0 d 0 w3 d w3 0 d  0 w3 d w3 neg 0 d 0 w3 d w3 neg 0 d 0 w3 neg d w3 neg 0 d cl f } def
/m2 {mp x y w2 sub m 0 w d x w2 sub y m w 0 d s} def
/m5 {mp x w2 sub y w2 sub m w w d x w2 sub y w2 add m w w neg d s} def
/reEncode {exch findfont dup length dict begin {1 index /FID eq  {pop pop} {def} ifelse } forall /Encoding exch def currentdict end dup /FontName get exch definefont pop } def [/Times-Bold /Times-Italic /Times-BoldItalic /Helvetica /Helvetica-Oblique
 /Helvetica-Bold /Helvetica-BoldOblique /Courier /Courier-Oblique /Courier-Bold /Courier-BoldOblique /Times-Roman /AvantGarde-Book /AvantGarde-BookOblique /AvantGarde-Demi /AvantGarde-DemiOblique /Bookman-Demi /Bookman-DemiItalic /Bookman-Light
 /Bookman-LightItalic /Helvetica-Narrow /Helvetica-Narrow-Bold /Helvetica-Narrow-BoldOblique /Helvetica-Narrow-Oblique /NewCenturySchlbk-Roman /NewCenturySchlbk-Bold /NewCenturySchlbk-BoldItalic /NewCenturySchlbk-Italic /Palatino-Bold
 /Palatino-BoldItalic /Palatino-Italic /Palatino-Roman ] {ISOLatin1Encoding reEncode } forall
%%EndProlog
%%BeginSetup
%%EndSetup
newpath  gsave  .25 .25 scale  gsave  0 0 t 1 0 0 c[  ] 0 sd 3 lw 1 1 1 c 2268 2184 0 0 bf black 1 1 1 c 1814 1748 227 218 bf black 1814 1748 227 218 bl 1 0 0 c 6 lw 1 1 1 c 1 0 0 c 3 lw /w 27 def /w2 {w 2 div} def /w3 {w 3 div} def 680 1423 m20 6 lw
 983 1131 m s 983 1154 m 1 Y s 3 lw 983 1143 m20 6 lw 1285 858 m 11 Y s 1285 892 m 10 Y s 3 lw 1285 880 m20 6 lw 1587 562 m 35 Y s 1587 620 m 36 Y s 3 lw 1587 609 m20 6 lw black 3 lw 227 218 m 1814 X s
 gsave  2268 2184 0 0 C 1540.98 41.8538 t 0 r /Helvetica findfont 79.9028 sf 0 0 m (PV multiplicity) show NC gr  227 271 m -53 Y s 287 245 m -27 Y s 348 245 m -27 Y s 408 245 m -27 Y s 469 245 m -27 Y s 529 271 m -53 Y s 590 245 m -27 Y s 650 245 m
 -27 Y s 711 245 m -27 Y s 771 245 m -27 Y s 831 271 m -53 Y s 892 245 m -27 Y s 952 245 m -27 Y s 1013 245 m -27 Y s 1073 245 m -27 Y s 1134 271 m -53 Y s 1194 245 m -27 Y s 1255 245 m -27 Y s 1315 245 m -27 Y s 1376 245 m -27 Y s 1436 271 m -53 Y s
 1497 245 m -27 Y s 1557 245 m -27 Y s 1618 245 m -27 Y s 1678 245 m -27 Y s 1739 271 m -53 Y s 1799 245 m -27 Y s 1860 245 m -27 Y s 1920 245 m -27 Y s 1980 245 m -27 Y s 2041 271 m -53 Y s
 gsave  2268 2184 0 0 C 205.464 156.001 t 0 r /Helvetica findfont 60.8783 sf 0 0 m (0) show NC gr 
 gsave  2268 2184 0 0 C 517.466 156.001 t 0 r /Helvetica findfont 60.8783 sf 0 0 m (1) show NC gr 
 gsave  2268 2184 0 0 C 810.442 156.001 t 0 r /Helvetica findfont 60.8783 sf 0 0 m (2) show NC gr 
 gsave  2268 2184 0 0 C 1114.83 156.001 t 0 r /Helvetica findfont 60.8783 sf 0 0 m (3) show NC gr 
 gsave  2268 2184 0 0 C 1415.42 156.001 t 0 r /Helvetica findfont 60.8783 sf 0 0 m (4) show NC gr 
 gsave  2268 2184 0 0 C 1716.01 156.001 t 0 r /Helvetica findfont 60.8783 sf 0 0 m (5) show NC gr 
 gsave  2268 2184 0 0 C 2020.4 156.001 t 0 r /Helvetica findfont 60.8783 sf 0 0 m (6) show NC gr  227 218 m 1748 Y s
 gsave  2268 2184 0 0 C 102.732 1624.69 t 90 r /Helvetica findfont 79.9028 sf 0 0 m (Efficiency) show NC gr  281 218 m -54 X s 254 268 m -27 X s 254 318 m -27 X s 254 368 m -27 X s 254 418 m -27 X s 281 468 m -54 X s 254 518 m -27 X s 254 568 m -27 X
 s 254 618 m -27 X s 254 668 m -27 X s 281 718 m -54 X s 254 768 m -27 X s 254 817 m -27 X s 254 867 m -27 X s 254 917 m -27 X s 281 967 m -54 X s 254 1017 m -27 X s 254 1067 m -27 X s 254 1117 m -27 X s 254 1167 m -27 X s 281 1217 m -54 X s 254 1267
 m -27 X s 254 1317 m -27 X s 254 1367 m -27 X s 254 1416 m -27 X s 281 1466 m -54 X s 254 1516 m -27 X s 254 1566 m -27 X s 254 1616 m -27 X s 254 1666 m -27 X s 281 1716 m -54 X s 254 1766 m -27 X s 254 1816 m -27 X s 254 1866 m -27 X s 254 1916 m
 -27 X s 281 1966 m -54 X s
 gsave  2268 2184 0 0 C 95.1223 197.854 t 0 r /Helvetica findfont 60.8783 sf 0 0 m (0.65) show NC gr 
 gsave  2268 2184 0 0 C 129.366 445.173 t 0 r /Helvetica findfont 60.8783 sf 0 0 m (0.7) show NC gr 
 gsave  2268 2184 0 0 C 95.1223 696.296 t 0 r /Helvetica findfont 60.8783 sf 0 0 m (0.75) show NC gr 
 gsave  2268 2184 0 0 C 129.366 947.419 t 0 r /Helvetica findfont 60.8783 sf 0 0 m (0.8) show NC gr 
 gsave  2268 2184 0 0 C 95.1223 1194.74 t 0 r /Helvetica findfont 60.8783 sf 0 0 m (0.85) show NC gr 
 gsave  2268 2184 0 0 C 129.366 1445.86 t 0 r /Helvetica findfont 60.8783 sf 0 0 m (0.9) show NC gr 
 gsave  2268 2184 0 0 C 95.1223 1693.18 t 0 r /Helvetica findfont 60.8783 sf 0 0 m (0.95) show NC gr 
 gsave  2268 2184 0 0 C 190.245 1940.5 t 0 r /Helvetica findfont 60.8783 sf 0 0 m (1) show NC gr  1 0 0 c 9 lw 680 1423 m 303 -280 d s 983 1143 m 302 -263 d s 1285 880 m 302 -271 d s 6 lw 1 1 1 c 1 0 0 c 3 lw 680 1423 m20 6 lw 983 1131 m s 983 1154 m
 1 Y s 3 lw 983 1143 m20 6 lw 1285 858 m 11 Y s 1285 892 m 10 Y s 3 lw 1285 880 m20 6 lw 1587 562 m 35 Y s 1587 620 m 36 Y s 3 lw 1587 609 m20 6 lw 0 0 1 c 1 1 1 c 0 0 1 c 3 lw 680 1495 m20 6 lw 983 1150 m s 983 1173 m 1 Y s 3 lw 983 1162 m20 6 lw
 1285 861 m 10 Y s 1285 894 m 11 Y s 3 lw 1285 883 m20 6 lw 1587 567 m 35 Y s 1587 625 m 36 Y s 3 lw 1587 614 m20 6 lw 9 lw 680 1495 m 303 -333 d s 983 1162 m 302 -279 d s 1285 883 m 302 -269 d s 6 lw 1 1 1 c 0 0 1 c 3 lw 680 1495 m20 6 lw 983 1150 m
 s 983 1173 m 1 Y s 3 lw 983 1162 m20 6 lw 1285 861 m 10 Y s 1285 894 m 11 Y s 3 lw 1285 883 m20 6 lw 1587 567 m 35 Y s 1587 625 m 36 Y s 3 lw 1587 614 m20 6 lw black
 gsave  2268 2184 0 0 C 1925.28 1856.79 t 0 r /Helvetica-Bold findfont 60.8783 sf 0 0 m (\(a\)) show NC gr 
 gr  gr showpage
end
%%EOF
