%!PS-Adobe-2.0 EPSF-2.0
%%BoundingBox:  0 0 567 546
%%Title: plotsPV/effPVsM.eps: cd9003
%%Creator: ROOT Version 5.34/10
%%CreationDate: Mon Feb  2 16:49:12 2015
%%EndComments
%%BeginProlog
80 dict begin
/s {stroke} def /l {lineto} def /m {moveto} def /t {translate} def
/r {rotate} def /rl {roll}  def /R {repeat} def
/d {rlineto} def /rm {rmoveto} def /gr {grestore} def /f {eofill} def
/c {setrgbcolor} def /black {0 setgray} def /sd {setdash} def
/cl {closepath} def /sf {scalefont setfont} def /lw {setlinewidth} def
/box {m dup 0 exch d exch 0 d 0 exch neg d cl} def
/NC{systemdict begin initclip end}def/C{NC box clip newpath}def
/bl {box s} def /bf {box f} def /Y { 0 exch d} def /X { 0 d} def 
/K {{pop pop 0 moveto} exch kshow} bind def
/ita {/ang 15 def gsave [1 0 ang dup sin exch cos div 1 0 0] concat} def 
/mp {newpath /y exch def /x exch def} def
/side {[w .77 mul w .23 mul] .385 w mul sd w 0 l currentpoint t -144 r} def
/mr {mp x y w2 0 360 arc} def /m24 {mr s} def /m20 {mr f} def
/mb {mp x y w2 add m w2 neg 0 d 0 w neg d w 0 d 0 w d cl} def
/mt {mp x y w2 add m w2 neg w neg d w 0 d cl} def
/m21 {mb f} def /m25 {mb s} def /m22 {mt f} def /m26{mt s} def
/m23 {mp x y w2 sub m w2 w d w neg 0 d cl f} def
/m27 {mp x y w2 add m w3 neg w2 neg d w3 w2 neg d w3 w2 d cl s} def
/m28 {mp x w2 sub y w2 sub w3 add m w3 0 d  0 w3 neg d w3 0 d 0 w3 d w3 0 d  0 w3 d w3 neg 0 d 0 w3 d w3 neg 0 d 0 w3 neg d w3 neg 0 d cl s } def
/m29 {mp gsave x w2 sub y w2 add w3 sub m currentpoint t 4 {side} repeat cl fill gr} def
/m30 {mp gsave x w2 sub y w2 add w3 sub m currentpoint t 4 {side} repeat cl s gr} def
/m31 {mp x y w2 sub m 0 w d x w2 sub y m w 0 d x w2 sub y w2 add m w w neg d x w2 sub y w2 sub m w w d s} def
/m32 {mp x y w2 sub m w2 w d w neg 0 d cl s} def
/m33 {mp x y w2 add m w3 neg w2 neg d w3 w2 neg d w3 w2 d cl f} def
/m34 {mp x w2 sub y w2 sub w3 add m w3 0 d  0 w3 neg d w3 0 d 0 w3 d w3 0 d  0 w3 d w3 neg 0 d 0 w3 d w3 neg 0 d 0 w3 neg d w3 neg 0 d cl f } def
/m2 {mp x y w2 sub m 0 w d x w2 sub y m w 0 d s} def
/m5 {mp x w2 sub y w2 sub m w w d x w2 sub y w2 add m w w neg d s} def
/reEncode {exch findfont dup length dict begin {1 index /FID eq  {pop pop} {def} ifelse } forall /Encoding exch def currentdict end dup /FontName get exch definefont pop } def [/Times-Bold /Times-Italic /Times-BoldItalic /Helvetica /Helvetica-Oblique
 /Helvetica-Bold /Helvetica-BoldOblique /Courier /Courier-Oblique /Courier-Bold /Courier-BoldOblique /Times-Roman /AvantGarde-Book /AvantGarde-BookOblique /AvantGarde-Demi /AvantGarde-DemiOblique /Bookman-Demi /Bookman-DemiItalic /Bookman-Light
 /Bookman-LightItalic /Helvetica-Narrow /Helvetica-Narrow-Bold /Helvetica-Narrow-BoldOblique /Helvetica-Narrow-Oblique /NewCenturySchlbk-Roman /NewCenturySchlbk-Bold /NewCenturySchlbk-BoldItalic /NewCenturySchlbk-Italic /Palatino-Bold
 /Palatino-BoldItalic /Palatino-Italic /Palatino-Roman ] {ISOLatin1Encoding reEncode } forall
%%EndProlog
%%BeginSetup
%%EndSetup
newpath  gsave  .25 .25 scale  gsave  0 0 t 1 0 0 c[  ] 0 sd 3 lw 1 1 1 c 2268 2184 0 0 bf black 1 1 1 c 1814 1748 227 218 bf black 1814 1748 227 218 bl 1 0 0 c 6 lw 1 1 1 c 1 0 0 c 680 850 m s 680 873 m s 3 lw /w 27 def /w2 {w 2 div} def /w3 {w 3
 div} def 680 862 m20 6 lw 983 1037 m 6 Y s 983 1066 m 6 Y s 3 lw 983 1054 m20 6 lw 1285 1145 m 20 Y s 1285 1188 m 20 Y s 3 lw 1285 1177 m20 6 lw 1587 1007 m 46 Y s 1587 1076 m 46 Y s 3 lw 1587 1065 m20 6 lw black 3 lw 227 218 m 1814 X s
 gsave  2268 2184 0 0 C 1540.98 41.8538 t 0 r /Helvetica findfont 79.9028 sf 0 0 m (PV multiplicity) show NC gr  227 271 m -53 Y s 287 245 m -27 Y s 348 245 m -27 Y s 408 245 m -27 Y s 469 245 m -27 Y s 529 271 m -53 Y s 590 245 m -27 Y s 650 245 m
 -27 Y s 711 245 m -27 Y s 771 245 m -27 Y s 831 271 m -53 Y s 892 245 m -27 Y s 952 245 m -27 Y s 1013 245 m -27 Y s 1073 245 m -27 Y s 1134 271 m -53 Y s 1194 245 m -27 Y s 1255 245 m -27 Y s 1315 245 m -27 Y s 1376 245 m -27 Y s 1436 271 m -53 Y s
 1497 245 m -27 Y s 1557 245 m -27 Y s 1618 245 m -27 Y s 1678 245 m -27 Y s 1739 271 m -53 Y s 1799 245 m -27 Y s 1860 245 m -27 Y s 1920 245 m -27 Y s 1980 245 m -27 Y s 2041 271 m -53 Y s
 gsave  2268 2184 0 0 C 205.464 156.001 t 0 r /Helvetica findfont 60.8783 sf 0 0 m (0) show NC gr 
 gsave  2268 2184 0 0 C 517.466 156.001 t 0 r /Helvetica findfont 60.8783 sf 0 0 m (1) show NC gr 
 gsave  2268 2184 0 0 C 810.442 156.001 t 0 r /Helvetica findfont 60.8783 sf 0 0 m (2) show NC gr 
 gsave  2268 2184 0 0 C 1114.83 156.001 t 0 r /Helvetica findfont 60.8783 sf 0 0 m (3) show NC gr 
 gsave  2268 2184 0 0 C 1415.42 156.001 t 0 r /Helvetica findfont 60.8783 sf 0 0 m (4) show NC gr 
 gsave  2268 2184 0 0 C 1716.01 156.001 t 0 r /Helvetica findfont 60.8783 sf 0 0 m (5) show NC gr 
 gsave  2268 2184 0 0 C 2020.4 156.001 t 0 r /Helvetica findfont 60.8783 sf 0 0 m (6) show NC gr  227 218 m 1748 Y s
 gsave  2268 2184 0 0 C 102.732 1567.62 t 90 r /Helvetica findfont 79.9028 sf 0 0 m (Inefficiency) show NC gr  281 218 m -54 X s 254 267 m -27 X s 254 315 m -27 X s 254 364 m -27 X s 281 413 m -54 X s 254 461 m -27 X s 254 510 m -27 X s 254 558 m -27
 X s 281 607 m -54 X s 254 655 m -27 X s 254 704 m -27 X s 254 752 m -27 X s 281 801 m -54 X s 254 849 m -27 X s 254 898 m -27 X s 254 946 m -27 X s 281 995 m -54 X s 254 1043 m -27 X s 254 1092 m -27 X s 254 1141 m -27 X s 281 1189 m -54 X s 254
 1238 m -27 X s 254 1286 m -27 X s 254 1335 m -27 X s 281 1383 m -54 X s 254 1432 m -27 X s 254 1480 m -27 X s 254 1529 m -27 X s 281 1577 m -54 X s 254 1626 m -27 X s 254 1674 m -27 X s 254 1723 m -27 X s 281 1771 m -54 X s 254 1820 m -27 X s 254
 1869 m -27 X s 254 1917 m -27 X s 281 1966 m -54 X s 281 1966 m -54 X s
 gsave  2268 2184 0 0 C 178.83 197.854 t 0 r /Helvetica findfont 60.8783 sf 0 0 m (0) show NC gr 
 gsave  2268 2184 0 0 C 95.1223 391.904 t 0 r /Helvetica findfont 60.8783 sf 0 0 m (0.02) show NC gr 
 gsave  2268 2184 0 0 C 95.1223 585.954 t 0 r /Helvetica findfont 60.8783 sf 0 0 m (0.04) show NC gr 
 gsave  2268 2184 0 0 C 95.1223 780.003 t 0 r /Helvetica findfont 60.8783 sf 0 0 m (0.06) show NC gr 
 gsave  2268 2184 0 0 C 95.1223 974.053 t 0 r /Helvetica findfont 60.8783 sf 0 0 m (0.08) show NC gr 
 gsave  2268 2184 0 0 C 140.781 1168.1 t 0 r /Helvetica findfont 60.8783 sf 0 0 m (0.1) show NC gr 
 gsave  2268 2184 0 0 C 95.1223 1362.15 t 0 r /Helvetica findfont 60.8783 sf 0 0 m (0.12) show NC gr 
 gsave  2268 2184 0 0 C 95.1223 1556.2 t 0 r /Helvetica findfont 60.8783 sf 0 0 m (0.14) show NC gr 
 gsave  2268 2184 0 0 C 95.1223 1750.25 t 0 r /Helvetica findfont 60.8783 sf 0 0 m (0.16) show NC gr 
 gsave  2268 2184 0 0 C 95.1223 1944.3 t 0 r /Helvetica findfont 60.8783 sf 0 0 m (0.18) show NC gr  1 0 0 c 9 lw 680 862 m 303 192 d s 983 1054 m 302 123 d s 1285 1177 m 302 -112 d s 6 lw 1 1 1 c 1 0 0 c 680 850 m s 680 873 m s 3 lw 680 862 m20 6 lw
 983 1037 m 6 Y s 983 1066 m 6 Y s 3 lw 983 1054 m20 6 lw 1285 1145 m 20 Y s 1285 1188 m 20 Y s 3 lw 1285 1177 m20 6 lw 1587 1007 m 46 Y s 1587 1076 m 46 Y s 3 lw 1587 1065 m20 6 lw 0 0 1 c 1 1 1 c 0 0 1 c 680 820 m s 680 843 m 1 Y s 3 lw 680 832 m20
 6 lw 983 1027 m 6 Y s 983 1056 m 6 Y s 3 lw 983 1045 m20 6 lw 1285 1148 m 20 Y s 1285 1191 m 20 Y s 3 lw 1285 1179 m20 6 lw 1587 1008 m 46 Y s 1587 1077 m 47 Y s 3 lw 1587 1066 m20 6 lw 9 lw 680 832 m 303 213 d s 983 1045 m 302 134 d s 1285 1179 m
 302 -113 d s 6 lw 1 1 1 c 0 0 1 c 680 820 m s 680 843 m 1 Y s 3 lw 680 832 m20 6 lw 983 1027 m 6 Y s 983 1056 m 6 Y s 3 lw 983 1045 m20 6 lw 1285 1148 m 20 Y s 1285 1191 m 20 Y s 3 lw 1285 1179 m20 6 lw 1587 1008 m 46 Y s 1587 1077 m 47 Y s 3 lw
 1587 1066 m20 6 lw black
 gsave  2268 2184 0 0 C 1925.28 1856.79 t 0 r /Helvetica-Bold findfont 72.293 sf 0 0 m (\(a\)) show NC gr 
 gr  gr showpage
end
%%EOF
