%!PS-Adobe-2.0 EPSF-2.0
%%BoundingBox:  0 0 567 558
%%Title: ./RD_pion_0c65_h3401_3_h3401_3.eps: RD_pion_0c65_h3401_3_h3401_3
%%Creator: ROOT Version 6.06/02
%%CreationDate: Thu Feb  2 16:21:48 2017
%%DocumentNeededResources: ProcSet (FontSetInit)
%%EndComments
%%BeginProlog
80 dict begin
/s {stroke} def /l {lineto} def /m {moveto} def /t {translate} def
/r {rotate} def /rl {roll}  def /R {repeat} def
/d {rlineto} def /rm {rmoveto} def /gr {grestore} def /f {eofill} def
/c {setrgbcolor} def /black {0 setgray} def /sd {setdash} def
/cl {closepath} def /sf {scalefont setfont} def /lw {setlinewidth} def
/box {m dup 0 exch d exch 0 d 0 exch neg d cl} def
/NC{systemdict begin initclip end}def/C{NC box clip newpath}def
/bl {box s} def /bf {gsave box gsave f grestore 1 lw [] 0 sd s grestore} def /Y { 0 exch d} def /X { 0 d} def 
/K {{pop pop 0 moveto} exch kshow} bind def
/ita {/ang 15 def gsave [1 0 ang dup sin exch cos div 1 0 0] concat} def 
/mp {newpath /y exch def /x exch def} def
/side {[w .77 mul w .23 mul] .385 w mul sd w 0 l currentpoint t -144 r} def
/mr {mp x y w2 0 360 arc} def /m24 {mr s} def /m20 {mr f} def
/mb {mp x y w2 add m w2 neg 0 d 0 w neg d w 0 d 0 w d cl} def
/mt {mp x y w2 add m w2 neg w neg d w 0 d cl} def
/m21 {mb f} def /m25 {mb s} def /m22 {mt f} def /m26{mt s} def
/m23 {mp x y w2 sub m w2 w d w neg 0 d cl f} def
/m27 {mp x y w2 add m w3 neg w2 neg d w3 w2 neg d w3 w2 d cl s} def
/m28 {mp x w2 sub y w2 sub w3 add m w3 0 d  0 w3 neg d w3 0 d 0 w3 d w3 0 d  0 w3 d w3 neg 0 d 0 w3 d w3 neg 0 d 0 w3 neg d w3 neg 0 d cl s } def
/m29 {mp gsave x w2 sub y w2 add w3 sub m currentpoint t 4 {side} repeat cl fill gr} def
/m30 {mp gsave x w2 sub y w2 add w3 sub m currentpoint t 4 {side} repeat cl s gr} def
/m31 {mp x y w2 sub m 0 w d x w2 sub y m w 0 d x w2 sub y w2 add m w w neg d x w2 sub y w2 sub m w w d s} def
/m32 {mp x y w2 sub m w2 w d w neg 0 d cl s} def
/m33 {mp x y w2 add m w3 neg w2 neg d w3 w2 neg d w3 w2 d cl f} def
/m34 {mp x w2 sub y w2 sub w3 add m w3 0 d  0 w3 neg d w3 0 d 0 w3 d w3 0 d  0 w3 d w3 neg 0 d 0 w3 d w3 neg 0 d 0 w3 neg d w3 neg 0 d cl f } def
/m2 {mp x y w2 sub m 0 w d x w2 sub y m w 0 d s} def
/m5 {mp x w2 sub y w2 sub m w w d x w2 sub y w2 add m w w neg d s} def
%%IncludeResource: ProcSet (FontSetInit)
%%IncludeResource: font Times-Roman
%%IncludeResource: font Times-Italic
%%IncludeResource: font Times-Bold
%%IncludeResource: font Times-BoldItalic
%%IncludeResource: font Helvetica
%%IncludeResource: font Helvetica-Oblique
%%IncludeResource: font Helvetica-Bold
%%IncludeResource: font Helvetica-BoldOblique
%%IncludeResource: font Courier
%%IncludeResource: font Courier-Oblique
%%IncludeResource: font Courier-Bold
%%IncludeResource: font Courier-BoldOblique
%%IncludeResource: font Symbol
%%IncludeResource: font ZapfDingbats
/reEncode {exch findfont dup length dict begin {1 index /FID eq  {pop pop} {def} ifelse } forall /Encoding exch def currentdict end dup /FontName get exch definefont pop } def [/Times-Bold /Times-Italic /Times-BoldItalic /Helvetica /Helvetica-Oblique
 /Helvetica-Bold /Helvetica-BoldOblique /Courier /Courier-Oblique /Courier-Bold /Courier-BoldOblique /Times-Roman /AvantGarde-Book /AvantGarde-BookOblique /AvantGarde-Demi /AvantGarde-DemiOblique /Bookman-Demi /Bookman-DemiItalic /Bookman-Light
 /Bookman-LightItalic /Helvetica-Narrow /Helvetica-Narrow-Bold /Helvetica-Narrow-BoldOblique /Helvetica-Narrow-Oblique /NewCenturySchlbk-Roman /NewCenturySchlbk-Bold /NewCenturySchlbk-BoldItalic /NewCenturySchlbk-Italic /Palatino-Bold
 /Palatino-BoldItalic /Palatino-Italic /Palatino-Roman ] {ISOLatin1Encoding reEncode } forall
%%EndProlog
%%BeginSetup
%%EndSetup
newpath  gsave  .25 .25 scale  gsave  0 0 t black[  ] 0 sd 6 lw 1 1 1 c 2268 2234 0 0 bf black 3 lw 1 1 1 c 1882 1966 340 223 bf black 1882 1966 340 223 bl 1 1 1 c 1882 1966 340 223 bf black 1882 1966 340 223 bl 0 0 1 c 6 lw 1 1 1 c 0 0 1 c 390 1188
 m 18 Y s 390 1217 m 19 Y s 3 lw /w 14 def /w2 {w 2 div} def /w3 {w 3 div} def 390 1212 m21 6 lw 394 1165 m 16 Y s 394 1192 m 16 Y s 3 lw 394 1187 m21 6 lw 399 1138 m 14 Y s 399 1163 m 14 Y s 3 lw 399 1158 m21 6 lw 404 1221 m 14 Y s 404 1246 m 14 Y s
 3 lw 404 1240 m21 6 lw 408 1154 m 12 Y s 408 1178 m 11 Y s 3 lw 408 1172 m21 6 lw 413 1142 m 10 Y s 413 1164 m 10 Y s 3 lw 413 1158 m21 6 lw 418 1156 m 10 Y s 418 1177 m 10 Y s 3 lw 418 1171 m21 6 lw 423 1167 m 9 Y s 423 1188 m 9 Y s 3 lw 423 1182
 m21 6 lw 427 1161 m 9 Y s 427 1181 m 9 Y s 3 lw 427 1176 m21 6 lw 432 1176 m 8 Y s 432 1196 m 8 Y s 3 lw 432 1190 m21 6 lw 437 1135 m 8 Y s 437 1154 m 7 Y s 3 lw 437 1148 m21 6 lw 441 1151 m 7 Y s 441 1169 m 7 Y s 3 lw 441 1164 m21 6 lw 446 1158 m 7
 Y s 446 1176 m 7 Y s 3 lw 446 1170 m21 6 lw 451 1151 m 6 Y s 451 1168 m 6 Y s 3 lw 451 1163 m21 6 lw 455 1133 m 6 Y s 455 1150 m 6 Y s 3 lw 455 1145 m21 6 lw 460 1148 m 5 Y s 460 1164 m 6 Y s 3 lw 460 1159 m21 6 lw 465 1168 m 6 Y s 465 1185 m 5 Y s
 3 lw 465 1179 m21 6 lw 470 1135 m 5 Y s 470 1151 m 5 Y s 3 lw 470 1146 m21 6 lw 474 1148 m 4 Y s 474 1164 m 4 Y s 3 lw 474 1158 m21 6 lw 479 1158 m 5 Y s 479 1174 m 4 Y s 3 lw 479 1168 m21 6 lw 484 1146 m 4 Y s 484 1161 m 4 Y s 3 lw 484 1155 m21 6
 lw 488 1154 m 4 Y s 488 1170 m 4 Y s 3 lw 488 1164 m21 6 lw 493 1140 m 3 Y s 493 1155 m 3 Y s 3 lw 493 1149 m21 6 lw 498 1135 m 3 Y s 498 1149 m 4 Y s 3 lw 498 1144 m21 6 lw 502 1153 m 4 Y s 502 1168 m 3 Y s 3 lw 502 1162 m21 6 lw 507 1152 m 3 Y s
 507 1166 m 3 Y s 3 lw 507 1161 m21 6 lw 512 1148 m 3 Y s 512 1163 m 3 Y s 3 lw 512 1157 m21 6 lw 517 1140 m 2 Y s 517 1154 m 3 Y s 3 lw 517 1148 m21 6 lw 521 1136 m 2 Y s 521 1150 m 2 Y s 3 lw 521 1144 m21 6 lw 526 1146 m 2 Y s 526 1160 m 2 Y s 3 lw
 526 1154 m21 6 lw 531 1150 m 2 Y s 531 1163 m 3 Y s 3 lw 531 1158 m21 6 lw 535 1142 m 2 Y s 535 1156 m 2 Y s 3 lw 535 1150 m21 6 lw 540 1139 m 2 Y s 540 1153 m 2 Y s 3 lw 540 1147 m21 6 lw 545 1127 m 2 Y s 545 1141 m 2 Y s 3 lw 545 1135 m21 6 lw 550
 1126 m 2 Y s 550 1139 m 2 Y s 3 lw 550 1134 m21 6 lw 554 1130 m 1 Y s 554 1143 m 2 Y s 3 lw 554 1137 m21 6 lw 559 1127 m 2 Y s 559 1140 m 2 Y s 3 lw 559 1134 m21 6 lw 564 1134 m 1 Y s 564 1147 m 1 Y s 3 lw 564 1141 m21 6 lw 568 1145 m 1 Y s 568 1158
 m 1 Y s 3 lw 568 1152 m21 6 lw 573 1138 m 2 Y s 573 1151 m 2 Y s 3 lw 573 1145 m21 6 lw 578 1139 m 2 Y s 578 1152 m 2 Y s 3 lw 578 1147 m21 6 lw 582 1136 m 1 Y s 582 1149 m 1 Y s 3 lw 582 1143 m21 6 lw 587 1147 m 2 Y s 587 1160 m 1 Y s 3 lw 587 1154
 m21 6 lw 592 1132 m 2 Y s 592 1145 m 1 Y s 3 lw 592 1139 m21 6 lw 597 1146 m 1 Y s 597 1159 m 1 Y s 3 lw 597 1153 m21 6 lw 601 1136 m 1 Y s 601 1148 m 2 Y s 3 lw 601 1143 m21 6 lw 606 1154 m 1 Y s 606 1167 m 1 Y s 3 lw 606 1161 m21 6 lw 611 1146 m 1
 Y s 611 1159 m 1 Y s 3 lw 611 1153 m21 6 lw 615 1141 m 1 Y s 615 1153 m 1 Y s 3 lw 615 1147 m21 6 lw 620 1132 m s 620 1144 m 1 Y s 3 lw 620 1138 m21 6 lw 625 1147 m 1 Y s 625 1159 m 1 Y s 3 lw 625 1153 m21 6 lw 630 1142 m 1 Y s 630 1154 m 1 Y s 3 lw
 630 1148 m21 6 lw 634 1149 m 1 Y s 634 1161 m 1 Y s 3 lw 634 1156 m21 6 lw 639 1139 m s 639 1151 m 1 Y s 3 lw 639 1145 m21 6 lw 644 1145 m s 644 1157 m s 3 lw 644 1151 m21 6 lw 648 1140 m 1 Y s 648 1152 m 1 Y s 3 lw 648 1147 m21 6 lw 653 1144 m 1 Y
 s 653 1156 m 1 Y s 3 lw 653 1151 m21 6 lw 658 1137 m s 658 1148 m 1 Y s 3 lw 658 1143 m21 6 lw 662 1150 m 1 Y s 662 1162 m 1 Y s 3 lw 662 1157 m21 6 lw 667 1145 m 1 Y s 667 1157 m 1 Y s 3 lw 667 1151 m21 6 lw 672 1147 m 1 Y s 672 1159 m s 3 lw 672
 1153 m21 6 lw 677 1142 m s 677 1153 m 1 Y s 3 lw 677 1148 m21 6 lw 681 1146 m s 681 1157 m 1 Y s 3 lw 681 1152 m21 6 lw 686 1147 m 1 Y s 686 1159 m s 3 lw 686 1153 m21 6 lw 691 1141 m s 691 1152 m 1 Y s 3 lw 691 1147 m21 6 lw 695 1143 m s 695 1154 m
 1 Y s 3 lw 695 1149 m21 6 lw 700 1152 m s 700 1164 m s 3 lw 700 1158 m21 6 lw 705 1144 m s 705 1156 m s 3 lw 705 1150 m21 6 lw 710 1149 m s 710 1160 m s 3 lw 710 1155 m21 6 lw 714 1137 m s 714 1149 m s 3 lw 714 1143 m21 6 lw 719 1138 m 1 Y s 719
 1150 m s 3 lw 719 1144 m21 6 lw 724 1137 m s 724 1149 m s 3 lw 724 1143 m21 6 lw 728 1146 m s 728 1158 m s 3 lw 728 1152 m21 6 lw 733 1141 m s 733 1152 m s 3 lw 733 1147 m21 6 lw 738 1143 m s 738 1154 m s 3 lw 738 1148 m21 6 lw 742 1147 m s 742 1159
 m s 3 lw 742 1153 m21 6 lw 3 lw 747 1147 m21 6 lw 3 lw 752 1139 m21 6 lw 3 lw 757 1149 m21 6 lw 3 lw 761 1136 m21 6 lw 3 lw 766 1143 m21 6 lw 3 lw 771 1150 m21 6 lw 3 lw 775 1140 m21 6 lw 3 lw 780 1148 m21 6 lw 3 lw 785 1140 m21 6 lw 3 lw 790 1134
 m21 6 lw 3 lw 794 1134 m21 6 lw 3 lw 799 1136 m21 6 lw 3 lw 804 1141 m21 6 lw 3 lw 808 1141 m21 6 lw 3 lw 813 1144 m21 6 lw 3 lw 818 1140 m21 6 lw 3 lw 822 1131 m21 6 lw 3 lw 827 1135 m21 6 lw 3 lw 832 1141 m21 6 lw 3 lw 837 1130 m21 6 lw 3 lw 841
 1135 m21 6 lw 3 lw 846 1127 m21 6 lw 3 lw 851 1126 m21 6 lw 3 lw 855 1132 m21 6 lw 3 lw 860 1125 m21 6 lw 3 lw 865 1140 m21 6 lw 3 lw 870 1129 m21 6 lw 3 lw 874 1114 m21 6 lw 3 lw 879 1127 m21 6 lw 3 lw 884 1134 m21 6 lw 3 lw 888 1134 m21 6 lw 3 lw
 893 1123 m21 6 lw 3 lw 898 1114 m21 6 lw 3 lw 902 1118 m21 6 lw 3 lw 907 1126 m21 6 lw 3 lw 912 1118 m21 6 lw 3 lw 917 1112 m21 6 lw 3 lw 921 1116 m21 6 lw 3 lw 926 1128 m21 6 lw 3 lw 931 1113 m21 6 lw 3 lw 935 1114 m21 6 lw 3 lw 940 1110 m21 6 lw 3
 lw 945 1112 m21 6 lw 3 lw 950 1111 m21 6 lw 3 lw 954 1115 m21 6 lw 3 lw 959 1113 m21 6 lw 3 lw 964 1109 m21 6 lw 3 lw 968 1106 m21 6 lw 3 lw 973 1108 m21 6 lw 3 lw 978 1111 m21 6 lw 3 lw 982 1110 m21 6 lw 3 lw 987 1107 m21 6 lw 3 lw 992 1110 m21 6
 lw 3 lw 997 1109 m21 6 lw 3 lw 1001 1103 m21 6 lw 3 lw 1006 1106 m21 6 lw 3 lw 1011 1108 m21 6 lw 3 lw 1015 1114 m21 6 lw 3 lw 1020 1104 m21 6 lw 3 lw 1025 1111 m21 6 lw 3 lw 1030 1108 m21 6 lw 3 lw 1034 1107 m21 6 lw 3 lw 1039 1101 m21 6 lw 3 lw
 1044 1104 m21 6 lw 3 lw 1048 1100 m21 6 lw 3 lw 1053 1102 m21 6 lw 3 lw 1058 1107 m21 6 lw 3 lw 1062 1096 m21 6 lw 3 lw 1067 1099 m21 6 lw 3 lw 1072 1100 m21 6 lw 3 lw 1077 1097 m21 6 lw 3 lw 1081 1102 m21 6 lw 3 lw 1086 1108 m21 6 lw 3 lw 1091 1108
 m21 6 lw 3 lw 1095 1105 m21 6 lw 3 lw 1100 1113 m21 6 lw 3 lw 1105 1102 m21 6 lw 3 lw 1110 1099 m21 6 lw 3 lw 1114 1098 m21 6 lw 3 lw 1119 1099 m21 6 lw 3 lw 1124 1099 m21 6 lw 3 lw 1128 1106 m21 6 lw 3 lw 1133 1111 m21 6 lw 3 lw 1138 1096 m21 6 lw
 3 lw 1142 1106 m21 6 lw 3 lw 1147 1100 m21 6 lw 3 lw 1152 1097 m21 6 lw 3 lw 1157 1089 m21 6 lw 3 lw 1161 1092 m21 6 lw 3 lw 1166 1097 m21 6 lw 3 lw 1171 1101 m21 6 lw 3 lw 1175 1089 m21 6 lw 3 lw 1180 1102 m21 6 lw 3 lw 1185 1098 m21 6 lw 1190 1094
 m s 1190 1106 m s 3 lw 1190 1100 m21 6 lw 3 lw 1194 1076 m21 6 lw 1199 1091 m s 1199 1102 m s 3 lw 1199 1096 m21 6 lw 1204 1088 m s 1204 1100 m s 3 lw 1204 1094 m21 6 lw 1208 1094 m s 1208 1105 m s 3 lw 1208 1100 m21 6 lw 1213 1084 m s 1213 1096 m s
 3 lw 1213 1090 m21 6 lw 1218 1084 m s 1218 1095 m s 3 lw 1218 1090 m21 6 lw 1222 1094 m s 1222 1105 m s 3 lw 1222 1100 m21 6 lw 1227 1082 m s 1227 1094 m s 3 lw 1227 1088 m21 6 lw 1232 1098 m s 1232 1109 m 1 Y s 3 lw 1232 1104 m21 6 lw 1237 1086 m 1
 Y s 1237 1098 m s 3 lw 1237 1092 m21 6 lw 1241 1097 m s 1241 1109 m s 3 lw 1241 1103 m21 6 lw 1246 1097 m s 1246 1108 m s 3 lw 1246 1102 m21 6 lw 1251 1092 m s 1251 1104 m s 3 lw 1251 1098 m21 6 lw 1255 1085 m 1 Y s 1255 1097 m s 3 lw 1255 1091 m21
 6 lw 1260 1093 m s 1260 1104 m 1 Y s 3 lw 1260 1099 m21 6 lw 1265 1082 m s 1265 1094 m s 3 lw 1265 1088 m21 6 lw 1269 1081 m 1 Y s 1269 1093 m s 3 lw 1269 1087 m21 6 lw 1274 1091 m s 1274 1102 m 1 Y s 3 lw 1274 1097 m21 6 lw 1279 1100 m 1 Y s 1279
 1112 m s 3 lw 1279 1106 m21 6 lw 1284 1085 m 1 Y s 1284 1097 m 1 Y s 3 lw 1284 1091 m21 6 lw 1288 1082 m s 1288 1094 m s 3 lw 1288 1088 m21 6 lw 1293 1094 m s 1293 1106 m s 3 lw 1293 1100 m21 6 lw 1298 1095 m s 1298 1106 m 1 Y s 3 lw 1298 1101 m21 6
 lw 1302 1087 m 1 Y s 1302 1099 m 1 Y s 3 lw 1302 1093 m21 6 lw 1307 1087 m s 1307 1099 m s 3 lw 1307 1093 m21 6 lw 1312 1087 m 1 Y s 1312 1099 m 1 Y s 3 lw 1312 1094 m21 6 lw 1317 1087 m s 1317 1098 m 1 Y s 3 lw 1317 1093 m21 6 lw 1321 1077 m s 1321
 1089 m s 3 lw 1321 1083 m21 6 lw 1326 1090 m s 1326 1102 m s 3 lw 1326 1096 m21 6 lw 1331 1095 m 1 Y s 1331 1107 m 1 Y s 3 lw 1331 1102 m21 6 lw 1335 1082 m 1 Y s 1335 1094 m 1 Y s 3 lw 1335 1088 m21 6 lw 1340 1092 m s 1340 1104 m s 3 lw 1340 1098
 m21 6 lw 1345 1084 m 1 Y s 1345 1096 m 1 Y s 3 lw 1345 1091 m21 6 lw 1349 1084 m 1 Y s 1349 1096 m 1 Y s 3 lw 1349 1091 m21 6 lw 1354 1081 m s 1354 1093 m s 3 lw 1354 1087 m21 6 lw 1359 1086 m 1 Y s 1359 1098 m 1 Y s 3 lw 1359 1093 m21 6 lw 1364
 1069 m 1 Y s 1364 1081 m 1 Y s 3 lw 1364 1076 m21 6 lw 1368 1097 m 1 Y s 1368 1109 m 1 Y s 3 lw 1368 1104 m21 6 lw 1373 1098 m 1 Y s 1373 1110 m 1 Y s 3 lw 1373 1104 m21 6 lw 1378 1092 m 1 Y s 1378 1104 m 1 Y s 3 lw 1378 1098 m21 6 lw 1382 1096 m 1
 Y s 1382 1108 m 1 Y s 3 lw 1382 1102 m21 6 lw 1387 1086 m 1 Y s 1387 1098 m 1 Y s 3 lw 1387 1092 m21 6 lw 1392 1084 m 1 Y s 1392 1096 m 1 Y s 3 lw 1392 1091 m21 6 lw 1397 1084 m 1 Y s 1397 1096 m 1 Y s 3 lw 1397 1091 m21 6 lw 1401 1077 m 1 Y s 1401
 1089 m 1 Y s 3 lw 1401 1083 m21 6 lw 1406 1094 m s 1406 1106 m 1 Y s 3 lw 1406 1100 m21 6 lw 1411 1091 m 1 Y s 1411 1103 m 1 Y s 3 lw 1411 1097 m21 6 lw 1415 1093 m 1 Y s 1415 1106 m 1 Y s 3 lw 1415 1100 m21 6 lw 1420 1088 m 1 Y s 1420 1100 m 1 Y s
 3 lw 1420 1094 m21 6 lw 1425 1087 m 1 Y s 1425 1099 m 1 Y s 3 lw 1425 1093 m21 6 lw 1429 1086 m 1 Y s 1429 1098 m 1 Y s 3 lw 1429 1092 m21 6 lw 1434 1093 m 1 Y s 1434 1105 m 1 Y s 3 lw 1434 1100 m21 6 lw 1439 1092 m 1 Y s 1439 1105 m 1 Y s 3 lw 1439
 1099 m21 6 lw 1444 1092 m 1 Y s 1444 1105 m 1 Y s 3 lw 1444 1099 m21 6 lw 1448 1078 m 1 Y s 1448 1090 m 1 Y s 3 lw 1448 1084 m21 6 lw 1453 1098 m 1 Y s 1453 1111 m 1 Y s 3 lw 1453 1105 m21 6 lw 1458 1084 m 1 Y s 1458 1097 m 1 Y s 3 lw 1458 1091 m21
 6 lw 1462 1099 m 2 Y s 1462 1112 m 1 Y s 3 lw 1462 1106 m21 6 lw 1467 1092 m 1 Y s 1467 1104 m 1 Y s 3 lw 1467 1098 m21 6 lw 1472 1091 m 2 Y s 1472 1104 m 1 Y s 3 lw 1472 1098 m21 6 lw 1477 1091 m 1 Y s 1477 1104 m 1 Y s 3 lw 1477 1098 m21 6 lw 1481
 1097 m 1 Y s 1481 1110 m 1 Y s 3 lw 1481 1104 m21 6 lw 1486 1094 m 1 Y s 1486 1107 m 1 Y s 3 lw 1486 1101 m21 6 lw 1491 1088 m 1 Y s 1491 1100 m 2 Y s 3 lw 1491 1095 m21 6 lw 1495 1093 m 1 Y s 1495 1106 m 1 Y s 3 lw 1495 1100 m21 6 lw 1500 1087 m 1
 Y s 1500 1100 m 1 Y s 3 lw 1500 1094 m21 6 lw 1505 1091 m 2 Y s 1505 1104 m 2 Y s 3 lw 1505 1098 m21 6 lw 1509 1092 m 2 Y s 1509 1105 m 2 Y s 3 lw 1509 1100 m21 6 lw 1514 1101 m 2 Y s 1514 1114 m 2 Y s 3 lw 1514 1108 m21 6 lw 1519 1093 m 2 Y s 1519
 1106 m 2 Y s 3 lw 1519 1100 m21 6 lw 1524 1095 m 1 Y s 1524 1108 m 1 Y s 3 lw 1524 1102 m21 6 lw 1528 1087 m 2 Y s 1528 1100 m 2 Y s 3 lw 1528 1094 m21 6 lw 1533 1095 m 1 Y s 1533 1108 m 1 Y s 3 lw 1533 1102 m21 6 lw 1538 1086 m 2 Y s 1538 1099 m 2
 Y s 3 lw 1538 1094 m21 6 lw 1542 1087 m 1 Y s 1542 1100 m 1 Y s 3 lw 1542 1094 m21 6 lw 1547 1093 m 1 Y s 1547 1106 m 1 Y s 3 lw 1547 1100 m21 6 lw 1552 1097 m 1 Y s 1552 1110 m 2 Y s 3 lw 1552 1104 m21 6 lw 1557 1101 m 2 Y s 1557 1114 m 2 Y s 3 lw
 1557 1109 m21 6 lw 1561 1090 m 2 Y s 1561 1103 m 2 Y s 3 lw 1561 1097 m21 6 lw 1566 1108 m 2 Y s 1566 1121 m 2 Y s 3 lw 1566 1115 m21 6 lw 1571 1086 m 2 Y s 1571 1099 m 2 Y s 3 lw 1571 1094 m21 6 lw 1575 1093 m 2 Y s 1575 1106 m 2 Y s 3 lw 1575 1100
 m21 6 lw 1580 1100 m 2 Y s 1580 1114 m 2 Y s 3 lw 1580 1108 m21 6 lw 1585 1096 m 2 Y s 1585 1109 m 2 Y s 3 lw 1585 1104 m21 6 lw 1589 1092 m 2 Y s 1589 1106 m 2 Y s 3 lw 1589 1100 m21 6 lw 1594 1090 m 2 Y s 1594 1103 m 2 Y s 3 lw 1594 1098 m21 6 lw
 1599 1082 m 2 Y s 1599 1096 m 2 Y s 3 lw 1599 1090 m21 6 lw 1604 1102 m 2 Y s 1604 1116 m 2 Y s 3 lw 1604 1110 m21 6 lw 1608 1096 m 2 Y s 1608 1109 m 2 Y s 3 lw 1608 1104 m21 6 lw 1613 1100 m 2 Y s 1613 1113 m 3 Y s 3 lw 1613 1108 m21 6 lw 1618 1100
 m 2 Y s 1618 1113 m 2 Y s 3 lw 1618 1108 m21 6 lw 1622 1111 m 3 Y s 1622 1125 m 2 Y s 3 lw 1622 1119 m21 6 lw 1627 1098 m 3 Y s 1627 1112 m 2 Y s 3 lw 1627 1106 m21 6 lw 1632 1097 m 2 Y s 1632 1110 m 2 Y s 3 lw 1632 1105 m21 6 lw 1637 1099 m 3 Y s
 1637 1113 m 2 Y s 3 lw 1637 1107 m21 6 lw 1641 1095 m 2 Y s 1641 1109 m 2 Y s 3 lw 1641 1103 m21 6 lw 1646 1095 m 2 Y s 1646 1108 m 3 Y s 3 lw 1646 1103 m21 6 lw 1651 1108 m 3 Y s 1651 1122 m 2 Y s 3 lw 1651 1116 m21 6 lw 1655 1096 m 2 Y s 1655 1110
 m 2 Y s 3 lw 1655 1104 m21 6 lw 1660 1094 m 2 Y s 1660 1108 m 2 Y s 3 lw 1660 1102 m21 6 lw 1665 1097 m 2 Y s 1665 1111 m 2 Y s 3 lw 1665 1105 m21 6 lw 1669 1097 m 2 Y s 1669 1111 m 2 Y s 3 lw 1669 1105 m21 6 lw 1674 1087 m 3 Y s 1674 1101 m 3 Y s 3
 lw 1674 1095 m21 6 lw 1679 1089 m 3 Y s 1679 1103 m 3 Y s 3 lw 1679 1098 m21 6 lw 1684 1100 m 3 Y s 1684 1114 m 3 Y s 3 lw 1684 1109 m21 6 lw 1688 1105 m 3 Y s 1688 1119 m 3 Y s 3 lw 1688 1113 m21 6 lw 1693 1095 m 3 Y s 1693 1110 m 2 Y s 3 lw 1693
 1104 m21 6 lw 1698 1100 m 3 Y s 1698 1114 m 3 Y s 3 lw 1698 1108 m21 6 lw 1702 1101 m 3 Y s 1702 1115 m 3 Y s 3 lw 1702 1110 m21 6 lw 1707 1105 m 3 Y s 1707 1119 m 3 Y s 3 lw 1707 1114 m21 6 lw 1712 1109 m 3 Y s 1712 1124 m 3 Y s 3 lw 1712 1118 m21
 6 lw 1717 1109 m 2 Y s 1717 1123 m 3 Y s 3 lw 1717 1117 m21 6 lw 1721 1099 m 3 Y s 1721 1113 m 3 Y s 3 lw 1721 1107 m21 6 lw 1726 1096 m 3 Y s 1726 1111 m 2 Y s 3 lw 1726 1105 m21 6 lw 1731 1094 m 3 Y s 1731 1108 m 3 Y s 3 lw 1731 1102 m21 6 lw 1735
 1110 m 3 Y s 1735 1124 m 3 Y s 3 lw 1735 1118 m21 6 lw 1740 1096 m 3 Y s 1740 1111 m 3 Y s 3 lw 1740 1105 m21 6 lw 1745 1087 m 3 Y s 1745 1101 m 3 Y s 3 lw 1745 1096 m21 6 lw 1749 1098 m 4 Y s 1749 1113 m 3 Y s 3 lw 1749 1107 m21 6 lw 1754 1111 m 3
 Y s 1754 1126 m 3 Y s 3 lw 1754 1120 m21 6 lw 1759 1102 m 3 Y s 1759 1116 m 3 Y s 3 lw 1759 1111 m21 6 lw 1764 1086 m 3 Y s 1764 1101 m 3 Y s 3 lw 1764 1095 m21 6 lw 1768 1106 m 3 Y s 1768 1121 m 3 Y s 3 lw 1768 1115 m21 6 lw 1773 1101 m 3 Y s 1773
 1116 m 3 Y s 3 lw 1773 1110 m21 6 lw 1778 1103 m 3 Y s 1778 1118 m 3 Y s 3 lw 1778 1112 m21 6 lw 1782 1092 m 4 Y s 1782 1107 m 3 Y s 3 lw 1782 1101 m21 6 lw 1787 1099 m 3 Y s 1787 1113 m 4 Y s 3 lw 1787 1108 m21 6 lw 1792 1097 m 4 Y s 1792 1112 m 4
 Y s 3 lw 1792 1107 m21 6 lw 1797 1097 m 4 Y s 1797 1112 m 4 Y s 3 lw 1797 1106 m21 6 lw 1801 1111 m 4 Y s 1801 1126 m 4 Y s 3 lw 1801 1121 m21 6 lw 1806 1099 m 4 Y s 1806 1114 m 4 Y s 3 lw 1806 1109 m21 6 lw 1811 1110 m 4 Y s 1811 1125 m 4 Y s 3 lw
 1811 1119 m21 6 lw 1815 1112 m 4 Y s 1815 1127 m 4 Y s 3 lw 1815 1122 m21 6 lw 1820 1098 m 4 Y s 1820 1113 m 4 Y s 3 lw 1820 1107 m21 6 lw 1825 1102 m 4 Y s 1825 1117 m 4 Y s 3 lw 1825 1112 m21 6 lw 1829 1108 m 4 Y s 1829 1123 m 4 Y s 3 lw 1829 1117
 m21 6 lw 1834 1115 m 4 Y s 1834 1130 m 4 Y s 3 lw 1834 1124 m21 6 lw 1839 1106 m 3 Y s 1839 1121 m 4 Y s 3 lw 1839 1115 m21 6 lw 1844 1113 m 4 Y s 1844 1128 m 4 Y s 3 lw 1844 1122 m21 6 lw 1848 1096 m 4 Y s 1848 1111 m 4 Y s 3 lw 1848 1105 m21 6 lw
 1853 1107 m 4 Y s 1853 1123 m 4 Y s 3 lw 1853 1117 m21 6 lw 1858 1105 m 4 Y s 1858 1120 m 4 Y s 3 lw 1858 1115 m21 6 lw 1862 1105 m 4 Y s 1862 1121 m 4 Y s 3 lw 1862 1115 m21 6 lw 1867 1106 m 4 Y s 1867 1121 m 5 Y s 3 lw 1867 1116 m21 6 lw 1872 1097
 m 4 Y s 1872 1112 m 4 Y s 3 lw 1872 1107 m21 6 lw 1877 1120 m 5 Y s 1877 1136 m 4 Y s 3 lw 1877 1130 m21 6 lw 1881 1108 m 4 Y s 1881 1123 m 5 Y s 3 lw 1881 1118 m21 6 lw 1886 1096 m 4 Y s 1886 1111 m 5 Y s 3 lw 1886 1106 m21 6 lw 1891 1115 m 4 Y s
 1891 1130 m 5 Y s 3 lw 1891 1125 m21 6 lw 1895 1113 m 4 Y s 1895 1128 m 5 Y s 3 lw 1895 1123 m21 6 lw 1900 1105 m 4 Y s 1900 1120 m 5 Y s 3 lw 1900 1115 m21 6 lw 1905 1110 m 4 Y s 1905 1125 m 5 Y s 3 lw 1905 1120 m21 6 lw 1909 1115 m 4 Y s 1909 1131
 m 4 Y s 3 lw 1909 1125 m21 6 lw 1914 1107 m 5 Y s 1914 1123 m 5 Y s 3 lw 1914 1117 m21 6 lw 1919 1101 m 4 Y s 1919 1116 m 5 Y s 3 lw 1919 1111 m21 6 lw 1924 1106 m 5 Y s 1924 1122 m 5 Y s 3 lw 1924 1117 m21 6 lw 1928 1107 m 5 Y s 1928 1123 m 5 Y s 3
 lw 1928 1117 m21 6 lw 1933 1112 m 4 Y s 1933 1128 m 4 Y s 3 lw 1933 1122 m21 6 lw 1938 1084 m 4 Y s 1938 1100 m 4 Y s 3 lw 1938 1094 m21 6 lw 1942 1107 m 4 Y s 1942 1123 m 5 Y s 3 lw 1942 1117 m21 6 lw 1947 1106 m 5 Y s 1947 1123 m 5 Y s 3 lw 1947
 1117 m21 6 lw 1952 1112 m 5 Y s 1952 1129 m 5 Y s 3 lw 1952 1123 m21 6 lw 1957 1110 m 5 Y s 1957 1126 m 5 Y s 3 lw 1957 1120 m21 6 lw 1961 1104 m 5 Y s 1961 1121 m 5 Y s 3 lw 1961 1115 m21 6 lw 1966 1126 m 5 Y s 1966 1143 m 5 Y s 3 lw 1966 1137 m21
 6 lw 1971 1116 m 5 Y s 1971 1132 m 5 Y s 3 lw 1971 1126 m21 6 lw 1975 1115 m 5 Y s 1975 1131 m 5 Y s 3 lw 1975 1126 m21 6 lw 1980 1113 m 5 Y s 1980 1129 m 5 Y s 3 lw 1980 1124 m21 6 lw 1985 1108 m 5 Y s 1985 1124 m 5 Y s 3 lw 1985 1119 m21 6 lw 1989
 1095 m 5 Y s 1989 1111 m 6 Y s 3 lw 1989 1106 m21 6 lw 1994 1115 m 6 Y s 1994 1132 m 5 Y s 3 lw 1994 1126 m21 6 lw 1999 1114 m 5 Y s 1999 1131 m 5 Y s 3 lw 1999 1125 m21 6 lw 2004 1100 m 5 Y s 2004 1117 m 5 Y s 3 lw 2004 1111 m21 6 lw 2008 1109 m 5
 Y s 2008 1126 m 5 Y s 3 lw 2008 1120 m21 6 lw 2013 1112 m 5 Y s 2013 1129 m 5 Y s 3 lw 2013 1123 m21 6 lw 2018 1117 m 6 Y s 2018 1134 m 6 Y s 3 lw 2018 1128 m21 6 lw 2022 1103 m 5 Y s 2022 1120 m 5 Y s 3 lw 2022 1114 m21 6 lw 2027 1115 m 6 Y s 2027
 1132 m 6 Y s 3 lw 2027 1126 m21 6 lw 2032 1113 m 6 Y s 2032 1130 m 6 Y s 3 lw 2032 1125 m21 6 lw 2036 1117 m 6 Y s 2036 1134 m 6 Y s 3 lw 2036 1128 m21 6 lw 2041 1127 m 6 Y s 2041 1144 m 6 Y s 3 lw 2041 1138 m21 6 lw 2046 1106 m 6 Y s 2046 1123 m 6
 Y s 3 lw 2046 1118 m21 6 lw 2051 1121 m 6 Y s 2051 1138 m 6 Y s 3 lw 2051 1133 m21 6 lw 2055 1092 m 6 Y s 2055 1109 m 6 Y s 3 lw 2055 1103 m21 6 lw 2060 1109 m 6 Y s 2060 1127 m 6 Y s 3 lw 2060 1121 m21 6 lw 2065 1106 m 6 Y s 2065 1124 m 6 Y s 3 lw
 2065 1118 m21 6 lw 2069 1114 m 6 Y s 2069 1132 m 6 Y s 3 lw 2069 1126 m21 6 lw 2074 1114 m 6 Y s 2074 1131 m 7 Y s 3 lw 2074 1126 m21 6 lw 2079 1106 m 6 Y s 2079 1124 m 6 Y s 3 lw 2079 1118 m21 6 lw 2084 1112 m 6 Y s 2084 1130 m 6 Y s 3 lw 2084 1124
 m21 6 lw 2088 1123 m 7 Y s 2088 1141 m 6 Y s 3 lw 2088 1135 m21 6 lw 2093 1111 m 6 Y s 2093 1129 m 6 Y s 3 lw 2093 1123 m21 6 lw 2098 1111 m 6 Y s 2098 1128 m 7 Y s 3 lw 2098 1123 m21 6 lw 2102 1107 m 6 Y s 2102 1124 m 7 Y s 3 lw 2102 1119 m21 6 lw
 2107 1100 m 6 Y s 2107 1117 m 7 Y s 3 lw 2107 1112 m21 6 lw 2112 1131 m 6 Y s 2112 1149 m 7 Y s 3 lw 2112 1143 m21 6 lw 2116 1129 m 7 Y s 2116 1147 m 7 Y s 3 lw 2116 1141 m21 6 lw 2121 1101 m 7 Y s 2121 1119 m 7 Y s 3 lw 2121 1114 m21 6 lw 2126 1106
 m 7 Y s 2126 1124 m 7 Y s 3 lw 2126 1119 m21 6 lw 2131 1109 m 7 Y s 2131 1127 m 7 Y s 3 lw 2131 1121 m21 6 lw 2135 1108 m 7 Y s 2135 1126 m 7 Y s 3 lw 2135 1120 m21 6 lw 2140 1116 m 7 Y s 2140 1134 m 7 Y s 3 lw 2140 1129 m21 6 lw 2145 1124 m 7 Y s
 2145 1142 m 7 Y s 3 lw 2145 1136 m21 6 lw 2149 1124 m 7 Y s 2149 1143 m 7 Y s 3 lw 2149 1137 m21 6 lw 2154 1126 m 7 Y s 2154 1144 m 7 Y s 3 lw 2154 1138 m21 6 lw 2159 1140 m 7 Y s 2159 1159 m 7 Y s 3 lw 2159 1153 m21 6 lw 2164 1109 m 7 Y s 2164 1127
 m 7 Y s 3 lw 2164 1122 m21 6 lw 2168 1129 m 7 Y s 2168 1147 m 7 Y s 3 lw 2168 1142 m21 6 lw 2173 1118 m 7 Y s 2173 1136 m 8 Y s 3 lw 2173 1131 m21 6 lw 2178 1086 m 7 Y s 2178 1104 m 7 Y s 3 lw 2178 1098 m21 6 lw 2182 1126 m 8 Y s 2182 1145 m 8 Y s 3
 lw 2182 1139 m21 6 lw 2187 1096 m 7 Y s 2187 1114 m 8 Y s 3 lw 2187 1109 m21 6 lw 2192 1116 m 7 Y s 2192 1135 m 7 Y s 3 lw 2192 1129 m21 6 lw 2196 1136 m 7 Y s 2196 1155 m 7 Y s 3 lw 2196 1149 m21 6 lw 2201 1098 m 8 Y s 2201 1117 m 7 Y s 3 lw 2201
 1111 m21 6 lw 2206 1117 m 7 Y s 2206 1136 m 7 Y s 3 lw 2206 1130 m21 6 lw 2211 1105 m 8 Y s 2211 1124 m 7 Y s 3 lw 2211 1118 m21 6 lw 2215 1111 m 7 Y s 2215 1130 m 8 Y s 3 lw 2215 1124 m21 6 lw 2220 1123 m 8 Y s 2220 1142 m 8 Y s 3 lw 2220 1137 m21
 6 lw black 340 223 m 1882 X s
 gsave  2268 2234 0 0 C 1923.86 58.2559 t 0 r /Helvetica findfont 83.8316 sf 0 0 m (Q [GeV]) show NC gr  340 279 m -56 Y s 387 251 m -28 Y s 434 251 m -28 Y s 481 251 m -28 Y s 528 279 m -56 Y s 575 251 m -28 Y s 622 251 m -28 Y s 670 251 m -28 Y s
 717 279 m -56 Y s 764 251 m -28 Y s 811 251 m -28 Y s 858 251 m -28 Y s 905 279 m -56 Y s 952 251 m -28 Y s 999 251 m -28 Y s 1046 251 m -28 Y s 1093 279 m -56 Y s 1140 251 m -28 Y s 1187 251 m -28 Y s 1234 251 m -28 Y s 1281 279 m -56 Y s 1328 251
 m -28 Y s 1375 251 m -28 Y s 1422 251 m -28 Y s 1469 279 m -56 Y s 1517 251 m -28 Y s 1564 251 m -28 Y s 1611 251 m -28 Y s 1658 279 m -56 Y s 1705 251 m -28 Y s 1752 251 m -28 Y s 1799 251 m -28 Y s 1846 279 m -56 Y s 1893 251 m -28 Y s 1940 251 m
 -28 Y s 1987 251 m -28 Y s 2034 279 m -56 Y s 2081 251 m -28 Y s 2128 251 m -28 Y s 2175 251 m -28 Y s 2222 279 m -56 Y s
 gsave  2268 2234 0 0 C 322.539 159.138 t 0 r /Helvetica findfont 62.5185 sf 0 0 m (0) show NC gr 
 gsave  2268 2234 0 0 C 484.518 159.138 t 0 r /Helvetica findfont 62.5185 sf 0 0 m (0.2) show NC gr 
 gsave  2268 2234 0 0 C 673.495 159.138 t 0 r /Helvetica findfont 62.5185 sf 0 0 m (0.4) show NC gr 
 gsave  2268 2234 0 0 C 861.05 159.138 t 0 r /Helvetica findfont 62.5185 sf 0 0 m (0.6) show NC gr 
 gsave  2268 2234 0 0 C 1050.03 159.138 t 0 r /Helvetica findfont 62.5185 sf 0 0 m (0.8) show NC gr 
 gsave  2268 2234 0 0 C 1268.84 159.138 t 0 r /Helvetica findfont 62.5185 sf 0 0 m (1) show NC gr 
 gsave  2268 2234 0 0 C 1426.56 159.138 t 0 r /Helvetica findfont 62.5185 sf 0 0 m (1.2) show NC gr 
 gsave  2268 2234 0 0 C 1614.11 159.138 t 0 r /Helvetica findfont 62.5185 sf 0 0 m (1.4) show NC gr 
 gsave  2268 2234 0 0 C 1803.09 159.138 t 0 r /Helvetica findfont 62.5185 sf 0 0 m (1.6) show NC gr 
 gsave  2268 2234 0 0 C 1990.65 159.138 t 0 r /Helvetica findfont 62.5185 sf 0 0 m (1.8) show NC gr 
 gsave  2268 2234 0 0 C 2205.2 159.138 t 0 r /Helvetica findfont 62.5185 sf 0 0 m (2) show NC gr  340 223 m 1966 Y s
 gsave  2268 2234 0 0 C 120.774 2105.74 t 90 r /Helvetica findfont 55.4141 sf 0 0 m (MC) show NC gr 
 gsave  2268 2234 0 0 C 160.559 1743.41 t 90 r /Helvetica findfont 83.8316 sf 0 0 m ( / \(dN/dQ\)) show NC gr 
 gsave  2268 2234 0 0 C 120.774 1636.85 t 90 r /Helvetica findfont 55.4141 sf 0 0 m (data) show NC gr 
 gsave  2268 2234 0 0 C 160.559 1321.41 t 90 r /Helvetica findfont 83.8316 sf 0 0 m ( \(dN/dQ\)) show NC gr  400 402 m -60 X s 370 491 m -30 X s 370 581 m -30 X s 370 670 m -30 X s 400 759 m -60 X s 370 849 m -30 X s 370 938 m -30 X s 370 1027 m -30
 X s 400 1117 m -60 X s 370 1206 m -30 X s 370 1295 m -30 X s 370 1385 m -30 X s 400 1474 m -60 X s 370 1564 m -30 X s 370 1653 m -30 X s 370 1742 m -30 X s 400 1832 m -60 X s 370 1921 m -30 X s 370 2010 m -30 X s 370 2100 m -30 X s 400 2189 m -60 X
 s 400 402 m -60 X s 370 313 m -30 X s 370 223 m -30 X s
 gsave  2268 2234 0 0 C 242.97 379.374 t 0 r /Helvetica findfont 62.5185 sf 0 0 m (0.6) show NC gr 
 gsave  2268 2234 0 0 C 242.97 737.434 t 0 r /Helvetica findfont 62.5185 sf 0 0 m (0.8) show NC gr 
 gsave  2268 2234 0 0 C 305.488 1092.65 t 0 r /Helvetica findfont 62.5185 sf 0 0 m (1) show NC gr 
 gsave  2268 2234 0 0 C 242.97 1450.71 t 0 r /Helvetica findfont 62.5185 sf 0 0 m (1.2) show NC gr 
 gsave  2268 2234 0 0 C 242.97 1808.77 t 0 r /Helvetica findfont 62.5185 sf 0 0 m (1.4) show NC gr 
 gsave  2268 2234 0 0 C 242.97 2166.83 t 0 r /Helvetica findfont 62.5185 sf 0 0 m (1.6) show NC gr 
 gsave  2268 2234 0 0 C 906.518 558.404 t 0 r /Helvetica-Bold findfont 72.4646 sf 0 0 m (VELO tracks multiplicity: 21 \255 60) show NC gr 
 gr  gr showpage
end
%%EOF
