%!PS-Adobe-2.0 EPSF-2.0
%%BoundingBox:  0 0 567 558
%%Title: ./RD_pion_0c65_h3401_1_h3401_1.eps: RD_pion_0c65_h3401_1_h3401_1
%%Creator: ROOT Version 6.06/02
%%CreationDate: Thu Feb  2 16:21:48 2017
%%DocumentNeededResources: ProcSet (FontSetInit)
%%EndComments
%%BeginProlog
80 dict begin
/s {stroke} def /l {lineto} def /m {moveto} def /t {translate} def
/r {rotate} def /rl {roll}  def /R {repeat} def
/d {rlineto} def /rm {rmoveto} def /gr {grestore} def /f {eofill} def
/c {setrgbcolor} def /black {0 setgray} def /sd {setdash} def
/cl {closepath} def /sf {scalefont setfont} def /lw {setlinewidth} def
/box {m dup 0 exch d exch 0 d 0 exch neg d cl} def
/NC{systemdict begin initclip end}def/C{NC box clip newpath}def
/bl {box s} def /bf {gsave box gsave f grestore 1 lw [] 0 sd s grestore} def /Y { 0 exch d} def /X { 0 d} def 
/K {{pop pop 0 moveto} exch kshow} bind def
/ita {/ang 15 def gsave [1 0 ang dup sin exch cos div 1 0 0] concat} def 
/mp {newpath /y exch def /x exch def} def
/side {[w .77 mul w .23 mul] .385 w mul sd w 0 l currentpoint t -144 r} def
/mr {mp x y w2 0 360 arc} def /m24 {mr s} def /m20 {mr f} def
/mb {mp x y w2 add m w2 neg 0 d 0 w neg d w 0 d 0 w d cl} def
/mt {mp x y w2 add m w2 neg w neg d w 0 d cl} def
/m21 {mb f} def /m25 {mb s} def /m22 {mt f} def /m26{mt s} def
/m23 {mp x y w2 sub m w2 w d w neg 0 d cl f} def
/m27 {mp x y w2 add m w3 neg w2 neg d w3 w2 neg d w3 w2 d cl s} def
/m28 {mp x w2 sub y w2 sub w3 add m w3 0 d  0 w3 neg d w3 0 d 0 w3 d w3 0 d  0 w3 d w3 neg 0 d 0 w3 d w3 neg 0 d 0 w3 neg d w3 neg 0 d cl s } def
/m29 {mp gsave x w2 sub y w2 add w3 sub m currentpoint t 4 {side} repeat cl fill gr} def
/m30 {mp gsave x w2 sub y w2 add w3 sub m currentpoint t 4 {side} repeat cl s gr} def
/m31 {mp x y w2 sub m 0 w d x w2 sub y m w 0 d x w2 sub y w2 add m w w neg d x w2 sub y w2 sub m w w d s} def
/m32 {mp x y w2 sub m w2 w d w neg 0 d cl s} def
/m33 {mp x y w2 add m w3 neg w2 neg d w3 w2 neg d w3 w2 d cl f} def
/m34 {mp x w2 sub y w2 sub w3 add m w3 0 d  0 w3 neg d w3 0 d 0 w3 d w3 0 d  0 w3 d w3 neg 0 d 0 w3 d w3 neg 0 d 0 w3 neg d w3 neg 0 d cl f } def
/m2 {mp x y w2 sub m 0 w d x w2 sub y m w 0 d s} def
/m5 {mp x w2 sub y w2 sub m w w d x w2 sub y w2 add m w w neg d s} def
%%IncludeResource: ProcSet (FontSetInit)
%%IncludeResource: font Times-Roman
%%IncludeResource: font Times-Italic
%%IncludeResource: font Times-Bold
%%IncludeResource: font Times-BoldItalic
%%IncludeResource: font Helvetica
%%IncludeResource: font Helvetica-Oblique
%%IncludeResource: font Helvetica-Bold
%%IncludeResource: font Helvetica-BoldOblique
%%IncludeResource: font Courier
%%IncludeResource: font Courier-Oblique
%%IncludeResource: font Courier-Bold
%%IncludeResource: font Courier-BoldOblique
%%IncludeResource: font Symbol
%%IncludeResource: font ZapfDingbats
/reEncode {exch findfont dup length dict begin {1 index /FID eq  {pop pop} {def} ifelse } forall /Encoding exch def currentdict end dup /FontName get exch definefont pop } def [/Times-Bold /Times-Italic /Times-BoldItalic /Helvetica /Helvetica-Oblique
 /Helvetica-Bold /Helvetica-BoldOblique /Courier /Courier-Oblique /Courier-Bold /Courier-BoldOblique /Times-Roman /AvantGarde-Book /AvantGarde-BookOblique /AvantGarde-Demi /AvantGarde-DemiOblique /Bookman-Demi /Bookman-DemiItalic /Bookman-Light
 /Bookman-LightItalic /Helvetica-Narrow /Helvetica-Narrow-Bold /Helvetica-Narrow-BoldOblique /Helvetica-Narrow-Oblique /NewCenturySchlbk-Roman /NewCenturySchlbk-Bold /NewCenturySchlbk-BoldItalic /NewCenturySchlbk-Italic /Palatino-Bold
 /Palatino-BoldItalic /Palatino-Italic /Palatino-Roman ] {ISOLatin1Encoding reEncode } forall
%%EndProlog
%%BeginSetup
%%EndSetup
newpath  gsave  .25 .25 scale  gsave  0 0 t black[  ] 0 sd 6 lw 1 1 1 c 2268 2234 0 0 bf black 3 lw 1 1 1 c 1882 1966 340 223 bf black 1882 1966 340 223 bl 1 1 1 c 1882 1966 340 223 bf black 1882 1966 340 223 bl 0 0 1 c 6 lw 1 1 1 c 0 0 1 c 390 1079
 m 15 Y s 390 1105 m 15 Y s 3 lw /w 14 def /w2 {w 2 div} def /w3 {w 3 div} def 390 1099 m21 6 lw 394 1090 m 13 Y s 394 1114 m 13 Y s 3 lw 394 1108 m21 6 lw 399 1111 m 11 Y s 399 1134 m 12 Y s 3 lw 399 1128 m21 6 lw 404 1109 m 11 Y s 404 1132 m 10 Y s
 3 lw 404 1126 m21 6 lw 408 1114 m 10 Y s 408 1135 m 10 Y s 3 lw 408 1130 m21 6 lw 413 1071 m 8 Y s 413 1090 m 9 Y s 3 lw 413 1085 m21 6 lw 418 1105 m 8 Y s 418 1125 m 8 Y s 3 lw 418 1119 m21 6 lw 423 1098 m 7 Y s 423 1116 m 8 Y s 3 lw 423 1111 m21 6
 lw 427 1095 m 7 Y s 427 1113 m 7 Y s 3 lw 427 1108 m21 6 lw 432 1088 m 6 Y s 432 1105 m 7 Y s 3 lw 432 1100 m21 6 lw 437 1100 m 6 Y s 437 1117 m 6 Y s 3 lw 437 1111 m21 6 lw 441 1073 m 5 Y s 441 1089 m 6 Y s 3 lw 441 1084 m21 6 lw 446 1071 m 5 Y s
 446 1087 m 5 Y s 3 lw 446 1082 m21 6 lw 451 1089 m 5 Y s 451 1106 m 4 Y s 3 lw 451 1100 m21 6 lw 455 1075 m 4 Y s 455 1091 m 4 Y s 3 lw 455 1085 m21 6 lw 460 1076 m 4 Y s 460 1091 m 5 Y s 3 lw 460 1086 m21 6 lw 465 1100 m 4 Y s 465 1116 m 3 Y s 3 lw
 465 1110 m21 6 lw 470 1081 m 3 Y s 470 1096 m 3 Y s 3 lw 470 1090 m21 6 lw 474 1082 m 3 Y s 474 1096 m 4 Y s 3 lw 474 1091 m21 6 lw 479 1088 m 3 Y s 479 1103 m 3 Y s 3 lw 479 1097 m21 6 lw 484 1104 m 3 Y s 484 1119 m 3 Y s 3 lw 484 1113 m21 6 lw 488
 1074 m 3 Y s 488 1088 m 3 Y s 3 lw 488 1083 m21 6 lw 493 1074 m 3 Y s 493 1088 m 3 Y s 3 lw 493 1083 m21 6 lw 498 1088 m 2 Y s 498 1102 m 2 Y s 3 lw 498 1096 m21 6 lw 502 1089 m 3 Y s 502 1103 m 2 Y s 3 lw 502 1097 m21 6 lw 507 1068 m 2 Y s 507 1081
 m 2 Y s 3 lw 507 1076 m21 6 lw 512 1081 m 2 Y s 512 1095 m 2 Y s 3 lw 512 1089 m21 6 lw 517 1081 m 2 Y s 517 1094 m 2 Y s 3 lw 517 1088 m21 6 lw 521 1078 m 2 Y s 521 1092 m 1 Y s 3 lw 521 1086 m21 6 lw 526 1089 m 2 Y s 526 1102 m 2 Y s 3 lw 526 1097
 m21 6 lw 531 1073 m 2 Y s 531 1086 m 2 Y s 3 lw 531 1081 m21 6 lw 535 1096 m 2 Y s 535 1109 m 2 Y s 3 lw 535 1104 m21 6 lw 540 1073 m 2 Y s 540 1086 m 2 Y s 3 lw 540 1080 m21 6 lw 545 1080 m 1 Y s 545 1092 m 2 Y s 3 lw 545 1087 m21 6 lw 550 1085 m 2
 Y s 550 1098 m 1 Y s 3 lw 550 1092 m21 6 lw 554 1077 m 2 Y s 554 1090 m 1 Y s 3 lw 554 1084 m21 6 lw 559 1095 m 1 Y s 559 1107 m 2 Y s 3 lw 559 1102 m21 6 lw 564 1088 m 1 Y s 564 1100 m 2 Y s 3 lw 564 1095 m21 6 lw 568 1097 m 1 Y s 568 1109 m 2 Y s
 3 lw 568 1104 m21 6 lw 573 1100 m 1 Y s 573 1112 m 1 Y s 3 lw 573 1107 m21 6 lw 578 1085 m 1 Y s 578 1097 m 1 Y s 3 lw 578 1092 m21 6 lw 582 1086 m 1 Y s 582 1099 m s 3 lw 582 1093 m21 6 lw 587 1079 m s 587 1091 m s 3 lw 587 1085 m21 6 lw 592 1085 m
 s 592 1097 m s 3 lw 592 1091 m21 6 lw 597 1075 m 1 Y s 597 1087 m 1 Y s 3 lw 597 1082 m21 6 lw 601 1096 m 1 Y s 601 1108 m 1 Y s 3 lw 601 1103 m21 6 lw 606 1087 m 1 Y s 606 1099 m s 3 lw 606 1093 m21 6 lw 611 1091 m s 611 1103 m s 3 lw 611 1097 m21
 6 lw 615 1090 m s 615 1102 m s 3 lw 615 1096 m21 6 lw 620 1088 m 1 Y s 620 1100 m s 3 lw 620 1094 m21 6 lw 625 1093 m 1 Y s 625 1105 m s 3 lw 625 1099 m21 6 lw 630 1090 m 1 Y s 630 1102 m s 3 lw 630 1096 m21 6 lw 634 1093 m s 634 1105 m s 3 lw 634
 1099 m21 6 lw 639 1093 m s 639 1105 m s 3 lw 639 1099 m21 6 lw 644 1086 m 1 Y s 644 1098 m s 3 lw 644 1092 m21 6 lw 648 1089 m s 648 1101 m s 3 lw 648 1095 m21 6 lw 653 1092 m s 653 1103 m s 3 lw 653 1098 m21 6 lw 658 1091 m s 658 1103 m s 3 lw 658
 1097 m21 6 lw 3 lw 662 1093 m21 6 lw 3 lw 667 1093 m21 6 lw 3 lw 672 1093 m21 6 lw 3 lw 677 1104 m21 6 lw 3 lw 681 1110 m21 6 lw 3 lw 686 1101 m21 6 lw 3 lw 691 1099 m21 6 lw 3 lw 695 1091 m21 6 lw 3 lw 700 1102 m21 6 lw 3 lw 705 1097 m21 6 lw 3 lw
 710 1091 m21 6 lw 3 lw 714 1109 m21 6 lw 3 lw 719 1107 m21 6 lw 3 lw 724 1088 m21 6 lw 3 lw 728 1091 m21 6 lw 3 lw 733 1102 m21 6 lw 3 lw 738 1100 m21 6 lw 3 lw 742 1101 m21 6 lw 3 lw 747 1101 m21 6 lw 3 lw 752 1103 m21 6 lw 3 lw 757 1104 m21 6 lw 3
 lw 761 1103 m21 6 lw 3 lw 766 1110 m21 6 lw 3 lw 771 1105 m21 6 lw 3 lw 775 1103 m21 6 lw 3 lw 780 1102 m21 6 lw 3 lw 785 1105 m21 6 lw 3 lw 790 1105 m21 6 lw 3 lw 794 1106 m21 6 lw 3 lw 799 1093 m21 6 lw 3 lw 804 1100 m21 6 lw 3 lw 808 1101 m21 6
 lw 3 lw 813 1102 m21 6 lw 3 lw 818 1103 m21 6 lw 3 lw 822 1101 m21 6 lw 3 lw 827 1107 m21 6 lw 3 lw 832 1106 m21 6 lw 3 lw 837 1093 m21 6 lw 3 lw 841 1096 m21 6 lw 3 lw 846 1094 m21 6 lw 3 lw 851 1098 m21 6 lw 3 lw 855 1101 m21 6 lw 3 lw 860 1102
 m21 6 lw 3 lw 865 1102 m21 6 lw 3 lw 870 1097 m21 6 lw 3 lw 874 1095 m21 6 lw 3 lw 879 1101 m21 6 lw 3 lw 884 1096 m21 6 lw 3 lw 888 1104 m21 6 lw 3 lw 893 1108 m21 6 lw 3 lw 898 1095 m21 6 lw 3 lw 902 1099 m21 6 lw 3 lw 907 1102 m21 6 lw 3 lw 912
 1104 m21 6 lw 3 lw 917 1094 m21 6 lw 3 lw 921 1108 m21 6 lw 3 lw 926 1090 m21 6 lw 3 lw 931 1095 m21 6 lw 3 lw 935 1107 m21 6 lw 3 lw 940 1104 m21 6 lw 3 lw 945 1100 m21 6 lw 3 lw 950 1105 m21 6 lw 3 lw 954 1105 m21 6 lw 3 lw 959 1095 m21 6 lw 3 lw
 964 1105 m21 6 lw 3 lw 968 1109 m21 6 lw 3 lw 973 1104 m21 6 lw 3 lw 978 1100 m21 6 lw 3 lw 982 1109 m21 6 lw 3 lw 987 1108 m21 6 lw 3 lw 992 1106 m21 6 lw 3 lw 997 1107 m21 6 lw 3 lw 1001 1104 m21 6 lw 3 lw 1006 1108 m21 6 lw 3 lw 1011 1102 m21 6
 lw 3 lw 1015 1106 m21 6 lw 3 lw 1020 1104 m21 6 lw 3 lw 1025 1114 m21 6 lw 3 lw 1030 1108 m21 6 lw 3 lw 1034 1100 m21 6 lw 3 lw 1039 1108 m21 6 lw 3 lw 1044 1116 m21 6 lw 3 lw 1048 1112 m21 6 lw 3 lw 1053 1113 m21 6 lw 3 lw 1058 1109 m21 6 lw 3 lw
 1062 1109 m21 6 lw 3 lw 1067 1107 m21 6 lw 3 lw 1072 1102 m21 6 lw 3 lw 1077 1119 m21 6 lw 3 lw 1081 1107 m21 6 lw 3 lw 1086 1120 m21 6 lw 3 lw 1091 1114 m21 6 lw 3 lw 1095 1108 m21 6 lw 3 lw 1100 1118 m21 6 lw 3 lw 1105 1108 m21 6 lw 1110 1114 m s
 1110 1126 m s 3 lw 1110 1120 m21 6 lw 1114 1107 m s 1114 1118 m s 3 lw 1114 1112 m21 6 lw 1119 1104 m s 1119 1115 m s 3 lw 1119 1110 m21 6 lw 1124 1102 m s 1124 1113 m s 3 lw 1124 1107 m21 6 lw 1128 1109 m s 1128 1121 m s 3 lw 1128 1115 m21 6 lw
 1133 1112 m s 1133 1124 m s 3 lw 1133 1118 m21 6 lw 1138 1104 m s 1138 1115 m 1 Y s 3 lw 1138 1110 m21 6 lw 1142 1119 m 1 Y s 1142 1131 m s 3 lw 1142 1125 m21 6 lw 1147 1113 m 1 Y s 1147 1125 m s 3 lw 1147 1119 m21 6 lw 1152 1109 m 1 Y s 1152 1121 m
 s 3 lw 1152 1115 m21 6 lw 1157 1110 m s 1157 1122 m s 3 lw 1157 1116 m21 6 lw 1161 1111 m 1 Y s 1161 1123 m s 3 lw 1161 1117 m21 6 lw 1166 1104 m 1 Y s 1166 1116 m s 3 lw 1166 1110 m21 6 lw 1171 1103 m s 1171 1114 m 1 Y s 3 lw 1171 1109 m21 6 lw
 1175 1113 m s 1175 1125 m s 3 lw 1175 1119 m21 6 lw 1180 1122 m s 1180 1134 m s 3 lw 1180 1128 m21 6 lw 1185 1115 m 1 Y s 1185 1127 m 1 Y s 3 lw 1185 1121 m21 6 lw 1190 1115 m 1 Y s 1190 1127 m 1 Y s 3 lw 1190 1121 m21 6 lw 1194 1113 m s 1194 1125 m
 s 3 lw 1194 1119 m21 6 lw 1199 1112 m 1 Y s 1199 1124 m 1 Y s 3 lw 1199 1119 m21 6 lw 1204 1114 m s 1204 1126 m s 3 lw 1204 1120 m21 6 lw 1208 1116 m 1 Y s 1208 1128 m 1 Y s 3 lw 1208 1122 m21 6 lw 1213 1125 m s 1213 1137 m s 3 lw 1213 1131 m21 6 lw
 1218 1127 m 1 Y s 1218 1139 m 1 Y s 3 lw 1218 1134 m21 6 lw 1222 1125 m s 1222 1137 m 1 Y s 3 lw 1222 1131 m21 6 lw 1227 1099 m 1 Y s 1227 1111 m 1 Y s 3 lw 1227 1105 m21 6 lw 1232 1121 m 1 Y s 1232 1133 m 1 Y s 3 lw 1232 1128 m21 6 lw 1237 1124 m 1
 Y s 1237 1136 m 1 Y s 3 lw 1237 1130 m21 6 lw 1241 1105 m s 1241 1117 m 1 Y s 3 lw 1241 1111 m21 6 lw 1246 1128 m s 1246 1140 m 1 Y s 3 lw 1246 1134 m21 6 lw 1251 1131 m s 1251 1143 m 1 Y s 3 lw 1251 1137 m21 6 lw 1255 1108 m s 1255 1120 m 1 Y s 3
 lw 1255 1114 m21 6 lw 1260 1119 m 1 Y s 1260 1131 m 1 Y s 3 lw 1260 1126 m21 6 lw 1265 1124 m s 1265 1136 m 1 Y s 3 lw 1265 1130 m21 6 lw 1269 1132 m 1 Y s 1269 1144 m 1 Y s 3 lw 1269 1138 m21 6 lw 1274 1128 m 1 Y s 1274 1140 m 1 Y s 3 lw 1274 1134
 m21 6 lw 1279 1114 m 1 Y s 1279 1126 m 1 Y s 3 lw 1279 1120 m21 6 lw 1284 1127 m 2 Y s 1284 1140 m 1 Y s 3 lw 1284 1134 m21 6 lw 1288 1119 m 2 Y s 1288 1132 m 1 Y s 3 lw 1288 1126 m21 6 lw 1293 1128 m 1 Y s 1293 1141 m 1 Y s 3 lw 1293 1135 m21 6 lw
 1298 1124 m 1 Y s 1298 1137 m 1 Y s 3 lw 1298 1131 m21 6 lw 1302 1117 m 1 Y s 1302 1129 m 1 Y s 3 lw 1302 1124 m21 6 lw 1307 1126 m 1 Y s 1307 1138 m 2 Y s 3 lw 1307 1133 m21 6 lw 1312 1116 m 1 Y s 1312 1128 m 2 Y s 3 lw 1312 1123 m21 6 lw 1317 1115
 m 1 Y s 1317 1128 m 1 Y s 3 lw 1317 1122 m21 6 lw 1321 1136 m 1 Y s 1321 1149 m 1 Y s 3 lw 1321 1143 m21 6 lw 1326 1135 m 2 Y s 1326 1148 m 1 Y s 3 lw 1326 1142 m21 6 lw 1331 1135 m 2 Y s 1331 1148 m 1 Y s 3 lw 1331 1142 m21 6 lw 1335 1129 m 1 Y s
 1335 1142 m 1 Y s 3 lw 1335 1136 m21 6 lw 1340 1136 m 2 Y s 1340 1149 m 2 Y s 3 lw 1340 1144 m21 6 lw 1345 1129 m 2 Y s 1345 1142 m 2 Y s 3 lw 1345 1137 m21 6 lw 1349 1124 m 2 Y s 1349 1137 m 2 Y s 3 lw 1349 1132 m21 6 lw 1354 1118 m 2 Y s 1354 1131
 m 2 Y s 3 lw 1354 1126 m21 6 lw 1359 1133 m 2 Y s 1359 1146 m 2 Y s 3 lw 1359 1140 m21 6 lw 1364 1127 m 1 Y s 1364 1140 m 1 Y s 3 lw 1364 1134 m21 6 lw 1368 1131 m 2 Y s 1368 1144 m 2 Y s 3 lw 1368 1139 m21 6 lw 1373 1153 m 2 Y s 1373 1166 m 2 Y s 3
 lw 1373 1160 m21 6 lw 1378 1135 m 1 Y s 1378 1148 m 2 Y s 3 lw 1378 1142 m21 6 lw 1382 1128 m 2 Y s 1382 1141 m 2 Y s 3 lw 1382 1135 m21 6 lw 1387 1137 m 2 Y s 1387 1151 m 1 Y s 3 lw 1387 1145 m21 6 lw 1392 1135 m 2 Y s 1392 1148 m 2 Y s 3 lw 1392
 1142 m21 6 lw 1397 1140 m 2 Y s 1397 1153 m 2 Y s 3 lw 1397 1148 m21 6 lw 1401 1138 m 2 Y s 1401 1151 m 2 Y s 3 lw 1401 1146 m21 6 lw 1406 1130 m 2 Y s 1406 1143 m 2 Y s 3 lw 1406 1138 m21 6 lw 1411 1130 m 2 Y s 1411 1143 m 2 Y s 3 lw 1411 1137 m21
 6 lw 1415 1145 m 2 Y s 1415 1159 m 2 Y s 3 lw 1415 1153 m21 6 lw 1420 1133 m 2 Y s 1420 1146 m 3 Y s 3 lw 1420 1141 m21 6 lw 1425 1125 m 2 Y s 1425 1139 m 2 Y s 3 lw 1425 1133 m21 6 lw 1429 1127 m 2 Y s 1429 1141 m 2 Y s 3 lw 1429 1135 m21 6 lw 1434
 1135 m 3 Y s 1434 1149 m 2 Y s 3 lw 1434 1143 m21 6 lw 1439 1134 m 2 Y s 1439 1147 m 3 Y s 3 lw 1439 1142 m21 6 lw 1444 1143 m 3 Y s 1444 1157 m 3 Y s 3 lw 1444 1152 m21 6 lw 1448 1150 m 3 Y s 1448 1164 m 3 Y s 3 lw 1448 1158 m21 6 lw 1453 1152 m 2
 Y s 1453 1166 m 2 Y s 3 lw 1453 1160 m21 6 lw 1458 1132 m 3 Y s 1458 1146 m 3 Y s 3 lw 1458 1140 m21 6 lw 1462 1138 m 3 Y s 1462 1152 m 3 Y s 3 lw 1462 1147 m21 6 lw 1467 1138 m 3 Y s 1467 1152 m 3 Y s 3 lw 1467 1147 m21 6 lw 1472 1138 m 3 Y s 1472
 1152 m 3 Y s 3 lw 1472 1147 m21 6 lw 1477 1143 m 3 Y s 1477 1157 m 3 Y s 3 lw 1477 1152 m21 6 lw 1481 1140 m 3 Y s 1481 1154 m 3 Y s 3 lw 1481 1148 m21 6 lw 1486 1135 m 3 Y s 1486 1149 m 3 Y s 3 lw 1486 1143 m21 6 lw 1491 1146 m 3 Y s 1491 1161 m 3
 Y s 3 lw 1491 1155 m21 6 lw 1495 1145 m 3 Y s 1495 1159 m 3 Y s 3 lw 1495 1153 m21 6 lw 1500 1151 m 3 Y s 1500 1166 m 3 Y s 3 lw 1500 1160 m21 6 lw 1505 1137 m 3 Y s 1505 1151 m 3 Y s 3 lw 1505 1145 m21 6 lw 1509 1148 m 3 Y s 1509 1162 m 3 Y s 3 lw
 1509 1156 m21 6 lw 1514 1137 m 3 Y s 1514 1151 m 3 Y s 3 lw 1514 1145 m21 6 lw 1519 1149 m 3 Y s 1519 1164 m 3 Y s 3 lw 1519 1158 m21 6 lw 1524 1140 m 3 Y s 1524 1154 m 3 Y s 3 lw 1524 1149 m21 6 lw 1528 1142 m 3 Y s 1528 1157 m 3 Y s 3 lw 1528 1151
 m21 6 lw 1533 1144 m 3 Y s 1533 1158 m 4 Y s 3 lw 1533 1153 m21 6 lw 1538 1151 m 4 Y s 1538 1166 m 3 Y s 3 lw 1538 1160 m21 6 lw 1542 1136 m 3 Y s 1542 1150 m 4 Y s 3 lw 1542 1145 m21 6 lw 1547 1141 m 3 Y s 1547 1155 m 4 Y s 3 lw 1547 1150 m21 6 lw
 1552 1149 m 3 Y s 1552 1164 m 3 Y s 3 lw 1552 1158 m21 6 lw 1557 1139 m 4 Y s 1557 1154 m 4 Y s 3 lw 1557 1148 m21 6 lw 1561 1133 m 3 Y s 1561 1148 m 3 Y s 3 lw 1561 1142 m21 6 lw 1566 1159 m 4 Y s 1566 1174 m 4 Y s 3 lw 1566 1168 m21 6 lw 1571 1154
 m 4 Y s 1571 1169 m 4 Y s 3 lw 1571 1164 m21 6 lw 1575 1146 m 4 Y s 1575 1161 m 4 Y s 3 lw 1575 1155 m21 6 lw 1580 1141 m 4 Y s 1580 1156 m 4 Y s 3 lw 1580 1150 m21 6 lw 1585 1144 m 4 Y s 1585 1160 m 4 Y s 3 lw 1585 1154 m21 6 lw 1589 1146 m 4 Y s
 1589 1162 m 4 Y s 3 lw 1589 1156 m21 6 lw 1594 1142 m 4 Y s 1594 1157 m 4 Y s 3 lw 1594 1152 m21 6 lw 1599 1147 m 4 Y s 1599 1162 m 4 Y s 3 lw 1599 1156 m21 6 lw 1604 1158 m 4 Y s 1604 1174 m 4 Y s 3 lw 1604 1168 m21 6 lw 1608 1146 m 4 Y s 1608 1161
 m 5 Y s 3 lw 1608 1156 m21 6 lw 1613 1150 m 4 Y s 1613 1165 m 4 Y s 3 lw 1613 1159 m21 6 lw 1618 1141 m 4 Y s 1618 1156 m 4 Y s 3 lw 1618 1150 m21 6 lw 1622 1154 m 4 Y s 1622 1170 m 4 Y s 3 lw 1622 1164 m21 6 lw 1627 1152 m 4 Y s 1627 1167 m 5 Y s 3
 lw 1627 1162 m21 6 lw 1632 1148 m 4 Y s 1632 1163 m 5 Y s 3 lw 1632 1158 m21 6 lw 1637 1145 m 4 Y s 1637 1161 m 4 Y s 3 lw 1637 1155 m21 6 lw 1641 1149 m 5 Y s 1641 1165 m 5 Y s 3 lw 1641 1160 m21 6 lw 1646 1154 m 5 Y s 1646 1170 m 5 Y s 3 lw 1646
 1164 m21 6 lw 1651 1144 m 5 Y s 1651 1160 m 5 Y s 3 lw 1651 1155 m21 6 lw 1655 1144 m 5 Y s 1655 1160 m 5 Y s 3 lw 1655 1155 m21 6 lw 1660 1150 m 4 Y s 1660 1166 m 5 Y s 3 lw 1660 1160 m21 6 lw 1665 1143 m 5 Y s 1665 1160 m 5 Y s 3 lw 1665 1154 m21
 6 lw 1669 1154 m 5 Y s 1669 1171 m 5 Y s 3 lw 1669 1165 m21 6 lw 1674 1150 m 5 Y s 1674 1166 m 5 Y s 3 lw 1674 1160 m21 6 lw 1679 1137 m 5 Y s 1679 1154 m 5 Y s 3 lw 1679 1148 m21 6 lw 1684 1156 m 5 Y s 1684 1173 m 5 Y s 3 lw 1684 1167 m21 6 lw 1688
 1161 m 6 Y s 1688 1178 m 5 Y s 3 lw 1688 1172 m21 6 lw 1693 1153 m 5 Y s 1693 1170 m 5 Y s 3 lw 1693 1164 m21 6 lw 1698 1157 m 5 Y s 1698 1173 m 6 Y s 3 lw 1698 1168 m21 6 lw 1702 1153 m 6 Y s 1702 1170 m 5 Y s 3 lw 1702 1164 m21 6 lw 1707 1161 m 5
 Y s 1707 1178 m 5 Y s 3 lw 1707 1172 m21 6 lw 1712 1143 m 6 Y s 1712 1160 m 6 Y s 3 lw 1712 1155 m21 6 lw 1717 1153 m 6 Y s 1717 1170 m 6 Y s 3 lw 1717 1165 m21 6 lw 1721 1146 m 6 Y s 1721 1163 m 6 Y s 3 lw 1721 1158 m21 6 lw 1726 1153 m 6 Y s 1726
 1170 m 6 Y s 3 lw 1726 1165 m21 6 lw 1731 1143 m 6 Y s 1731 1160 m 6 Y s 3 lw 1731 1154 m21 6 lw 1735 1154 m 6 Y s 1735 1171 m 6 Y s 3 lw 1735 1166 m21 6 lw 1740 1138 m 6 Y s 1740 1155 m 6 Y s 3 lw 1740 1150 m21 6 lw 1745 1160 m 6 Y s 1745 1178 m 6
 Y s 3 lw 1745 1172 m21 6 lw 1749 1147 m 6 Y s 1749 1164 m 6 Y s 3 lw 1749 1159 m21 6 lw 1754 1146 m 6 Y s 1754 1163 m 6 Y s 3 lw 1754 1157 m21 6 lw 1759 1131 m 6 Y s 1759 1148 m 6 Y s 3 lw 1759 1142 m21 6 lw 1764 1159 m 6 Y s 1764 1176 m 6 Y s 3 lw
 1764 1170 m21 6 lw 1768 1136 m 6 Y s 1768 1153 m 6 Y s 3 lw 1768 1147 m21 6 lw 1773 1157 m 6 Y s 1773 1175 m 6 Y s 3 lw 1773 1169 m21 6 lw 1778 1151 m 6 Y s 1778 1168 m 7 Y s 3 lw 1778 1163 m21 6 lw 1782 1159 m 7 Y s 1782 1177 m 7 Y s 3 lw 1782 1172
 m21 6 lw 1787 1150 m 6 Y s 1787 1168 m 6 Y s 3 lw 1787 1162 m21 6 lw 1792 1144 m 7 Y s 1792 1162 m 7 Y s 3 lw 1792 1157 m21 6 lw 1797 1124 m 7 Y s 1797 1142 m 7 Y s 3 lw 1797 1137 m21 6 lw 1801 1150 m 6 Y s 1801 1168 m 6 Y s 3 lw 1801 1162 m21 6 lw
 1806 1148 m 6 Y s 1806 1166 m 7 Y s 3 lw 1806 1160 m21 6 lw 1811 1161 m 7 Y s 1811 1179 m 7 Y s 3 lw 1811 1174 m21 6 lw 1815 1159 m 7 Y s 1815 1177 m 7 Y s 3 lw 1815 1171 m21 6 lw 1820 1160 m 7 Y s 1820 1179 m 7 Y s 3 lw 1820 1173 m21 6 lw 1825 1142
 m 7 Y s 1825 1160 m 7 Y s 3 lw 1825 1154 m21 6 lw 1829 1158 m 7 Y s 1829 1176 m 8 Y s 3 lw 1829 1171 m21 6 lw 1834 1161 m 7 Y s 1834 1179 m 7 Y s 3 lw 1834 1173 m21 6 lw 1839 1144 m 8 Y s 1839 1163 m 7 Y s 3 lw 1839 1157 m21 6 lw 1844 1168 m 7 Y s
 1844 1187 m 7 Y s 3 lw 1844 1181 m21 6 lw 1848 1154 m 7 Y s 1848 1173 m 7 Y s 3 lw 1848 1167 m21 6 lw 1853 1154 m 8 Y s 1853 1173 m 8 Y s 3 lw 1853 1167 m21 6 lw 1858 1172 m 8 Y s 1858 1191 m 8 Y s 3 lw 1858 1186 m21 6 lw 1862 1160 m 8 Y s 1862 1179
 m 8 Y s 3 lw 1862 1174 m21 6 lw 1867 1164 m 8 Y s 1867 1183 m 8 Y s 3 lw 1867 1177 m21 6 lw 1872 1163 m 8 Y s 1872 1182 m 8 Y s 3 lw 1872 1176 m21 6 lw 1877 1134 m 8 Y s 1877 1153 m 8 Y s 3 lw 1877 1148 m21 6 lw 1881 1158 m 8 Y s 1881 1178 m 8 Y s 3
 lw 1881 1172 m21 6 lw 1886 1157 m 8 Y s 1886 1177 m 8 Y s 3 lw 1886 1171 m21 6 lw 1891 1144 m 8 Y s 1891 1164 m 8 Y s 3 lw 1891 1158 m21 6 lw 1895 1140 m 8 Y s 1895 1159 m 8 Y s 3 lw 1895 1153 m21 6 lw 1900 1141 m 8 Y s 1900 1161 m 8 Y s 3 lw 1900
 1155 m21 6 lw 1905 1154 m 8 Y s 1905 1174 m 8 Y s 3 lw 1905 1168 m21 6 lw 1909 1164 m 9 Y s 1909 1184 m 8 Y s 3 lw 1909 1178 m21 6 lw 1914 1173 m 8 Y s 1914 1193 m 8 Y s 3 lw 1914 1187 m21 6 lw 1919 1149 m 9 Y s 1919 1169 m 9 Y s 3 lw 1919 1164 m21
 6 lw 1924 1145 m 9 Y s 1924 1165 m 9 Y s 3 lw 1924 1160 m21 6 lw 1928 1172 m 9 Y s 1928 1192 m 9 Y s 3 lw 1928 1187 m21 6 lw 1933 1150 m 9 Y s 1933 1170 m 9 Y s 3 lw 1933 1164 m21 6 lw 1938 1180 m 9 Y s 1938 1200 m 9 Y s 3 lw 1938 1194 m21 6 lw 1942
 1145 m 9 Y s 1942 1166 m 8 Y s 3 lw 1942 1160 m21 6 lw 1947 1140 m 9 Y s 1947 1160 m 9 Y s 3 lw 1947 1154 m21 6 lw 1952 1159 m 9 Y s 1952 1179 m 10 Y s 3 lw 1952 1174 m21 6 lw 1957 1116 m 8 Y s 1957 1136 m 9 Y s 3 lw 1957 1130 m21 6 lw 1961 1142 m 9
 Y s 1961 1162 m 9 Y s 3 lw 1961 1156 m21 6 lw 1966 1171 m 9 Y s 1966 1192 m 9 Y s 3 lw 1966 1186 m21 6 lw 1971 1139 m 9 Y s 1971 1159 m 9 Y s 3 lw 1971 1154 m21 6 lw 1975 1156 m 10 Y s 1975 1177 m 9 Y s 3 lw 1975 1171 m21 6 lw 1980 1150 m 10 Y s
 1980 1171 m 9 Y s 3 lw 1980 1165 m21 6 lw 1985 1158 m 9 Y s 1985 1179 m 9 Y s 3 lw 1985 1173 m21 6 lw 1989 1170 m 10 Y s 1989 1191 m 10 Y s 3 lw 1989 1186 m21 6 lw 1994 1182 m 10 Y s 1994 1203 m 10 Y s 3 lw 1994 1198 m21 6 lw 1999 1173 m 10 Y s 1999
 1194 m 11 Y s 3 lw 1999 1189 m21 6 lw 2004 1148 m 10 Y s 2004 1170 m 10 Y s 3 lw 2004 1164 m21 6 lw 2008 1161 m 10 Y s 2008 1182 m 10 Y s 3 lw 2008 1177 m21 6 lw 2013 1129 m 10 Y s 2013 1151 m 9 Y s 3 lw 2013 1145 m21 6 lw 2018 1161 m 10 Y s 2018
 1183 m 10 Y s 3 lw 2018 1177 m21 6 lw 2022 1146 m 10 Y s 2022 1168 m 10 Y s 3 lw 2022 1162 m21 6 lw 2027 1189 m 11 Y s 2027 1211 m 11 Y s 3 lw 2027 1206 m21 6 lw 2032 1155 m 10 Y s 2032 1177 m 10 Y s 3 lw 2032 1171 m21 6 lw 2036 1138 m 10 Y s 2036
 1160 m 10 Y s 3 lw 2036 1154 m21 6 lw 2041 1154 m 11 Y s 2041 1176 m 11 Y s 3 lw 2041 1170 m21 6 lw 2046 1152 m 11 Y s 2046 1174 m 11 Y s 3 lw 2046 1169 m21 6 lw 2051 1137 m 10 Y s 2051 1159 m 10 Y s 3 lw 2051 1153 m21 6 lw 2055 1172 m 11 Y s 2055
 1194 m 11 Y s 3 lw 2055 1188 m21 6 lw 2060 1166 m 11 Y s 2060 1188 m 11 Y s 3 lw 2060 1183 m21 6 lw 2065 1134 m 11 Y s 2065 1157 m 11 Y s 3 lw 2065 1151 m21 6 lw 2069 1138 m 11 Y s 2069 1161 m 11 Y s 3 lw 2069 1155 m21 6 lw 2074 1154 m 11 Y s 2074
 1176 m 12 Y s 3 lw 2074 1171 m21 6 lw 2079 1157 m 12 Y s 2079 1180 m 11 Y s 3 lw 2079 1174 m21 6 lw 2084 1159 m 11 Y s 2084 1182 m 11 Y s 3 lw 2084 1176 m21 6 lw 2088 1159 m 11 Y s 2088 1182 m 11 Y s 3 lw 2088 1176 m21 6 lw 2093 1182 m 12 Y s 2093
 1206 m 11 Y s 3 lw 2093 1200 m21 6 lw 2098 1139 m 12 Y s 2098 1162 m 12 Y s 3 lw 2098 1156 m21 6 lw 2102 1153 m 12 Y s 2102 1176 m 12 Y s 3 lw 2102 1171 m21 6 lw 2107 1160 m 12 Y s 2107 1183 m 12 Y s 3 lw 2107 1178 m21 6 lw 2112 1176 m 12 Y s 2112
 1199 m 12 Y s 3 lw 2112 1193 m21 6 lw 2116 1162 m 12 Y s 2116 1186 m 12 Y s 3 lw 2116 1180 m21 6 lw 2121 1162 m 12 Y s 2121 1186 m 12 Y s 3 lw 2121 1180 m21 6 lw 2126 1160 m 12 Y s 2126 1184 m 12 Y s 3 lw 2126 1178 m21 6 lw 2131 1129 m 12 Y s 2131
 1153 m 12 Y s 3 lw 2131 1147 m21 6 lw 2135 1149 m 13 Y s 2135 1173 m 12 Y s 3 lw 2135 1167 m21 6 lw 2140 1188 m 13 Y s 2140 1212 m 13 Y s 3 lw 2140 1206 m21 6 lw 2145 1154 m 12 Y s 2145 1178 m 13 Y s 3 lw 2145 1172 m21 6 lw 2149 1145 m 12 Y s 2149
 1169 m 12 Y s 3 lw 2149 1163 m21 6 lw 2154 1143 m 12 Y s 2154 1167 m 13 Y s 3 lw 2154 1161 m21 6 lw 2159 1141 m 13 Y s 2159 1165 m 13 Y s 3 lw 2159 1160 m21 6 lw 2164 1146 m 13 Y s 2164 1171 m 13 Y s 3 lw 2164 1165 m21 6 lw 2168 1150 m 14 Y s 2168
 1175 m 13 Y s 3 lw 2168 1169 m21 6 lw 2173 1146 m 13 Y s 2173 1170 m 14 Y s 3 lw 2173 1165 m21 6 lw 2178 1160 m 14 Y s 2178 1185 m 14 Y s 3 lw 2178 1179 m21 6 lw 2182 1168 m 14 Y s 2182 1193 m 14 Y s 3 lw 2182 1187 m21 6 lw 2187 1168 m 14 Y s 2187
 1193 m 14 Y s 3 lw 2187 1187 m21 6 lw 2192 1176 m 14 Y s 2192 1201 m 14 Y s 3 lw 2192 1196 m21 6 lw 2196 1143 m 14 Y s 2196 1168 m 14 Y s 3 lw 2196 1163 m21 6 lw 2201 1140 m 14 Y s 2201 1165 m 14 Y s 3 lw 2201 1160 m21 6 lw 2206 1169 m 14 Y s 2206
 1195 m 14 Y s 3 lw 2206 1189 m21 6 lw 2211 1136 m 14 Y s 2211 1161 m 14 Y s 3 lw 2211 1155 m21 6 lw 2215 1138 m 14 Y s 2215 1164 m 14 Y s 3 lw 2215 1158 m21 6 lw 2220 1169 m 14 Y s 2220 1195 m 14 Y s 3 lw 2220 1189 m21 6 lw black 340 223 m 1882 X s
 gsave  2268 2234 0 0 C 1923.86 58.2559 t 0 r /Helvetica findfont 83.8316 sf 0 0 m (Q [GeV]) show NC gr  340 279 m -56 Y s 387 251 m -28 Y s 434 251 m -28 Y s 481 251 m -28 Y s 528 279 m -56 Y s 575 251 m -28 Y s 622 251 m -28 Y s 670 251 m -28 Y s
 717 279 m -56 Y s 764 251 m -28 Y s 811 251 m -28 Y s 858 251 m -28 Y s 905 279 m -56 Y s 952 251 m -28 Y s 999 251 m -28 Y s 1046 251 m -28 Y s 1093 279 m -56 Y s 1140 251 m -28 Y s 1187 251 m -28 Y s 1234 251 m -28 Y s 1281 279 m -56 Y s 1328 251
 m -28 Y s 1375 251 m -28 Y s 1422 251 m -28 Y s 1469 279 m -56 Y s 1517 251 m -28 Y s 1564 251 m -28 Y s 1611 251 m -28 Y s 1658 279 m -56 Y s 1705 251 m -28 Y s 1752 251 m -28 Y s 1799 251 m -28 Y s 1846 279 m -56 Y s 1893 251 m -28 Y s 1940 251 m
 -28 Y s 1987 251 m -28 Y s 2034 279 m -56 Y s 2081 251 m -28 Y s 2128 251 m -28 Y s 2175 251 m -28 Y s 2222 279 m -56 Y s
 gsave  2268 2234 0 0 C 322.539 159.138 t 0 r /Helvetica findfont 62.5185 sf 0 0 m (0) show NC gr 
 gsave  2268 2234 0 0 C 484.518 159.138 t 0 r /Helvetica findfont 62.5185 sf 0 0 m (0.2) show NC gr 
 gsave  2268 2234 0 0 C 673.495 159.138 t 0 r /Helvetica findfont 62.5185 sf 0 0 m (0.4) show NC gr 
 gsave  2268 2234 0 0 C 861.05 159.138 t 0 r /Helvetica findfont 62.5185 sf 0 0 m (0.6) show NC gr 
 gsave  2268 2234 0 0 C 1050.03 159.138 t 0 r /Helvetica findfont 62.5185 sf 0 0 m (0.8) show NC gr 
 gsave  2268 2234 0 0 C 1268.84 159.138 t 0 r /Helvetica findfont 62.5185 sf 0 0 m (1) show NC gr 
 gsave  2268 2234 0 0 C 1426.56 159.138 t 0 r /Helvetica findfont 62.5185 sf 0 0 m (1.2) show NC gr 
 gsave  2268 2234 0 0 C 1614.11 159.138 t 0 r /Helvetica findfont 62.5185 sf 0 0 m (1.4) show NC gr 
 gsave  2268 2234 0 0 C 1803.09 159.138 t 0 r /Helvetica findfont 62.5185 sf 0 0 m (1.6) show NC gr 
 gsave  2268 2234 0 0 C 1990.65 159.138 t 0 r /Helvetica findfont 62.5185 sf 0 0 m (1.8) show NC gr 
 gsave  2268 2234 0 0 C 2205.2 159.138 t 0 r /Helvetica findfont 62.5185 sf 0 0 m (2) show NC gr  340 223 m 1966 Y s
 gsave  2268 2234 0 0 C 120.774 2105.74 t 90 r /Helvetica findfont 55.4141 sf 0 0 m (MC) show NC gr 
 gsave  2268 2234 0 0 C 160.559 1743.41 t 90 r /Helvetica findfont 83.8316 sf 0 0 m ( / \(dN/dQ\)) show NC gr 
 gsave  2268 2234 0 0 C 120.774 1636.85 t 90 r /Helvetica findfont 55.4141 sf 0 0 m (data) show NC gr 
 gsave  2268 2234 0 0 C 160.559 1321.41 t 90 r /Helvetica findfont 83.8316 sf 0 0 m ( \(dN/dQ\)) show NC gr  400 402 m -60 X s 370 491 m -30 X s 370 581 m -30 X s 370 670 m -30 X s 400 759 m -60 X s 370 849 m -30 X s 370 938 m -30 X s 370 1027 m -30
 X s 400 1117 m -60 X s 370 1206 m -30 X s 370 1295 m -30 X s 370 1385 m -30 X s 400 1474 m -60 X s 370 1564 m -30 X s 370 1653 m -30 X s 370 1742 m -30 X s 400 1832 m -60 X s 370 1921 m -30 X s 370 2010 m -30 X s 370 2100 m -30 X s 400 2189 m -60 X
 s 400 402 m -60 X s 370 313 m -30 X s 370 223 m -30 X s
 gsave  2268 2234 0 0 C 242.97 379.374 t 0 r /Helvetica findfont 62.5185 sf 0 0 m (0.6) show NC gr 
 gsave  2268 2234 0 0 C 242.97 737.434 t 0 r /Helvetica findfont 62.5185 sf 0 0 m (0.8) show NC gr 
 gsave  2268 2234 0 0 C 305.488 1092.65 t 0 r /Helvetica findfont 62.5185 sf 0 0 m (1) show NC gr 
 gsave  2268 2234 0 0 C 242.97 1450.71 t 0 r /Helvetica findfont 62.5185 sf 0 0 m (1.2) show NC gr 
 gsave  2268 2234 0 0 C 242.97 1808.77 t 0 r /Helvetica findfont 62.5185 sf 0 0 m (1.4) show NC gr 
 gsave  2268 2234 0 0 C 242.97 2166.83 t 0 r /Helvetica findfont 62.5185 sf 0 0 m (1.6) show NC gr 
 gsave  2268 2234 0 0 C 906.518 558.404 t 0 r /Helvetica-Bold findfont 72.4646 sf 0 0 m (VELO tracks multiplicity: < 10) show NC gr 
 gr  gr showpage
end
%%EOF
