%!PS-Adobe-2.0 EPSF-2.0
%%BoundingBox:  0 0 567 558
%%Title: ./RD_pion_0c65_h3401_2_h3401_2.eps: RD_pion_0c65_h3401_2_h3401_2
%%Creator: ROOT Version 6.06/02
%%CreationDate: Thu Feb  2 16:21:48 2017
%%DocumentNeededResources: ProcSet (FontSetInit)
%%EndComments
%%BeginProlog
80 dict begin
/s {stroke} def /l {lineto} def /m {moveto} def /t {translate} def
/r {rotate} def /rl {roll}  def /R {repeat} def
/d {rlineto} def /rm {rmoveto} def /gr {grestore} def /f {eofill} def
/c {setrgbcolor} def /black {0 setgray} def /sd {setdash} def
/cl {closepath} def /sf {scalefont setfont} def /lw {setlinewidth} def
/box {m dup 0 exch d exch 0 d 0 exch neg d cl} def
/NC{systemdict begin initclip end}def/C{NC box clip newpath}def
/bl {box s} def /bf {gsave box gsave f grestore 1 lw [] 0 sd s grestore} def /Y { 0 exch d} def /X { 0 d} def 
/K {{pop pop 0 moveto} exch kshow} bind def
/ita {/ang 15 def gsave [1 0 ang dup sin exch cos div 1 0 0] concat} def 
/mp {newpath /y exch def /x exch def} def
/side {[w .77 mul w .23 mul] .385 w mul sd w 0 l currentpoint t -144 r} def
/mr {mp x y w2 0 360 arc} def /m24 {mr s} def /m20 {mr f} def
/mb {mp x y w2 add m w2 neg 0 d 0 w neg d w 0 d 0 w d cl} def
/mt {mp x y w2 add m w2 neg w neg d w 0 d cl} def
/m21 {mb f} def /m25 {mb s} def /m22 {mt f} def /m26{mt s} def
/m23 {mp x y w2 sub m w2 w d w neg 0 d cl f} def
/m27 {mp x y w2 add m w3 neg w2 neg d w3 w2 neg d w3 w2 d cl s} def
/m28 {mp x w2 sub y w2 sub w3 add m w3 0 d  0 w3 neg d w3 0 d 0 w3 d w3 0 d  0 w3 d w3 neg 0 d 0 w3 d w3 neg 0 d 0 w3 neg d w3 neg 0 d cl s } def
/m29 {mp gsave x w2 sub y w2 add w3 sub m currentpoint t 4 {side} repeat cl fill gr} def
/m30 {mp gsave x w2 sub y w2 add w3 sub m currentpoint t 4 {side} repeat cl s gr} def
/m31 {mp x y w2 sub m 0 w d x w2 sub y m w 0 d x w2 sub y w2 add m w w neg d x w2 sub y w2 sub m w w d s} def
/m32 {mp x y w2 sub m w2 w d w neg 0 d cl s} def
/m33 {mp x y w2 add m w3 neg w2 neg d w3 w2 neg d w3 w2 d cl f} def
/m34 {mp x w2 sub y w2 sub w3 add m w3 0 d  0 w3 neg d w3 0 d 0 w3 d w3 0 d  0 w3 d w3 neg 0 d 0 w3 d w3 neg 0 d 0 w3 neg d w3 neg 0 d cl f } def
/m2 {mp x y w2 sub m 0 w d x w2 sub y m w 0 d s} def
/m5 {mp x w2 sub y w2 sub m w w d x w2 sub y w2 add m w w neg d s} def
%%IncludeResource: ProcSet (FontSetInit)
%%IncludeResource: font Times-Roman
%%IncludeResource: font Times-Italic
%%IncludeResource: font Times-Bold
%%IncludeResource: font Times-BoldItalic
%%IncludeResource: font Helvetica
%%IncludeResource: font Helvetica-Oblique
%%IncludeResource: font Helvetica-Bold
%%IncludeResource: font Helvetica-BoldOblique
%%IncludeResource: font Courier
%%IncludeResource: font Courier-Oblique
%%IncludeResource: font Courier-Bold
%%IncludeResource: font Courier-BoldOblique
%%IncludeResource: font Symbol
%%IncludeResource: font ZapfDingbats
/reEncode {exch findfont dup length dict begin {1 index /FID eq  {pop pop} {def} ifelse } forall /Encoding exch def currentdict end dup /FontName get exch definefont pop } def [/Times-Bold /Times-Italic /Times-BoldItalic /Helvetica /Helvetica-Oblique
 /Helvetica-Bold /Helvetica-BoldOblique /Courier /Courier-Oblique /Courier-Bold /Courier-BoldOblique /Times-Roman /AvantGarde-Book /AvantGarde-BookOblique /AvantGarde-Demi /AvantGarde-DemiOblique /Bookman-Demi /Bookman-DemiItalic /Bookman-Light
 /Bookman-LightItalic /Helvetica-Narrow /Helvetica-Narrow-Bold /Helvetica-Narrow-BoldOblique /Helvetica-Narrow-Oblique /NewCenturySchlbk-Roman /NewCenturySchlbk-Bold /NewCenturySchlbk-BoldItalic /NewCenturySchlbk-Italic /Palatino-Bold
 /Palatino-BoldItalic /Palatino-Italic /Palatino-Roman ] {ISOLatin1Encoding reEncode } forall
%%EndProlog
%%BeginSetup
%%EndSetup
newpath  gsave  .25 .25 scale  gsave  0 0 t black[  ] 0 sd 6 lw 1 1 1 c 2268 2234 0 0 bf black 3 lw 1 1 1 c 1882 1966 340 223 bf black 1882 1966 340 223 bl 1 1 1 c 1882 1966 340 223 bf black 1882 1966 340 223 bl 0 0 1 c 6 lw 1 1 1 c 0 0 1 c 390 1175
 m 15 Y s 390 1201 m 15 Y s 3 lw /w 14 def /w2 {w 2 div} def /w3 {w 3 div} def 390 1195 m21 6 lw 394 1183 m 13 Y s 394 1208 m 13 Y s 3 lw 394 1202 m21 6 lw 399 1136 m 11 Y s 399 1159 m 11 Y s 3 lw 399 1153 m21 6 lw 404 1172 m 10 Y s 404 1194 m 10 Y s
 3 lw 404 1188 m21 6 lw 408 1184 m 10 Y s 408 1205 m 10 Y s 3 lw 408 1200 m21 6 lw 413 1171 m 9 Y s 413 1191 m 9 Y s 3 lw 413 1186 m21 6 lw 418 1160 m 8 Y s 418 1179 m 8 Y s 3 lw 418 1174 m21 6 lw 423 1169 m 7 Y s 423 1188 m 7 Y s 3 lw 423 1182 m21 6
 lw 427 1165 m 7 Y s 427 1183 m 7 Y s 3 lw 427 1178 m21 6 lw 432 1168 m 6 Y s 432 1185 m 7 Y s 3 lw 432 1180 m21 6 lw 437 1131 m 6 Y s 437 1148 m 6 Y s 3 lw 437 1142 m21 6 lw 441 1156 m 5 Y s 441 1172 m 6 Y s 3 lw 441 1167 m21 6 lw 446 1131 m 5 Y s
 446 1147 m 5 Y s 3 lw 446 1141 m21 6 lw 451 1143 m 4 Y s 451 1158 m 5 Y s 3 lw 451 1153 m21 6 lw 455 1136 m 4 Y s 455 1151 m 5 Y s 3 lw 455 1146 m21 6 lw 460 1152 m 4 Y s 460 1168 m 4 Y s 3 lw 460 1162 m21 6 lw 465 1142 m 4 Y s 465 1157 m 4 Y s 3 lw
 465 1152 m21 6 lw 470 1144 m 3 Y s 470 1158 m 4 Y s 3 lw 470 1153 m21 6 lw 474 1142 m 3 Y s 474 1157 m 3 Y s 3 lw 474 1151 m21 6 lw 479 1154 m 3 Y s 479 1169 m 3 Y s 3 lw 479 1163 m21 6 lw 484 1157 m 3 Y s 484 1172 m 3 Y s 3 lw 484 1166 m21 6 lw 488
 1134 m 2 Y s 488 1147 m 3 Y s 3 lw 488 1142 m21 6 lw 493 1148 m 3 Y s 493 1162 m 3 Y s 3 lw 493 1157 m21 6 lw 498 1140 m 2 Y s 498 1154 m 2 Y s 3 lw 498 1148 m21 6 lw 502 1130 m 2 Y s 502 1144 m 2 Y s 3 lw 502 1138 m21 6 lw 507 1138 m 2 Y s 507 1151
 m 3 Y s 3 lw 507 1146 m21 6 lw 512 1148 m 2 Y s 512 1161 m 2 Y s 3 lw 512 1156 m21 6 lw 517 1132 m 1 Y s 517 1145 m 2 Y s 3 lw 517 1139 m21 6 lw 521 1134 m 1 Y s 521 1147 m 1 Y s 3 lw 521 1141 m21 6 lw 526 1127 m 2 Y s 526 1140 m 2 Y s 3 lw 526 1135
 m21 6 lw 531 1138 m 2 Y s 531 1151 m 2 Y s 3 lw 531 1145 m21 6 lw 535 1143 m 1 Y s 535 1156 m 1 Y s 3 lw 535 1150 m21 6 lw 540 1152 m 1 Y s 540 1165 m 1 Y s 3 lw 540 1159 m21 6 lw 545 1151 m 1 Y s 545 1163 m 2 Y s 3 lw 545 1158 m21 6 lw 550 1138 m 1
 Y s 550 1150 m 1 Y s 3 lw 550 1145 m21 6 lw 554 1138 m 1 Y s 554 1150 m 1 Y s 3 lw 554 1144 m21 6 lw 559 1141 m 1 Y s 559 1153 m 1 Y s 3 lw 559 1148 m21 6 lw 564 1145 m 1 Y s 564 1158 m s 3 lw 564 1152 m21 6 lw 568 1142 m 1 Y s 568 1154 m 1 Y s 3 lw
 568 1148 m21 6 lw 573 1142 m 1 Y s 573 1154 m 1 Y s 3 lw 573 1149 m21 6 lw 578 1150 m 1 Y s 578 1162 m 1 Y s 3 lw 578 1156 m21 6 lw 582 1139 m 1 Y s 582 1151 m 1 Y s 3 lw 582 1146 m21 6 lw 587 1138 m s 587 1149 m 1 Y s 3 lw 587 1144 m21 6 lw 592
 1147 m 1 Y s 592 1159 m 1 Y s 3 lw 592 1153 m21 6 lw 597 1150 m s 597 1162 m s 3 lw 597 1156 m21 6 lw 601 1141 m s 601 1153 m s 3 lw 601 1147 m21 6 lw 606 1144 m s 606 1156 m s 3 lw 606 1150 m21 6 lw 611 1139 m 1 Y s 611 1151 m s 3 lw 611 1145 m21 6
 lw 615 1150 m s 615 1162 m s 3 lw 615 1156 m21 6 lw 620 1145 m s 620 1157 m s 3 lw 620 1151 m21 6 lw 625 1151 m s 625 1162 m s 3 lw 625 1157 m21 6 lw 630 1148 m s 630 1160 m s 3 lw 630 1154 m21 6 lw 634 1134 m s 634 1146 m s 3 lw 634 1140 m21 6 lw
 639 1150 m s 639 1161 m s 3 lw 639 1156 m21 6 lw 3 lw 644 1150 m21 6 lw 3 lw 648 1157 m21 6 lw 3 lw 653 1159 m21 6 lw 3 lw 658 1160 m21 6 lw 3 lw 662 1152 m21 6 lw 3 lw 667 1160 m21 6 lw 3 lw 672 1150 m21 6 lw 3 lw 677 1149 m21 6 lw 3 lw 681 1154
 m21 6 lw 3 lw 686 1151 m21 6 lw 3 lw 691 1156 m21 6 lw 3 lw 695 1151 m21 6 lw 3 lw 700 1162 m21 6 lw 3 lw 705 1153 m21 6 lw 3 lw 710 1150 m21 6 lw 3 lw 714 1164 m21 6 lw 3 lw 719 1148 m21 6 lw 3 lw 724 1154 m21 6 lw 3 lw 728 1154 m21 6 lw 3 lw 733
 1146 m21 6 lw 3 lw 738 1147 m21 6 lw 3 lw 742 1147 m21 6 lw 3 lw 747 1138 m21 6 lw 3 lw 752 1146 m21 6 lw 3 lw 757 1149 m21 6 lw 3 lw 761 1144 m21 6 lw 3 lw 766 1146 m21 6 lw 3 lw 771 1139 m21 6 lw 3 lw 775 1143 m21 6 lw 3 lw 780 1152 m21 6 lw 3 lw
 785 1152 m21 6 lw 3 lw 790 1141 m21 6 lw 3 lw 794 1137 m21 6 lw 3 lw 799 1148 m21 6 lw 3 lw 804 1146 m21 6 lw 3 lw 808 1136 m21 6 lw 3 lw 813 1137 m21 6 lw 3 lw 818 1151 m21 6 lw 3 lw 822 1140 m21 6 lw 3 lw 827 1138 m21 6 lw 3 lw 832 1140 m21 6 lw 3
 lw 837 1136 m21 6 lw 3 lw 841 1139 m21 6 lw 3 lw 846 1137 m21 6 lw 3 lw 851 1133 m21 6 lw 3 lw 855 1138 m21 6 lw 3 lw 860 1136 m21 6 lw 3 lw 865 1129 m21 6 lw 3 lw 870 1122 m21 6 lw 3 lw 874 1130 m21 6 lw 3 lw 879 1133 m21 6 lw 3 lw 884 1131 m21 6
 lw 3 lw 888 1120 m21 6 lw 3 lw 893 1120 m21 6 lw 3 lw 898 1124 m21 6 lw 3 lw 902 1124 m21 6 lw 3 lw 907 1126 m21 6 lw 3 lw 912 1124 m21 6 lw 3 lw 917 1128 m21 6 lw 3 lw 921 1125 m21 6 lw 3 lw 926 1102 m21 6 lw 3 lw 931 1112 m21 6 lw 3 lw 935 1121
 m21 6 lw 3 lw 940 1118 m21 6 lw 3 lw 945 1129 m21 6 lw 3 lw 950 1117 m21 6 lw 3 lw 954 1122 m21 6 lw 3 lw 959 1118 m21 6 lw 3 lw 964 1102 m21 6 lw 3 lw 968 1110 m21 6 lw 3 lw 973 1111 m21 6 lw 3 lw 978 1111 m21 6 lw 3 lw 982 1118 m21 6 lw 3 lw 987
 1114 m21 6 lw 3 lw 992 1102 m21 6 lw 3 lw 997 1112 m21 6 lw 3 lw 1001 1111 m21 6 lw 3 lw 1006 1106 m21 6 lw 3 lw 1011 1109 m21 6 lw 3 lw 1015 1113 m21 6 lw 3 lw 1020 1108 m21 6 lw 3 lw 1025 1107 m21 6 lw 3 lw 1030 1104 m21 6 lw 3 lw 1034 1113 m21 6
 lw 3 lw 1039 1099 m21 6 lw 3 lw 1044 1102 m21 6 lw 3 lw 1048 1099 m21 6 lw 3 lw 1053 1109 m21 6 lw 3 lw 1058 1100 m21 6 lw 3 lw 1062 1099 m21 6 lw 3 lw 1067 1103 m21 6 lw 3 lw 1072 1103 m21 6 lw 3 lw 1077 1114 m21 6 lw 3 lw 1081 1100 m21 6 lw 3 lw
 1086 1095 m21 6 lw 3 lw 1091 1099 m21 6 lw 3 lw 1095 1102 m21 6 lw 3 lw 1100 1089 m21 6 lw 3 lw 1105 1098 m21 6 lw 3 lw 1110 1097 m21 6 lw 3 lw 1114 1098 m21 6 lw 3 lw 1119 1111 m21 6 lw 3 lw 1124 1088 m21 6 lw 3 lw 1128 1095 m21 6 lw 3 lw 1133 1099
 m21 6 lw 3 lw 1138 1099 m21 6 lw 3 lw 1142 1086 m21 6 lw 3 lw 1147 1093 m21 6 lw 3 lw 1152 1095 m21 6 lw 3 lw 1157 1101 m21 6 lw 3 lw 1161 1101 m21 6 lw 3 lw 1166 1092 m21 6 lw 3 lw 1171 1094 m21 6 lw 3 lw 1175 1096 m21 6 lw 3 lw 1180 1099 m21 6 lw
 3 lw 1185 1096 m21 6 lw 3 lw 1190 1099 m21 6 lw 3 lw 1194 1098 m21 6 lw 3 lw 1199 1092 m21 6 lw 3 lw 1204 1088 m21 6 lw 3 lw 1208 1089 m21 6 lw 3 lw 1213 1099 m21 6 lw 3 lw 1218 1095 m21 6 lw 3 lw 1222 1100 m21 6 lw 3 lw 1227 1093 m21 6 lw 3 lw 1232
 1089 m21 6 lw 3 lw 1237 1093 m21 6 lw 3 lw 1241 1101 m21 6 lw 3 lw 1246 1099 m21 6 lw 3 lw 1251 1097 m21 6 lw 3 lw 1255 1095 m21 6 lw 3 lw 1260 1091 m21 6 lw 3 lw 1265 1095 m21 6 lw 3 lw 1269 1086 m21 6 lw 1274 1086 m s 1274 1097 m s 3 lw 1274 1092
 m21 6 lw 1279 1082 m s 1279 1094 m s 3 lw 1279 1088 m21 6 lw 1284 1103 m s 1284 1115 m s 3 lw 1284 1109 m21 6 lw 1288 1097 m s 1288 1108 m s 3 lw 1288 1103 m21 6 lw 1293 1104 m 1 Y s 1293 1116 m s 3 lw 1293 1110 m21 6 lw 1298 1083 m 1 Y s 1298 1095
 m s 3 lw 1298 1089 m21 6 lw 1302 1091 m s 1302 1103 m s 3 lw 1302 1097 m21 6 lw 1307 1080 m s 1307 1092 m s 3 lw 1307 1086 m21 6 lw 1312 1078 m s 1312 1090 m s 3 lw 1312 1084 m21 6 lw 1317 1095 m s 1317 1106 m s 3 lw 1317 1100 m21 6 lw 1321 1084 m s
 1321 1096 m s 3 lw 1321 1090 m21 6 lw 1326 1088 m s 1326 1100 m s 3 lw 1326 1094 m21 6 lw 1331 1097 m s 1331 1109 m s 3 lw 1331 1103 m21 6 lw 1335 1075 m 1 Y s 1335 1087 m s 3 lw 1335 1081 m21 6 lw 1340 1086 m s 1340 1097 m 1 Y s 3 lw 1340 1092 m21
 6 lw 1345 1083 m s 1345 1095 m s 3 lw 1345 1089 m21 6 lw 1349 1080 m s 1349 1092 m s 3 lw 1349 1086 m21 6 lw 1354 1089 m s 1354 1101 m s 3 lw 1354 1095 m21 6 lw 1359 1085 m s 1359 1097 m s 3 lw 1359 1091 m21 6 lw 1364 1084 m 1 Y s 1364 1096 m 1 Y s
 3 lw 1364 1090 m21 6 lw 1368 1082 m s 1368 1094 m s 3 lw 1368 1088 m21 6 lw 1373 1092 m s 1373 1104 m s 3 lw 1373 1098 m21 6 lw 1378 1085 m s 1378 1096 m 1 Y s 3 lw 1378 1091 m21 6 lw 1382 1071 m s 1382 1083 m s 3 lw 1382 1077 m21 6 lw 1387 1084 m s
 1387 1096 m s 3 lw 1387 1090 m21 6 lw 1392 1078 m s 1392 1090 m s 3 lw 1392 1084 m21 6 lw 1397 1093 m s 1397 1105 m s 3 lw 1397 1099 m21 6 lw 1401 1080 m 1 Y s 1401 1092 m 1 Y s 3 lw 1401 1086 m21 6 lw 1406 1088 m s 1406 1100 m s 3 lw 1406 1094 m21
 6 lw 1411 1101 m s 1411 1113 m s 3 lw 1411 1107 m21 6 lw 1415 1096 m 1 Y s 1415 1108 m 1 Y s 3 lw 1415 1103 m21 6 lw 1420 1093 m 1 Y s 1420 1106 m s 3 lw 1420 1100 m21 6 lw 1425 1100 m 1 Y s 1425 1113 m s 3 lw 1425 1107 m21 6 lw 1429 1079 m 1 Y s
 1429 1091 m 1 Y s 3 lw 1429 1085 m21 6 lw 1434 1074 m 1 Y s 1434 1086 m 1 Y s 3 lw 1434 1080 m21 6 lw 1439 1079 m 1 Y s 1439 1092 m 1 Y s 3 lw 1439 1086 m21 6 lw 1444 1089 m 1 Y s 1444 1101 m 1 Y s 3 lw 1444 1095 m21 6 lw 1448 1090 m 1 Y s 1448 1103
 m 1 Y s 3 lw 1448 1097 m21 6 lw 1453 1096 m 1 Y s 1453 1109 m 1 Y s 3 lw 1453 1103 m21 6 lw 1458 1078 m 1 Y s 1458 1090 m 1 Y s 3 lw 1458 1085 m21 6 lw 1462 1080 m 1 Y s 1462 1092 m 1 Y s 3 lw 1462 1087 m21 6 lw 1467 1079 m 1 Y s 1467 1091 m 1 Y s 3
 lw 1467 1085 m21 6 lw 1472 1085 m 1 Y s 1472 1098 m 1 Y s 3 lw 1472 1092 m21 6 lw 1477 1092 m 1 Y s 1477 1104 m 1 Y s 3 lw 1477 1098 m21 6 lw 1481 1093 m 1 Y s 1481 1106 m 1 Y s 3 lw 1481 1100 m21 6 lw 1486 1082 m 1 Y s 1486 1094 m 1 Y s 3 lw 1486
 1089 m21 6 lw 1491 1074 m 1 Y s 1491 1086 m 1 Y s 3 lw 1491 1080 m21 6 lw 1495 1088 m 1 Y s 1495 1100 m 2 Y s 3 lw 1495 1095 m21 6 lw 1500 1092 m 1 Y s 1500 1105 m 1 Y s 3 lw 1500 1099 m21 6 lw 1505 1092 m 2 Y s 1505 1105 m 2 Y s 3 lw 1505 1099 m21
 6 lw 1509 1090 m 2 Y s 1509 1103 m 2 Y s 3 lw 1509 1098 m21 6 lw 1514 1097 m 1 Y s 1514 1110 m 1 Y s 3 lw 1514 1104 m21 6 lw 1519 1089 m 1 Y s 1519 1101 m 2 Y s 3 lw 1519 1096 m21 6 lw 1524 1084 m 1 Y s 1524 1097 m 1 Y s 3 lw 1524 1091 m21 6 lw 1528
 1076 m 1 Y s 1528 1088 m 2 Y s 3 lw 1528 1083 m21 6 lw 1533 1101 m 2 Y s 1533 1114 m 2 Y s 3 lw 1533 1108 m21 6 lw 1538 1081 m 2 Y s 1538 1094 m 2 Y s 3 lw 1538 1089 m21 6 lw 1542 1097 m 2 Y s 1542 1110 m 2 Y s 3 lw 1542 1105 m21 6 lw 1547 1093 m 2
 Y s 1547 1106 m 2 Y s 3 lw 1547 1100 m21 6 lw 1552 1095 m 2 Y s 1552 1108 m 2 Y s 3 lw 1552 1103 m21 6 lw 1557 1086 m 2 Y s 1557 1099 m 2 Y s 3 lw 1557 1094 m21 6 lw 1561 1088 m 2 Y s 1561 1102 m 1 Y s 3 lw 1561 1096 m21 6 lw 1566 1093 m 2 Y s 1566
 1106 m 2 Y s 3 lw 1566 1100 m21 6 lw 1571 1090 m 2 Y s 1571 1103 m 2 Y s 3 lw 1571 1097 m21 6 lw 1575 1096 m 2 Y s 1575 1109 m 2 Y s 3 lw 1575 1104 m21 6 lw 1580 1095 m 2 Y s 1580 1108 m 2 Y s 3 lw 1580 1103 m21 6 lw 1585 1088 m 1 Y s 1585 1101 m 2
 Y s 3 lw 1585 1095 m21 6 lw 1589 1106 m 2 Y s 1589 1120 m 2 Y s 3 lw 1589 1114 m21 6 lw 1594 1095 m 2 Y s 1594 1108 m 2 Y s 3 lw 1594 1103 m21 6 lw 1599 1091 m 2 Y s 1599 1104 m 2 Y s 3 lw 1599 1099 m21 6 lw 1604 1087 m 2 Y s 1604 1100 m 2 Y s 3 lw
 1604 1095 m21 6 lw 1608 1092 m 2 Y s 1608 1106 m 2 Y s 3 lw 1608 1100 m21 6 lw 1613 1088 m 2 Y s 1613 1102 m 2 Y s 3 lw 1613 1096 m21 6 lw 1618 1084 m 2 Y s 1618 1098 m 2 Y s 3 lw 1618 1092 m21 6 lw 1622 1093 m 2 Y s 1622 1106 m 2 Y s 3 lw 1622 1100
 m21 6 lw 1627 1078 m 2 Y s 1627 1091 m 2 Y s 3 lw 1627 1086 m21 6 lw 1632 1084 m 2 Y s 1632 1098 m 2 Y s 3 lw 1632 1092 m21 6 lw 1637 1086 m 2 Y s 1637 1099 m 3 Y s 3 lw 1637 1094 m21 6 lw 1641 1081 m 2 Y s 1641 1094 m 3 Y s 3 lw 1641 1089 m21 6 lw
 1646 1100 m 2 Y s 1646 1113 m 3 Y s 3 lw 1646 1108 m21 6 lw 1651 1113 m 3 Y s 1651 1127 m 2 Y s 3 lw 1651 1121 m21 6 lw 1655 1083 m 3 Y s 1655 1097 m 3 Y s 3 lw 1655 1091 m21 6 lw 1660 1089 m 2 Y s 1660 1103 m 2 Y s 3 lw 1660 1097 m21 6 lw 1665 1094
 m 3 Y s 1665 1108 m 3 Y s 3 lw 1665 1103 m21 6 lw 1669 1096 m 3 Y s 1669 1110 m 3 Y s 3 lw 1669 1104 m21 6 lw 1674 1101 m 2 Y s 1674 1115 m 2 Y s 3 lw 1674 1109 m21 6 lw 1679 1079 m 3 Y s 1679 1093 m 3 Y s 3 lw 1679 1088 m21 6 lw 1684 1084 m 3 Y s
 1684 1098 m 3 Y s 3 lw 1684 1093 m21 6 lw 1688 1085 m 3 Y s 1688 1099 m 3 Y s 3 lw 1688 1093 m21 6 lw 1693 1101 m 2 Y s 1693 1115 m 3 Y s 3 lw 1693 1109 m21 6 lw 1698 1085 m 3 Y s 1698 1099 m 3 Y s 3 lw 1698 1093 m21 6 lw 1702 1086 m 3 Y s 1702 1100
 m 3 Y s 3 lw 1702 1095 m21 6 lw 1707 1080 m 2 Y s 1707 1094 m 3 Y s 3 lw 1707 1088 m21 6 lw 1712 1084 m 3 Y s 1712 1099 m 2 Y s 3 lw 1712 1093 m21 6 lw 1717 1089 m 3 Y s 1717 1103 m 3 Y s 3 lw 1717 1097 m21 6 lw 1721 1104 m 3 Y s 1721 1118 m 4 Y s 3
 lw 1721 1113 m21 6 lw 1726 1106 m 3 Y s 1726 1120 m 4 Y s 3 lw 1726 1115 m21 6 lw 1731 1102 m 3 Y s 1731 1117 m 3 Y s 3 lw 1731 1111 m21 6 lw 1735 1081 m 3 Y s 1735 1096 m 3 Y s 3 lw 1735 1090 m21 6 lw 1740 1097 m 3 Y s 1740 1111 m 4 Y s 3 lw 1740
 1106 m21 6 lw 1745 1079 m 3 Y s 1745 1094 m 3 Y s 3 lw 1745 1088 m21 6 lw 1749 1089 m 3 Y s 1749 1103 m 3 Y s 3 lw 1749 1097 m21 6 lw 1754 1094 m 3 Y s 1754 1108 m 4 Y s 3 lw 1754 1103 m21 6 lw 1759 1097 m 4 Y s 1759 1112 m 3 Y s 3 lw 1759 1106 m21
 6 lw 1764 1097 m 3 Y s 1764 1111 m 4 Y s 3 lw 1764 1106 m21 6 lw 1768 1093 m 4 Y s 1768 1108 m 3 Y s 3 lw 1768 1102 m21 6 lw 1773 1082 m 3 Y s 1773 1096 m 4 Y s 3 lw 1773 1091 m21 6 lw 1778 1106 m 3 Y s 1778 1121 m 3 Y s 3 lw 1778 1115 m21 6 lw 1782
 1078 m 3 Y s 1782 1092 m 4 Y s 3 lw 1782 1087 m21 6 lw 1787 1100 m 3 Y s 1787 1115 m 3 Y s 3 lw 1787 1109 m21 6 lw 1792 1098 m 4 Y s 1792 1113 m 4 Y s 3 lw 1792 1108 m21 6 lw 1797 1098 m 4 Y s 1797 1113 m 4 Y s 3 lw 1797 1108 m21 6 lw 1801 1088 m 3
 Y s 1801 1103 m 3 Y s 3 lw 1801 1097 m21 6 lw 1806 1091 m 4 Y s 1806 1106 m 4 Y s 3 lw 1806 1100 m21 6 lw 1811 1089 m 3 Y s 1811 1104 m 4 Y s 3 lw 1811 1098 m21 6 lw 1815 1112 m 4 Y s 1815 1127 m 4 Y s 3 lw 1815 1121 m21 6 lw 1820 1091 m 4 Y s 1820
 1106 m 4 Y s 3 lw 1820 1101 m21 6 lw 1825 1083 m 4 Y s 1825 1098 m 4 Y s 3 lw 1825 1093 m21 6 lw 1829 1102 m 4 Y s 1829 1117 m 4 Y s 3 lw 1829 1112 m21 6 lw 1834 1104 m 4 Y s 1834 1120 m 4 Y s 3 lw 1834 1114 m21 6 lw 1839 1088 m 4 Y s 1839 1103 m 4
 Y s 3 lw 1839 1098 m21 6 lw 1844 1072 m 4 Y s 1844 1087 m 4 Y s 3 lw 1844 1081 m21 6 lw 1848 1083 m 5 Y s 1848 1099 m 4 Y s 3 lw 1848 1093 m21 6 lw 1853 1096 m 5 Y s 1853 1112 m 4 Y s 3 lw 1853 1106 m21 6 lw 1858 1090 m 5 Y s 1858 1106 m 4 Y s 3 lw
 1858 1100 m21 6 lw 1862 1102 m 4 Y s 1862 1118 m 4 Y s 3 lw 1862 1112 m21 6 lw 1867 1093 m 5 Y s 1867 1109 m 4 Y s 3 lw 1867 1103 m21 6 lw 1872 1095 m 4 Y s 1872 1111 m 4 Y s 3 lw 1872 1105 m21 6 lw 1877 1095 m 4 Y s 1877 1111 m 4 Y s 3 lw 1877 1105
 m21 6 lw 1881 1094 m 4 Y s 1881 1109 m 5 Y s 3 lw 1881 1104 m21 6 lw 1886 1101 m 5 Y s 1886 1117 m 5 Y s 3 lw 1886 1111 m21 6 lw 1891 1094 m 5 Y s 1891 1110 m 5 Y s 3 lw 1891 1105 m21 6 lw 1895 1089 m 5 Y s 1895 1105 m 5 Y s 3 lw 1895 1100 m21 6 lw
 1900 1107 m 4 Y s 1900 1123 m 4 Y s 3 lw 1900 1117 m21 6 lw 1905 1103 m 5 Y s 1905 1119 m 5 Y s 3 lw 1905 1113 m21 6 lw 1909 1109 m 5 Y s 1909 1126 m 5 Y s 3 lw 1909 1120 m21 6 lw 1914 1108 m 5 Y s 1914 1124 m 5 Y s 3 lw 1914 1119 m21 6 lw 1919 1103
 m 5 Y s 1919 1119 m 5 Y s 3 lw 1919 1114 m21 6 lw 1924 1086 m 5 Y s 1924 1102 m 5 Y s 3 lw 1924 1096 m21 6 lw 1928 1102 m 6 Y s 1928 1119 m 5 Y s 3 lw 1928 1113 m21 6 lw 1933 1096 m 5 Y s 1933 1113 m 5 Y s 3 lw 1933 1107 m21 6 lw 1938 1105 m 5 Y s
 1938 1122 m 5 Y s 3 lw 1938 1116 m21 6 lw 1942 1080 m 5 Y s 1942 1096 m 5 Y s 3 lw 1942 1090 m21 6 lw 1947 1100 m 5 Y s 1947 1116 m 5 Y s 3 lw 1947 1111 m21 6 lw 1952 1090 m 5 Y s 1952 1107 m 5 Y s 3 lw 1952 1101 m21 6 lw 1957 1113 m 5 Y s 1957 1129
 m 6 Y s 3 lw 1957 1124 m21 6 lw 1961 1106 m 5 Y s 1961 1123 m 5 Y s 3 lw 1961 1117 m21 6 lw 1966 1094 m 5 Y s 1966 1110 m 6 Y s 3 lw 1966 1105 m21 6 lw 1971 1096 m 5 Y s 1971 1112 m 6 Y s 3 lw 1971 1107 m21 6 lw 1975 1087 m 5 Y s 1975 1104 m 5 Y s 3
 lw 1975 1098 m21 6 lw 1980 1094 m 5 Y s 1980 1110 m 6 Y s 3 lw 1980 1105 m21 6 lw 1985 1105 m 6 Y s 1985 1122 m 6 Y s 3 lw 1985 1117 m21 6 lw 1989 1088 m 5 Y s 1989 1105 m 5 Y s 3 lw 1989 1099 m21 6 lw 1994 1084 m 6 Y s 1994 1101 m 6 Y s 3 lw 1994
 1095 m21 6 lw 1999 1101 m 6 Y s 1999 1118 m 6 Y s 3 lw 1999 1112 m21 6 lw 2004 1110 m 6 Y s 2004 1127 m 6 Y s 3 lw 2004 1121 m21 6 lw 2008 1107 m 5 Y s 2008 1124 m 6 Y s 3 lw 2008 1118 m21 6 lw 2013 1125 m 6 Y s 2013 1143 m 6 Y s 3 lw 2013 1137 m21
 6 lw 2018 1102 m 6 Y s 2018 1119 m 6 Y s 3 lw 2018 1113 m21 6 lw 2022 1115 m 6 Y s 2022 1133 m 6 Y s 3 lw 2022 1127 m21 6 lw 2027 1084 m 6 Y s 2027 1101 m 6 Y s 3 lw 2027 1096 m21 6 lw 2032 1074 m 6 Y s 2032 1092 m 6 Y s 3 lw 2032 1086 m21 6 lw 2036
 1070 m 6 Y s 2036 1087 m 6 Y s 3 lw 2036 1081 m21 6 lw 2041 1093 m 6 Y s 2041 1111 m 6 Y s 3 lw 2041 1105 m21 6 lw 2046 1085 m 7 Y s 2046 1103 m 6 Y s 3 lw 2046 1097 m21 6 lw 2051 1088 m 6 Y s 2051 1106 m 6 Y s 3 lw 2051 1100 m21 6 lw 2055 1114 m 7
 Y s 2055 1132 m 6 Y s 3 lw 2055 1126 m21 6 lw 2060 1079 m 6 Y s 2060 1097 m 6 Y s 3 lw 2060 1091 m21 6 lw 2065 1111 m 6 Y s 2065 1129 m 6 Y s 3 lw 2065 1123 m21 6 lw 2069 1083 m 7 Y s 2069 1101 m 6 Y s 3 lw 2069 1095 m21 6 lw 2074 1100 m 6 Y s 2074
 1118 m 6 Y s 3 lw 2074 1112 m21 6 lw 2079 1088 m 6 Y s 2079 1106 m 6 Y s 3 lw 2079 1100 m21 6 lw 2084 1078 m 7 Y s 2084 1096 m 7 Y s 3 lw 2084 1090 m21 6 lw 2088 1086 m 6 Y s 2088 1104 m 7 Y s 3 lw 2088 1098 m21 6 lw 2093 1081 m 6 Y s 2093 1099 m 7
 Y s 3 lw 2093 1093 m21 6 lw 2098 1102 m 7 Y s 2098 1120 m 7 Y s 3 lw 2098 1115 m21 6 lw 2102 1099 m 7 Y s 2102 1117 m 7 Y s 3 lw 2102 1112 m21 6 lw 2107 1069 m 7 Y s 2107 1087 m 7 Y s 3 lw 2107 1081 m21 6 lw 2112 1093 m 7 Y s 2112 1111 m 7 Y s 3 lw
 2112 1106 m21 6 lw 2116 1076 m 7 Y s 2116 1095 m 7 Y s 3 lw 2116 1089 m21 6 lw 2121 1100 m 7 Y s 2121 1119 m 7 Y s 3 lw 2121 1113 m21 6 lw 2126 1076 m 8 Y s 2126 1095 m 7 Y s 3 lw 2126 1089 m21 6 lw 2131 1111 m 8 Y s 2131 1130 m 8 Y s 3 lw 2131 1125
 m21 6 lw 2135 1103 m 7 Y s 2135 1121 m 8 Y s 3 lw 2135 1116 m21 6 lw 2140 1081 m 8 Y s 2140 1100 m 7 Y s 3 lw 2140 1094 m21 6 lw 2145 1090 m 7 Y s 2145 1109 m 7 Y s 3 lw 2145 1103 m21 6 lw 2149 1087 m 7 Y s 2149 1106 m 7 Y s 3 lw 2149 1100 m21 6 lw
 2154 1089 m 8 Y s 2154 1108 m 8 Y s 3 lw 2154 1103 m21 6 lw 2159 1083 m 8 Y s 2159 1102 m 8 Y s 3 lw 2159 1097 m21 6 lw 2164 1091 m 8 Y s 2164 1110 m 8 Y s 3 lw 2164 1105 m21 6 lw 2168 1111 m 7 Y s 2168 1130 m 8 Y s 3 lw 2168 1124 m21 6 lw 2173 1099
 m 8 Y s 2173 1118 m 8 Y s 3 lw 2173 1112 m21 6 lw 2178 1090 m 8 Y s 2178 1109 m 8 Y s 3 lw 2178 1104 m21 6 lw 2182 1108 m 9 Y s 2182 1128 m 8 Y s 3 lw 2182 1122 m21 6 lw 2187 1089 m 8 Y s 2187 1109 m 8 Y s 3 lw 2187 1103 m21 6 lw 2192 1105 m 8 Y s
 2192 1124 m 8 Y s 3 lw 2192 1118 m21 6 lw 2196 1101 m 8 Y s 2196 1121 m 8 Y s 3 lw 2196 1115 m21 6 lw 2201 1081 m 8 Y s 2201 1100 m 9 Y s 3 lw 2201 1095 m21 6 lw 2206 1118 m 9 Y s 2206 1138 m 9 Y s 3 lw 2206 1133 m21 6 lw 2211 1088 m 8 Y s 2211 1108
 m 8 Y s 3 lw 2211 1102 m21 6 lw 2215 1096 m 8 Y s 2215 1116 m 8 Y s 3 lw 2215 1110 m21 6 lw 2220 1095 m 8 Y s 2220 1115 m 8 Y s 3 lw 2220 1109 m21 6 lw black 340 223 m 1882 X s
 gsave  2268 2234 0 0 C 1923.86 58.2559 t 0 r /Helvetica findfont 83.8316 sf 0 0 m (Q [GeV]) show NC gr  340 279 m -56 Y s 387 251 m -28 Y s 434 251 m -28 Y s 481 251 m -28 Y s 528 279 m -56 Y s 575 251 m -28 Y s 622 251 m -28 Y s 670 251 m -28 Y s
 717 279 m -56 Y s 764 251 m -28 Y s 811 251 m -28 Y s 858 251 m -28 Y s 905 279 m -56 Y s 952 251 m -28 Y s 999 251 m -28 Y s 1046 251 m -28 Y s 1093 279 m -56 Y s 1140 251 m -28 Y s 1187 251 m -28 Y s 1234 251 m -28 Y s 1281 279 m -56 Y s 1328 251
 m -28 Y s 1375 251 m -28 Y s 1422 251 m -28 Y s 1469 279 m -56 Y s 1517 251 m -28 Y s 1564 251 m -28 Y s 1611 251 m -28 Y s 1658 279 m -56 Y s 1705 251 m -28 Y s 1752 251 m -28 Y s 1799 251 m -28 Y s 1846 279 m -56 Y s 1893 251 m -28 Y s 1940 251 m
 -28 Y s 1987 251 m -28 Y s 2034 279 m -56 Y s 2081 251 m -28 Y s 2128 251 m -28 Y s 2175 251 m -28 Y s 2222 279 m -56 Y s
 gsave  2268 2234 0 0 C 322.539 159.138 t 0 r /Helvetica findfont 62.5185 sf 0 0 m (0) show NC gr 
 gsave  2268 2234 0 0 C 484.518 159.138 t 0 r /Helvetica findfont 62.5185 sf 0 0 m (0.2) show NC gr 
 gsave  2268 2234 0 0 C 673.495 159.138 t 0 r /Helvetica findfont 62.5185 sf 0 0 m (0.4) show NC gr 
 gsave  2268 2234 0 0 C 861.05 159.138 t 0 r /Helvetica findfont 62.5185 sf 0 0 m (0.6) show NC gr 
 gsave  2268 2234 0 0 C 1050.03 159.138 t 0 r /Helvetica findfont 62.5185 sf 0 0 m (0.8) show NC gr 
 gsave  2268 2234 0 0 C 1268.84 159.138 t 0 r /Helvetica findfont 62.5185 sf 0 0 m (1) show NC gr 
 gsave  2268 2234 0 0 C 1426.56 159.138 t 0 r /Helvetica findfont 62.5185 sf 0 0 m (1.2) show NC gr 
 gsave  2268 2234 0 0 C 1614.11 159.138 t 0 r /Helvetica findfont 62.5185 sf 0 0 m (1.4) show NC gr 
 gsave  2268 2234 0 0 C 1803.09 159.138 t 0 r /Helvetica findfont 62.5185 sf 0 0 m (1.6) show NC gr 
 gsave  2268 2234 0 0 C 1990.65 159.138 t 0 r /Helvetica findfont 62.5185 sf 0 0 m (1.8) show NC gr 
 gsave  2268 2234 0 0 C 2205.2 159.138 t 0 r /Helvetica findfont 62.5185 sf 0 0 m (2) show NC gr  340 223 m 1966 Y s
 gsave  2268 2234 0 0 C 120.774 2105.74 t 90 r /Helvetica findfont 55.4141 sf 0 0 m (MC) show NC gr 
 gsave  2268 2234 0 0 C 160.559 1743.41 t 90 r /Helvetica findfont 83.8316 sf 0 0 m ( / \(dN/dQ\)) show NC gr 
 gsave  2268 2234 0 0 C 120.774 1636.85 t 90 r /Helvetica findfont 55.4141 sf 0 0 m (data) show NC gr 
 gsave  2268 2234 0 0 C 160.559 1321.41 t 90 r /Helvetica findfont 83.8316 sf 0 0 m ( \(dN/dQ\)) show NC gr  400 402 m -60 X s 370 491 m -30 X s 370 581 m -30 X s 370 670 m -30 X s 400 759 m -60 X s 370 849 m -30 X s 370 938 m -30 X s 370 1027 m -30
 X s 400 1117 m -60 X s 370 1206 m -30 X s 370 1295 m -30 X s 370 1385 m -30 X s 400 1474 m -60 X s 370 1564 m -30 X s 370 1653 m -30 X s 370 1742 m -30 X s 400 1832 m -60 X s 370 1921 m -30 X s 370 2010 m -30 X s 370 2100 m -30 X s 400 2189 m -60 X
 s 400 402 m -60 X s 370 313 m -30 X s 370 223 m -30 X s
 gsave  2268 2234 0 0 C 242.97 379.374 t 0 r /Helvetica findfont 62.5185 sf 0 0 m (0.6) show NC gr 
 gsave  2268 2234 0 0 C 242.97 737.434 t 0 r /Helvetica findfont 62.5185 sf 0 0 m (0.8) show NC gr 
 gsave  2268 2234 0 0 C 305.488 1092.65 t 0 r /Helvetica findfont 62.5185 sf 0 0 m (1) show NC gr 
 gsave  2268 2234 0 0 C 242.97 1450.71 t 0 r /Helvetica findfont 62.5185 sf 0 0 m (1.2) show NC gr 
 gsave  2268 2234 0 0 C 242.97 1808.77 t 0 r /Helvetica findfont 62.5185 sf 0 0 m (1.4) show NC gr 
 gsave  2268 2234 0 0 C 242.97 2166.83 t 0 r /Helvetica findfont 62.5185 sf 0 0 m (1.6) show NC gr 
 gsave  2268 2234 0 0 C 906.518 558.404 t 0 r /Helvetica-Bold findfont 72.4646 sf 0 0 m (VELO tracks multiplicity: 11 \255 20) show NC gr 
 gr  gr showpage
end
%%EOF
