%!PS-Adobe-2.0 EPSF-2.0
%%BoundingBox:  0 0 567 546
%%Title: plots/IPMCPions_lin.eps: cd1
%%Creator: ROOT Version 5.34/10
%%CreationDate: Thu Oct 20 16:23:05 2016
%%EndComments
%%BeginProlog
80 dict begin
/s {stroke} def /l {lineto} def /m {moveto} def /t {translate} def
/r {rotate} def /rl {roll}  def /R {repeat} def
/d {rlineto} def /rm {rmoveto} def /gr {grestore} def /f {eofill} def
/c {setrgbcolor} def /black {0 setgray} def /sd {setdash} def
/cl {closepath} def /sf {scalefont setfont} def /lw {setlinewidth} def
/box {m dup 0 exch d exch 0 d 0 exch neg d cl} def
/NC{systemdict begin initclip end}def/C{NC box clip newpath}def
/bl {box s} def /bf {box f} def /Y { 0 exch d} def /X { 0 d} def 
/K {{pop pop 0 moveto} exch kshow} bind def
/ita {/ang 15 def gsave [1 0 ang dup sin exch cos div 1 0 0] concat} def 
/mp {newpath /y exch def /x exch def} def
/side {[w .77 mul w .23 mul] .385 w mul sd w 0 l currentpoint t -144 r} def
/mr {mp x y w2 0 360 arc} def /m24 {mr s} def /m20 {mr f} def
/mb {mp x y w2 add m w2 neg 0 d 0 w neg d w 0 d 0 w d cl} def
/mt {mp x y w2 add m w2 neg w neg d w 0 d cl} def
/m21 {mb f} def /m25 {mb s} def /m22 {mt f} def /m26{mt s} def
/m23 {mp x y w2 sub m w2 w d w neg 0 d cl f} def
/m27 {mp x y w2 add m w3 neg w2 neg d w3 w2 neg d w3 w2 d cl s} def
/m28 {mp x w2 sub y w2 sub w3 add m w3 0 d  0 w3 neg d w3 0 d 0 w3 d w3 0 d  0 w3 d w3 neg 0 d 0 w3 d w3 neg 0 d 0 w3 neg d w3 neg 0 d cl s } def
/m29 {mp gsave x w2 sub y w2 add w3 sub m currentpoint t 4 {side} repeat cl fill gr} def
/m30 {mp gsave x w2 sub y w2 add w3 sub m currentpoint t 4 {side} repeat cl s gr} def
/m31 {mp x y w2 sub m 0 w d x w2 sub y m w 0 d x w2 sub y w2 add m w w neg d x w2 sub y w2 sub m w w d s} def
/m32 {mp x y w2 sub m w2 w d w neg 0 d cl s} def
/m33 {mp x y w2 add m w3 neg w2 neg d w3 w2 neg d w3 w2 d cl f} def
/m34 {mp x w2 sub y w2 sub w3 add m w3 0 d  0 w3 neg d w3 0 d 0 w3 d w3 0 d  0 w3 d w3 neg 0 d 0 w3 d w3 neg 0 d 0 w3 neg d w3 neg 0 d cl f } def
/m2 {mp x y w2 sub m 0 w d x w2 sub y m w 0 d s} def
/m5 {mp x w2 sub y w2 sub m w w d x w2 sub y w2 add m w w neg d s} def
/reEncode {exch findfont dup length dict begin {1 index /FID eq  {pop pop} {def} ifelse } forall /Encoding exch def currentdict end dup /FontName get exch definefont pop } def [/Times-Bold /Times-Italic /Times-BoldItalic /Helvetica /Helvetica-Oblique
 /Helvetica-Bold /Helvetica-BoldOblique /Courier /Courier-Oblique /Courier-Bold /Courier-BoldOblique /Times-Roman /AvantGarde-Book /AvantGarde-BookOblique /AvantGarde-Demi /AvantGarde-DemiOblique /Bookman-Demi /Bookman-DemiItalic /Bookman-Light
 /Bookman-LightItalic /Helvetica-Narrow /Helvetica-Narrow-Bold /Helvetica-Narrow-BoldOblique /Helvetica-Narrow-Oblique /NewCenturySchlbk-Roman /NewCenturySchlbk-Bold /NewCenturySchlbk-BoldItalic /NewCenturySchlbk-Italic /Palatino-Bold
 /Palatino-BoldItalic /Palatino-Italic /Palatino-Roman ] {ISOLatin1Encoding reEncode } forall
%%EndProlog
%%BeginSetup
%%EndSetup
newpath  gsave  .25 .25 scale  gsave  0 0 t 1 0 0 c[  ] 0 sd 3 lw 1 1 1 c 2268 2184 0 0 bf black 1 1 1 c 1814 1748 227 218 bf black 1814 1748 227 218 bl 6 lw 1 1 1 c black 245 1306 m 11 Y s 245 1340 m 12 Y s 3 lw /w 26 def /w2 {w 2 div} def /w3 {w 3
 div} def 245 1329 m20 6 lw 281 1826 m 17 Y s 281 1866 m 16 Y s 3 lw 281 1854 m20 6 lw 317 1460 m 14 Y s 317 1497 m 13 Y s 3 lw 317 1485 m20 6 lw 354 1074 m 9 Y s 354 1106 m 9 Y s 3 lw 354 1095 m20 6 lw 390 792 m 5 Y s 390 820 m 6 Y s 3 lw 390 809
 m20 6 lw 426 609 m 2 Y s 426 634 m 3 Y s 3 lw 426 623 m20 6 lw 463 482 m s 463 505 m s 3 lw 463 494 m20 6 lw 3 lw 499 421 m20 6 lw 3 lw 535 358 m20 6 lw 3 lw 571 326 m20 6 lw 3 lw 608 296 m20 6 lw 3 lw 644 282 m20 6 lw 3 lw 680 257 m20 6 lw 3 lw 717
 249 m20 6 lw 3 lw 753 239 m20 6 lw 3 lw 789 237 m20 6 lw 3 lw 825 231 m20 6 lw 3 lw 862 228 m20 6 lw 3 lw 898 230 m20 6 lw 3 lw 934 228 m20 6 lw 3 lw 971 225 m20 6 lw 3 lw 1007 228 m20 6 lw 3 lw 1043 222 m20 6 lw 3 lw 1079 222 m20 6 lw 3 lw 1116 219
 m20 6 lw 3 lw 1152 221 m20 6 lw 3 lw 1188 221 m20 6 lw 3 lw 1225 222 m20 6 lw 3 lw 1261 220 m20 6 lw 3 lw 1297 219 m20 6 lw 3 lw 1333 220 m20 6 lw 3 lw 1370 219 m20 6 lw 3 lw 1406 220 m20 6 lw 3 lw 1479 220 m20 6 lw 3 lw 1515 219 m20 6 lw 3 lw 1624
 219 m20 6 lw 3 lw 1841 219 m20 6 lw 3 lw 1987 219 m20 6 lw 3 lw 227 218 m 1814 X s
 gsave  2268 2184 0 0 C 1769.28 72.293 t 0 r /Helvetica findfont 79.9028 sf 0 0 m (IP [mm]) show NC gr  227 271 m -53 Y s 263 245 m -27 Y s 299 245 m -27 Y s 336 245 m -27 Y s 372 245 m -27 Y s 408 271 m -53 Y s 444 245 m -27 Y s 481 245 m -27 Y s
 517 245 m -27 Y s 553 245 m -27 Y s 590 271 m -53 Y s 626 245 m -27 Y s 662 245 m -27 Y s 698 245 m -27 Y s 735 245 m -27 Y s 771 271 m -53 Y s 807 245 m -27 Y s 844 245 m -27 Y s 880 245 m -27 Y s 916 245 m -27 Y s 952 271 m -53 Y s 989 245 m -27 Y
 s 1025 245 m -27 Y s 1061 245 m -27 Y s 1098 245 m -27 Y s 1134 271 m -53 Y s 1170 245 m -27 Y s 1206 245 m -27 Y s 1243 245 m -27 Y s 1279 245 m -27 Y s 1315 271 m -53 Y s 1352 245 m -27 Y s 1388 245 m -27 Y s 1424 245 m -27 Y s 1460 245 m -27 Y s
 1497 271 m -53 Y s 1533 245 m -27 Y s 1569 245 m -27 Y s 1606 245 m -27 Y s 1642 245 m -27 Y s 1678 271 m -53 Y s 1714 245 m -27 Y s 1751 245 m -27 Y s 1787 245 m -27 Y s 1823 245 m -27 Y s 1860 271 m -53 Y s 1896 245 m -27 Y s 1932 245 m -27 Y s
 1968 245 m -27 Y s 2005 245 m -27 Y s 2041 271 m -53 Y s
 gsave  2268 2184 0 0 C 205.464 156.001 t 0 r /Helvetica findfont 60.8783 sf 0 0 m (0) show NC gr 
 gsave  2268 2184 0 0 C 369.075 156.001 t 0 r /Helvetica findfont 60.8783 sf 0 0 m (0.1) show NC gr 
 gsave  2268 2184 0 0 C 544.1 156.001 t 0 r /Helvetica findfont 60.8783 sf 0 0 m (0.2) show NC gr 
 gsave  2268 2184 0 0 C 726.735 156.001 t 0 r /Helvetica findfont 60.8783 sf 0 0 m (0.3) show NC gr 
 gsave  2268 2184 0 0 C 909.37 156.001 t 0 r /Helvetica findfont 60.8783 sf 0 0 m (0.4) show NC gr 
 gsave  2268 2184 0 0 C 1092 156.001 t 0 r /Helvetica findfont 60.8783 sf 0 0 m (0.5) show NC gr 
 gsave  2268 2184 0 0 C 1270.83 156.001 t 0 r /Helvetica findfont 60.8783 sf 0 0 m (0.6) show NC gr 
 gsave  2268 2184 0 0 C 1453.47 156.001 t 0 r /Helvetica findfont 60.8783 sf 0 0 m (0.7) show NC gr 
 gsave  2268 2184 0 0 C 1636.1 156.001 t 0 r /Helvetica findfont 60.8783 sf 0 0 m (0.8) show NC gr 
 gsave  2268 2184 0 0 C 1814.93 156.001 t 0 r /Helvetica findfont 60.8783 sf 0 0 m (0.9) show NC gr 
 gsave  2268 2184 0 0 C 2028.01 156.001 t 0 r /Helvetica findfont 60.8783 sf 0 0 m (1) show NC gr  227 218 m 1748 Y s
 gsave  2268 2184 0 0 C 79.9028 1681.76 t 90 r /Helvetica findfont 79.9028 sf 0 0 m (dN / dIP) show NC gr  281 218 m -54 X s 254 267 m -27 X s 254 315 m -27 X s 254 364 m -27 X s 254 412 m -27 X s 281 460 m -54 X s 254 509 m -27 X s 254 557 m -27 X s
 254 605 m -27 X s 254 654 m -27 X s 281 702 m -54 X s 254 751 m -27 X s 254 799 m -27 X s 254 847 m -27 X s 254 896 m -27 X s 281 944 m -54 X s 254 993 m -27 X s 254 1041 m -27 X s 254 1089 m -27 X s 254 1138 m -27 X s 281 1186 m -54 X s 254 1234 m
 -27 X s 254 1283 m -27 X s 254 1331 m -27 X s 254 1380 m -27 X s 281 1428 m -54 X s 254 1476 m -27 X s 254 1525 m -27 X s 254 1573 m -27 X s 254 1622 m -27 X s 281 1670 m -54 X s 254 1718 m -27 X s 254 1767 m -27 X s 254 1815 m -27 X s 254 1863 m
 -27 X s 281 1912 m -54 X s 281 1912 m -54 X s 254 1960 m -27 X s
 gsave  2268 2184 0 0 C 178.83 197.854 t 0 r /Helvetica findfont 60.8783 sf 0 0 m (0) show NC gr 
 gsave  2268 2184 0 0 C 114.147 437.563 t 0 r /Helvetica findfont 60.8783 sf 0 0 m (500) show NC gr 
 gsave  2268 2184 0 0 C 79.9028 681.076 t 0 r /Helvetica findfont 60.8783 sf 0 0 m (1000) show NC gr 
 gsave  2268 2184 0 0 C 79.9028 924.589 t 0 r /Helvetica findfont 60.8783 sf 0 0 m (1500) show NC gr 
 gsave  2268 2184 0 0 C 79.9028 1164.3 t 0 r /Helvetica findfont 60.8783 sf 0 0 m (2000) show NC gr 
 gsave  2268 2184 0 0 C 79.9028 1407.81 t 0 r /Helvetica findfont 60.8783 sf 0 0 m (2500) show NC gr 
 gsave  2268 2184 0 0 C 79.9028 1647.52 t 0 r /Helvetica findfont 60.8783 sf 0 0 m (3000) show NC gr 
 gsave  2268 2184 0 0 C 79.9028 1891.03 t 0 r /Helvetica findfont 60.8783 sf 0 0 m (3500) show NC gr  1 0 0 c 9 lw 1 1 1 c 1 0 0 c 3 lw 281 219 m20 9 lw 3 lw 317 221 m20 9 lw 3 lw 354 220 m20 9 lw 3 lw 390 220 m20 9 lw 3 lw 426 222 m20 9 lw 3 lw 463
 220 m20 9 lw 3 lw 499 221 m20 9 lw 3 lw 535 223 m20 9 lw 3 lw 571 221 m20 9 lw 3 lw 608 221 m20 9 lw 3 lw 644 223 m20 9 lw 3 lw 680 222 m20 9 lw 3 lw 717 223 m20 9 lw 3 lw 753 221 m20 9 lw 3 lw 789 220 m20 9 lw 3 lw 825 224 m20 9 lw 3 lw 862 222 m20
 9 lw 3 lw 898 223 m20 9 lw 3 lw 934 224 m20 9 lw 3 lw 971 224 m20 9 lw 3 lw 1007 222 m20 9 lw 3 lw 1043 223 m20 9 lw 3 lw 1079 221 m20 9 lw 3 lw 1116 222 m20 9 lw 3 lw 1152 222 m20 9 lw 3 lw 1188 222 m20 9 lw 3 lw 1225 222 m20 9 lw 3 lw 1261 221 m20
 9 lw 3 lw 1297 221 m20 9 lw 3 lw 1333 223 m20 9 lw 3 lw 1370 220 m20 9 lw 3 lw 1406 221 m20 9 lw 3 lw 1442 222 m20 9 lw 3 lw 1479 222 m20 9 lw 3 lw 1515 219 m20 9 lw 3 lw 1551 221 m20 9 lw 3 lw 1587 220 m20 9 lw 3 lw 1624 222 m20 9 lw 3 lw 1660 220
 m20 9 lw 3 lw 1696 220 m20 9 lw 3 lw 1733 220 m20 9 lw 3 lw 1769 221 m20 9 lw 3 lw 1805 220 m20 9 lw 3 lw 1841 221 m20 9 lw 3 lw 1878 222 m20 9 lw 3 lw 1914 220 m20 9 lw 3 lw 1950 220 m20 9 lw 3 lw 1987 219 m20 9 lw 3 lw 2023 220 m20 9 lw black
 gsave  2268 2184 0 0 C 791.418 1856.79 t 0 r /Helvetica-Bold findfont 72.293 sf 0 0 m (Pions) show NC gr 
 gr  gr showpage
end
%%EOF
