%!PS-Adobe-2.0 EPSF-2.0
%%BoundingBox:  0 0 567 546
%%Title: plots/IPMCPions_log.eps: cd1
%%Creator: ROOT Version 5.34/10
%%CreationDate: Thu Oct 20 16:25:29 2016
%%EndComments
%%BeginProlog
80 dict begin
/s {stroke} def /l {lineto} def /m {moveto} def /t {translate} def
/r {rotate} def /rl {roll}  def /R {repeat} def
/d {rlineto} def /rm {rmoveto} def /gr {grestore} def /f {eofill} def
/c {setrgbcolor} def /black {0 setgray} def /sd {setdash} def
/cl {closepath} def /sf {scalefont setfont} def /lw {setlinewidth} def
/box {m dup 0 exch d exch 0 d 0 exch neg d cl} def
/NC{systemdict begin initclip end}def/C{NC box clip newpath}def
/bl {box s} def /bf {box f} def /Y { 0 exch d} def /X { 0 d} def 
/K {{pop pop 0 moveto} exch kshow} bind def
/ita {/ang 15 def gsave [1 0 ang dup sin exch cos div 1 0 0] concat} def 
/mp {newpath /y exch def /x exch def} def
/side {[w .77 mul w .23 mul] .385 w mul sd w 0 l currentpoint t -144 r} def
/mr {mp x y w2 0 360 arc} def /m24 {mr s} def /m20 {mr f} def
/mb {mp x y w2 add m w2 neg 0 d 0 w neg d w 0 d 0 w d cl} def
/mt {mp x y w2 add m w2 neg w neg d w 0 d cl} def
/m21 {mb f} def /m25 {mb s} def /m22 {mt f} def /m26{mt s} def
/m23 {mp x y w2 sub m w2 w d w neg 0 d cl f} def
/m27 {mp x y w2 add m w3 neg w2 neg d w3 w2 neg d w3 w2 d cl s} def
/m28 {mp x w2 sub y w2 sub w3 add m w3 0 d  0 w3 neg d w3 0 d 0 w3 d w3 0 d  0 w3 d w3 neg 0 d 0 w3 d w3 neg 0 d 0 w3 neg d w3 neg 0 d cl s } def
/m29 {mp gsave x w2 sub y w2 add w3 sub m currentpoint t 4 {side} repeat cl fill gr} def
/m30 {mp gsave x w2 sub y w2 add w3 sub m currentpoint t 4 {side} repeat cl s gr} def
/m31 {mp x y w2 sub m 0 w d x w2 sub y m w 0 d x w2 sub y w2 add m w w neg d x w2 sub y w2 sub m w w d s} def
/m32 {mp x y w2 sub m w2 w d w neg 0 d cl s} def
/m33 {mp x y w2 add m w3 neg w2 neg d w3 w2 neg d w3 w2 d cl f} def
/m34 {mp x w2 sub y w2 sub w3 add m w3 0 d  0 w3 neg d w3 0 d 0 w3 d w3 0 d  0 w3 d w3 neg 0 d 0 w3 d w3 neg 0 d 0 w3 neg d w3 neg 0 d cl f } def
/m2 {mp x y w2 sub m 0 w d x w2 sub y m w 0 d s} def
/m5 {mp x w2 sub y w2 sub m w w d x w2 sub y w2 add m w w neg d s} def
/reEncode {exch findfont dup length dict begin {1 index /FID eq  {pop pop} {def} ifelse } forall /Encoding exch def currentdict end dup /FontName get exch definefont pop } def [/Times-Bold /Times-Italic /Times-BoldItalic /Helvetica /Helvetica-Oblique
 /Helvetica-Bold /Helvetica-BoldOblique /Courier /Courier-Oblique /Courier-Bold /Courier-BoldOblique /Times-Roman /AvantGarde-Book /AvantGarde-BookOblique /AvantGarde-Demi /AvantGarde-DemiOblique /Bookman-Demi /Bookman-DemiItalic /Bookman-Light
 /Bookman-LightItalic /Helvetica-Narrow /Helvetica-Narrow-Bold /Helvetica-Narrow-BoldOblique /Helvetica-Narrow-Oblique /NewCenturySchlbk-Roman /NewCenturySchlbk-Bold /NewCenturySchlbk-BoldItalic /NewCenturySchlbk-Italic /Palatino-Bold
 /Palatino-BoldItalic /Palatino-Italic /Palatino-Roman ] {ISOLatin1Encoding reEncode } forall
%%EndProlog
%%BeginSetup
%%EndSetup
newpath  gsave  .25 .25 scale  gsave  0 0 t 1 0 0 c[  ] 0 sd 3 lw 1 1 1 c 2268 2184 0 0 bf black 1 1 1 c 1814 1748 227 218 bf black 1814 1748 227 218 bl 6 lw 1 1 1 c black 3 lw /w 26 def /w2 {w 2 div} def /w3 {w 3 div} def 245 1783 m20 6 lw 3 lw 281
 1851 m20 6 lw 3 lw 317 1806 m20 6 lw 3 lw 354 1742 m20 6 lw 3 lw 390 1673 m20 6 lw 3 lw 426 1607 m20 6 lw 3 lw 463 1540 m20 6 lw 3 lw 499 1487 m20 6 lw 3 lw 535 1421 m20 6 lw 571 1364 m 1 Y s 3 lw 571 1377 m20 6 lw 608 1304 m 3 Y s 608 1330 m 2 Y s
 3 lw 608 1319 m20 6 lw 644 1268 m 4 Y s 644 1295 m 3 Y s 3 lw 644 1284 m20 6 lw 680 1177 m 9 Y s 680 1209 m 7 Y s 3 lw 680 1198 m20 6 lw 717 1132 m 12 Y s 717 1167 m 10 Y s 3 lw 717 1156 m20 6 lw 753 1056 m 18 Y s 753 1097 m 13 Y s 3 lw 753 1085 m20
 6 lw 789 1037 m 19 Y s 789 1079 m 15 Y s 3 lw 789 1068 m20 6 lw 825 963 m 27 Y s 825 1013 m 20 Y s 3 lw 825 1001 m20 6 lw 862 901 m 34 Y s 862 958 m 25 Y s 3 lw 862 947 m20 6 lw 898 939 m 30 Y s 898 991 m 22 Y s 3 lw 898 980 m20 6 lw 934 911 m 33 Y
 s 934 967 m 24 Y s 3 lw 934 956 m20 6 lw 971 824 m 45 Y s 971 892 m 31 Y s 3 lw 971 880 m20 6 lw 1007 901 m 34 Y s 1007 958 m 25 Y s 3 lw 1007 947 m20 6 lw 1043 720 m 64 Y s 1043 807 m 42 Y s 3 lw 1043 796 m20 6 lw 1079 690 m 71 Y s 1079 784 m 44 Y
 s 3 lw 1079 772 m20 6 lw 1116 218 m 203 Y s 1116 444 m 110 Y s 3 lw 1116 433 m20 6 lw 1152 610 m 92 Y s 1152 725 m 53 Y s 3 lw 1152 714 m20 6 lw 1188 610 m 92 Y s 1188 725 m 53 Y s 3 lw 1188 714 m20 6 lw 1225 690 m 71 Y s 1225 784 m 44 Y s 3 lw 1225
 772 m20 6 lw 1261 554 m 109 Y s 1261 686 m 59 Y s 3 lw 1261 675 m20 6 lw 1297 218 m 203 Y s 1297 444 m 110 Y s 3 lw 1297 433 m20 6 lw 1333 474 m 139 Y s 1333 636 m 68 Y s 3 lw 1333 624 m20 6 lw 1370 218 m 203 Y s 1370 444 m 110 Y s 3 lw 1370 433 m20
 6 lw 1406 474 m 139 Y s 1406 636 m 68 Y s 3 lw 1406 624 m20 6 lw 1479 474 m 139 Y s 1479 636 m 68 Y s 3 lw 1479 624 m20 6 lw 1515 218 m 203 Y s 1515 444 m 110 Y s 3 lw 1515 433 m20 6 lw 1624 218 m 203 Y s 1624 444 m 110 Y s 3 lw 1624 433 m20 6 lw
 1841 218 m 203 Y s 1841 444 m 110 Y s 3 lw 1841 433 m20 6 lw 1987 339 m 203 Y s 1987 565 m 82 Y s 3 lw 1987 554 m20 6 lw 3 lw 227 218 m 1814 X s
 gsave  2268 2184 0 0 C 1769.28 72.293 t 0 r /Helvetica findfont 79.9028 sf 0 0 m (IP [mm]) show NC gr  227 271 m -53 Y s 263 245 m -27 Y s 299 245 m -27 Y s 336 245 m -27 Y s 372 245 m -27 Y s 408 271 m -53 Y s 444 245 m -27 Y s 481 245 m -27 Y s
 517 245 m -27 Y s 553 245 m -27 Y s 590 271 m -53 Y s 626 245 m -27 Y s 662 245 m -27 Y s 698 245 m -27 Y s 735 245 m -27 Y s 771 271 m -53 Y s 807 245 m -27 Y s 844 245 m -27 Y s 880 245 m -27 Y s 916 245 m -27 Y s 952 271 m -53 Y s 989 245 m -27 Y
 s 1025 245 m -27 Y s 1061 245 m -27 Y s 1098 245 m -27 Y s 1134 271 m -53 Y s 1170 245 m -27 Y s 1206 245 m -27 Y s 1243 245 m -27 Y s 1279 245 m -27 Y s 1315 271 m -53 Y s 1352 245 m -27 Y s 1388 245 m -27 Y s 1424 245 m -27 Y s 1460 245 m -27 Y s
 1497 271 m -53 Y s 1533 245 m -27 Y s 1569 245 m -27 Y s 1606 245 m -27 Y s 1642 245 m -27 Y s 1678 271 m -53 Y s 1714 245 m -27 Y s 1751 245 m -27 Y s 1787 245 m -27 Y s 1823 245 m -27 Y s 1860 271 m -53 Y s 1896 245 m -27 Y s 1932 245 m -27 Y s
 1968 245 m -27 Y s 2005 245 m -27 Y s 2041 271 m -53 Y s
 gsave  2268 2184 0 0 C 205.464 156.001 t 0 r /Helvetica findfont 60.8783 sf 0 0 m (0) show NC gr 
 gsave  2268 2184 0 0 C 369.075 156.001 t 0 r /Helvetica findfont 60.8783 sf 0 0 m (0.1) show NC gr 
 gsave  2268 2184 0 0 C 544.1 156.001 t 0 r /Helvetica findfont 60.8783 sf 0 0 m (0.2) show NC gr 
 gsave  2268 2184 0 0 C 726.735 156.001 t 0 r /Helvetica findfont 60.8783 sf 0 0 m (0.3) show NC gr 
 gsave  2268 2184 0 0 C 909.37 156.001 t 0 r /Helvetica findfont 60.8783 sf 0 0 m (0.4) show NC gr 
 gsave  2268 2184 0 0 C 1092 156.001 t 0 r /Helvetica findfont 60.8783 sf 0 0 m (0.5) show NC gr 
 gsave  2268 2184 0 0 C 1270.83 156.001 t 0 r /Helvetica findfont 60.8783 sf 0 0 m (0.6) show NC gr 
 gsave  2268 2184 0 0 C 1453.47 156.001 t 0 r /Helvetica findfont 60.8783 sf 0 0 m (0.7) show NC gr 
 gsave  2268 2184 0 0 C 1636.1 156.001 t 0 r /Helvetica findfont 60.8783 sf 0 0 m (0.8) show NC gr 
 gsave  2268 2184 0 0 C 1814.93 156.001 t 0 r /Helvetica findfont 60.8783 sf 0 0 m (0.9) show NC gr 
 gsave  2268 2184 0 0 C 2028.01 156.001 t 0 r /Helvetica findfont 60.8783 sf 0 0 m (1) show NC gr  227 218 m 1748 Y s
 gsave  2268 2184 0 0 C 79.9028 1681.76 t 90 r /Helvetica findfont 79.9028 sf 0 0 m (dN / dIP) show NC gr  254 223 m -27 X s 254 273 m -27 X s 254 312 m -27 X s 254 344 m -27 X s 254 370 m -27 X s 254 394 m -27 X s 254 414 m -27 X s 281 433 m -54 X s
 gsave  2268 2184 0 0 C 209.991 406.861 t 0 r  -33 0 t /Helvetica findfont 60.8783 sf 0 0 m (1) show NC gr  254 554 m -27 X s 254 624 m -27 X s 254 675 m -27 X s 254 714 m -27 X s 254 745 m -27 X s 254 772 m -27 X s 254 796 m -27 X s 254 816 m -27 X
 s 281 835 m -54 X s
 gsave  2268 2184 0 0 C 209.991 808.768 t 0 r  -67 0 t /Helvetica findfont 60.8783 sf 0 0 m (10) show NC gr  254 956 m -27 X s 254 1026 m -27 X s 254 1077 m -27 X s 254 1116 m -27 X s 254 1147 m -27 X s 254 1174 m -27 X s 254 1198 m -27 X s 254 1218
 m -27 X s 281 1237 m -54 X s
 gsave  2268 2184 0 0 C 186.44 1236.59 t 0 r /Helvetica findfont 41.8538 sf 0 0 m (2) show NC gr 
 gsave  2268 2184 0 0 C 117.952 1206.15 t 0 r /Helvetica findfont 60.8783 sf 0 0 m (10) show NC gr  254 1358 m -27 X s 254 1428 m -27 X s 254 1479 m -27 X s 254 1517 m -27 X s 254 1549 m -27 X s 254 1576 m -27 X s 254 1600 m -27 X s 254 1620 m -27 X
 s 281 1638 m -54 X s
 gsave  2268 2184 0 0 C 186.44 1643.71 t 0 r /Helvetica findfont 41.8538 sf 0 0 m (3) show NC gr 
 gsave  2268 2184 0 0 C 117.952 1609.47 t 0 r /Helvetica findfont 60.8783 sf 0 0 m (10) show NC gr  254 1759 m -27 X s 254 1830 m -27 X s 254 1880 m -27 X s 254 1919 m -27 X s 254 1951 m -27 X s 1 0 0 c 9 lw 1 1 1 c 1 0 0 c 281 218 m 203 Y s 281 444
 m 110 Y s 3 lw 281 433 m20 9 lw 317 654 m 80 Y s 317 757 m 48 Y s 3 lw 317 745 m20 9 lw 354 474 m 139 Y s 354 636 m 68 Y s 3 lw 354 624 m20 9 lw 390 474 m 139 Y s 390 636 m 68 Y s 3 lw 390 624 m20 9 lw 426 690 m 71 Y s 426 784 m 44 Y s 3 lw 426 772
 m20 9 lw 463 474 m 139 Y s 463 636 m 68 Y s 3 lw 463 624 m20 9 lw 499 654 m 80 Y s 499 757 m 48 Y s 3 lw 499 745 m20 9 lw 535 745 m 60 Y s 535 828 m 38 Y s 3 lw 535 816 m20 9 lw 571 654 m 80 Y s 571 757 m 48 Y s 3 lw 571 745 m20 9 lw 608 654 m 80 Y
 s 608 757 m 48 Y s 3 lw 608 745 m20 9 lw 644 768 m 55 Y s 644 846 m 37 Y s 3 lw 644 835 m20 9 lw 680 690 m 71 Y s 680 784 m 44 Y s 3 lw 680 772 m20 9 lw 717 745 m 60 Y s 717 828 m 38 Y s 3 lw 717 816 m20 9 lw 753 654 m 80 Y s 753 757 m 48 Y s 3 lw
 753 745 m20 9 lw 789 554 m 109 Y s 789 686 m 59 Y s 3 lw 789 675 m20 9 lw 825 807 m 48 Y s 825 878 m 33 Y s 3 lw 825 866 m20 9 lw 862 690 m 71 Y s 862 784 m 44 Y s 3 lw 862 772 m20 9 lw 898 745 m 60 Y s 898 828 m 38 Y s 3 lw 898 816 m20 9 lw 934 807
 m 48 Y s 934 878 m 33 Y s 3 lw 934 866 m20 9 lw 971 789 m 51 Y s 971 863 m 34 Y s 3 lw 971 851 m20 9 lw 1007 720 m 64 Y s 1007 807 m 42 Y s 3 lw 1007 796 m20 9 lw 1043 745 m 60 Y s 1043 828 m 38 Y s 3 lw 1043 816 m20 9 lw 1079 654 m 80 Y s 1079 757
 m 48 Y s 3 lw 1079 745 m20 9 lw 1116 690 m 71 Y s 1116 784 m 44 Y s 3 lw 1116 772 m20 9 lw 1152 690 m 71 Y s 1152 784 m 44 Y s 3 lw 1152 772 m20 9 lw 1188 690 m 71 Y s 1188 784 m 44 Y s 3 lw 1188 772 m20 9 lw 1225 720 m 64 Y s 1225 807 m 42 Y s 3 lw
 1225 796 m20 9 lw 1261 610 m 92 Y s 1261 725 m 53 Y s 3 lw 1261 714 m20 9 lw 1297 610 m 92 Y s 1297 725 m 53 Y s 3 lw 1297 714 m20 9 lw 1333 745 m 60 Y s 1333 828 m 38 Y s 3 lw 1333 816 m20 9 lw 1370 554 m 109 Y s 1370 686 m 59 Y s 3 lw 1370 675 m20
 9 lw 1406 654 m 80 Y s 1406 757 m 48 Y s 3 lw 1406 745 m20 9 lw 1442 690 m 71 Y s 1442 784 m 44 Y s 3 lw 1442 772 m20 9 lw 1479 720 m 64 Y s 1479 807 m 42 Y s 3 lw 1479 796 m20 9 lw 1515 339 m 203 Y s 1515 565 m 82 Y s 3 lw 1515 554 m20 9 lw 1551
 610 m 92 Y s 1551 725 m 53 Y s 3 lw 1551 714 m20 9 lw 1587 554 m 109 Y s 1587 686 m 59 Y s 3 lw 1587 675 m20 9 lw 1624 720 m 64 Y s 1624 807 m 42 Y s 3 lw 1624 796 m20 9 lw 1660 554 m 109 Y s 1660 686 m 59 Y s 3 lw 1660 675 m20 9 lw 1696 474 m 139 Y
 s 1696 636 m 68 Y s 3 lw 1696 624 m20 9 lw 1733 474 m 139 Y s 1733 636 m 68 Y s 3 lw 1733 624 m20 9 lw 1769 654 m 80 Y s 1769 757 m 48 Y s 3 lw 1769 745 m20 9 lw 1805 554 m 109 Y s 1805 686 m 59 Y s 3 lw 1805 675 m20 9 lw 1841 610 m 92 Y s 1841 725
 m 53 Y s 3 lw 1841 714 m20 9 lw 1878 690 m 71 Y s 1878 784 m 44 Y s 3 lw 1878 772 m20 9 lw 1914 554 m 109 Y s 1914 686 m 59 Y s 3 lw 1914 675 m20 9 lw 1950 554 m 109 Y s 1950 686 m 59 Y s 3 lw 1950 675 m20 9 lw 1987 339 m 203 Y s 1987 565 m 82 Y s 3
 lw 1987 554 m20 9 lw 2023 554 m 109 Y s 2023 686 m 59 Y s 3 lw 2023 675 m20 9 lw black
 gsave  2268 2184 0 0 C 791.418 1856.79 t 0 r /Helvetica-Bold findfont 72.293 sf 0 0 m (Pions) show NC gr 
 gr  gr showpage
end
%%EOF
