%!PS-Adobe-2.0 EPSF-2.0
%%BoundingBox:  0 0 567 544
%%Title: lambda.eps: results
%%Creator: ROOT Version 6.06/02
%%CreationDate: Thu Feb 16 16:27:51 2017
%%DocumentNeededResources: ProcSet (FontSetInit)
%%EndComments
%%BeginProlog
80 dict begin
/s {stroke} def /l {lineto} def /m {moveto} def /t {translate} def
/r {rotate} def /rl {roll}  def /R {repeat} def
/d {rlineto} def /rm {rmoveto} def /gr {grestore} def /f {eofill} def
/c {setrgbcolor} def /black {0 setgray} def /sd {setdash} def
/cl {closepath} def /sf {scalefont setfont} def /lw {setlinewidth} def
/box {m dup 0 exch d exch 0 d 0 exch neg d cl} def
/NC{systemdict begin initclip end}def/C{NC box clip newpath}def
/bl {box s} def /bf {gsave box gsave f grestore 1 lw [] 0 sd s grestore} def /Y { 0 exch d} def /X { 0 d} def 
/K {{pop pop 0 moveto} exch kshow} bind def
/ita {/ang 15 def gsave [1 0 ang dup sin exch cos div 1 0 0] concat} def 
/mp {newpath /y exch def /x exch def} def
/side {[w .77 mul w .23 mul] .385 w mul sd w 0 l currentpoint t -144 r} def
/mr {mp x y w2 0 360 arc} def /m24 {mr s} def /m20 {mr f} def
/mb {mp x y w2 add m w2 neg 0 d 0 w neg d w 0 d 0 w d cl} def
/mt {mp x y w2 add m w2 neg w neg d w 0 d cl} def
/m21 {mb f} def /m25 {mb s} def /m22 {mt f} def /m26{mt s} def
/m23 {mp x y w2 sub m w2 w d w neg 0 d cl f} def
/m27 {mp x y w2 add m w3 neg w2 neg d w3 w2 neg d w3 w2 d cl s} def
/m28 {mp x w2 sub y w2 sub w3 add m w3 0 d  0 w3 neg d w3 0 d 0 w3 d w3 0 d  0 w3 d w3 neg 0 d 0 w3 d w3 neg 0 d 0 w3 neg d w3 neg 0 d cl s } def
/m29 {mp gsave x w2 sub y w2 add w3 sub m currentpoint t 4 {side} repeat cl fill gr} def
/m30 {mp gsave x w2 sub y w2 add w3 sub m currentpoint t 4 {side} repeat cl s gr} def
/m31 {mp x y w2 sub m 0 w d x w2 sub y m w 0 d x w2 sub y w2 add m w w neg d x w2 sub y w2 sub m w w d s} def
/m32 {mp x y w2 sub m w2 w d w neg 0 d cl s} def
/m33 {mp x y w2 add m w3 neg w2 neg d w3 w2 neg d w3 w2 d cl f} def
/m34 {mp x w2 sub y w2 sub w3 add m w3 0 d  0 w3 neg d w3 0 d 0 w3 d w3 0 d  0 w3 d w3 neg 0 d 0 w3 d w3 neg 0 d 0 w3 neg d w3 neg 0 d cl f } def
/m2 {mp x y w2 sub m 0 w d x w2 sub y m w 0 d s} def
/m5 {mp x w2 sub y w2 sub m w w d x w2 sub y w2 add m w w neg d s} def
%%IncludeResource: ProcSet (FontSetInit)
%%IncludeResource: font Times-Roman
%%IncludeResource: font Times-Italic
%%IncludeResource: font Times-Bold
%%IncludeResource: font Times-BoldItalic
%%IncludeResource: font Helvetica
%%IncludeResource: font Helvetica-Oblique
%%IncludeResource: font Helvetica-Bold
%%IncludeResource: font Helvetica-BoldOblique
%%IncludeResource: font Courier
%%IncludeResource: font Courier-Oblique
%%IncludeResource: font Courier-Bold
%%IncludeResource: font Courier-BoldOblique
%%IncludeResource: font Symbol
%%IncludeResource: font ZapfDingbats
/reEncode {exch findfont dup length dict begin {1 index /FID eq  {pop pop} {def} ifelse } forall /Encoding exch def currentdict end dup /FontName get exch definefont pop } def [/Times-Bold /Times-Italic /Times-BoldItalic /Helvetica /Helvetica-Oblique
 /Helvetica-Bold /Helvetica-BoldOblique /Courier /Courier-Oblique /Courier-Bold /Courier-BoldOblique /Times-Roman /AvantGarde-Book /AvantGarde-BookOblique /AvantGarde-Demi /AvantGarde-DemiOblique /Bookman-Demi /Bookman-DemiItalic /Bookman-Light
 /Bookman-LightItalic /Helvetica-Narrow /Helvetica-Narrow-Bold /Helvetica-Narrow-BoldOblique /Helvetica-Narrow-Oblique /NewCenturySchlbk-Roman /NewCenturySchlbk-Bold /NewCenturySchlbk-BoldItalic /NewCenturySchlbk-Italic /Palatino-Bold
 /Palatino-BoldItalic /Palatino-Italic /Palatino-Roman ] {ISOLatin1Encoding reEncode } forall
%%EndProlog
%%BeginSetup
%%EndSetup
newpath  gsave  .25 .25 scale  gsave  0 0 t 1 0 0 c[  ] 0 sd 9 lw 1 1 1 c 2268 2176 0 0 bf black 3 lw 1 1 1 c 1837 1763 340 326 bf black 1837 1763 340 326 bl 9 lw 340 326 m 1837 X s[ 4 8] 0 sd 3 lw 340 2089 m -1763 Y s 524 2089 m -1763 Y s 708 2089 m
 -1763 Y s 891 2089 m -1763 Y s 1075 2089 m -1763 Y s 1259 2089 m -1763 Y s 1442 2089 m -1763 Y s 1626 2089 m -1763 Y s 1810 2089 m -1763 Y s 1993 2089 m -1763 Y s 2177 2089 m -1763 Y s[  ] 0 sd 9 lw 340 326 m 1763 Y s[ 4 8] 0 sd 3 lw 2177 326 m
 -1837 X s 2177 578 m -1837 X s 2177 830 m -1837 X s 2177 1082 m -1837 X s 2177 1334 m -1837 X s 2177 1586 m -1837 X s 2177 1838 m -1837 X s 2177 2089 m -1837 X s 2177 326 m -1837 X s[  ] 0 sd 9 lw 340 326 m 1837 X s
 gsave  2268 2176 0 0 C 2096.5 53.2685 t 0 r /Helvetica findfont 79.9028 sf 0 0 m (ch) show NC gr 
 gsave  2268 2176 0 0 C 1514.35 91.3175 t 0 r /Helvetica findfont 121.757 sf 0 0 m (unfolded N) show NC gr  340 379 m -53 Y s 377 353 m -27 Y s 414 353 m -27 Y s 450 353 m -27 Y s 487 353 m -27 Y s 524 379 m -53 Y s 561 353 m -27 Y s 597 353 m -27 Y
 s 634 353 m -27 Y s 671 353 m -27 Y s 708 379 m -53 Y s 744 353 m -27 Y s 781 353 m -27 Y s 818 353 m -27 Y s 854 353 m -27 Y s 891 379 m -53 Y s 928 353 m -27 Y s 965 353 m -27 Y s 1001 353 m -27 Y s 1038 353 m -27 Y s 1075 379 m -53 Y s 1112 353 m
 -27 Y s 1148 353 m -27 Y s 1185 353 m -27 Y s 1222 353 m -27 Y s 1259 379 m -53 Y s 1295 353 m -27 Y s 1332 353 m -27 Y s 1369 353 m -27 Y s 1406 353 m -27 Y s 1442 379 m -53 Y s 1479 353 m -27 Y s 1516 353 m -27 Y s 1552 353 m -27 Y s 1589 353 m
 -27 Y s 1626 379 m -53 Y s 1663 353 m -27 Y s 1699 353 m -27 Y s 1736 353 m -27 Y s 1773 353 m -27 Y s 1810 379 m -53 Y s 1846 353 m -27 Y s 1883 353 m -27 Y s 1920 353 m -27 Y s 1957 353 m -27 Y s 1993 379 m -53 Y s 2030 353 m -27 Y s 2067 353 m
 -27 Y s 2104 353 m -27 Y s 2140 353 m -27 Y s 2177 379 m -53 Y s
 gsave  2268 2176 0 0 C 315.806 247.318 t 0 r /Helvetica findfont 79.9028 sf 0 0 m (0) show NC gr 
 gsave  2268 2176 0 0 C 475.612 247.318 t 0 r /Helvetica findfont 79.9028 sf 0 0 m (10) show NC gr 
 gsave  2268 2176 0 0 C 658.247 247.318 t 0 r /Helvetica findfont 79.9028 sf 0 0 m (20) show NC gr 
 gsave  2268 2176 0 0 C 844.686 247.318 t 0 r /Helvetica findfont 79.9028 sf 0 0 m (30) show NC gr 
 gsave  2268 2176 0 0 C 1027.32 247.318 t 0 r /Helvetica findfont 79.9028 sf 0 0 m (40) show NC gr 
 gsave  2268 2176 0 0 C 1209.96 247.318 t 0 r /Helvetica findfont 79.9028 sf 0 0 m (50) show NC gr 
 gsave  2268 2176 0 0 C 1396.4 247.318 t 0 r /Helvetica findfont 79.9028 sf 0 0 m (60) show NC gr 
 gsave  2268 2176 0 0 C 1579.03 247.318 t 0 r /Helvetica findfont 79.9028 sf 0 0 m (70) show NC gr 
 gsave  2268 2176 0 0 C 1761.67 247.318 t 0 r /Helvetica findfont 79.9028 sf 0 0 m (80) show NC gr 
 gsave  2268 2176 0 0 C 1944.3 247.318 t 0 r /Helvetica findfont 79.9028 sf 0 0 m (90) show NC gr 
 gsave  2268 2176 0 0 C 2111.72 247.318 t 0 r /Helvetica findfont 79.9028 sf 0 0 m (100) show NC gr  340 326 m 1763 Y s
 gsave  2268 2176 0 0 C 167.415 2024.2 t 90 r /Symbol findfont 121.757 sf 0 0 m (l) show NC gr  395 326 m -55 X s 368 377 m -28 X s 368 427 m -28 X s 368 478 m -28 X s 368 528 m -28 X s 395 578 m -55 X s 368 629 m -28 X s 368 679 m -28 X s 368 729 m
 -28 X s 368 780 m -28 X s 395 830 m -55 X s 368 881 m -28 X s 368 931 m -28 X s 368 981 m -28 X s 368 1032 m -28 X s 395 1082 m -55 X s 368 1132 m -28 X s 368 1183 m -28 X s 368 1233 m -28 X s 368 1283 m -28 X s 395 1334 m -55 X s 368 1384 m -28 X s
 368 1435 m -28 X s 368 1485 m -28 X s 368 1535 m -28 X s 395 1586 m -55 X s 368 1636 m -28 X s 368 1686 m -28 X s 368 1737 m -28 X s 368 1787 m -28 X s 395 1838 m -55 X s 368 1888 m -28 X s 368 1938 m -28 X s 368 1989 m -28 X s 368 2039 m -28 X s
 395 2089 m -55 X s 395 326 m -55 X s
 gsave  2268 2176 0 0 C 216.879 296.782 t 0 r /Helvetica findfont 79.9028 sf 0 0 m (0.3) show NC gr 
 gsave  2268 2176 0 0 C 216.879 547.905 t 0 r /Helvetica findfont 79.9028 sf 0 0 m (0.4) show NC gr 
 gsave  2268 2176 0 0 C 216.879 802.833 t 0 r /Helvetica findfont 79.9028 sf 0 0 m (0.5) show NC gr 
 gsave  2268 2176 0 0 C 216.879 1053.96 t 0 r /Helvetica findfont 79.9028 sf 0 0 m (0.6) show NC gr 
 gsave  2268 2176 0 0 C 216.879 1305.08 t 0 r /Helvetica findfont 79.9028 sf 0 0 m (0.7) show NC gr 
 gsave  2268 2176 0 0 C 216.879 1556.2 t 0 r /Helvetica findfont 79.9028 sf 0 0 m (0.8) show NC gr 
 gsave  2268 2176 0 0 C 216.879 1807.32 t 0 r /Helvetica findfont 79.9028 sf 0 0 m (0.9) show NC gr 
 gsave  2268 2176 0 0 C 296.782 2062.25 t 0 r /Helvetica findfont 79.9028 sf 0 0 m (1) show NC gr  1 0 0 c black 1 0 0 c 3 lw /w 43 def /w2 {w 2 div} def /w3 {w 3 div} def 524 1385 836 1165 1552 1001 3 { m21} R 9 lw 524 1404 m 135 Y s 516 1539 m 15 X
 s 524 1366 m -135 Y s 516 1231 m 15 X s 836 1184 m 117 Y s 828 1301 m 16 X s 836 1146 m -117 Y s 828 1029 m 16 X s 1552 1020 m 89 Y s 1545 1109 m 15 X s 1552 982 m -90 Y s 1545 892 m 15 X s 0 0 1 c 836 1184 m 1 Y s 828 1185 m 16 X s 836 1146 m -1 Y
 s 828 1145 m 16 X s 1552 1020 m 8 Y s 1545 1028 m 15 X s 1552 982 m -9 Y s 1545 973 m 15 X s black 1 0 0 c 3 lw 524 1385 836 1165 1552 1001 3 { m21} R 9 lw
 gr  gr showpage
end
%%EOF
