%!PS-Adobe-2.0 EPSF-2.0
%%BoundingBox:  0 0 567 558
%%Title: ./MC_pion_0c50_h3001_1_h3401_1_compare.eps: MC_pion_0c50_h3001_1_h3401_1_compare
%%Creator: ROOT Version 6.06/02
%%CreationDate: Wed Feb  1 18:00:11 2017
%%DocumentNeededResources: ProcSet (FontSetInit)
%%EndComments
%%BeginProlog
80 dict begin
/s {stroke} def /l {lineto} def /m {moveto} def /t {translate} def
/r {rotate} def /rl {roll}  def /R {repeat} def
/d {rlineto} def /rm {rmoveto} def /gr {grestore} def /f {eofill} def
/c {setrgbcolor} def /black {0 setgray} def /sd {setdash} def
/cl {closepath} def /sf {scalefont setfont} def /lw {setlinewidth} def
/box {m dup 0 exch d exch 0 d 0 exch neg d cl} def
/NC{systemdict begin initclip end}def/C{NC box clip newpath}def
/bl {box s} def /bf {gsave box gsave f grestore 1 lw [] 0 sd s grestore} def /Y { 0 exch d} def /X { 0 d} def 
/K {{pop pop 0 moveto} exch kshow} bind def
/ita {/ang 15 def gsave [1 0 ang dup sin exch cos div 1 0 0] concat} def 
/mp {newpath /y exch def /x exch def} def
/side {[w .77 mul w .23 mul] .385 w mul sd w 0 l currentpoint t -144 r} def
/mr {mp x y w2 0 360 arc} def /m24 {mr s} def /m20 {mr f} def
/mb {mp x y w2 add m w2 neg 0 d 0 w neg d w 0 d 0 w d cl} def
/mt {mp x y w2 add m w2 neg w neg d w 0 d cl} def
/m21 {mb f} def /m25 {mb s} def /m22 {mt f} def /m26{mt s} def
/m23 {mp x y w2 sub m w2 w d w neg 0 d cl f} def
/m27 {mp x y w2 add m w3 neg w2 neg d w3 w2 neg d w3 w2 d cl s} def
/m28 {mp x w2 sub y w2 sub w3 add m w3 0 d  0 w3 neg d w3 0 d 0 w3 d w3 0 d  0 w3 d w3 neg 0 d 0 w3 d w3 neg 0 d 0 w3 neg d w3 neg 0 d cl s } def
/m29 {mp gsave x w2 sub y w2 add w3 sub m currentpoint t 4 {side} repeat cl fill gr} def
/m30 {mp gsave x w2 sub y w2 add w3 sub m currentpoint t 4 {side} repeat cl s gr} def
/m31 {mp x y w2 sub m 0 w d x w2 sub y m w 0 d x w2 sub y w2 add m w w neg d x w2 sub y w2 sub m w w d s} def
/m32 {mp x y w2 sub m w2 w d w neg 0 d cl s} def
/m33 {mp x y w2 add m w3 neg w2 neg d w3 w2 neg d w3 w2 d cl f} def
/m34 {mp x w2 sub y w2 sub w3 add m w3 0 d  0 w3 neg d w3 0 d 0 w3 d w3 0 d  0 w3 d w3 neg 0 d 0 w3 d w3 neg 0 d 0 w3 neg d w3 neg 0 d cl f } def
/m2 {mp x y w2 sub m 0 w d x w2 sub y m w 0 d s} def
/m5 {mp x w2 sub y w2 sub m w w d x w2 sub y w2 add m w w neg d s} def
%%IncludeResource: ProcSet (FontSetInit)
%%IncludeResource: font Times-Roman
%%IncludeResource: font Times-Italic
%%IncludeResource: font Times-Bold
%%IncludeResource: font Times-BoldItalic
%%IncludeResource: font Helvetica
%%IncludeResource: font Helvetica-Oblique
%%IncludeResource: font Helvetica-Bold
%%IncludeResource: font Helvetica-BoldOblique
%%IncludeResource: font Courier
%%IncludeResource: font Courier-Oblique
%%IncludeResource: font Courier-Bold
%%IncludeResource: font Courier-BoldOblique
%%IncludeResource: font Symbol
%%IncludeResource: font ZapfDingbats
/reEncode {exch findfont dup length dict begin {1 index /FID eq  {pop pop} {def} ifelse } forall /Encoding exch def currentdict end dup /FontName get exch definefont pop } def [/Times-Bold /Times-Italic /Times-BoldItalic /Helvetica /Helvetica-Oblique
 /Helvetica-Bold /Helvetica-BoldOblique /Courier /Courier-Oblique /Courier-Bold /Courier-BoldOblique /Times-Roman /AvantGarde-Book /AvantGarde-BookOblique /AvantGarde-Demi /AvantGarde-DemiOblique /Bookman-Demi /Bookman-DemiItalic /Bookman-Light
 /Bookman-LightItalic /Helvetica-Narrow /Helvetica-Narrow-Bold /Helvetica-Narrow-BoldOblique /Helvetica-Narrow-Oblique /NewCenturySchlbk-Roman /NewCenturySchlbk-Bold /NewCenturySchlbk-BoldItalic /NewCenturySchlbk-Italic /Palatino-Bold
 /Palatino-BoldItalic /Palatino-Italic /Palatino-Roman ] {ISOLatin1Encoding reEncode } forall
%%EndProlog
%%BeginSetup
%%EndSetup
newpath  gsave  .25 .25 scale  gsave  0 0 t black[  ] 0 sd 6 lw 1 1 1 c 2268 2234 0 0 bf black 3 lw 1 1 1 c 1882 1966 340 223 bf black 1882 1966 340 223 bl 1 1 1 c 1882 1966 340 223 bf black 1882 1966 340 223 bl 0 0 1 c 6 lw 1 1 1 c 0 0 1 c 368 1390
 m 12 Y s 368 1419 m 12 Y s 3 lw /w 19 def /w2 {w 2 div} def /w3 {w 3 div} def 368 1411 m21 6 lw 387 1089 m 2 Y s 387 1108 m 2 Y s 3 lw 387 1100 m21 6 lw 3 lw 406 1154 m21 6 lw 3 lw 425 1170 m21 6 lw 3 lw 444 1196 m21 6 lw 3 lw 463 1191 m21 6 lw 3 lw
 481 1190 m21 6 lw 3 lw 500 1195 m21 6 lw 3 lw 519 1199 m21 6 lw 3 lw 538 1190 m21 6 lw 3 lw 557 1185 m21 6 lw 3 lw 575 1190 m21 6 lw 3 lw 594 1187 m21 6 lw 3 lw 613 1181 m21 6 lw 3 lw 632 1184 m21 6 lw 3 lw 651 1172 m21 6 lw 3 lw 670 1175 m21 6 lw 3
 lw 688 1163 m21 6 lw 3 lw 707 1159 m21 6 lw 3 lw 726 1160 m21 6 lw 3 lw 745 1157 m21 6 lw 3 lw 764 1156 m21 6 lw 3 lw 782 1150 m21 6 lw 3 lw 801 1147 m21 6 lw 3 lw 820 1139 m21 6 lw 3 lw 839 1140 m21 6 lw 3 lw 858 1143 m21 6 lw 3 lw 877 1139 m21 6
 lw 3 lw 895 1135 m21 6 lw 3 lw 914 1130 m21 6 lw 3 lw 933 1127 m21 6 lw 3 lw 952 1125 m21 6 lw 3 lw 971 1121 m21 6 lw 3 lw 990 1121 m21 6 lw 3 lw 1008 1114 m21 6 lw 3 lw 1027 1114 m21 6 lw 3 lw 1046 1107 m21 6 lw 3 lw 1065 1105 m21 6 lw 3 lw 1084
 1101 m21 6 lw 3 lw 1102 1095 m21 6 lw 3 lw 1121 1093 m21 6 lw 3 lw 1140 1096 m21 6 lw 3 lw 1159 1092 m21 6 lw 3 lw 1178 1083 m21 6 lw 3 lw 1197 1088 m21 6 lw 3 lw 1215 1080 m21 6 lw 3 lw 1234 1077 m21 6 lw 3 lw 1253 1077 m21 6 lw 3 lw 1272 1074 m21
 6 lw 3 lw 1291 1067 m21 6 lw 3 lw 1309 1066 m21 6 lw 3 lw 1328 1067 m21 6 lw 3 lw 1347 1066 m21 6 lw 3 lw 1366 1062 m21 6 lw 3 lw 1385 1057 m21 6 lw 3 lw 1404 1056 m21 6 lw 3 lw 1422 1059 m21 6 lw 3 lw 1441 1062 m21 6 lw 3 lw 1460 1051 m21 6 lw 3 lw
 1479 1050 m21 6 lw 3 lw 1498 1052 m21 6 lw 3 lw 1517 1056 m21 6 lw 3 lw 1535 1064 m21 6 lw 3 lw 1554 1058 m21 6 lw 3 lw 1573 1059 m21 6 lw 3 lw 1592 1048 m21 6 lw 3 lw 1611 1056 m21 6 lw 3 lw 1629 1053 m21 6 lw 3 lw 1648 1055 m21 6 lw 3 lw 1667 1061
 m21 6 lw 3 lw 1686 1047 m21 6 lw 3 lw 1705 1059 m21 6 lw 3 lw 1724 1063 m21 6 lw 3 lw 1742 1060 m21 6 lw 3 lw 1761 1055 m21 6 lw 3 lw 1780 1058 m21 6 lw 3 lw 1799 1058 m21 6 lw 3 lw 1818 1070 m21 6 lw 3 lw 1837 1064 m21 6 lw 3 lw 1855 1060 m21 6 lw
 3 lw 1874 1087 m21 6 lw 3 lw 1893 1074 m21 6 lw 3 lw 1912 1070 m21 6 lw 3 lw 1931 1058 m21 6 lw 3 lw 1949 1062 m21 6 lw 3 lw 1968 1072 m21 6 lw 3 lw 1987 1061 m21 6 lw 3 lw 2006 1067 m21 6 lw 3 lw 2025 1074 m21 6 lw 3 lw 2044 1084 m21 6 lw 3 lw 2062
 1087 m21 6 lw 3 lw 2081 1094 m21 6 lw 3 lw 2100 1084 m21 6 lw 3 lw 2119 1079 m21 6 lw 3 lw 2138 1095 m21 6 lw 2156 1079 m 1 Y s 2156 1097 m s 3 lw 2156 1088 m21 6 lw 2175 1080 m s 2175 1097 m s 3 lw 2175 1089 m21 6 lw 2194 1100 m 1 Y s 2194 1118 m s
 3 lw 2194 1109 m21 6 lw 2213 1077 m 1 Y s 2213 1095 m 1 Y s 3 lw 2213 1086 m21 6 lw black 340 223 m 1882 X s
 gsave  2268 2234 0 0 C 1923.86 58.2559 t 0 r /Helvetica findfont 83.8316 sf 0 0 m (Q [GeV]) show NC gr  340 279 m -56 Y s 387 251 m -28 Y s 434 251 m -28 Y s 481 251 m -28 Y s 528 279 m -56 Y s 575 251 m -28 Y s 622 251 m -28 Y s 670 251 m -28 Y s
 717 279 m -56 Y s 764 251 m -28 Y s 811 251 m -28 Y s 858 251 m -28 Y s 905 279 m -56 Y s 952 251 m -28 Y s 999 251 m -28 Y s 1046 251 m -28 Y s 1093 279 m -56 Y s 1140 251 m -28 Y s 1187 251 m -28 Y s 1234 251 m -28 Y s 1281 279 m -56 Y s 1328 251
 m -28 Y s 1375 251 m -28 Y s 1422 251 m -28 Y s 1469 279 m -56 Y s 1517 251 m -28 Y s 1564 251 m -28 Y s 1611 251 m -28 Y s 1658 279 m -56 Y s 1705 251 m -28 Y s 1752 251 m -28 Y s 1799 251 m -28 Y s 1846 279 m -56 Y s 1893 251 m -28 Y s 1940 251 m
 -28 Y s 1987 251 m -28 Y s 2034 279 m -56 Y s 2081 251 m -28 Y s 2128 251 m -28 Y s 2175 251 m -28 Y s 2222 279 m -56 Y s
 gsave  2268 2234 0 0 C 322.539 159.138 t 0 r /Helvetica findfont 62.5185 sf 0 0 m (0) show NC gr 
 gsave  2268 2234 0 0 C 484.518 159.138 t 0 r /Helvetica findfont 62.5185 sf 0 0 m (0.2) show NC gr 
 gsave  2268 2234 0 0 C 673.495 159.138 t 0 r /Helvetica findfont 62.5185 sf 0 0 m (0.4) show NC gr 
 gsave  2268 2234 0 0 C 861.05 159.138 t 0 r /Helvetica findfont 62.5185 sf 0 0 m (0.6) show NC gr 
 gsave  2268 2234 0 0 C 1050.03 159.138 t 0 r /Helvetica findfont 62.5185 sf 0 0 m (0.8) show NC gr 
 gsave  2268 2234 0 0 C 1268.84 159.138 t 0 r /Helvetica findfont 62.5185 sf 0 0 m (1) show NC gr 
 gsave  2268 2234 0 0 C 1426.56 159.138 t 0 r /Helvetica findfont 62.5185 sf 0 0 m (1.2) show NC gr 
 gsave  2268 2234 0 0 C 1614.11 159.138 t 0 r /Helvetica findfont 62.5185 sf 0 0 m (1.4) show NC gr 
 gsave  2268 2234 0 0 C 1803.09 159.138 t 0 r /Helvetica findfont 62.5185 sf 0 0 m (1.6) show NC gr 
 gsave  2268 2234 0 0 C 1990.65 159.138 t 0 r /Helvetica findfont 62.5185 sf 0 0 m (1.8) show NC gr 
 gsave  2268 2234 0 0 C 2205.2 159.138 t 0 r /Helvetica findfont 62.5185 sf 0 0 m (2) show NC gr  340 223 m 1966 Y s
 gsave  2268 2234 0 0 C 147.771 1594.22 t 90 r /Helvetica findfont 83.8316 sf 0 0 m (\(Q\) / \(0.02 GeV\)) show NC gr 
 gsave  2268 2234 0 0 C 174.768 1565.8 t 90 r /Helvetica findfont 55.4141 sf 0 0 m (2) show NC gr 
 gsave  2268 2234 0 0 C 147.771 1484.81 t 90 r /Helvetica findfont 83.8316 sf 0 0 m ( C) show NC gr  400 402 m -60 X s 370 491 m -30 X s 370 581 m -30 X s 370 670 m -30 X s 400 759 m -60 X s 370 849 m -30 X s 370 938 m -30 X s 370 1027 m -30 X s 400
 1117 m -60 X s 370 1206 m -30 X s 370 1295 m -30 X s 370 1385 m -30 X s 400 1474 m -60 X s 370 1564 m -30 X s 370 1653 m -30 X s 370 1742 m -30 X s 400 1832 m -60 X s 370 1921 m -30 X s 370 2010 m -30 X s 370 2100 m -30 X s 400 2189 m -60 X s 400
 402 m -60 X s 370 313 m -30 X s 370 223 m -30 X s
 gsave  2268 2234 0 0 C 242.97 379.374 t 0 r /Helvetica findfont 62.5185 sf 0 0 m (0.6) show NC gr 
 gsave  2268 2234 0 0 C 242.97 737.434 t 0 r /Helvetica findfont 62.5185 sf 0 0 m (0.8) show NC gr 
 gsave  2268 2234 0 0 C 305.488 1092.65 t 0 r /Helvetica findfont 62.5185 sf 0 0 m (1) show NC gr 
 gsave  2268 2234 0 0 C 242.97 1450.71 t 0 r /Helvetica findfont 62.5185 sf 0 0 m (1.2) show NC gr 
 gsave  2268 2234 0 0 C 242.97 1808.77 t 0 r /Helvetica findfont 62.5185 sf 0 0 m (1.4) show NC gr 
 gsave  2268 2234 0 0 C 242.97 2166.83 t 0 r /Helvetica findfont 62.5185 sf 0 0 m (1.6) show NC gr  1 0 0 c 1 1 1 c 1 0 0 c 368 1369 m 13 Y s 368 1399 m 12 Y s 3 lw 368 1390 m21 6 lw 387 1085 m 2 Y s 387 1104 m 2 Y s 3 lw 387 1096 m21 6 lw 3 lw 406
 1144 m21 6 lw 3 lw 425 1168 m21 6 lw 3 lw 444 1198 m21 6 lw 3 lw 463 1195 m21 6 lw 3 lw 481 1196 m21 6 lw 3 lw 500 1188 m21 6 lw 3 lw 519 1194 m21 6 lw 3 lw 538 1193 m21 6 lw 3 lw 557 1186 m21 6 lw 3 lw 575 1190 m21 6 lw 3 lw 594 1183 m21 6 lw 3 lw
 613 1181 m21 6 lw 3 lw 632 1181 m21 6 lw 3 lw 651 1174 m21 6 lw 3 lw 670 1171 m21 6 lw 3 lw 688 1166 m21 6 lw 3 lw 707 1159 m21 6 lw 3 lw 726 1155 m21 6 lw 3 lw 745 1154 m21 6 lw 3 lw 764 1158 m21 6 lw 3 lw 782 1149 m21 6 lw 3 lw 801 1147 m21 6 lw 3
 lw 820 1140 m21 6 lw 3 lw 839 1141 m21 6 lw 3 lw 858 1145 m21 6 lw 3 lw 877 1139 m21 6 lw 3 lw 895 1138 m21 6 lw 3 lw 914 1129 m21 6 lw 3 lw 933 1130 m21 6 lw 3 lw 952 1124 m21 6 lw 3 lw 971 1123 m21 6 lw 3 lw 990 1120 m21 6 lw 3 lw 1008 1116 m21 6
 lw 3 lw 1027 1113 m21 6 lw 3 lw 1046 1110 m21 6 lw 3 lw 1065 1103 m21 6 lw 3 lw 1084 1100 m21 6 lw 3 lw 1102 1097 m21 6 lw 3 lw 1121 1095 m21 6 lw 3 lw 1140 1092 m21 6 lw 3 lw 1159 1088 m21 6 lw 3 lw 1178 1086 m21 6 lw 3 lw 1197 1086 m21 6 lw 3 lw
 1215 1077 m21 6 lw 3 lw 1234 1078 m21 6 lw 3 lw 1253 1080 m21 6 lw 3 lw 1272 1078 m21 6 lw 3 lw 1291 1068 m21 6 lw 3 lw 1309 1066 m21 6 lw 3 lw 1328 1070 m21 6 lw 3 lw 1347 1065 m21 6 lw 3 lw 1366 1066 m21 6 lw 3 lw 1385 1058 m21 6 lw 3 lw 1404 1056
 m21 6 lw 3 lw 1422 1056 m21 6 lw 3 lw 1441 1059 m21 6 lw 3 lw 1460 1052 m21 6 lw 3 lw 1479 1055 m21 6 lw 3 lw 1498 1048 m21 6 lw 3 lw 1517 1055 m21 6 lw 3 lw 1535 1059 m21 6 lw 3 lw 1554 1054 m21 6 lw 3 lw 1573 1062 m21 6 lw 3 lw 1592 1052 m21 6 lw
 3 lw 1611 1051 m21 6 lw 3 lw 1629 1056 m21 6 lw 3 lw 1648 1052 m21 6 lw 3 lw 1667 1062 m21 6 lw 3 lw 1686 1055 m21 6 lw 3 lw 1705 1061 m21 6 lw 3 lw 1724 1058 m21 6 lw 3 lw 1742 1058 m21 6 lw 3 lw 1761 1058 m21 6 lw 3 lw 1780 1054 m21 6 lw 3 lw 1799
 1066 m21 6 lw 3 lw 1818 1068 m21 6 lw 3 lw 1837 1061 m21 6 lw 3 lw 1855 1072 m21 6 lw 3 lw 1874 1079 m21 6 lw 3 lw 1893 1071 m21 6 lw 3 lw 1912 1069 m21 6 lw 3 lw 1931 1057 m21 6 lw 3 lw 1949 1067 m21 6 lw 3 lw 1968 1079 m21 6 lw 3 lw 1987 1073 m21
 6 lw 3 lw 2006 1079 m21 6 lw 3 lw 2025 1067 m21 6 lw 3 lw 2044 1075 m21 6 lw 3 lw 2062 1089 m21 6 lw 3 lw 2081 1089 m21 6 lw 3 lw 2100 1087 m21 6 lw 3 lw 2119 1085 m21 6 lw 2138 1075 m s 2138 1092 m s 3 lw 2138 1083 m21 6 lw 2156 1082 m 1 Y s 2156
 1100 m s 3 lw 2156 1091 m21 6 lw 2175 1088 m 1 Y s 2175 1106 m s 3 lw 2175 1097 m21 6 lw 2194 1088 m 1 Y s 2194 1106 m s 3 lw 2194 1097 m21 6 lw 2213 1087 m s 2213 1104 m 1 Y s 3 lw 2213 1096 m21 6 lw 0 1 0 c 1 1 1 c 0 1 0 c 368 1345 m 12 Y s 368
 1374 m 13 Y s 3 lw 368 1366 m21 6 lw 387 1083 m 2 Y s 387 1102 m 2 Y s 3 lw 387 1094 m21 6 lw 3 lw 406 1148 m21 6 lw 3 lw 425 1178 m21 6 lw 3 lw 444 1194 m21 6 lw 3 lw 463 1188 m21 6 lw 3 lw 481 1195 m21 6 lw 3 lw 500 1196 m21 6 lw 3 lw 519 1191 m21
 6 lw 3 lw 538 1188 m21 6 lw 3 lw 557 1188 m21 6 lw 3 lw 575 1197 m21 6 lw 3 lw 594 1181 m21 6 lw 3 lw 613 1182 m21 6 lw 3 lw 632 1182 m21 6 lw 3 lw 651 1174 m21 6 lw 3 lw 670 1173 m21 6 lw 3 lw 688 1167 m21 6 lw 3 lw 707 1158 m21 6 lw 3 lw 726 1156
 m21 6 lw 3 lw 745 1155 m21 6 lw 3 lw 764 1158 m21 6 lw 3 lw 782 1148 m21 6 lw 3 lw 801 1145 m21 6 lw 3 lw 820 1142 m21 6 lw 3 lw 839 1138 m21 6 lw 3 lw 858 1142 m21 6 lw 3 lw 877 1134 m21 6 lw 3 lw 895 1138 m21 6 lw 3 lw 914 1128 m21 6 lw 3 lw 933
 1125 m21 6 lw 3 lw 952 1123 m21 6 lw 3 lw 971 1121 m21 6 lw 3 lw 990 1119 m21 6 lw 3 lw 1008 1113 m21 6 lw 3 lw 1027 1116 m21 6 lw 3 lw 1046 1111 m21 6 lw 3 lw 1065 1104 m21 6 lw 3 lw 1084 1106 m21 6 lw 3 lw 1102 1096 m21 6 lw 3 lw 1121 1095 m21 6
 lw 3 lw 1140 1094 m21 6 lw 3 lw 1159 1090 m21 6 lw 3 lw 1178 1087 m21 6 lw 3 lw 1197 1086 m21 6 lw 3 lw 1215 1083 m21 6 lw 3 lw 1234 1074 m21 6 lw 3 lw 1253 1077 m21 6 lw 3 lw 1272 1076 m21 6 lw 3 lw 1291 1068 m21 6 lw 3 lw 1309 1065 m21 6 lw 3 lw
 1328 1074 m21 6 lw 3 lw 1347 1065 m21 6 lw 3 lw 1366 1067 m21 6 lw 3 lw 1385 1060 m21 6 lw 3 lw 1404 1058 m21 6 lw 3 lw 1422 1057 m21 6 lw 3 lw 1441 1062 m21 6 lw 3 lw 1460 1053 m21 6 lw 3 lw 1479 1054 m21 6 lw 3 lw 1498 1051 m21 6 lw 3 lw 1517 1059
 m21 6 lw 3 lw 1535 1057 m21 6 lw 3 lw 1554 1052 m21 6 lw 3 lw 1573 1061 m21 6 lw 3 lw 1592 1056 m21 6 lw 3 lw 1611 1053 m21 6 lw 3 lw 1629 1050 m21 6 lw 3 lw 1648 1055 m21 6 lw 3 lw 1667 1064 m21 6 lw 3 lw 1686 1049 m21 6 lw 3 lw 1705 1060 m21 6 lw
 3 lw 1724 1059 m21 6 lw 3 lw 1742 1058 m21 6 lw 3 lw 1761 1055 m21 6 lw 3 lw 1780 1051 m21 6 lw 3 lw 1799 1054 m21 6 lw 3 lw 1818 1072 m21 6 lw 3 lw 1837 1068 m21 6 lw 3 lw 1855 1066 m21 6 lw 3 lw 1874 1077 m21 6 lw 3 lw 1893 1075 m21 6 lw 3 lw 1912
 1076 m21 6 lw 3 lw 1931 1065 m21 6 lw 3 lw 1949 1064 m21 6 lw 3 lw 1968 1071 m21 6 lw 3 lw 1987 1068 m21 6 lw 3 lw 2006 1064 m21 6 lw 3 lw 2025 1081 m21 6 lw 3 lw 2044 1077 m21 6 lw 3 lw 2062 1084 m21 6 lw 3 lw 2081 1080 m21 6 lw 3 lw 2100 1090 m21
 6 lw 3 lw 2119 1085 m21 6 lw 2138 1090 m s 2138 1107 m 1 Y s 3 lw 2138 1099 m21 6 lw 2156 1081 m 1 Y s 2156 1099 m s 3 lw 2156 1090 m21 6 lw 2175 1093 m 1 Y s 2175 1111 m s 3 lw 2175 1102 m21 6 lw 2194 1087 m 1 Y s 2194 1105 m 1 Y s 3 lw 2194 1097
 m21 6 lw 2213 1083 m 1 Y s 2213 1101 m 1 Y s 3 lw 2213 1093 m21 6 lw 0.8 0 1 c 1 1 1 c 0.8 0 1 c 368 1305 m 12 Y s 368 1334 m 12 Y s 3 lw 368 1325 m21 6 lw 387 1086 m 3 Y s 387 1106 m 2 Y s 3 lw 387 1097 m21 6 lw 3 lw 406 1150 m21 6 lw 3 lw 425 1173
 m21 6 lw 3 lw 444 1199 m21 6 lw 3 lw 463 1196 m21 6 lw 3 lw 481 1198 m21 6 lw 3 lw 500 1189 m21 6 lw 3 lw 519 1197 m21 6 lw 3 lw 538 1186 m21 6 lw 3 lw 557 1192 m21 6 lw 3 lw 575 1188 m21 6 lw 3 lw 594 1182 m21 6 lw 3 lw 613 1181 m21 6 lw 3 lw 632
 1181 m21 6 lw 3 lw 651 1171 m21 6 lw 3 lw 670 1177 m21 6 lw 3 lw 688 1168 m21 6 lw 3 lw 707 1159 m21 6 lw 3 lw 726 1160 m21 6 lw 3 lw 745 1157 m21 6 lw 3 lw 764 1155 m21 6 lw 3 lw 782 1148 m21 6 lw 3 lw 801 1146 m21 6 lw 3 lw 820 1143 m21 6 lw 3 lw
 839 1141 m21 6 lw 3 lw 858 1146 m21 6 lw 3 lw 877 1134 m21 6 lw 3 lw 895 1135 m21 6 lw 3 lw 914 1129 m21 6 lw 3 lw 933 1131 m21 6 lw 3 lw 952 1122 m21 6 lw 3 lw 971 1124 m21 6 lw 3 lw 990 1121 m21 6 lw 3 lw 1008 1119 m21 6 lw 3 lw 1027 1112 m21 6 lw
 3 lw 1046 1106 m21 6 lw 3 lw 1065 1104 m21 6 lw 3 lw 1084 1103 m21 6 lw 3 lw 1102 1095 m21 6 lw 3 lw 1121 1095 m21 6 lw 3 lw 1140 1094 m21 6 lw 3 lw 1159 1090 m21 6 lw 3 lw 1178 1087 m21 6 lw 3 lw 1197 1082 m21 6 lw 3 lw 1215 1080 m21 6 lw 3 lw 1234
 1079 m21 6 lw 3 lw 1253 1079 m21 6 lw 3 lw 1272 1075 m21 6 lw 3 lw 1291 1066 m21 6 lw 3 lw 1309 1062 m21 6 lw 3 lw 1328 1070 m21 6 lw 3 lw 1347 1062 m21 6 lw 3 lw 1366 1060 m21 6 lw 3 lw 1385 1060 m21 6 lw 3 lw 1404 1053 m21 6 lw 3 lw 1422 1056 m21
 6 lw 3 lw 1441 1061 m21 6 lw 3 lw 1460 1055 m21 6 lw 3 lw 1479 1056 m21 6 lw 3 lw 1498 1051 m21 6 lw 3 lw 1517 1054 m21 6 lw 3 lw 1535 1054 m21 6 lw 3 lw 1554 1049 m21 6 lw 3 lw 1573 1063 m21 6 lw 3 lw 1592 1051 m21 6 lw 3 lw 1611 1048 m21 6 lw 3 lw
 1629 1051 m21 6 lw 3 lw 1648 1060 m21 6 lw 3 lw 1667 1065 m21 6 lw 3 lw 1686 1051 m21 6 lw 3 lw 1705 1060 m21 6 lw 3 lw 1724 1059 m21 6 lw 3 lw 1742 1067 m21 6 lw 3 lw 1761 1062 m21 6 lw 3 lw 1780 1062 m21 6 lw 3 lw 1799 1060 m21 6 lw 3 lw 1818 1065
 m21 6 lw 3 lw 1837 1071 m21 6 lw 3 lw 1855 1067 m21 6 lw 3 lw 1874 1080 m21 6 lw 3 lw 1893 1076 m21 6 lw 3 lw 1912 1070 m21 6 lw 3 lw 1931 1072 m21 6 lw 3 lw 1949 1068 m21 6 lw 3 lw 1968 1072 m21 6 lw 3 lw 1987 1070 m21 6 lw 3 lw 2006 1069 m21 6 lw
 3 lw 2025 1071 m21 6 lw 3 lw 2044 1080 m21 6 lw 3 lw 2062 1087 m21 6 lw 3 lw 2081 1090 m21 6 lw 3 lw 2100 1087 m21 6 lw 2119 1076 m s 2119 1093 m 1 Y s 3 lw 2119 1085 m21 6 lw 2138 1088 m s 2138 1105 m s 3 lw 2138 1097 m21 6 lw 2156 1096 m s 2156
 1113 m 1 Y s 3 lw 2156 1105 m21 6 lw 2175 1078 m s 2175 1095 m 1 Y s 3 lw 2175 1087 m21 6 lw 2194 1088 m 1 Y s 2194 1106 m 1 Y s 3 lw 2194 1097 m21 6 lw 2213 1079 m 1 Y s 2213 1097 m 1 Y s 3 lw 2213 1088 m21 6 lw 0.4 0.4 0.4 c 1 1 1 c 0.4 0.4 0.4 c
 368 1255 m 13 Y s 368 1285 m 12 Y s 3 lw 368 1276 m21 6 lw 387 1072 m 2 Y s 387 1091 m 3 Y s 3 lw 387 1083 m21 6 lw 3 lw 406 1139 m21 6 lw 3 lw 425 1178 m21 6 lw 3 lw 444 1197 m21 6 lw 3 lw 463 1186 m21 6 lw 3 lw 481 1194 m21 6 lw 3 lw 500 1195 m21
 6 lw 3 lw 519 1195 m21 6 lw 3 lw 538 1191 m21 6 lw 3 lw 557 1190 m21 6 lw 3 lw 575 1196 m21 6 lw 3 lw 594 1184 m21 6 lw 3 lw 613 1184 m21 6 lw 3 lw 632 1187 m21 6 lw 3 lw 651 1176 m21 6 lw 3 lw 670 1177 m21 6 lw 3 lw 688 1167 m21 6 lw 3 lw 707 1160
 m21 6 lw 3 lw 726 1160 m21 6 lw 3 lw 745 1161 m21 6 lw 3 lw 764 1157 m21 6 lw 3 lw 782 1151 m21 6 lw 3 lw 801 1149 m21 6 lw 3 lw 820 1144 m21 6 lw 3 lw 839 1141 m21 6 lw 3 lw 858 1144 m21 6 lw 3 lw 877 1139 m21 6 lw 3 lw 895 1139 m21 6 lw 3 lw 914
 1129 m21 6 lw 3 lw 933 1129 m21 6 lw 3 lw 952 1123 m21 6 lw 3 lw 971 1120 m21 6 lw 3 lw 990 1120 m21 6 lw 3 lw 1008 1112 m21 6 lw 3 lw 1027 1110 m21 6 lw 3 lw 1046 1106 m21 6 lw 3 lw 1065 1104 m21 6 lw 3 lw 1084 1106 m21 6 lw 3 lw 1102 1094 m21 6 lw
 3 lw 1121 1097 m21 6 lw 3 lw 1140 1095 m21 6 lw 3 lw 1159 1091 m21 6 lw 3 lw 1178 1085 m21 6 lw 3 lw 1197 1083 m21 6 lw 3 lw 1215 1078 m21 6 lw 3 lw 1234 1074 m21 6 lw 3 lw 1253 1082 m21 6 lw 3 lw 1272 1072 m21 6 lw 3 lw 1291 1070 m21 6 lw 3 lw 1309
 1065 m21 6 lw 3 lw 1328 1067 m21 6 lw 3 lw 1347 1065 m21 6 lw 3 lw 1366 1057 m21 6 lw 3 lw 1385 1058 m21 6 lw 3 lw 1404 1057 m21 6 lw 3 lw 1422 1055 m21 6 lw 3 lw 1441 1059 m21 6 lw 3 lw 1460 1052 m21 6 lw 3 lw 1479 1054 m21 6 lw 3 lw 1498 1043 m21
 6 lw 3 lw 1517 1061 m21 6 lw 3 lw 1535 1058 m21 6 lw 3 lw 1554 1058 m21 6 lw 3 lw 1573 1054 m21 6 lw 3 lw 1592 1053 m21 6 lw 3 lw 1611 1052 m21 6 lw 3 lw 1629 1057 m21 6 lw 3 lw 1648 1059 m21 6 lw 3 lw 1667 1060 m21 6 lw 3 lw 1686 1046 m21 6 lw 3 lw
 1705 1055 m21 6 lw 3 lw 1724 1050 m21 6 lw 3 lw 1742 1058 m21 6 lw 3 lw 1761 1054 m21 6 lw 3 lw 1780 1065 m21 6 lw 3 lw 1799 1058 m21 6 lw 3 lw 1818 1069 m21 6 lw 3 lw 1837 1070 m21 6 lw 3 lw 1855 1061 m21 6 lw 3 lw 1874 1073 m21 6 lw 3 lw 1893 1071
 m21 6 lw 3 lw 1912 1076 m21 6 lw 3 lw 1931 1064 m21 6 lw 3 lw 1949 1070 m21 6 lw 3 lw 1968 1074 m21 6 lw 3 lw 1987 1064 m21 6 lw 3 lw 2006 1055 m21 6 lw 3 lw 2025 1074 m21 6 lw 3 lw 2044 1075 m21 6 lw 3 lw 2062 1087 m21 6 lw 2081 1074 m 1 Y s 2081
 1092 m s 3 lw 2081 1083 m21 6 lw 2100 1079 m s 2100 1096 m 1 Y s 3 lw 2100 1088 m21 6 lw 2119 1077 m s 2119 1094 m 1 Y s 3 lw 2119 1086 m21 6 lw 2138 1079 m s 2138 1097 m s 3 lw 2138 1088 m21 6 lw 2156 1078 m 1 Y s 2156 1096 m 1 Y s 3 lw 2156 1087
 m21 6 lw 2175 1084 m 1 Y s 2175 1102 m 1 Y s 3 lw 2175 1093 m21 6 lw 2194 1085 m 1 Y s 2194 1103 m 1 Y s 3 lw 2194 1095 m21 6 lw 2213 1082 m 2 Y s 2213 1101 m 1 Y s 3 lw 2213 1092 m21 6 lw black 1 1 1 c 680 447 1474 1675 bf black 1474 1675 m 680 X s
 2154 1675 m 447 Y s 2154 2122 m -680 X s 1474 2122 m -447 Y s
 gsave  2268 2234 0 0 C 1490.5 2068.79 t 0 r /Helvetica findfont 56.835 sf 0 0 m (probNNpi cut) show NC gr 
 gsave  2268 2234 0 0 C 1643.95 1994.91 t 0 r /Helvetica findfont 56.835 sf 0 0 m (0.50) show NC gr  0 0 1 c 1559 1988 m 45 Y s 3 lw 1559 2010 m21 6 lw black
 gsave  2268 2234 0 0 C 1643.95 1919.6 t 0 r /Helvetica findfont 56.835 sf 0 0 m (0.60) show NC gr  1 0 0 c 1559 1913 m 45 Y s 3 lw 1559 1936 m21 6 lw black
 gsave  2268 2234 0 0 C 1643.95 1845.72 t 0 r /Helvetica findfont 56.835 sf 0 0 m (0.65) show NC gr  0 1 0 c 1559 1839 m 45 Y s 3 lw 1559 1861 m21 6 lw black
 gsave  2268 2234 0 0 C 1643.95 1770.41 t 0 r /Helvetica findfont 56.835 sf 0 0 m (0.70) show NC gr  0.8 0 1 c 1559 1765 m 44 Y s 3 lw 1559 1787 m21 6 lw black
 gsave  2268 2234 0 0 C 1643.95 1696.52 t 0 r /Helvetica findfont 56.835 sf 0 0 m (0.80) show NC gr  0.4 0.4 0.4 c 1559 1690 m 45 Y s 3 lw 1559 1712 m21 6 lw black
 gsave  2268 2234 0 0 C 906.518 670.653 t 0 r /Helvetica-Bold findfont 72.4646 sf 0 0 m (MC PIONS) show NC gr 
 gsave  2268 2234 0 0 C 906.518 558.404 t 0 r /Helvetica-Bold findfont 72.4646 sf 0 0 m (ref. sample: EVENT MIX) show NC gr 
 gsave  2268 2234 0 0 C 906.518 447.576 t 0 r /Helvetica-Bold findfont 72.4646 sf 0 0 m (VELO tracks multiplicity: < 10) show NC gr 
 gr  gr showpage
end
%%EOF
