%!PS-Adobe-2.0 EPSF-2.0
%%BoundingBox:  0 0 567 558
%%Title: ./MC_pion_0c50_h3001_2_h3401_2_compare.eps: MC_pion_0c50_h3001_2_h3401_2_compare
%%Creator: ROOT Version 6.06/02
%%CreationDate: Wed Feb  1 18:00:12 2017
%%DocumentNeededResources: ProcSet (FontSetInit)
%%EndComments
%%BeginProlog
80 dict begin
/s {stroke} def /l {lineto} def /m {moveto} def /t {translate} def
/r {rotate} def /rl {roll}  def /R {repeat} def
/d {rlineto} def /rm {rmoveto} def /gr {grestore} def /f {eofill} def
/c {setrgbcolor} def /black {0 setgray} def /sd {setdash} def
/cl {closepath} def /sf {scalefont setfont} def /lw {setlinewidth} def
/box {m dup 0 exch d exch 0 d 0 exch neg d cl} def
/NC{systemdict begin initclip end}def/C{NC box clip newpath}def
/bl {box s} def /bf {gsave box gsave f grestore 1 lw [] 0 sd s grestore} def /Y { 0 exch d} def /X { 0 d} def 
/K {{pop pop 0 moveto} exch kshow} bind def
/ita {/ang 15 def gsave [1 0 ang dup sin exch cos div 1 0 0] concat} def 
/mp {newpath /y exch def /x exch def} def
/side {[w .77 mul w .23 mul] .385 w mul sd w 0 l currentpoint t -144 r} def
/mr {mp x y w2 0 360 arc} def /m24 {mr s} def /m20 {mr f} def
/mb {mp x y w2 add m w2 neg 0 d 0 w neg d w 0 d 0 w d cl} def
/mt {mp x y w2 add m w2 neg w neg d w 0 d cl} def
/m21 {mb f} def /m25 {mb s} def /m22 {mt f} def /m26{mt s} def
/m23 {mp x y w2 sub m w2 w d w neg 0 d cl f} def
/m27 {mp x y w2 add m w3 neg w2 neg d w3 w2 neg d w3 w2 d cl s} def
/m28 {mp x w2 sub y w2 sub w3 add m w3 0 d  0 w3 neg d w3 0 d 0 w3 d w3 0 d  0 w3 d w3 neg 0 d 0 w3 d w3 neg 0 d 0 w3 neg d w3 neg 0 d cl s } def
/m29 {mp gsave x w2 sub y w2 add w3 sub m currentpoint t 4 {side} repeat cl fill gr} def
/m30 {mp gsave x w2 sub y w2 add w3 sub m currentpoint t 4 {side} repeat cl s gr} def
/m31 {mp x y w2 sub m 0 w d x w2 sub y m w 0 d x w2 sub y w2 add m w w neg d x w2 sub y w2 sub m w w d s} def
/m32 {mp x y w2 sub m w2 w d w neg 0 d cl s} def
/m33 {mp x y w2 add m w3 neg w2 neg d w3 w2 neg d w3 w2 d cl f} def
/m34 {mp x w2 sub y w2 sub w3 add m w3 0 d  0 w3 neg d w3 0 d 0 w3 d w3 0 d  0 w3 d w3 neg 0 d 0 w3 d w3 neg 0 d 0 w3 neg d w3 neg 0 d cl f } def
/m2 {mp x y w2 sub m 0 w d x w2 sub y m w 0 d s} def
/m5 {mp x w2 sub y w2 sub m w w d x w2 sub y w2 add m w w neg d s} def
%%IncludeResource: ProcSet (FontSetInit)
%%IncludeResource: font Times-Roman
%%IncludeResource: font Times-Italic
%%IncludeResource: font Times-Bold
%%IncludeResource: font Times-BoldItalic
%%IncludeResource: font Helvetica
%%IncludeResource: font Helvetica-Oblique
%%IncludeResource: font Helvetica-Bold
%%IncludeResource: font Helvetica-BoldOblique
%%IncludeResource: font Courier
%%IncludeResource: font Courier-Oblique
%%IncludeResource: font Courier-Bold
%%IncludeResource: font Courier-BoldOblique
%%IncludeResource: font Symbol
%%IncludeResource: font ZapfDingbats
/reEncode {exch findfont dup length dict begin {1 index /FID eq  {pop pop} {def} ifelse } forall /Encoding exch def currentdict end dup /FontName get exch definefont pop } def [/Times-Bold /Times-Italic /Times-BoldItalic /Helvetica /Helvetica-Oblique
 /Helvetica-Bold /Helvetica-BoldOblique /Courier /Courier-Oblique /Courier-Bold /Courier-BoldOblique /Times-Roman /AvantGarde-Book /AvantGarde-BookOblique /AvantGarde-Demi /AvantGarde-DemiOblique /Bookman-Demi /Bookman-DemiItalic /Bookman-Light
 /Bookman-LightItalic /Helvetica-Narrow /Helvetica-Narrow-Bold /Helvetica-Narrow-BoldOblique /Helvetica-Narrow-Oblique /NewCenturySchlbk-Roman /NewCenturySchlbk-Bold /NewCenturySchlbk-BoldItalic /NewCenturySchlbk-Italic /Palatino-Bold
 /Palatino-BoldItalic /Palatino-Italic /Palatino-Roman ] {ISOLatin1Encoding reEncode } forall
%%EndProlog
%%BeginSetup
%%EndSetup
newpath  gsave  .25 .25 scale  gsave  0 0 t black[  ] 0 sd 6 lw 1 1 1 c 2268 2234 0 0 bf black 3 lw 1 1 1 c 1882 1966 340 223 bf black 1882 1966 340 223 bl 1 1 1 c 1882 1966 340 223 bf black 1882 1966 340 223 bl 0 0 1 c 6 lw 1 1 1 c 0 0 1 c 368 1405
 m 10 Y s 368 1432 m 11 Y s 3 lw /w 19 def /w2 {w 2 div} def /w3 {w 3 div} def 368 1424 m21 6 lw 387 1142 m 1 Y s 387 1160 m 1 Y s 3 lw 387 1152 m21 6 lw 3 lw 406 1185 m21 6 lw 3 lw 425 1216 m21 6 lw 3 lw 444 1228 m21 6 lw 3 lw 463 1230 m21 6 lw 3 lw
 481 1234 m21 6 lw 3 lw 500 1235 m21 6 lw 3 lw 519 1229 m21 6 lw 3 lw 538 1227 m21 6 lw 3 lw 557 1219 m21 6 lw 3 lw 575 1222 m21 6 lw 3 lw 594 1218 m21 6 lw 3 lw 613 1213 m21 6 lw 3 lw 632 1203 m21 6 lw 3 lw 651 1201 m21 6 lw 3 lw 670 1191 m21 6 lw 3
 lw 688 1191 m21 6 lw 3 lw 707 1187 m21 6 lw 3 lw 726 1178 m21 6 lw 3 lw 745 1174 m21 6 lw 3 lw 764 1170 m21 6 lw 3 lw 782 1166 m21 6 lw 3 lw 801 1162 m21 6 lw 3 lw 820 1161 m21 6 lw 3 lw 839 1155 m21 6 lw 3 lw 858 1151 m21 6 lw 3 lw 877 1148 m21 6
 lw 3 lw 895 1144 m21 6 lw 3 lw 914 1139 m21 6 lw 3 lw 933 1134 m21 6 lw 3 lw 952 1134 m21 6 lw 3 lw 971 1126 m21 6 lw 3 lw 990 1122 m21 6 lw 3 lw 1008 1118 m21 6 lw 3 lw 1027 1113 m21 6 lw 3 lw 1046 1108 m21 6 lw 3 lw 1065 1106 m21 6 lw 3 lw 1084
 1102 m21 6 lw 3 lw 1102 1103 m21 6 lw 3 lw 1121 1099 m21 6 lw 3 lw 1140 1090 m21 6 lw 3 lw 1159 1089 m21 6 lw 3 lw 1178 1087 m21 6 lw 3 lw 1197 1083 m21 6 lw 3 lw 1215 1078 m21 6 lw 3 lw 1234 1073 m21 6 lw 3 lw 1253 1076 m21 6 lw 3 lw 1272 1071 m21
 6 lw 3 lw 1291 1067 m21 6 lw 3 lw 1309 1064 m21 6 lw 3 lw 1328 1065 m21 6 lw 3 lw 1347 1062 m21 6 lw 3 lw 1366 1063 m21 6 lw 3 lw 1385 1061 m21 6 lw 3 lw 1404 1054 m21 6 lw 3 lw 1422 1054 m21 6 lw 3 lw 1441 1054 m21 6 lw 3 lw 1460 1049 m21 6 lw 3 lw
 1479 1052 m21 6 lw 3 lw 1498 1044 m21 6 lw 3 lw 1517 1045 m21 6 lw 3 lw 1535 1049 m21 6 lw 3 lw 1554 1044 m21 6 lw 3 lw 1573 1045 m21 6 lw 3 lw 1592 1048 m21 6 lw 3 lw 1611 1050 m21 6 lw 3 lw 1629 1044 m21 6 lw 3 lw 1648 1051 m21 6 lw 3 lw 1667 1048
 m21 6 lw 3 lw 1686 1045 m21 6 lw 3 lw 1705 1043 m21 6 lw 3 lw 1724 1044 m21 6 lw 3 lw 1742 1049 m21 6 lw 3 lw 1761 1041 m21 6 lw 3 lw 1780 1051 m21 6 lw 3 lw 1799 1044 m21 6 lw 3 lw 1818 1039 m21 6 lw 3 lw 1837 1043 m21 6 lw 3 lw 1855 1047 m21 6 lw
 3 lw 1874 1047 m21 6 lw 3 lw 1893 1048 m21 6 lw 3 lw 1912 1048 m21 6 lw 3 lw 1931 1055 m21 6 lw 3 lw 1949 1053 m21 6 lw 3 lw 1968 1058 m21 6 lw 3 lw 1987 1053 m21 6 lw 3 lw 2006 1048 m21 6 lw 3 lw 2025 1052 m21 6 lw 3 lw 2044 1057 m21 6 lw 3 lw 2062
 1055 m21 6 lw 3 lw 2081 1058 m21 6 lw 3 lw 2100 1063 m21 6 lw 3 lw 2119 1049 m21 6 lw 3 lw 2138 1062 m21 6 lw 3 lw 2156 1063 m21 6 lw 3 lw 2175 1070 m21 6 lw 3 lw 2194 1066 m21 6 lw 3 lw 2213 1063 m21 6 lw black 340 223 m 1882 X s
 gsave  2268 2234 0 0 C 1923.86 58.2559 t 0 r /Helvetica findfont 83.8316 sf 0 0 m (Q [GeV]) show NC gr  340 279 m -56 Y s 387 251 m -28 Y s 434 251 m -28 Y s 481 251 m -28 Y s 528 279 m -56 Y s 575 251 m -28 Y s 622 251 m -28 Y s 670 251 m -28 Y s
 717 279 m -56 Y s 764 251 m -28 Y s 811 251 m -28 Y s 858 251 m -28 Y s 905 279 m -56 Y s 952 251 m -28 Y s 999 251 m -28 Y s 1046 251 m -28 Y s 1093 279 m -56 Y s 1140 251 m -28 Y s 1187 251 m -28 Y s 1234 251 m -28 Y s 1281 279 m -56 Y s 1328 251
 m -28 Y s 1375 251 m -28 Y s 1422 251 m -28 Y s 1469 279 m -56 Y s 1517 251 m -28 Y s 1564 251 m -28 Y s 1611 251 m -28 Y s 1658 279 m -56 Y s 1705 251 m -28 Y s 1752 251 m -28 Y s 1799 251 m -28 Y s 1846 279 m -56 Y s 1893 251 m -28 Y s 1940 251 m
 -28 Y s 1987 251 m -28 Y s 2034 279 m -56 Y s 2081 251 m -28 Y s 2128 251 m -28 Y s 2175 251 m -28 Y s 2222 279 m -56 Y s
 gsave  2268 2234 0 0 C 322.539 159.138 t 0 r /Helvetica findfont 62.5185 sf 0 0 m (0) show NC gr 
 gsave  2268 2234 0 0 C 484.518 159.138 t 0 r /Helvetica findfont 62.5185 sf 0 0 m (0.2) show NC gr 
 gsave  2268 2234 0 0 C 673.495 159.138 t 0 r /Helvetica findfont 62.5185 sf 0 0 m (0.4) show NC gr 
 gsave  2268 2234 0 0 C 861.05 159.138 t 0 r /Helvetica findfont 62.5185 sf 0 0 m (0.6) show NC gr 
 gsave  2268 2234 0 0 C 1050.03 159.138 t 0 r /Helvetica findfont 62.5185 sf 0 0 m (0.8) show NC gr 
 gsave  2268 2234 0 0 C 1268.84 159.138 t 0 r /Helvetica findfont 62.5185 sf 0 0 m (1) show NC gr 
 gsave  2268 2234 0 0 C 1426.56 159.138 t 0 r /Helvetica findfont 62.5185 sf 0 0 m (1.2) show NC gr 
 gsave  2268 2234 0 0 C 1614.11 159.138 t 0 r /Helvetica findfont 62.5185 sf 0 0 m (1.4) show NC gr 
 gsave  2268 2234 0 0 C 1803.09 159.138 t 0 r /Helvetica findfont 62.5185 sf 0 0 m (1.6) show NC gr 
 gsave  2268 2234 0 0 C 1990.65 159.138 t 0 r /Helvetica findfont 62.5185 sf 0 0 m (1.8) show NC gr 
 gsave  2268 2234 0 0 C 2205.2 159.138 t 0 r /Helvetica findfont 62.5185 sf 0 0 m (2) show NC gr  340 223 m 1966 Y s
 gsave  2268 2234 0 0 C 147.771 1594.22 t 90 r /Helvetica findfont 83.8316 sf 0 0 m (\(Q\) / \(0.02 GeV\)) show NC gr 
 gsave  2268 2234 0 0 C 174.768 1565.8 t 90 r /Helvetica findfont 55.4141 sf 0 0 m (2) show NC gr 
 gsave  2268 2234 0 0 C 147.771 1484.81 t 90 r /Helvetica findfont 83.8316 sf 0 0 m ( C) show NC gr  400 402 m -60 X s 370 491 m -30 X s 370 581 m -30 X s 370 670 m -30 X s 400 759 m -60 X s 370 849 m -30 X s 370 938 m -30 X s 370 1027 m -30 X s 400
 1117 m -60 X s 370 1206 m -30 X s 370 1295 m -30 X s 370 1385 m -30 X s 400 1474 m -60 X s 370 1564 m -30 X s 370 1653 m -30 X s 370 1742 m -30 X s 400 1832 m -60 X s 370 1921 m -30 X s 370 2010 m -30 X s 370 2100 m -30 X s 400 2189 m -60 X s 400
 402 m -60 X s 370 313 m -30 X s 370 223 m -30 X s
 gsave  2268 2234 0 0 C 242.97 379.374 t 0 r /Helvetica findfont 62.5185 sf 0 0 m (0.6) show NC gr 
 gsave  2268 2234 0 0 C 242.97 737.434 t 0 r /Helvetica findfont 62.5185 sf 0 0 m (0.8) show NC gr 
 gsave  2268 2234 0 0 C 305.488 1092.65 t 0 r /Helvetica findfont 62.5185 sf 0 0 m (1) show NC gr 
 gsave  2268 2234 0 0 C 242.97 1450.71 t 0 r /Helvetica findfont 62.5185 sf 0 0 m (1.2) show NC gr 
 gsave  2268 2234 0 0 C 242.97 1808.77 t 0 r /Helvetica findfont 62.5185 sf 0 0 m (1.4) show NC gr 
 gsave  2268 2234 0 0 C 242.97 2166.83 t 0 r /Helvetica findfont 62.5185 sf 0 0 m (1.6) show NC gr  1 0 0 c 1 1 1 c 1 0 0 c 368 1390 m 10 Y s 368 1417 m 11 Y s 3 lw 368 1409 m21 6 lw 387 1134 m s 387 1152 m s 3 lw 387 1143 m21 6 lw 3 lw 406 1191 m21
 6 lw 3 lw 425 1207 m21 6 lw 3 lw 444 1225 m21 6 lw 3 lw 463 1225 m21 6 lw 3 lw 481 1236 m21 6 lw 3 lw 500 1232 m21 6 lw 3 lw 519 1231 m21 6 lw 3 lw 538 1223 m21 6 lw 3 lw 557 1224 m21 6 lw 3 lw 575 1221 m21 6 lw 3 lw 594 1215 m21 6 lw 3 lw 613 1209
 m21 6 lw 3 lw 632 1207 m21 6 lw 3 lw 651 1199 m21 6 lw 3 lw 670 1189 m21 6 lw 3 lw 688 1192 m21 6 lw 3 lw 707 1184 m21 6 lw 3 lw 726 1181 m21 6 lw 3 lw 745 1174 m21 6 lw 3 lw 764 1170 m21 6 lw 3 lw 782 1166 m21 6 lw 3 lw 801 1164 m21 6 lw 3 lw 820
 1157 m21 6 lw 3 lw 839 1158 m21 6 lw 3 lw 858 1151 m21 6 lw 3 lw 877 1147 m21 6 lw 3 lw 895 1142 m21 6 lw 3 lw 914 1140 m21 6 lw 3 lw 933 1135 m21 6 lw 3 lw 952 1137 m21 6 lw 3 lw 971 1129 m21 6 lw 3 lw 990 1125 m21 6 lw 3 lw 1008 1119 m21 6 lw 3 lw
 1027 1115 m21 6 lw 3 lw 1046 1112 m21 6 lw 3 lw 1065 1110 m21 6 lw 3 lw 1084 1104 m21 6 lw 3 lw 1102 1100 m21 6 lw 3 lw 1121 1095 m21 6 lw 3 lw 1140 1092 m21 6 lw 3 lw 1159 1088 m21 6 lw 3 lw 1178 1087 m21 6 lw 3 lw 1197 1081 m21 6 lw 3 lw 1215 1079
 m21 6 lw 3 lw 1234 1072 m21 6 lw 3 lw 1253 1072 m21 6 lw 3 lw 1272 1067 m21 6 lw 3 lw 1291 1067 m21 6 lw 3 lw 1309 1061 m21 6 lw 3 lw 1328 1066 m21 6 lw 3 lw 1347 1059 m21 6 lw 3 lw 1366 1061 m21 6 lw 3 lw 1385 1058 m21 6 lw 3 lw 1404 1057 m21 6 lw
 3 lw 1422 1057 m21 6 lw 3 lw 1441 1047 m21 6 lw 3 lw 1460 1048 m21 6 lw 3 lw 1479 1049 m21 6 lw 3 lw 1498 1050 m21 6 lw 3 lw 1517 1047 m21 6 lw 3 lw 1535 1049 m21 6 lw 3 lw 1554 1048 m21 6 lw 3 lw 1573 1047 m21 6 lw 3 lw 1592 1045 m21 6 lw 3 lw 1611
 1049 m21 6 lw 3 lw 1629 1044 m21 6 lw 3 lw 1648 1047 m21 6 lw 3 lw 1667 1050 m21 6 lw 3 lw 1686 1044 m21 6 lw 3 lw 1705 1040 m21 6 lw 3 lw 1724 1051 m21 6 lw 3 lw 1742 1047 m21 6 lw 3 lw 1761 1045 m21 6 lw 3 lw 1780 1045 m21 6 lw 3 lw 1799 1041 m21
 6 lw 3 lw 1818 1054 m21 6 lw 3 lw 1837 1046 m21 6 lw 3 lw 1855 1037 m21 6 lw 3 lw 1874 1045 m21 6 lw 3 lw 1893 1060 m21 6 lw 3 lw 1912 1060 m21 6 lw 3 lw 1931 1044 m21 6 lw 3 lw 1949 1044 m21 6 lw 3 lw 1968 1063 m21 6 lw 3 lw 1987 1047 m21 6 lw 3 lw
 2006 1053 m21 6 lw 3 lw 2025 1056 m21 6 lw 3 lw 2044 1061 m21 6 lw 3 lw 2062 1062 m21 6 lw 3 lw 2081 1057 m21 6 lw 3 lw 2100 1053 m21 6 lw 3 lw 2119 1059 m21 6 lw 3 lw 2138 1055 m21 6 lw 3 lw 2156 1057 m21 6 lw 3 lw 2175 1069 m21 6 lw 3 lw 2194 1065
 m21 6 lw 3 lw 2213 1069 m21 6 lw 0 1 0 c 1 1 1 c 0 1 0 c 368 1370 m 11 Y s 368 1398 m 10 Y s 3 lw 368 1389 m21 6 lw 387 1130 m 1 Y s 387 1148 m 1 Y s 3 lw 387 1140 m21 6 lw 3 lw 406 1192 m21 6 lw 3 lw 425 1216 m21 6 lw 3 lw 444 1217 m21 6 lw 3 lw
 463 1226 m21 6 lw 3 lw 481 1227 m21 6 lw 3 lw 500 1228 m21 6 lw 3 lw 519 1223 m21 6 lw 3 lw 538 1229 m21 6 lw 3 lw 557 1218 m21 6 lw 3 lw 575 1221 m21 6 lw 3 lw 594 1214 m21 6 lw 3 lw 613 1211 m21 6 lw 3 lw 632 1205 m21 6 lw 3 lw 651 1202 m21 6 lw 3
 lw 670 1192 m21 6 lw 3 lw 688 1190 m21 6 lw 3 lw 707 1186 m21 6 lw 3 lw 726 1179 m21 6 lw 3 lw 745 1173 m21 6 lw 3 lw 764 1172 m21 6 lw 3 lw 782 1168 m21 6 lw 3 lw 801 1162 m21 6 lw 3 lw 820 1162 m21 6 lw 3 lw 839 1157 m21 6 lw 3 lw 858 1153 m21 6
 lw 3 lw 877 1149 m21 6 lw 3 lw 895 1142 m21 6 lw 3 lw 914 1139 m21 6 lw 3 lw 933 1133 m21 6 lw 3 lw 952 1137 m21 6 lw 3 lw 971 1123 m21 6 lw 3 lw 990 1124 m21 6 lw 3 lw 1008 1121 m21 6 lw 3 lw 1027 1116 m21 6 lw 3 lw 1046 1112 m21 6 lw 3 lw 1065
 1106 m21 6 lw 3 lw 1084 1105 m21 6 lw 3 lw 1102 1098 m21 6 lw 3 lw 1121 1096 m21 6 lw 3 lw 1140 1094 m21 6 lw 3 lw 1159 1088 m21 6 lw 3 lw 1178 1087 m21 6 lw 3 lw 1197 1080 m21 6 lw 3 lw 1215 1083 m21 6 lw 3 lw 1234 1071 m21 6 lw 3 lw 1253 1074 m21
 6 lw 3 lw 1272 1068 m21 6 lw 3 lw 1291 1069 m21 6 lw 3 lw 1309 1061 m21 6 lw 3 lw 1328 1063 m21 6 lw 3 lw 1347 1060 m21 6 lw 3 lw 1366 1060 m21 6 lw 3 lw 1385 1057 m21 6 lw 3 lw 1404 1057 m21 6 lw 3 lw 1422 1057 m21 6 lw 3 lw 1441 1048 m21 6 lw 3 lw
 1460 1047 m21 6 lw 3 lw 1479 1050 m21 6 lw 3 lw 1498 1046 m21 6 lw 3 lw 1517 1047 m21 6 lw 3 lw 1535 1048 m21 6 lw 3 lw 1554 1050 m21 6 lw 3 lw 1573 1049 m21 6 lw 3 lw 1592 1052 m21 6 lw 3 lw 1611 1047 m21 6 lw 3 lw 1629 1039 m21 6 lw 3 lw 1648 1050
 m21 6 lw 3 lw 1667 1047 m21 6 lw 3 lw 1686 1045 m21 6 lw 3 lw 1705 1043 m21 6 lw 3 lw 1724 1056 m21 6 lw 3 lw 1742 1048 m21 6 lw 3 lw 1761 1044 m21 6 lw 3 lw 1780 1045 m21 6 lw 3 lw 1799 1050 m21 6 lw 3 lw 1818 1048 m21 6 lw 3 lw 1837 1050 m21 6 lw
 3 lw 1855 1047 m21 6 lw 3 lw 1874 1050 m21 6 lw 3 lw 1893 1051 m21 6 lw 3 lw 1912 1057 m21 6 lw 3 lw 1931 1051 m21 6 lw 3 lw 1949 1056 m21 6 lw 3 lw 1968 1050 m21 6 lw 3 lw 1987 1055 m21 6 lw 3 lw 2006 1051 m21 6 lw 3 lw 2025 1053 m21 6 lw 3 lw 2044
 1048 m21 6 lw 3 lw 2062 1053 m21 6 lw 3 lw 2081 1048 m21 6 lw 3 lw 2100 1050 m21 6 lw 3 lw 2119 1053 m21 6 lw 3 lw 2138 1054 m21 6 lw 3 lw 2156 1062 m21 6 lw 3 lw 2175 1066 m21 6 lw 3 lw 2194 1065 m21 6 lw 3 lw 2213 1072 m21 6 lw 0.8 0 1 c 1 1 1 c
 0.8 0 1 c 368 1345 m 10 Y s 368 1372 m 10 Y s 3 lw 368 1363 m21 6 lw 387 1124 m s 387 1141 m 1 Y s 3 lw 387 1133 m21 6 lw 3 lw 406 1191 m21 6 lw 3 lw 425 1211 m21 6 lw 3 lw 444 1231 m21 6 lw 3 lw 463 1224 m21 6 lw 3 lw 481 1238 m21 6 lw 3 lw 500
 1223 m21 6 lw 3 lw 519 1231 m21 6 lw 3 lw 538 1227 m21 6 lw 3 lw 557 1217 m21 6 lw 3 lw 575 1216 m21 6 lw 3 lw 594 1213 m21 6 lw 3 lw 613 1213 m21 6 lw 3 lw 632 1206 m21 6 lw 3 lw 651 1200 m21 6 lw 3 lw 670 1191 m21 6 lw 3 lw 688 1193 m21 6 lw 3 lw
 707 1185 m21 6 lw 3 lw 726 1177 m21 6 lw 3 lw 745 1172 m21 6 lw 3 lw 764 1171 m21 6 lw 3 lw 782 1168 m21 6 lw 3 lw 801 1161 m21 6 lw 3 lw 820 1158 m21 6 lw 3 lw 839 1159 m21 6 lw 3 lw 858 1152 m21 6 lw 3 lw 877 1148 m21 6 lw 3 lw 895 1144 m21 6 lw 3
 lw 914 1140 m21 6 lw 3 lw 933 1135 m21 6 lw 3 lw 952 1137 m21 6 lw 3 lw 971 1126 m21 6 lw 3 lw 990 1126 m21 6 lw 3 lw 1008 1119 m21 6 lw 3 lw 1027 1114 m21 6 lw 3 lw 1046 1110 m21 6 lw 3 lw 1065 1108 m21 6 lw 3 lw 1084 1102 m21 6 lw 3 lw 1102 1097
 m21 6 lw 3 lw 1121 1097 m21 6 lw 3 lw 1140 1095 m21 6 lw 3 lw 1159 1088 m21 6 lw 3 lw 1178 1084 m21 6 lw 3 lw 1197 1083 m21 6 lw 3 lw 1215 1079 m21 6 lw 3 lw 1234 1074 m21 6 lw 3 lw 1253 1074 m21 6 lw 3 lw 1272 1068 m21 6 lw 3 lw 1291 1065 m21 6 lw
 3 lw 1309 1064 m21 6 lw 3 lw 1328 1066 m21 6 lw 3 lw 1347 1061 m21 6 lw 3 lw 1366 1058 m21 6 lw 3 lw 1385 1061 m21 6 lw 3 lw 1404 1054 m21 6 lw 3 lw 1422 1054 m21 6 lw 3 lw 1441 1052 m21 6 lw 3 lw 1460 1050 m21 6 lw 3 lw 1479 1051 m21 6 lw 3 lw 1498
 1051 m21 6 lw 3 lw 1517 1048 m21 6 lw 3 lw 1535 1046 m21 6 lw 3 lw 1554 1047 m21 6 lw 3 lw 1573 1048 m21 6 lw 3 lw 1592 1052 m21 6 lw 3 lw 1611 1052 m21 6 lw 3 lw 1629 1043 m21 6 lw 3 lw 1648 1049 m21 6 lw 3 lw 1667 1044 m21 6 lw 3 lw 1686 1046 m21
 6 lw 3 lw 1705 1043 m21 6 lw 3 lw 1724 1043 m21 6 lw 3 lw 1742 1049 m21 6 lw 3 lw 1761 1047 m21 6 lw 3 lw 1780 1051 m21 6 lw 3 lw 1799 1047 m21 6 lw 3 lw 1818 1043 m21 6 lw 3 lw 1837 1047 m21 6 lw 3 lw 1855 1048 m21 6 lw 3 lw 1874 1047 m21 6 lw 3 lw
 1893 1057 m21 6 lw 3 lw 1912 1053 m21 6 lw 3 lw 1931 1050 m21 6 lw 3 lw 1949 1056 m21 6 lw 3 lw 1968 1058 m21 6 lw 3 lw 1987 1051 m21 6 lw 3 lw 2006 1041 m21 6 lw 3 lw 2025 1059 m21 6 lw 3 lw 2044 1057 m21 6 lw 3 lw 2062 1057 m21 6 lw 3 lw 2081 1054
 m21 6 lw 3 lw 2100 1061 m21 6 lw 3 lw 2119 1047 m21 6 lw 3 lw 2138 1068 m21 6 lw 3 lw 2156 1068 m21 6 lw 3 lw 2175 1061 m21 6 lw 3 lw 2194 1069 m21 6 lw 3 lw 2213 1054 m21 6 lw 0.4 0.4 0.4 c 1 1 1 c 0.4 0.4 0.4 c 368 1276 m 10 Y s 368 1303 m 9 Y s 3
 lw 368 1294 m21 6 lw 387 1112 m 1 Y s 387 1130 m 1 Y s 3 lw 387 1122 m21 6 lw 3 lw 406 1189 m21 6 lw 3 lw 425 1218 m21 6 lw 3 lw 444 1224 m21 6 lw 3 lw 463 1227 m21 6 lw 3 lw 481 1234 m21 6 lw 3 lw 500 1235 m21 6 lw 3 lw 519 1236 m21 6 lw 3 lw 538
 1229 m21 6 lw 3 lw 557 1221 m21 6 lw 3 lw 575 1220 m21 6 lw 3 lw 594 1220 m21 6 lw 3 lw 613 1218 m21 6 lw 3 lw 632 1209 m21 6 lw 3 lw 651 1205 m21 6 lw 3 lw 670 1194 m21 6 lw 3 lw 688 1194 m21 6 lw 3 lw 707 1184 m21 6 lw 3 lw 726 1181 m21 6 lw 3 lw
 745 1172 m21 6 lw 3 lw 764 1172 m21 6 lw 3 lw 782 1167 m21 6 lw 3 lw 801 1161 m21 6 lw 3 lw 820 1162 m21 6 lw 3 lw 839 1156 m21 6 lw 3 lw 858 1151 m21 6 lw 3 lw 877 1151 m21 6 lw 3 lw 895 1143 m21 6 lw 3 lw 914 1139 m21 6 lw 3 lw 933 1136 m21 6 lw 3
 lw 952 1132 m21 6 lw 3 lw 971 1128 m21 6 lw 3 lw 990 1126 m21 6 lw 3 lw 1008 1121 m21 6 lw 3 lw 1027 1115 m21 6 lw 3 lw 1046 1108 m21 6 lw 3 lw 1065 1103 m21 6 lw 3 lw 1084 1103 m21 6 lw 3 lw 1102 1100 m21 6 lw 3 lw 1121 1096 m21 6 lw 3 lw 1140 1096
 m21 6 lw 3 lw 1159 1089 m21 6 lw 3 lw 1178 1085 m21 6 lw 3 lw 1197 1082 m21 6 lw 3 lw 1215 1080 m21 6 lw 3 lw 1234 1073 m21 6 lw 3 lw 1253 1070 m21 6 lw 3 lw 1272 1069 m21 6 lw 3 lw 1291 1063 m21 6 lw 3 lw 1309 1067 m21 6 lw 3 lw 1328 1068 m21 6 lw
 3 lw 1347 1061 m21 6 lw 3 lw 1366 1060 m21 6 lw 3 lw 1385 1062 m21 6 lw 3 lw 1404 1052 m21 6 lw 3 lw 1422 1054 m21 6 lw 3 lw 1441 1051 m21 6 lw 3 lw 1460 1051 m21 6 lw 3 lw 1479 1044 m21 6 lw 3 lw 1498 1049 m21 6 lw 3 lw 1517 1048 m21 6 lw 3 lw 1535
 1051 m21 6 lw 3 lw 1554 1044 m21 6 lw 3 lw 1573 1044 m21 6 lw 3 lw 1592 1043 m21 6 lw 3 lw 1611 1044 m21 6 lw 3 lw 1629 1042 m21 6 lw 3 lw 1648 1047 m21 6 lw 3 lw 1667 1043 m21 6 lw 3 lw 1686 1044 m21 6 lw 3 lw 1705 1045 m21 6 lw 3 lw 1724 1048 m21
 6 lw 3 lw 1742 1044 m21 6 lw 3 lw 1761 1048 m21 6 lw 3 lw 1780 1043 m21 6 lw 3 lw 1799 1048 m21 6 lw 3 lw 1818 1046 m21 6 lw 3 lw 1837 1050 m21 6 lw 3 lw 1855 1044 m21 6 lw 3 lw 1874 1044 m21 6 lw 3 lw 1893 1050 m21 6 lw 3 lw 1912 1048 m21 6 lw 3 lw
 1931 1046 m21 6 lw 3 lw 1949 1046 m21 6 lw 3 lw 1968 1054 m21 6 lw 3 lw 1987 1057 m21 6 lw 3 lw 2006 1047 m21 6 lw 3 lw 2025 1058 m21 6 lw 3 lw 2044 1052 m21 6 lw 3 lw 2062 1051 m21 6 lw 3 lw 2081 1052 m21 6 lw 3 lw 2100 1063 m21 6 lw 3 lw 2119 1063
 m21 6 lw 3 lw 2138 1067 m21 6 lw 3 lw 2156 1073 m21 6 lw 3 lw 2175 1053 m21 6 lw 3 lw 2194 1062 m21 6 lw 3 lw 2213 1064 m21 6 lw black 1 1 1 c 680 447 1474 1675 bf black 1474 1675 m 680 X s 2154 1675 m 447 Y s 2154 2122 m -680 X s 1474 2122 m -447 Y
 s
 gsave  2268 2234 0 0 C 1490.5 2068.79 t 0 r /Helvetica findfont 56.835 sf 0 0 m (probNNpi cut) show NC gr 
 gsave  2268 2234 0 0 C 1643.95 1994.91 t 0 r /Helvetica findfont 56.835 sf 0 0 m (0.50) show NC gr  0 0 1 c 1559 1988 m 45 Y s 3 lw 1559 2010 m21 6 lw black
 gsave  2268 2234 0 0 C 1643.95 1919.6 t 0 r /Helvetica findfont 56.835 sf 0 0 m (0.60) show NC gr  1 0 0 c 1559 1913 m 45 Y s 3 lw 1559 1936 m21 6 lw black
 gsave  2268 2234 0 0 C 1643.95 1845.72 t 0 r /Helvetica findfont 56.835 sf 0 0 m (0.65) show NC gr  0 1 0 c 1559 1839 m 45 Y s 3 lw 1559 1861 m21 6 lw black
 gsave  2268 2234 0 0 C 1643.95 1770.41 t 0 r /Helvetica findfont 56.835 sf 0 0 m (0.70) show NC gr  0.8 0 1 c 1559 1765 m 44 Y s 3 lw 1559 1787 m21 6 lw black
 gsave  2268 2234 0 0 C 1643.95 1696.52 t 0 r /Helvetica findfont 56.835 sf 0 0 m (0.80) show NC gr  0.4 0.4 0.4 c 1559 1690 m 45 Y s 3 lw 1559 1712 m21 6 lw black
 gsave  2268 2234 0 0 C 906.518 670.653 t 0 r /Helvetica-Bold findfont 72.4646 sf 0 0 m (MC PIONS) show NC gr 
 gsave  2268 2234 0 0 C 906.518 558.404 t 0 r /Helvetica-Bold findfont 72.4646 sf 0 0 m (ref. sample: EVENT MIX) show NC gr 
 gsave  2268 2234 0 0 C 906.518 447.576 t 0 r /Helvetica-Bold findfont 72.4646 sf 0 0 m (VELO tracks multiplicity: 11 \255 20) show NC gr 
 gr  gr showpage
end
%%EOF
