%!PS-Adobe-2.0 EPSF-2.0
%%BoundingBox:  0 0 567 546
%%Title: plotsPV/multParts.eps: cd1
%%Creator: ROOT Version 5.34/10
%%CreationDate: Mon Feb  2 16:38:15 2015
%%EndComments
%%BeginProlog
80 dict begin
/s {stroke} def /l {lineto} def /m {moveto} def /t {translate} def
/r {rotate} def /rl {roll}  def /R {repeat} def
/d {rlineto} def /rm {rmoveto} def /gr {grestore} def /f {eofill} def
/c {setrgbcolor} def /black {0 setgray} def /sd {setdash} def
/cl {closepath} def /sf {scalefont setfont} def /lw {setlinewidth} def
/box {m dup 0 exch d exch 0 d 0 exch neg d cl} def
/NC{systemdict begin initclip end}def/C{NC box clip newpath}def
/bl {box s} def /bf {box f} def /Y { 0 exch d} def /X { 0 d} def 
/K {{pop pop 0 moveto} exch kshow} bind def
/ita {/ang 15 def gsave [1 0 ang dup sin exch cos div 1 0 0] concat} def 
/mp {newpath /y exch def /x exch def} def
/side {[w .77 mul w .23 mul] .385 w mul sd w 0 l currentpoint t -144 r} def
/mr {mp x y w2 0 360 arc} def /m24 {mr s} def /m20 {mr f} def
/mb {mp x y w2 add m w2 neg 0 d 0 w neg d w 0 d 0 w d cl} def
/mt {mp x y w2 add m w2 neg w neg d w 0 d cl} def
/m21 {mb f} def /m25 {mb s} def /m22 {mt f} def /m26{mt s} def
/m23 {mp x y w2 sub m w2 w d w neg 0 d cl f} def
/m27 {mp x y w2 add m w3 neg w2 neg d w3 w2 neg d w3 w2 d cl s} def
/m28 {mp x w2 sub y w2 sub w3 add m w3 0 d  0 w3 neg d w3 0 d 0 w3 d w3 0 d  0 w3 d w3 neg 0 d 0 w3 d w3 neg 0 d 0 w3 neg d w3 neg 0 d cl s } def
/m29 {mp gsave x w2 sub y w2 add w3 sub m currentpoint t 4 {side} repeat cl fill gr} def
/m30 {mp gsave x w2 sub y w2 add w3 sub m currentpoint t 4 {side} repeat cl s gr} def
/m31 {mp x y w2 sub m 0 w d x w2 sub y m w 0 d x w2 sub y w2 add m w w neg d x w2 sub y w2 sub m w w d s} def
/m32 {mp x y w2 sub m w2 w d w neg 0 d cl s} def
/m33 {mp x y w2 add m w3 neg w2 neg d w3 w2 neg d w3 w2 d cl f} def
/m34 {mp x w2 sub y w2 sub w3 add m w3 0 d  0 w3 neg d w3 0 d 0 w3 d w3 0 d  0 w3 d w3 neg 0 d 0 w3 d w3 neg 0 d 0 w3 neg d w3 neg 0 d cl f } def
/m2 {mp x y w2 sub m 0 w d x w2 sub y m w 0 d s} def
/m5 {mp x w2 sub y w2 sub m w w d x w2 sub y w2 add m w w neg d s} def
/reEncode {exch findfont dup length dict begin {1 index /FID eq  {pop pop} {def} ifelse } forall /Encoding exch def currentdict end dup /FontName get exch definefont pop } def [/Times-Bold /Times-Italic /Times-BoldItalic /Helvetica /Helvetica-Oblique
 /Helvetica-Bold /Helvetica-BoldOblique /Courier /Courier-Oblique /Courier-Bold /Courier-BoldOblique /Times-Roman /AvantGarde-Book /AvantGarde-BookOblique /AvantGarde-Demi /AvantGarde-DemiOblique /Bookman-Demi /Bookman-DemiItalic /Bookman-Light
 /Bookman-LightItalic /Helvetica-Narrow /Helvetica-Narrow-Bold /Helvetica-Narrow-BoldOblique /Helvetica-Narrow-Oblique /NewCenturySchlbk-Roman /NewCenturySchlbk-Bold /NewCenturySchlbk-BoldItalic /NewCenturySchlbk-Italic /Palatino-Bold
 /Palatino-BoldItalic /Palatino-Italic /Palatino-Roman ] {ISOLatin1Encoding reEncode } forall
%%EndProlog
%%BeginSetup
%%EndSetup
newpath  gsave  .25 .25 scale  gsave  0 0 t 1 0 0 c[  ] 0 sd 3 lw 1 1 1 c 2268 2184 0 0 bf black 1 1 1 c 1814 1748 227 218 bf black 1814 1748 227 218 bl 1 0 0 c 6 lw 1 1 1 c black 1 0 0 c 227 1596 m 36 X 175 Y 36 X 59 Y 37 X 16 Y 36 X -2 Y 36 X -25 Y
 36 X -14 Y 37 X -30 Y 36 X -9 Y 36 X -15 Y 37 X -22 Y 36 X -21 Y 36 X -20 Y 36 X -19 Y 37 X -20 Y 36 X -19 Y 36 X -8 Y 37 X -38 Y 36 X -16 Y 36 X -41 Y 36 X -21 Y 37 X -28 Y 36 X -50 Y 36 X -3 Y 37 X -37 Y 36 X -25 Y 36 X -49 Y 36 X 13 Y 37 X -93 Y
 36 X -22 Y 36 X -83 Y 37 X -9 Y 36 X -43 Y 36 X -61 Y 36 X 10 Y 37 X -57 Y 36 X -53 Y 36 X -76 Y 37 X -82 Y 36 X -22 Y 72 X -183 Y 37 X 158 Y 36 X -363 Y 36 X 205 Y 37 X -335 Y 181 X s black 3 lw 227 218 m 1814 X s
 gsave  2268 2184 0 0 C 1392.59 72.293 t 0 r /Helvetica findfont 79.9028 sf 0 0 m (particle multiplicity) show NC gr  227 271 m -53 Y s 263 245 m -27 Y s 299 245 m -27 Y s 336 245 m -27 Y s 372 245 m -27 Y s 408 271 m -53 Y s 444 245 m -27 Y s 481
 245 m -27 Y s 517 245 m -27 Y s 553 245 m -27 Y s 590 271 m -53 Y s 626 245 m -27 Y s 662 245 m -27 Y s 698 245 m -27 Y s 735 245 m -27 Y s 771 271 m -53 Y s 807 245 m -27 Y s 844 245 m -27 Y s 880 245 m -27 Y s 916 245 m -27 Y s 952 271 m -53 Y s
 989 245 m -27 Y s 1025 245 m -27 Y s 1061 245 m -27 Y s 1098 245 m -27 Y s 1134 271 m -53 Y s 1170 245 m -27 Y s 1206 245 m -27 Y s 1243 245 m -27 Y s 1279 245 m -27 Y s 1315 271 m -53 Y s 1352 245 m -27 Y s 1388 245 m -27 Y s 1424 245 m -27 Y s
 1460 245 m -27 Y s 1497 271 m -53 Y s 1533 245 m -27 Y s 1569 245 m -27 Y s 1606 245 m -27 Y s 1642 245 m -27 Y s 1678 271 m -53 Y s 1714 245 m -27 Y s 1751 245 m -27 Y s 1787 245 m -27 Y s 1823 245 m -27 Y s 1860 271 m -53 Y s 1896 245 m -27 Y s
 1932 245 m -27 Y s 1968 245 m -27 Y s 2005 245 m -27 Y s 2041 271 m -53 Y s
 gsave  2268 2184 0 0 C 205.464 156.001 t 0 r /Helvetica findfont 60.8783 sf 0 0 m (0) show NC gr 
 gsave  2268 2184 0 0 C 388.099 156.001 t 0 r /Helvetica findfont 60.8783 sf 0 0 m (5) show NC gr 
 gsave  2268 2184 0 0 C 551.71 156.001 t 0 r /Helvetica findfont 60.8783 sf 0 0 m (10) show NC gr 
 gsave  2268 2184 0 0 C 734.344 156.001 t 0 r /Helvetica findfont 60.8783 sf 0 0 m (15) show NC gr 
 gsave  2268 2184 0 0 C 916.979 156.001 t 0 r /Helvetica findfont 60.8783 sf 0 0 m (20) show NC gr 
 gsave  2268 2184 0 0 C 1099.61 156.001 t 0 r /Helvetica findfont 60.8783 sf 0 0 m (25) show NC gr 
 gsave  2268 2184 0 0 C 1278.44 156.001 t 0 r /Helvetica findfont 60.8783 sf 0 0 m (30) show NC gr 
 gsave  2268 2184 0 0 C 1461.08 156.001 t 0 r /Helvetica findfont 60.8783 sf 0 0 m (35) show NC gr 
 gsave  2268 2184 0 0 C 1643.71 156.001 t 0 r /Helvetica findfont 60.8783 sf 0 0 m (40) show NC gr 
 gsave  2268 2184 0 0 C 1822.54 156.001 t 0 r /Helvetica findfont 60.8783 sf 0 0 m (45) show NC gr 
 gsave  2268 2184 0 0 C 2005.18 156.001 t 0 r /Helvetica findfont 60.8783 sf 0 0 m (50) show NC gr  227 218 m 1748 Y s
 gsave  2268 2184 0 0 C 72.293 985.467 t 90 r /Helvetica findfont 79.9028 sf 0 0 m (\(1 / N\) * \(dN / d\(multiplicity\)\)) show NC gr  254 289 m -27 X s 254 365 m -27 X s 254 419 m -27 X s 254 460 m -27 X s 254 494 m -27 X s 254 523 m -27 X s 254
 548 m -27 X s 254 570 m -27 X s 281 589 m -54 X s
 gsave  2268 2184 0 0 C 171.22 589.758 t 0 r /Helvetica findfont 41.8538 sf 0 0 m (\2554) show NC gr 
 gsave  2268 2184 0 0 C 102.732 559.319 t 0 r /Helvetica findfont 60.8783 sf 0 0 m (10) show NC gr  254 719 m -27 X s 254 794 m -27 X s 254 848 m -27 X s 254 890 m -27 X s 254 924 m -27 X s 254 952 m -27 X s 254 977 m -27 X s 254 999 m -27 X s 281
 1019 m -54 X s
 gsave  2268 2184 0 0 C 171.22 1023.52 t 0 r /Helvetica findfont 41.8538 sf 0 0 m (\2553) show NC gr 
 gsave  2268 2184 0 0 C 102.732 989.272 t 0 r /Helvetica findfont 60.8783 sf 0 0 m (10) show NC gr  254 1148 m -27 X s 254 1224 m -27 X s 254 1278 m -27 X s 254 1319 m -27 X s 254 1353 m -27 X s 254 1382 m -27 X s 254 1407 m -27 X s 254 1429 m -27 X
 s 281 1448 m -54 X s
 gsave  2268 2184 0 0 C 171.22 1449.66 t 0 r /Helvetica findfont 41.8538 sf 0 0 m (\2552) show NC gr 
 gsave  2268 2184 0 0 C 102.732 1419.23 t 0 r /Helvetica findfont 60.8783 sf 0 0 m (10) show NC gr  254 1578 m -27 X s 254 1653 m -27 X s 254 1707 m -27 X s 254 1749 m -27 X s 254 1783 m -27 X s 254 1811 m -27 X s 254 1836 m -27 X s 254 1858 m -27 X
 s 281 1878 m -54 X s
 gsave  2268 2184 0 0 C 178.83 1879.62 t 0 r /Helvetica findfont 41.8538 sf 0 0 m (\2551) show NC gr 
 gsave  2268 2184 0 0 C 110.342 1849.18 t 0 r /Helvetica findfont 60.8783 sf 0 0 m (10) show NC gr  9 lw 1 1 1 c black 3 lw /w 26 def /w2 {w 2 div} def /w3 {w 3 div} def 245 1573 m20 9 lw 3 lw 281 1756 m20 9 lw 3 lw 317 1823 m20 9 lw 3 lw 354 1846
 m20 9 lw 3 lw 390 1846 m20 9 lw 3 lw 426 1822 m20 9 lw 3 lw 463 1807 m20 9 lw 3 lw 499 1779 m20 9 lw 3 lw 535 1771 m20 9 lw 3 lw 571 1754 m20 9 lw 3 lw 608 1733 m20 9 lw 3 lw 644 1710 m20 9 lw 3 lw 680 1691 m20 9 lw 3 lw 717 1671 m20 9 lw 3 lw 753
 1653 m20 9 lw 3 lw 789 1633 m20 9 lw 3 lw 825 1623 m20 9 lw 3 lw 862 1586 m20 9 lw 3 lw 898 1568 m20 9 lw 3 lw 934 1529 m20 9 lw 3 lw 971 1507 m20 9 lw 3 lw 1007 1480 m20 9 lw 3 lw 1043 1431 m20 9 lw 3 lw 1079 1424 m20 9 lw 1116 1378 m s 1116 1401 m
 s 3 lw 1116 1390 m20 9 lw 1152 1351 m 2 Y s 1152 1375 m 1 Y s 3 lw 1152 1364 m20 9 lw 1188 1298 m 4 Y s 1188 1324 m 3 Y s 3 lw 1188 1313 m20 9 lw 1225 1310 m 4 Y s 1225 1336 m 3 Y s 3 lw 1225 1325 m20 9 lw 1261 1220 m 8 Y s 1261 1250 m 6 Y s 3 lw
 1261 1239 m20 9 lw 1297 1186 m 9 Y s 1297 1217 m 7 Y s 3 lw 1297 1206 m20 9 lw 1333 1111 m 14 Y s 1333 1148 m 10 Y s 3 lw 1333 1136 m20 9 lw 1370 1092 m 15 Y s 1370 1129 m 12 Y s 3 lw 1370 1118 m20 9 lw 1406 1036 m 19 Y s 1406 1078 m 15 Y s 3 lw
 1406 1066 m20 9 lw 1442 983 m 24 Y s 1442 1030 m 18 Y s 3 lw 1442 1018 m20 9 lw 1479 1001 m 22 Y s 1479 1046 m 17 Y s 3 lw 1479 1034 m20 9 lw 1515 919 m 31 Y s 1515 972 m 23 Y s 3 lw 1515 961 m20 9 lw 1551 872 m 36 Y s 1551 931 m 26 Y s 3 lw 1551
 919 m20 9 lw 1587 795 m 46 Y s 1587 864 m 33 Y s 3 lw 1587 853 m20 9 lw 1624 667 m 70 Y s 1624 760 m 45 Y s 3 lw 1624 748 m20 9 lw 1660 635 m 77 Y s 1660 735 m 48 Y s 3 lw 1660 724 m20 9 lw 1696 597 m 86 Y s 1696 706 m 53 Y s 3 lw 1696 695 m20 9 lw
 1733 405 m 149 Y s 1733 577 m 74 Y s 3 lw 1733 566 m20 9 lw 1769 597 m 86 Y s 1769 706 m 53 Y s 3 lw 1769 695 m20 9 lw 1805 218 m 131 Y s 1805 372 m 118 Y s 3 lw 1805 361 m20 9 lw 1841 261 m 217 Y s 1841 501 m 89 Y s 3 lw 1841 490 m20 9 lw
 gsave  2268 2184 0 0 C 1925.28 1856.79 t 0 r /Helvetica-Bold findfont 72.293 sf 0 0 m (\(b\)) show NC gr 
 gr  gr showpage
end
%%EOF
