%!PS-Adobe-2.0 EPSF-2.0
%%BoundingBox:  0 0 567 546
%%Title: plots/multPV_MC.eps: cd1
%%Creator: ROOT Version 5.34/36
%%CreationDate: Wed Dec 14 15:17:57 2016
%%EndComments
%%BeginProlog
80 dict begin
/s {stroke} def /l {lineto} def /m {moveto} def /t {translate} def
/r {rotate} def /rl {roll}  def /R {repeat} def
/d {rlineto} def /rm {rmoveto} def /gr {grestore} def /f {eofill} def
/c {setrgbcolor} def /black {0 setgray} def /sd {setdash} def
/cl {closepath} def /sf {scalefont setfont} def /lw {setlinewidth} def
/box {m dup 0 exch d exch 0 d 0 exch neg d cl} def
/NC{systemdict begin initclip end}def/C{NC box clip newpath}def
/bl {box s} def /bf {gsave box gsave f grestore 1 lw [] 0 sd s grestore} def /Y { 0 exch d} def /X { 0 d} def 
/K {{pop pop 0 moveto} exch kshow} bind def
/ita {/ang 15 def gsave [1 0 ang dup sin exch cos div 1 0 0] concat} def 
/mp {newpath /y exch def /x exch def} def
/side {[w .77 mul w .23 mul] .385 w mul sd w 0 l currentpoint t -144 r} def
/mr {mp x y w2 0 360 arc} def /m24 {mr s} def /m20 {mr f} def
/mb {mp x y w2 add m w2 neg 0 d 0 w neg d w 0 d 0 w d cl} def
/mt {mp x y w2 add m w2 neg w neg d w 0 d cl} def
/m21 {mb f} def /m25 {mb s} def /m22 {mt f} def /m26{mt s} def
/m23 {mp x y w2 sub m w2 w d w neg 0 d cl f} def
/m27 {mp x y w2 add m w3 neg w2 neg d w3 w2 neg d w3 w2 d cl s} def
/m28 {mp x w2 sub y w2 sub w3 add m w3 0 d  0 w3 neg d w3 0 d 0 w3 d w3 0 d  0 w3 d w3 neg 0 d 0 w3 d w3 neg 0 d 0 w3 neg d w3 neg 0 d cl s } def
/m29 {mp gsave x w2 sub y w2 add w3 sub m currentpoint t 4 {side} repeat cl fill gr} def
/m30 {mp gsave x w2 sub y w2 add w3 sub m currentpoint t 4 {side} repeat cl s gr} def
/m31 {mp x y w2 sub m 0 w d x w2 sub y m w 0 d x w2 sub y w2 add m w w neg d x w2 sub y w2 sub m w w d s} def
/m32 {mp x y w2 sub m w2 w d w neg 0 d cl s} def
/m33 {mp x y w2 add m w3 neg w2 neg d w3 w2 neg d w3 w2 d cl f} def
/m34 {mp x w2 sub y w2 sub w3 add m w3 0 d  0 w3 neg d w3 0 d 0 w3 d w3 0 d  0 w3 d w3 neg 0 d 0 w3 d w3 neg 0 d 0 w3 neg d w3 neg 0 d cl f } def
/m2 {mp x y w2 sub m 0 w d x w2 sub y m w 0 d s} def
/m5 {mp x w2 sub y w2 sub m w w d x w2 sub y w2 add m w w neg d s} def
/reEncode {exch findfont dup length dict begin {1 index /FID eq  {pop pop} {def} ifelse } forall /Encoding exch def currentdict end dup /FontName get exch definefont pop } def [/Times-Bold /Times-Italic /Times-BoldItalic /Helvetica /Helvetica-Oblique
 /Helvetica-Bold /Helvetica-BoldOblique /Courier /Courier-Oblique /Courier-Bold /Courier-BoldOblique /Times-Roman /AvantGarde-Book /AvantGarde-BookOblique /AvantGarde-Demi /AvantGarde-DemiOblique /Bookman-Demi /Bookman-DemiItalic /Bookman-Light
 /Bookman-LightItalic /Helvetica-Narrow /Helvetica-Narrow-Bold /Helvetica-Narrow-BoldOblique /Helvetica-Narrow-Oblique /NewCenturySchlbk-Roman /NewCenturySchlbk-Bold /NewCenturySchlbk-BoldItalic /NewCenturySchlbk-Italic /Palatino-Bold
 /Palatino-BoldItalic /Palatino-Italic /Palatino-Roman ] {ISOLatin1Encoding reEncode } forall
%%EndProlog
%%BeginSetup
%%EndSetup
newpath  gsave  .25 .25 scale  gsave  0 0 t 1 0 0 c[  ] 0 sd 3 lw 1 1 1 c 2268 2184 0 0 bf black 1 1 1 c 1814 1748 227 218 bf black 1814 1748 227 218 bl 1 0 0 c 6 lw 1 1 1 c black 1 0 0 c 227 218 m 181 X 1665 Y 182 X -778 Y 181 X -585 Y 181 X -238 Y
 182 X -49 Y 181 X -12 Y 182 X -1 Y 181 X -2 Y 363 X s black 3 lw 227 218 m 1814 X s
 gsave  2268 2184 0 0 C 1520.66 68.259 t 0 r /Helvetica findfont 83.4277 sf 0 0 m (PV multiplicity) show NC gr  227 271 m -53 Y s 263 245 m -27 Y s 299 245 m -27 Y s 336 245 m -27 Y s 372 245 m -27 Y s 408 271 m -53 Y s 444 245 m -27 Y s 481 245 m
 -27 Y s 517 245 m -27 Y s 553 245 m -27 Y s 590 271 m -53 Y s 626 245 m -27 Y s 662 245 m -27 Y s 698 245 m -27 Y s 735 245 m -27 Y s 771 271 m -53 Y s 807 245 m -27 Y s 844 245 m -27 Y s 880 245 m -27 Y s 916 245 m -27 Y s 952 271 m -53 Y s 989 245
 m -27 Y s 1025 245 m -27 Y s 1061 245 m -27 Y s 1098 245 m -27 Y s 1134 271 m -53 Y s 1170 245 m -27 Y s 1206 245 m -27 Y s 1243 245 m -27 Y s 1279 245 m -27 Y s 1315 271 m -53 Y s 1352 245 m -27 Y s 1388 245 m -27 Y s 1424 245 m -27 Y s 1460 245 m
 -27 Y s 1497 271 m -53 Y s 1533 245 m -27 Y s 1569 245 m -27 Y s 1606 245 m -27 Y s 1642 245 m -27 Y s 1678 271 m -53 Y s 1714 245 m -27 Y s 1751 245 m -27 Y s 1787 245 m -27 Y s 1823 245 m -27 Y s 1860 271 m -53 Y s 1896 245 m -27 Y s 1932 245 m
 -27 Y s 1968 245 m -27 Y s 2005 245 m -27 Y s 2041 271 m -53 Y s
 gsave  2268 2184 0 0 C 204.777 155.479 t 0 r /Helvetica findfont 60.6747 sf 0 0 m (0) show NC gr 
 gsave  2268 2184 0 0 C 394.385 155.479 t 0 r /Helvetica findfont 60.6747 sf 0 0 m (1) show NC gr 
 gsave  2268 2184 0 0 C 568.825 155.479 t 0 r /Helvetica findfont 60.6747 sf 0 0 m (2) show NC gr 
 gsave  2268 2184 0 0 C 750.849 155.479 t 0 r /Helvetica findfont 60.6747 sf 0 0 m (3) show NC gr 
 gsave  2268 2184 0 0 C 932.873 155.479 t 0 r /Helvetica findfont 60.6747 sf 0 0 m (4) show NC gr 
 gsave  2268 2184 0 0 C 1114.9 155.479 t 0 r /Helvetica findfont 60.6747 sf 0 0 m (5) show NC gr 
 gsave  2268 2184 0 0 C 1293.13 155.479 t 0 r /Helvetica findfont 60.6747 sf 0 0 m (6) show NC gr 
 gsave  2268 2184 0 0 C 1475.15 155.479 t 0 r /Helvetica findfont 60.6747 sf 0 0 m (7) show NC gr 
 gsave  2268 2184 0 0 C 1657.18 155.479 t 0 r /Helvetica findfont 60.6747 sf 0 0 m (8) show NC gr 
 gsave  2268 2184 0 0 C 1839.2 155.479 t 0 r /Helvetica findfont 60.6747 sf 0 0 m (9) show NC gr 
 gsave  2268 2184 0 0 C 2006.06 155.479 t 0 r /Helvetica findfont 60.6747 sf 0 0 m (10) show NC gr  227 218 m 1748 Y s
 gsave  2268 2184 0 0 C 72.0512 1308.3 t 90 r /Helvetica findfont 83.4277 sf 0 0 m (dN / d\(multiplicity\)) show NC gr  281 218 m -54 X s 254 275 m -27 X s 254 332 m -27 X s 254 388 m -27 X s 281 445 m -54 X s 254 502 m -27 X s 254 559 m -27 X s 254
 615 m -27 X s 281 672 m -54 X s 254 729 m -27 X s 254 785 m -27 X s 254 842 m -27 X s 281 899 m -54 X s 254 955 m -27 X s 254 1012 m -27 X s 254 1069 m -27 X s 281 1125 m -54 X s 254 1182 m -27 X s 254 1239 m -27 X s 254 1295 m -27 X s 281 1352 m
 -54 X s 254 1409 m -27 X s 254 1465 m -27 X s 254 1522 m -27 X s 281 1579 m -54 X s 254 1636 m -27 X s 254 1692 m -27 X s 254 1749 m -27 X s 281 1806 m -54 X s 281 1806 m -54 X s 254 1862 m -27 X s 254 1919 m -27 X s
 gsave  2268 2184 0 0 C 178.232 197.193 t 0 r /Helvetica findfont 60.6747 sf 0 0 m (0) show NC gr 
 gsave  2268 2184 0 0 C 113.765 424.723 t 0 r /Helvetica findfont 60.6747 sf 0 0 m (200) show NC gr 
 gsave  2268 2184 0 0 C 113.765 652.253 t 0 r /Helvetica findfont 60.6747 sf 0 0 m (400) show NC gr 
 gsave  2268 2184 0 0 C 113.765 875.991 t 0 r /Helvetica findfont 60.6747 sf 0 0 m (600) show NC gr 
 gsave  2268 2184 0 0 C 113.765 1103.52 t 0 r /Helvetica findfont 60.6747 sf 0 0 m (800) show NC gr 
 gsave  2268 2184 0 0 C 79.6355 1331.05 t 0 r /Helvetica findfont 60.6747 sf 0 0 m (1000) show NC gr 
 gsave  2268 2184 0 0 C 79.6355 1558.58 t 0 r /Helvetica findfont 60.6747 sf 0 0 m (1200) show NC gr 
 gsave  2268 2184 0 0 C 79.6355 1786.11 t 0 r /Helvetica findfont 60.6747 sf 0 0 m (1400) show NC gr  0 0 1 c 6 lw 1 1 1 c black 0 0 1 c 227 218 m 181 X 1665 Y 182 X -778 Y 181 X -585 Y 181 X -238 Y 182 X -49 Y 181 X -12 Y 182 X -1 Y 181 X -2 Y 363 X
 s 1 0.8 0 c 1 1 1 c black 1 0.8 0 c 227 218 m 181 X 1665 Y 182 X -778 Y 181 X -585 Y 181 X -238 Y 182 X -49 Y 181 X -12 Y 182 X -1 Y 181 X -2 Y 363 X s 1 0 0 c 1 1 1 c black 1 0 0 c 227 218 m 181 X 1665 Y 182 X -778 Y 181 X -585 Y 181 X -238 Y 182 X
 -49 Y 181 X -12 Y 182 X -1 Y 181 X -2 Y 363 X s black
 gsave  2268 2184 0 0 C 1812.66 1858.16 t 0 r /Helvetica-Bold findfont 72.0512 sf 0 0 m (MC) show NC gr 
 gr  gr showpage
end
%%EOF
