%!PS-Adobe-2.0 EPSF-2.0
%%BoundingBox:  0 0 567 546
%%Title: plotsPV/multParts.eps: cd1
%%Creator: ROOT Version 5.34/10
%%CreationDate: Mon Feb  2 16:37:33 2015
%%EndComments
%%BeginProlog
80 dict begin
/s {stroke} def /l {lineto} def /m {moveto} def /t {translate} def
/r {rotate} def /rl {roll}  def /R {repeat} def
/d {rlineto} def /rm {rmoveto} def /gr {grestore} def /f {eofill} def
/c {setrgbcolor} def /black {0 setgray} def /sd {setdash} def
/cl {closepath} def /sf {scalefont setfont} def /lw {setlinewidth} def
/box {m dup 0 exch d exch 0 d 0 exch neg d cl} def
/NC{systemdict begin initclip end}def/C{NC box clip newpath}def
/bl {box s} def /bf {box f} def /Y { 0 exch d} def /X { 0 d} def 
/K {{pop pop 0 moveto} exch kshow} bind def
/ita {/ang 15 def gsave [1 0 ang dup sin exch cos div 1 0 0] concat} def 
/mp {newpath /y exch def /x exch def} def
/side {[w .77 mul w .23 mul] .385 w mul sd w 0 l currentpoint t -144 r} def
/mr {mp x y w2 0 360 arc} def /m24 {mr s} def /m20 {mr f} def
/mb {mp x y w2 add m w2 neg 0 d 0 w neg d w 0 d 0 w d cl} def
/mt {mp x y w2 add m w2 neg w neg d w 0 d cl} def
/m21 {mb f} def /m25 {mb s} def /m22 {mt f} def /m26{mt s} def
/m23 {mp x y w2 sub m w2 w d w neg 0 d cl f} def
/m27 {mp x y w2 add m w3 neg w2 neg d w3 w2 neg d w3 w2 d cl s} def
/m28 {mp x w2 sub y w2 sub w3 add m w3 0 d  0 w3 neg d w3 0 d 0 w3 d w3 0 d  0 w3 d w3 neg 0 d 0 w3 d w3 neg 0 d 0 w3 neg d w3 neg 0 d cl s } def
/m29 {mp gsave x w2 sub y w2 add w3 sub m currentpoint t 4 {side} repeat cl fill gr} def
/m30 {mp gsave x w2 sub y w2 add w3 sub m currentpoint t 4 {side} repeat cl s gr} def
/m31 {mp x y w2 sub m 0 w d x w2 sub y m w 0 d x w2 sub y w2 add m w w neg d x w2 sub y w2 sub m w w d s} def
/m32 {mp x y w2 sub m w2 w d w neg 0 d cl s} def
/m33 {mp x y w2 add m w3 neg w2 neg d w3 w2 neg d w3 w2 d cl f} def
/m34 {mp x w2 sub y w2 sub w3 add m w3 0 d  0 w3 neg d w3 0 d 0 w3 d w3 0 d  0 w3 d w3 neg 0 d 0 w3 d w3 neg 0 d 0 w3 neg d w3 neg 0 d cl f } def
/m2 {mp x y w2 sub m 0 w d x w2 sub y m w 0 d s} def
/m5 {mp x w2 sub y w2 sub m w w d x w2 sub y w2 add m w w neg d s} def
/reEncode {exch findfont dup length dict begin {1 index /FID eq  {pop pop} {def} ifelse } forall /Encoding exch def currentdict end dup /FontName get exch definefont pop } def [/Times-Bold /Times-Italic /Times-BoldItalic /Helvetica /Helvetica-Oblique
 /Helvetica-Bold /Helvetica-BoldOblique /Courier /Courier-Oblique /Courier-Bold /Courier-BoldOblique /Times-Roman /AvantGarde-Book /AvantGarde-BookOblique /AvantGarde-Demi /AvantGarde-DemiOblique /Bookman-Demi /Bookman-DemiItalic /Bookman-Light
 /Bookman-LightItalic /Helvetica-Narrow /Helvetica-Narrow-Bold /Helvetica-Narrow-BoldOblique /Helvetica-Narrow-Oblique /NewCenturySchlbk-Roman /NewCenturySchlbk-Bold /NewCenturySchlbk-BoldItalic /NewCenturySchlbk-Italic /Palatino-Bold
 /Palatino-BoldItalic /Palatino-Italic /Palatino-Roman ] {ISOLatin1Encoding reEncode } forall
%%EndProlog
%%BeginSetup
%%EndSetup
newpath  gsave  .25 .25 scale  gsave  0 0 t 1 0 0 c[  ] 0 sd 3 lw 1 1 1 c 2268 2184 0 0 bf black 1 1 1 c 1814 1748 227 218 bf black 1814 1748 227 218 bl 1 0 0 c 6 lw 1 1 1 c black 1 0 0 c 227 653 m 36 X 675 Y 36 X 418 Y 37 X 136 Y 36 X -21 Y 36 X
 -205 Y 36 X -108 Y 37 X -194 Y 36 X -56 Y 36 X -80 Y 37 X -113 Y 36 X -96 Y 36 X -77 Y 36 X -70 Y 37 X -68 Y 36 X -55 Y 36 X -20 Y 37 X -92 Y 36 X -35 Y 36 X -73 Y 36 X -33 Y 37 X -36 Y 36 X -55 Y 36 X -3 Y 37 X -31 Y 36 X -18 Y 36 X -29 Y 36 X 7 Y
 37 X -40 Y 36 X -7 Y 36 X -20 Y 37 X -2 Y 36 X -7 Y 36 X -7 Y 36 X 1 Y 37 X -6 Y 36 X -3 Y 36 X -4 Y 37 X -3 Y 108 X -3 Y 37 X 2 Y 36 X -3 Y 36 X 1 Y 37 X -2 Y 181 X s black 3 lw 227 218 m 1814 X s
 gsave  2268 2184 0 0 C 1392.59 72.293 t 0 r /Helvetica findfont 79.9028 sf 0 0 m (particle multiplicity) show NC gr  227 271 m -53 Y s 263 245 m -27 Y s 299 245 m -27 Y s 336 245 m -27 Y s 372 245 m -27 Y s 408 271 m -53 Y s 444 245 m -27 Y s 481
 245 m -27 Y s 517 245 m -27 Y s 553 245 m -27 Y s 590 271 m -53 Y s 626 245 m -27 Y s 662 245 m -27 Y s 698 245 m -27 Y s 735 245 m -27 Y s 771 271 m -53 Y s 807 245 m -27 Y s 844 245 m -27 Y s 880 245 m -27 Y s 916 245 m -27 Y s 952 271 m -53 Y s
 989 245 m -27 Y s 1025 245 m -27 Y s 1061 245 m -27 Y s 1098 245 m -27 Y s 1134 271 m -53 Y s 1170 245 m -27 Y s 1206 245 m -27 Y s 1243 245 m -27 Y s 1279 245 m -27 Y s 1315 271 m -53 Y s 1352 245 m -27 Y s 1388 245 m -27 Y s 1424 245 m -27 Y s
 1460 245 m -27 Y s 1497 271 m -53 Y s 1533 245 m -27 Y s 1569 245 m -27 Y s 1606 245 m -27 Y s 1642 245 m -27 Y s 1678 271 m -53 Y s 1714 245 m -27 Y s 1751 245 m -27 Y s 1787 245 m -27 Y s 1823 245 m -27 Y s 1860 271 m -53 Y s 1896 245 m -27 Y s
 1932 245 m -27 Y s 1968 245 m -27 Y s 2005 245 m -27 Y s 2041 271 m -53 Y s
 gsave  2268 2184 0 0 C 205.464 156.001 t 0 r /Helvetica findfont 60.8783 sf 0 0 m (0) show NC gr 
 gsave  2268 2184 0 0 C 388.099 156.001 t 0 r /Helvetica findfont 60.8783 sf 0 0 m (5) show NC gr 
 gsave  2268 2184 0 0 C 551.71 156.001 t 0 r /Helvetica findfont 60.8783 sf 0 0 m (10) show NC gr 
 gsave  2268 2184 0 0 C 734.344 156.001 t 0 r /Helvetica findfont 60.8783 sf 0 0 m (15) show NC gr 
 gsave  2268 2184 0 0 C 916.979 156.001 t 0 r /Helvetica findfont 60.8783 sf 0 0 m (20) show NC gr 
 gsave  2268 2184 0 0 C 1099.61 156.001 t 0 r /Helvetica findfont 60.8783 sf 0 0 m (25) show NC gr 
 gsave  2268 2184 0 0 C 1278.44 156.001 t 0 r /Helvetica findfont 60.8783 sf 0 0 m (30) show NC gr 
 gsave  2268 2184 0 0 C 1461.08 156.001 t 0 r /Helvetica findfont 60.8783 sf 0 0 m (35) show NC gr 
 gsave  2268 2184 0 0 C 1643.71 156.001 t 0 r /Helvetica findfont 60.8783 sf 0 0 m (40) show NC gr 
 gsave  2268 2184 0 0 C 1822.54 156.001 t 0 r /Helvetica findfont 60.8783 sf 0 0 m (45) show NC gr 
 gsave  2268 2184 0 0 C 2005.18 156.001 t 0 r /Helvetica findfont 60.8783 sf 0 0 m (50) show NC gr  227 218 m 1748 Y s
 gsave  2268 2184 0 0 C 72.293 985.467 t 90 r /Helvetica findfont 79.9028 sf 0 0 m (\(1 / N\) * \(dN / d\(multiplicity\)\)) show NC gr  281 218 m -54 X s 254 258 m -27 X s 254 297 m -27 X s 254 337 m -27 X s 254 376 m -27 X s 281 415 m -54 X s 254
 455 m -27 X s 254 494 m -27 X s 254 534 m -27 X s 254 573 m -27 X s 281 612 m -54 X s 254 652 m -27 X s 254 691 m -27 X s 254 731 m -27 X s 254 770 m -27 X s 281 809 m -54 X s 254 849 m -27 X s 254 888 m -27 X s 254 928 m -27 X s 254 967 m -27 X s
 281 1006 m -54 X s 254 1046 m -27 X s 254 1085 m -27 X s 254 1125 m -27 X s 254 1164 m -27 X s 281 1203 m -54 X s 254 1243 m -27 X s 254 1282 m -27 X s 254 1322 m -27 X s 254 1361 m -27 X s 281 1400 m -54 X s 254 1440 m -27 X s 254 1479 m -27 X s
 254 1519 m -27 X s 254 1558 m -27 X s 281 1597 m -54 X s 254 1637 m -27 X s 254 1676 m -27 X s 254 1716 m -27 X s 254 1755 m -27 X s 281 1795 m -54 X s 281 1795 m -54 X s 254 1834 m -27 X s 254 1873 m -27 X s 254 1913 m -27 X s 254 1952 m -27 X s
 gsave  2268 2184 0 0 C 178.83 197.854 t 0 r /Helvetica findfont 60.8783 sf 0 0 m (0) show NC gr 
 gsave  2268 2184 0 0 C 106.537 395.709 t 0 r /Helvetica findfont 60.8783 sf 0 0 m (0.01) show NC gr 
 gsave  2268 2184 0 0 C 95.1223 589.758 t 0 r /Helvetica findfont 60.8783 sf 0 0 m (0.02) show NC gr 
 gsave  2268 2184 0 0 C 95.1223 787.613 t 0 r /Helvetica findfont 60.8783 sf 0 0 m (0.03) show NC gr 
 gsave  2268 2184 0 0 C 95.1223 985.467 t 0 r /Helvetica findfont 60.8783 sf 0 0 m (0.04) show NC gr 
 gsave  2268 2184 0 0 C 95.1223 1183.32 t 0 r /Helvetica findfont 60.8783 sf 0 0 m (0.05) show NC gr 
 gsave  2268 2184 0 0 C 95.1223 1381.18 t 0 r /Helvetica findfont 60.8783 sf 0 0 m (0.06) show NC gr 
 gsave  2268 2184 0 0 C 95.1223 1575.23 t 0 r /Helvetica findfont 60.8783 sf 0 0 m (0.07) show NC gr 
 gsave  2268 2184 0 0 C 95.1223 1773.08 t 0 r /Helvetica findfont 60.8783 sf 0 0 m (0.08) show NC gr  9 lw 1 1 1 c black 245 587 m 3 Y s 245 613 m 4 Y s 3 lw /w 26 def /w2 {w 2 div} def /w3 {w 3 div} def 245 602 m20 9 lw 281 1217 m 13 Y s 281 1253 m
 13 Y s 3 lw 281 1241 m20 9 lw 317 1659 m 17 Y s 317 1699 m 18 Y s 3 lw 317 1688 m20 9 lw 354 1848 m 19 Y s 354 1890 m 20 Y s 3 lw 354 1879 m20 9 lw 390 1851 m 19 Y s 390 1893 m 20 Y s 3 lw 390 1882 m20 9 lw 426 1646 m 18 Y s 426 1686 m 18 Y s 3 lw
 426 1675 m20 9 lw 463 1538 m 16 Y s 463 1577 m 17 Y s 3 lw 463 1566 m20 9 lw 499 1350 m 14 Y s 499 1387 m 15 Y s 3 lw 499 1376 m20 9 lw 535 1301 m 14 Y s 535 1338 m 13 Y s 3 lw 535 1326 m20 9 lw 571 1206 m 13 Y s 571 1242 m 12 Y s 3 lw 571 1230 m20
 9 lw 608 1101 m 11 Y s 608 1135 m 11 Y s 3 lw 608 1123 m20 9 lw 644 998 m 10 Y s 644 1031 m 10 Y s 3 lw 644 1019 m20 9 lw 680 922 m 9 Y s 680 953 m 10 Y s 3 lw 680 942 m20 9 lw 717 850 m 8 Y s 717 881 m 8 Y s 3 lw 717 869 m20 9 lw 753 789 m 7 Y s
 753 819 m 7 Y s 3 lw 753 808 m20 9 lw 789 732 m 6 Y s 789 761 m 6 Y s 3 lw 789 749 m20 9 lw 825 703 m 6 Y s 825 732 m 5 Y s 3 lw 825 720 m20 9 lw 862 616 m 4 Y s 862 643 m 4 Y s 3 lw 862 631 m20 9 lw 898 577 m 4 Y s 898 603 m 4 Y s 3 lw 898 592 m20
 9 lw 934 508 m 2 Y s 934 533 m 2 Y s 3 lw 934 522 m20 9 lw 971 475 m 1 Y s 971 499 m 1 Y s 3 lw 971 488 m20 9 lw 1007 441 m s 1007 464 m s 3 lw 1007 452 m20 9 lw 3 lw 1043 397 m20 9 lw 3 lw 1079 391 m20 9 lw 3 lw 1116 362 m20 9 lw 3 lw 1152 344 m20
 9 lw 3 lw 1188 314 m20 9 lw 3 lw 1225 320 m20 9 lw 3 lw 1261 283 m20 9 lw 3 lw 1297 272 m20 9 lw 3 lw 1333 255 m20 9 lw 3 lw 1370 252 m20 9 lw 3 lw 1406 244 m20 9 lw 3 lw 1442 238 m20 9 lw 3 lw 1479 240 m20 9 lw 3 lw 1515 233 m20 9 lw 3 lw 1551 230
 m20 9 lw 3 lw 1587 226 m20 9 lw 3 lw 1624 223 m20 9 lw 3 lw 1660 222 m20 9 lw 3 lw 1696 222 m20 9 lw 3 lw 1733 220 m20 9 lw 3 lw 1769 222 m20 9 lw 3 lw 1805 219 m20 9 lw 3 lw 1841 220 m20 9 lw
 gsave  2268 2184 0 0 C 1925.28 1856.79 t 0 r /Helvetica-Bold findfont 72.293 sf 0 0 m (\(a\)) show NC gr 
 gr  gr showpage
end
%%EOF
