%!PS-Adobe-2.0 EPSF-2.0
%%BoundingBox:  0 0 567 546
%%Title: /afs/cern.ch/work/k/kuchar/BECNote/AnalysisMK/pvChecker/plotsPV/multPV.eps: cd1
%%Creator: ROOT Version 5.34/10
%%CreationDate: Mon Feb  2 16:34:53 2015
%%EndComments
%%BeginProlog
80 dict begin
/s {stroke} def /l {lineto} def /m {moveto} def /t {translate} def
/r {rotate} def /rl {roll}  def /R {repeat} def
/d {rlineto} def /rm {rmoveto} def /gr {grestore} def /f {eofill} def
/c {setrgbcolor} def /black {0 setgray} def /sd {setdash} def
/cl {closepath} def /sf {scalefont setfont} def /lw {setlinewidth} def
/box {m dup 0 exch d exch 0 d 0 exch neg d cl} def
/NC{systemdict begin initclip end}def/C{NC box clip newpath}def
/bl {box s} def /bf {box f} def /Y { 0 exch d} def /X { 0 d} def 
/K {{pop pop 0 moveto} exch kshow} bind def
/ita {/ang 15 def gsave [1 0 ang dup sin exch cos div 1 0 0] concat} def 
/mp {newpath /y exch def /x exch def} def
/side {[w .77 mul w .23 mul] .385 w mul sd w 0 l currentpoint t -144 r} def
/mr {mp x y w2 0 360 arc} def /m24 {mr s} def /m20 {mr f} def
/mb {mp x y w2 add m w2 neg 0 d 0 w neg d w 0 d 0 w d cl} def
/mt {mp x y w2 add m w2 neg w neg d w 0 d cl} def
/m21 {mb f} def /m25 {mb s} def /m22 {mt f} def /m26{mt s} def
/m23 {mp x y w2 sub m w2 w d w neg 0 d cl f} def
/m27 {mp x y w2 add m w3 neg w2 neg d w3 w2 neg d w3 w2 d cl s} def
/m28 {mp x w2 sub y w2 sub w3 add m w3 0 d  0 w3 neg d w3 0 d 0 w3 d w3 0 d  0 w3 d w3 neg 0 d 0 w3 d w3 neg 0 d 0 w3 neg d w3 neg 0 d cl s } def
/m29 {mp gsave x w2 sub y w2 add w3 sub m currentpoint t 4 {side} repeat cl fill gr} def
/m30 {mp gsave x w2 sub y w2 add w3 sub m currentpoint t 4 {side} repeat cl s gr} def
/m31 {mp x y w2 sub m 0 w d x w2 sub y m w 0 d x w2 sub y w2 add m w w neg d x w2 sub y w2 sub m w w d s} def
/m32 {mp x y w2 sub m w2 w d w neg 0 d cl s} def
/m33 {mp x y w2 add m w3 neg w2 neg d w3 w2 neg d w3 w2 d cl f} def
/m34 {mp x w2 sub y w2 sub w3 add m w3 0 d  0 w3 neg d w3 0 d 0 w3 d w3 0 d  0 w3 d w3 neg 0 d 0 w3 d w3 neg 0 d 0 w3 neg d w3 neg 0 d cl f } def
/m2 {mp x y w2 sub m 0 w d x w2 sub y m w 0 d s} def
/m5 {mp x w2 sub y w2 sub m w w d x w2 sub y w2 add m w w neg d s} def
/reEncode {exch findfont dup length dict begin {1 index /FID eq  {pop pop} {def} ifelse } forall /Encoding exch def currentdict end dup /FontName get exch definefont pop } def [/Times-Bold /Times-Italic /Times-BoldItalic /Helvetica /Helvetica-Oblique
 /Helvetica-Bold /Helvetica-BoldOblique /Courier /Courier-Oblique /Courier-Bold /Courier-BoldOblique /Times-Roman /AvantGarde-Book /AvantGarde-BookOblique /AvantGarde-Demi /AvantGarde-DemiOblique /Bookman-Demi /Bookman-DemiItalic /Bookman-Light
 /Bookman-LightItalic /Helvetica-Narrow /Helvetica-Narrow-Bold /Helvetica-Narrow-BoldOblique /Helvetica-Narrow-Oblique /NewCenturySchlbk-Roman /NewCenturySchlbk-Bold /NewCenturySchlbk-BoldItalic /NewCenturySchlbk-Italic /Palatino-Bold
 /Palatino-BoldItalic /Palatino-Italic /Palatino-Roman ] {ISOLatin1Encoding reEncode } forall
%%EndProlog
%%BeginSetup
%%EndSetup
newpath  gsave  .25 .25 scale  gsave  0 0 t 1 0 0 c[  ] 0 sd 3 lw 1 1 1 c 2268 2184 0 0 bf black 1 1 1 c 1815 1747 251 224 bf black 1815 1747 251 224 bl 1 1 1 c 1815 1747 251 224 bf black 1815 1747 251 224 bl 1 0 0 c 6 lw 1 1 1 c black 1 0 0 c 251
 224 m 182 X 1664 Y 181 X -740 Y 182 X -600 Y 181 X -235 Y 182 X -89 Y 907 X s black 3 lw 251 224 m 1815 X s
 gsave  2268 2184 0 0 C 1567.62 76.0979 t 0 r /Helvetica findfont 79.9028 sf 0 0 m (PV multiplicity) show NC gr  251 277 m -53 Y s 287 251 m -27 Y s 324 251 m -27 Y s 360 251 m -27 Y s 396 251 m -27 Y s 433 277 m -53 Y s 469 251 m -27 Y s 505 251 m
 -27 Y s 542 251 m -27 Y s 578 251 m -27 Y s 614 277 m -53 Y s 650 251 m -27 Y s 687 251 m -27 Y s 723 251 m -27 Y s 759 251 m -27 Y s 796 277 m -53 Y s 832 251 m -27 Y s 868 251 m -27 Y s 904 251 m -27 Y s 941 251 m -27 Y s 977 277 m -53 Y s 1013
 251 m -27 Y s 1050 251 m -27 Y s 1086 251 m -27 Y s 1122 251 m -27 Y s 1159 277 m -53 Y s 1195 251 m -27 Y s 1231 251 m -27 Y s 1267 251 m -27 Y s 1304 251 m -27 Y s 1340 277 m -53 Y s 1376 251 m -27 Y s 1413 251 m -27 Y s 1449 251 m -27 Y s 1485
 251 m -27 Y s 1522 277 m -53 Y s 1558 251 m -27 Y s 1594 251 m -27 Y s 1630 251 m -27 Y s 1667 251 m -27 Y s 1703 277 m -53 Y s 1739 251 m -27 Y s 1776 251 m -27 Y s 1812 251 m -27 Y s 1848 251 m -27 Y s 1885 277 m -53 Y s 1921 251 m -27 Y s 1957
 251 m -27 Y s 1993 251 m -27 Y s 2030 251 m -27 Y s 2066 277 m -53 Y s
 gsave  2268 2184 0 0 C 232.099 163.61 t 0 r /Helvetica findfont 60.8783 sf 0 0 m (0) show NC gr 
 gsave  2268 2184 0 0 C 418.538 163.61 t 0 r /Helvetica findfont 60.8783 sf 0 0 m (1) show NC gr 
 gsave  2268 2184 0 0 C 593.563 163.61 t 0 r /Helvetica findfont 60.8783 sf 0 0 m (2) show NC gr 
 gsave  2268 2184 0 0 C 776.198 163.61 t 0 r /Helvetica findfont 60.8783 sf 0 0 m (3) show NC gr 
 gsave  2268 2184 0 0 C 955.028 163.61 t 0 r /Helvetica findfont 60.8783 sf 0 0 m (4) show NC gr 
 gsave  2268 2184 0 0 C 1137.66 163.61 t 0 r /Helvetica findfont 60.8783 sf 0 0 m (5) show NC gr 
 gsave  2268 2184 0 0 C 1320.3 163.61 t 0 r /Helvetica findfont 60.8783 sf 0 0 m (6) show NC gr 
 gsave  2268 2184 0 0 C 1499.13 163.61 t 0 r /Helvetica findfont 60.8783 sf 0 0 m (7) show NC gr 
 gsave  2268 2184 0 0 C 1681.76 163.61 t 0 r /Helvetica findfont 60.8783 sf 0 0 m (8) show NC gr 
 gsave  2268 2184 0 0 C 1864.4 163.61 t 0 r /Helvetica findfont 60.8783 sf 0 0 m (9) show NC gr 
 gsave  2268 2184 0 0 C 2031.81 163.61 t 0 r /Helvetica findfont 60.8783 sf 0 0 m (10) show NC gr  251 224 m 1747 Y s
 gsave  2268 2184 0 0 C 68.4881 1339.32 t 90 r /Helvetica findfont 79.9028 sf 0 0 m (dN / d\(multiplicity\)) show NC gr  306 224 m -55 X s 278 265 m -27 X s 278 307 m -27 X s 278 348 m -27 X s 306 389 m -55 X s 278 430 m -27 X s 278 471 m -27 X s 278
 512 m -27 X s 306 553 m -55 X s 278 594 m -27 X s 278 635 m -27 X s 278 676 m -27 X s 306 717 m -55 X s 278 758 m -27 X s 278 799 m -27 X s 278 840 m -27 X s 306 881 m -55 X s 278 922 m -27 X s 278 963 m -27 X s 278 1004 m -27 X s 306 1045 m -55 X s
 278 1086 m -27 X s 278 1127 m -27 X s 278 1168 m -27 X s 306 1209 m -55 X s 278 1250 m -27 X s 278 1291 m -27 X s 278 1332 m -27 X s 306 1373 m -55 X s 278 1414 m -27 X s 278 1455 m -27 X s 278 1496 m -27 X s 306 1537 m -55 X s 278 1578 m -27 X s
 278 1619 m -27 X s 278 1660 m -27 X s 306 1701 m -55 X s 278 1742 m -27 X s 278 1783 m -27 X s 278 1824 m -27 X s 306 1865 m -55 X s 306 1865 m -55 X s 278 1906 m -27 X s 278 1947 m -27 X s
 gsave  2268 2184 0 0 C 205.464 201.659 t 0 r /Helvetica findfont 60.8783 sf 0 0 m (0) show NC gr 
 gsave  2268 2184 0 0 C 106.537 369.075 t 0 r /Helvetica findfont 60.8783 sf 0 0 m (2000) show NC gr 
 gsave  2268 2184 0 0 C 106.537 532.685 t 0 r /Helvetica findfont 60.8783 sf 0 0 m (4000) show NC gr 
 gsave  2268 2184 0 0 C 106.537 696.296 t 0 r /Helvetica findfont 60.8783 sf 0 0 m (6000) show NC gr 
 gsave  2268 2184 0 0 C 106.537 859.906 t 0 r /Helvetica findfont 60.8783 sf 0 0 m (8000) show NC gr 
 gsave  2268 2184 0 0 C 72.293 1023.52 t 0 r /Helvetica findfont 60.8783 sf 0 0 m (10000) show NC gr 
 gsave  2268 2184 0 0 C 72.293 1187.13 t 0 r /Helvetica findfont 60.8783 sf 0 0 m (12000) show NC gr 
 gsave  2268 2184 0 0 C 72.293 1350.74 t 0 r /Helvetica findfont 60.8783 sf 0 0 m (14000) show NC gr 
 gsave  2268 2184 0 0 C 72.293 1514.35 t 0 r /Helvetica findfont 60.8783 sf 0 0 m (16000) show NC gr 
 gsave  2268 2184 0 0 C 72.293 1677.96 t 0 r /Helvetica findfont 60.8783 sf 0 0 m (18000) show NC gr 
 gsave  2268 2184 0 0 C 72.293 1845.37 t 0 r /Helvetica findfont 60.8783 sf 0 0 m (20000) show NC gr 
 gr  gr showpage
end
%%EOF
