%!PS-Adobe-2.0 EPSF-2.0
%%BoundingBox:  0 0 567 558
%%Title: ./h2301_2_compare.eps: h2301_2_compare
%%Creator: ROOT Version 6.06/02
%%CreationDate: Fri Jan 27 15:06:33 2017
%%DocumentNeededResources: ProcSet (FontSetInit)
%%EndComments
%%BeginProlog
80 dict begin
/s {stroke} def /l {lineto} def /m {moveto} def /t {translate} def
/r {rotate} def /rl {roll}  def /R {repeat} def
/d {rlineto} def /rm {rmoveto} def /gr {grestore} def /f {eofill} def
/c {setrgbcolor} def /black {0 setgray} def /sd {setdash} def
/cl {closepath} def /sf {scalefont setfont} def /lw {setlinewidth} def
/box {m dup 0 exch d exch 0 d 0 exch neg d cl} def
/NC{systemdict begin initclip end}def/C{NC box clip newpath}def
/bl {box s} def /bf {gsave box gsave f grestore 1 lw [] 0 sd s grestore} def /Y { 0 exch d} def /X { 0 d} def 
/K {{pop pop 0 moveto} exch kshow} bind def
/ita {/ang 15 def gsave [1 0 ang dup sin exch cos div 1 0 0] concat} def 
/mp {newpath /y exch def /x exch def} def
/side {[w .77 mul w .23 mul] .385 w mul sd w 0 l currentpoint t -144 r} def
/mr {mp x y w2 0 360 arc} def /m24 {mr s} def /m20 {mr f} def
/mb {mp x y w2 add m w2 neg 0 d 0 w neg d w 0 d 0 w d cl} def
/mt {mp x y w2 add m w2 neg w neg d w 0 d cl} def
/m21 {mb f} def /m25 {mb s} def /m22 {mt f} def /m26{mt s} def
/m23 {mp x y w2 sub m w2 w d w neg 0 d cl f} def
/m27 {mp x y w2 add m w3 neg w2 neg d w3 w2 neg d w3 w2 d cl s} def
/m28 {mp x w2 sub y w2 sub w3 add m w3 0 d  0 w3 neg d w3 0 d 0 w3 d w3 0 d  0 w3 d w3 neg 0 d 0 w3 d w3 neg 0 d 0 w3 neg d w3 neg 0 d cl s } def
/m29 {mp gsave x w2 sub y w2 add w3 sub m currentpoint t 4 {side} repeat cl fill gr} def
/m30 {mp gsave x w2 sub y w2 add w3 sub m currentpoint t 4 {side} repeat cl s gr} def
/m31 {mp x y w2 sub m 0 w d x w2 sub y m w 0 d x w2 sub y w2 add m w w neg d x w2 sub y w2 sub m w w d s} def
/m32 {mp x y w2 sub m w2 w d w neg 0 d cl s} def
/m33 {mp x y w2 add m w3 neg w2 neg d w3 w2 neg d w3 w2 d cl f} def
/m34 {mp x w2 sub y w2 sub w3 add m w3 0 d  0 w3 neg d w3 0 d 0 w3 d w3 0 d  0 w3 d w3 neg 0 d 0 w3 d w3 neg 0 d 0 w3 neg d w3 neg 0 d cl f } def
/m2 {mp x y w2 sub m 0 w d x w2 sub y m w 0 d s} def
/m5 {mp x w2 sub y w2 sub m w w d x w2 sub y w2 add m w w neg d s} def
%%IncludeResource: ProcSet (FontSetInit)
%%IncludeResource: font Times-Roman
%%IncludeResource: font Times-Italic
%%IncludeResource: font Times-Bold
%%IncludeResource: font Times-BoldItalic
%%IncludeResource: font Helvetica
%%IncludeResource: font Helvetica-Oblique
%%IncludeResource: font Helvetica-Bold
%%IncludeResource: font Helvetica-BoldOblique
%%IncludeResource: font Courier
%%IncludeResource: font Courier-Oblique
%%IncludeResource: font Courier-Bold
%%IncludeResource: font Courier-BoldOblique
%%IncludeResource: font Symbol
%%IncludeResource: font ZapfDingbats
/reEncode {exch findfont dup length dict begin {1 index /FID eq  {pop pop} {def} ifelse } forall /Encoding exch def currentdict end dup /FontName get exch definefont pop } def [/Times-Bold /Times-Italic /Times-BoldItalic /Helvetica /Helvetica-Oblique
 /Helvetica-Bold /Helvetica-BoldOblique /Courier /Courier-Oblique /Courier-Bold /Courier-BoldOblique /Times-Roman /AvantGarde-Book /AvantGarde-BookOblique /AvantGarde-Demi /AvantGarde-DemiOblique /Bookman-Demi /Bookman-DemiItalic /Bookman-Light
 /Bookman-LightItalic /Helvetica-Narrow /Helvetica-Narrow-Bold /Helvetica-Narrow-BoldOblique /Helvetica-Narrow-Oblique /NewCenturySchlbk-Roman /NewCenturySchlbk-Bold /NewCenturySchlbk-BoldItalic /NewCenturySchlbk-Italic /Palatino-Bold
 /Palatino-BoldItalic /Palatino-Italic /Palatino-Roman ] {ISOLatin1Encoding reEncode } forall
%%EndProlog
%%BeginSetup
%%EndSetup
newpath  gsave  .25 .25 scale  gsave  0 0 t black[  ] 0 sd 6 lw 1 1 1 c 2268 2234 0 0 bf black 3 lw 1 1 1 c 1882 1944 340 223 bf black 1882 1944 340 223 bl 1 1 1 c 1882 1944 340 223 bf black 1882 1944 340 223 bl 0 0 1 c 6 lw 1 1 1 c 0 0 1 c 3 lw /w
 19 def /w2 {w 2 div} def /w3 {w 3 div} def 359 1251 m21 6 lw 3 lw 397 702 m21 6 lw 3 lw 434 745 m21 6 lw 3 lw 472 906 m21 6 lw 3 lw 510 1079 m21 6 lw 3 lw 547 1265 m21 6 lw 3 lw 585 1453 m21 6 lw 3 lw 622 1637 m21 6 lw 3 lw 660 1795 m21 6 lw 3 lw
 698 1912 m21 6 lw 3 lw 735 1992 m21 6 lw 773 2057 m s 773 2074 m s 3 lw 773 2065 m21 6 lw 811 2041 m s 811 2058 m s 3 lw 811 2050 m21 6 lw 848 2056 m s 848 2073 m s 3 lw 848 2064 m21 6 lw 886 2017 m s 886 2034 m s 3 lw 886 2025 m21 6 lw 3 lw 924
 1965 m21 6 lw 3 lw 961 1903 m21 6 lw 3 lw 999 1806 m21 6 lw 3 lw 1037 1726 m21 6 lw 3 lw 1074 1642 m21 6 lw 3 lw 1112 1544 m21 6 lw 3 lw 1150 1452 m21 6 lw 3 lw 1187 1359 m21 6 lw 3 lw 1225 1264 m21 6 lw 3 lw 1262 1199 m21 6 lw 3 lw 1300 1123 m21 6
 lw 3 lw 1338 1046 m21 6 lw 3 lw 1375 979 m21 6 lw 3 lw 1413 917 m21 6 lw 3 lw 1451 860 m21 6 lw 3 lw 1488 806 m21 6 lw 3 lw 1526 752 m21 6 lw 3 lw 1564 709 m21 6 lw 3 lw 1601 665 m21 6 lw 3 lw 1639 638 m21 6 lw 3 lw 1677 593 m21 6 lw 3 lw 1714 564
 m21 6 lw 3 lw 1752 535 m21 6 lw 3 lw 1789 505 m21 6 lw 3 lw 1827 474 m21 6 lw 3 lw 1865 447 m21 6 lw 3 lw 1902 431 m21 6 lw 3 lw 1940 414 m21 6 lw 3 lw 1978 393 m21 6 lw 3 lw 2015 374 m21 6 lw 3 lw 2053 365 m21 6 lw 3 lw 2091 355 m21 6 lw 3 lw 2128
 337 m21 6 lw 3 lw 2166 329 m21 6 lw 3 lw 2204 314 m21 6 lw black 340 223 m 1882 X s
 gsave  2268 2234 0 0 C 1923.86 58.2559 t 0 r /Helvetica findfont 83.8316 sf 0 0 m (Q [GeV]) show NC gr  340 279 m -56 Y s 387 251 m -28 Y s 434 251 m -28 Y s 481 251 m -28 Y s 528 279 m -56 Y s 575 251 m -28 Y s 622 251 m -28 Y s 670 251 m -28 Y s
 717 279 m -56 Y s 764 251 m -28 Y s 811 251 m -28 Y s 858 251 m -28 Y s 905 279 m -56 Y s 952 251 m -28 Y s 999 251 m -28 Y s 1046 251 m -28 Y s 1093 279 m -56 Y s 1140 251 m -28 Y s 1187 251 m -28 Y s 1234 251 m -28 Y s 1281 279 m -56 Y s 1328 251
 m -28 Y s 1375 251 m -28 Y s 1422 251 m -28 Y s 1469 279 m -56 Y s 1517 251 m -28 Y s 1564 251 m -28 Y s 1611 251 m -28 Y s 1658 279 m -56 Y s 1705 251 m -28 Y s 1752 251 m -28 Y s 1799 251 m -28 Y s 1846 279 m -56 Y s 1893 251 m -28 Y s 1940 251 m
 -28 Y s 1987 251 m -28 Y s 2034 279 m -56 Y s 2081 251 m -28 Y s 2128 251 m -28 Y s 2175 251 m -28 Y s 2222 279 m -56 Y s
 gsave  2268 2234 0 0 C 322.539 159.138 t 0 r /Helvetica findfont 62.5185 sf 0 0 m (0) show NC gr 
 gsave  2268 2234 0 0 C 484.518 159.138 t 0 r /Helvetica findfont 62.5185 sf 0 0 m (0.2) show NC gr 
 gsave  2268 2234 0 0 C 673.495 159.138 t 0 r /Helvetica findfont 62.5185 sf 0 0 m (0.4) show NC gr 
 gsave  2268 2234 0 0 C 861.05 159.138 t 0 r /Helvetica findfont 62.5185 sf 0 0 m (0.6) show NC gr 
 gsave  2268 2234 0 0 C 1050.03 159.138 t 0 r /Helvetica findfont 62.5185 sf 0 0 m (0.8) show NC gr 
 gsave  2268 2234 0 0 C 1268.84 159.138 t 0 r /Helvetica findfont 62.5185 sf 0 0 m (1) show NC gr 
 gsave  2268 2234 0 0 C 1426.56 159.138 t 0 r /Helvetica findfont 62.5185 sf 0 0 m (1.2) show NC gr 
 gsave  2268 2234 0 0 C 1614.11 159.138 t 0 r /Helvetica findfont 62.5185 sf 0 0 m (1.4) show NC gr 
 gsave  2268 2234 0 0 C 1803.09 159.138 t 0 r /Helvetica findfont 62.5185 sf 0 0 m (1.6) show NC gr 
 gsave  2268 2234 0 0 C 1990.65 159.138 t 0 r /Helvetica findfont 62.5185 sf 0 0 m (1.8) show NC gr 
 gsave  2268 2234 0 0 C 2205.2 159.138 t 0 r /Helvetica findfont 62.5185 sf 0 0 m (2) show NC gr  340 223 m 1944 Y s
 gsave  2268 2234 0 0 C 157.717 1903.97 t 90 r /Helvetica findfont 83.8316 sf 0 0 m ( dN/dQ) show NC gr  399 374 m -59 X s 370 414 m -30 X s 370 453 m -30 X s 370 493 m -30 X s 370 532 m -30 X s 399 572 m -59 X s 370 611 m -30 X s 370 651 m -30 X s
 370 691 m -30 X s 370 730 m -30 X s 399 770 m -59 X s 370 809 m -30 X s 370 849 m -30 X s 370 888 m -30 X s 370 928 m -30 X s 399 967 m -59 X s 370 1007 m -30 X s 370 1046 m -30 X s 370 1086 m -30 X s 370 1126 m -30 X s 399 1165 m -59 X s 370 1205 m
 -30 X s 370 1244 m -30 X s 370 1284 m -30 X s 370 1323 m -30 X s 399 1363 m -59 X s 370 1402 m -30 X s 370 1442 m -30 X s 370 1482 m -30 X s 370 1521 m -30 X s 399 1561 m -59 X s 370 1600 m -30 X s 370 1640 m -30 X s 370 1679 m -30 X s 370 1719 m
 -30 X s 399 1758 m -59 X s 370 1798 m -30 X s 370 1837 m -30 X s 370 1877 m -30 X s 370 1917 m -30 X s 399 1956 m -59 X s 370 1996 m -30 X s 370 2035 m -30 X s 370 2075 m -30 X s 370 2114 m -30 X s 399 2154 m -59 X s 399 374 m -59 X s 370 335 m -30
 X s 370 295 m -30 X s 370 256 m -30 X s 399 2154 m -59 X s
 gsave  2268 2234 0 0 C 191.818 352.377 t 0 r /Helvetica findfont 62.5185 sf 0 0 m (5000) show NC gr 
 gsave  2268 2234 0 0 C 156.296 549.879 t 0 r /Helvetica findfont 62.5185 sf 0 0 m (10000) show NC gr 
 gsave  2268 2234 0 0 C 156.296 747.38 t 0 r /Helvetica findfont 62.5185 sf 0 0 m (15000) show NC gr 
 gsave  2268 2234 0 0 C 156.296 944.882 t 0 r /Helvetica findfont 62.5185 sf 0 0 m (20000) show NC gr 
 gsave  2268 2234 0 0 C 156.296 1143.8 t 0 r /Helvetica findfont 62.5185 sf 0 0 m (25000) show NC gr 
 gsave  2268 2234 0 0 C 156.296 1341.31 t 0 r /Helvetica findfont 62.5185 sf 0 0 m (30000) show NC gr 
 gsave  2268 2234 0 0 C 156.296 1538.81 t 0 r /Helvetica findfont 62.5185 sf 0 0 m (35000) show NC gr 
 gsave  2268 2234 0 0 C 156.296 1736.31 t 0 r /Helvetica findfont 62.5185 sf 0 0 m (40000) show NC gr 
 gsave  2268 2234 0 0 C 156.296 1933.81 t 0 r /Helvetica findfont 62.5185 sf 0 0 m (45000) show NC gr 
 gsave  2268 2234 0 0 C 156.296 2131.31 t 0 r /Helvetica findfont 62.5185 sf 0 0 m (50000) show NC gr  1 0 0 c 1 1 1 c 1 0 0 c 3 lw 359 617 m21 6 lw 3 lw 397 406 m21 6 lw 3 lw 434 559 m21 6 lw 3 lw 472 746 m21 6 lw 3 lw 510 921 m21 6 lw 3 lw 547 1088
 m21 6 lw 3 lw 585 1258 m21 6 lw 3 lw 622 1416 m21 6 lw 3 lw 660 1560 m21 6 lw 3 lw 698 1652 m21 6 lw 3 lw 735 1722 m21 6 lw 3 lw 773 1786 m21 6 lw 3 lw 811 1778 m21 6 lw 3 lw 848 1789 m21 6 lw 3 lw 886 1758 m21 6 lw 3 lw 924 1710 m21 6 lw 3 lw 961
 1663 m21 6 lw 3 lw 999 1577 m21 6 lw 3 lw 1037 1511 m21 6 lw 3 lw 1074 1443 m21 6 lw 3 lw 1112 1364 m21 6 lw 3 lw 1150 1284 m21 6 lw 3 lw 1187 1204 m21 6 lw 3 lw 1225 1124 m21 6 lw 3 lw 1262 1068 m21 6 lw 3 lw 1300 1005 m21 6 lw 3 lw 1338 943 m21 6
 lw 3 lw 1375 882 m21 6 lw 3 lw 1413 826 m21 6 lw 3 lw 1451 778 m21 6 lw 3 lw 1488 731 m21 6 lw 3 lw 1526 688 m21 6 lw 3 lw 1564 648 m21 6 lw 3 lw 1601 611 m21 6 lw 3 lw 1639 589 m21 6 lw 3 lw 1677 548 m21 6 lw 3 lw 1714 522 m21 6 lw 3 lw 1752 499
 m21 6 lw 3 lw 1789 472 m21 6 lw 3 lw 1827 444 m21 6 lw 3 lw 1865 421 m21 6 lw 3 lw 1902 405 m21 6 lw 3 lw 1940 392 m21 6 lw 3 lw 1978 371 m21 6 lw 3 lw 2015 354 m21 6 lw 3 lw 2053 346 m21 6 lw 3 lw 2091 338 m21 6 lw 3 lw 2128 321 m21 6 lw 3 lw 2166
 315 m21 6 lw 3 lw 2204 300 m21 6 lw black 1 1 1 c 680 447 1474 1675 bf black 1474 1675 m 680 X s 2154 1675 m 447 Y s 2154 2122 m -680 X s 1474 2122 m -447 Y s
 gsave  2268 2234 0 0 C 1490.5 2029.01 t 0 r /Helvetica findfont 49.7306 sf 0 0 m (shared VELO cut) show NC gr 
 gsave  2268 2234 0 0 C 1643.95 1881.24 t 0 r /Helvetica findfont 49.7306 sf 0 0 m (before) show NC gr  0 0 1 c 1559 1854 m 89 Y s 3 lw 1559 1899 m21 6 lw black
 gsave  2268 2234 0 0 C 1643.95 1732.05 t 0 r /Helvetica findfont 49.7306 sf 0 0 m (after) show NC gr  1 0 0 c 1559 1705 m 89 Y s 3 lw 1559 1750 m21 6 lw black
 gsave  2268 2234 0 0 C 521.461 291.279 t 0 r /Helvetica-Bold findfont 72.4646 sf 0 0 m (VELO tracks multiplicity: 11 \255 20) show NC gr 
 gr  gr showpage
end
%%EOF
