%!PS-Adobe-2.0 EPSF-2.0
%%BoundingBox:  0 0 567 558
%%Title: ./h2301_1_compare.eps: h2301_1_compare
%%Creator: ROOT Version 6.06/02
%%CreationDate: Fri Jan 27 15:06:33 2017
%%DocumentNeededResources: ProcSet (FontSetInit)
%%EndComments
%%BeginProlog
80 dict begin
/s {stroke} def /l {lineto} def /m {moveto} def /t {translate} def
/r {rotate} def /rl {roll}  def /R {repeat} def
/d {rlineto} def /rm {rmoveto} def /gr {grestore} def /f {eofill} def
/c {setrgbcolor} def /black {0 setgray} def /sd {setdash} def
/cl {closepath} def /sf {scalefont setfont} def /lw {setlinewidth} def
/box {m dup 0 exch d exch 0 d 0 exch neg d cl} def
/NC{systemdict begin initclip end}def/C{NC box clip newpath}def
/bl {box s} def /bf {gsave box gsave f grestore 1 lw [] 0 sd s grestore} def /Y { 0 exch d} def /X { 0 d} def 
/K {{pop pop 0 moveto} exch kshow} bind def
/ita {/ang 15 def gsave [1 0 ang dup sin exch cos div 1 0 0] concat} def 
/mp {newpath /y exch def /x exch def} def
/side {[w .77 mul w .23 mul] .385 w mul sd w 0 l currentpoint t -144 r} def
/mr {mp x y w2 0 360 arc} def /m24 {mr s} def /m20 {mr f} def
/mb {mp x y w2 add m w2 neg 0 d 0 w neg d w 0 d 0 w d cl} def
/mt {mp x y w2 add m w2 neg w neg d w 0 d cl} def
/m21 {mb f} def /m25 {mb s} def /m22 {mt f} def /m26{mt s} def
/m23 {mp x y w2 sub m w2 w d w neg 0 d cl f} def
/m27 {mp x y w2 add m w3 neg w2 neg d w3 w2 neg d w3 w2 d cl s} def
/m28 {mp x w2 sub y w2 sub w3 add m w3 0 d  0 w3 neg d w3 0 d 0 w3 d w3 0 d  0 w3 d w3 neg 0 d 0 w3 d w3 neg 0 d 0 w3 neg d w3 neg 0 d cl s } def
/m29 {mp gsave x w2 sub y w2 add w3 sub m currentpoint t 4 {side} repeat cl fill gr} def
/m30 {mp gsave x w2 sub y w2 add w3 sub m currentpoint t 4 {side} repeat cl s gr} def
/m31 {mp x y w2 sub m 0 w d x w2 sub y m w 0 d x w2 sub y w2 add m w w neg d x w2 sub y w2 sub m w w d s} def
/m32 {mp x y w2 sub m w2 w d w neg 0 d cl s} def
/m33 {mp x y w2 add m w3 neg w2 neg d w3 w2 neg d w3 w2 d cl f} def
/m34 {mp x w2 sub y w2 sub w3 add m w3 0 d  0 w3 neg d w3 0 d 0 w3 d w3 0 d  0 w3 d w3 neg 0 d 0 w3 d w3 neg 0 d 0 w3 neg d w3 neg 0 d cl f } def
/m2 {mp x y w2 sub m 0 w d x w2 sub y m w 0 d s} def
/m5 {mp x w2 sub y w2 sub m w w d x w2 sub y w2 add m w w neg d s} def
%%IncludeResource: ProcSet (FontSetInit)
%%IncludeResource: font Times-Roman
%%IncludeResource: font Times-Italic
%%IncludeResource: font Times-Bold
%%IncludeResource: font Times-BoldItalic
%%IncludeResource: font Helvetica
%%IncludeResource: font Helvetica-Oblique
%%IncludeResource: font Helvetica-Bold
%%IncludeResource: font Helvetica-BoldOblique
%%IncludeResource: font Courier
%%IncludeResource: font Courier-Oblique
%%IncludeResource: font Courier-Bold
%%IncludeResource: font Courier-BoldOblique
%%IncludeResource: font Symbol
%%IncludeResource: font ZapfDingbats
/reEncode {exch findfont dup length dict begin {1 index /FID eq  {pop pop} {def} ifelse } forall /Encoding exch def currentdict end dup /FontName get exch definefont pop } def [/Times-Bold /Times-Italic /Times-BoldItalic /Helvetica /Helvetica-Oblique
 /Helvetica-Bold /Helvetica-BoldOblique /Courier /Courier-Oblique /Courier-Bold /Courier-BoldOblique /Times-Roman /AvantGarde-Book /AvantGarde-BookOblique /AvantGarde-Demi /AvantGarde-DemiOblique /Bookman-Demi /Bookman-DemiItalic /Bookman-Light
 /Bookman-LightItalic /Helvetica-Narrow /Helvetica-Narrow-Bold /Helvetica-Narrow-BoldOblique /Helvetica-Narrow-Oblique /NewCenturySchlbk-Roman /NewCenturySchlbk-Bold /NewCenturySchlbk-BoldItalic /NewCenturySchlbk-Italic /Palatino-Bold
 /Palatino-BoldItalic /Palatino-Italic /Palatino-Roman ] {ISOLatin1Encoding reEncode } forall
%%EndProlog
%%BeginSetup
%%EndSetup
newpath  gsave  .25 .25 scale  gsave  0 0 t black[  ] 0 sd 6 lw 1 1 1 c 2268 2234 0 0 bf black 3 lw 1 1 1 c 1882 1944 340 223 bf black 1882 1944 340 223 bl 1 1 1 c 1882 1944 340 223 bf black 1882 1944 340 223 bl 0 0 1 c 6 lw 1 1 1 c 0 0 1 c 359 2040
 m 9 Y s 359 2066 m 8 Y s 3 lw /w 19 def /w2 {w 2 div} def /w3 {w 3 div} def 359 2057 m21 6 lw 397 1094 m 3 Y s 397 1114 m 4 Y s 3 lw 397 1106 m21 6 lw 434 953 m 2 Y s 434 972 m 2 Y s 3 lw 434 964 m21 6 lw 472 967 m 3 Y s 472 987 m 2 Y s 3 lw 472 978
 m21 6 lw 510 1115 m 3 Y s 510 1135 m 4 Y s 3 lw 510 1127 m21 6 lw 547 1244 m 4 Y s 547 1265 m 5 Y s 3 lw 547 1257 m21 6 lw 585 1419 m 5 Y s 585 1441 m 6 Y s 3 lw 585 1433 m21 6 lw 622 1549 m 6 Y s 622 1572 m 6 Y s 3 lw 622 1564 m21 6 lw 660 1701 m 7
 Y s 660 1725 m 7 Y s 3 lw 660 1717 m21 6 lw 698 1822 m 7 Y s 698 1847 m 7 Y s 3 lw 698 1838 m21 6 lw 735 1895 m 7 Y s 735 1919 m 8 Y s 3 lw 735 1911 m21 6 lw 773 1958 m 8 Y s 773 1983 m 8 Y s 3 lw 773 1974 m21 6 lw 811 1944 m 8 Y s 811 1969 m 8 Y s
 3 lw 811 1960 m21 6 lw 848 1906 m 8 Y s 848 1931 m 8 Y s 3 lw 848 1922 m21 6 lw 886 1884 m 7 Y s 886 1908 m 8 Y s 3 lw 886 1900 m21 6 lw 924 1818 m 7 Y s 924 1842 m 8 Y s 3 lw 924 1834 m21 6 lw 961 1714 m 7 Y s 961 1738 m 7 Y s 3 lw 961 1729 m21 6
 lw 999 1640 m 7 Y s 999 1664 m 6 Y s 3 lw 999 1655 m21 6 lw 1037 1569 m 6 Y s 1037 1592 m 6 Y s 3 lw 1037 1583 m21 6 lw 1074 1423 m 5 Y s 1074 1445 m 6 Y s 3 lw 1074 1437 m21 6 lw 1112 1363 m 4 Y s 1112 1385 m 4 Y s 3 lw 1112 1376 m21 6 lw 1150 1242
 m 5 Y s 1150 1264 m 4 Y s 3 lw 1150 1255 m21 6 lw 1187 1166 m 4 Y s 1187 1187 m 3 Y s 3 lw 1187 1178 m21 6 lw 1225 1064 m 3 Y s 1225 1084 m 3 Y s 3 lw 1225 1076 m21 6 lw 1262 1011 m 2 Y s 1262 1030 m 3 Y s 3 lw 1262 1022 m21 6 lw 1300 929 m 3 Y s
 1300 949 m 2 Y s 3 lw 1300 940 m21 6 lw 1338 866 m 2 Y s 1338 885 m 1 Y s 3 lw 1338 876 m21 6 lw 1375 817 m 1 Y s 1375 835 m 1 Y s 3 lw 1375 827 m21 6 lw 1413 765 m s 1413 782 m 1 Y s 3 lw 1413 774 m21 6 lw 1451 710 m s 1451 727 m 1 Y s 3 lw 1451
 719 m21 6 lw 3 lw 1488 672 m21 6 lw 3 lw 1526 630 m21 6 lw 3 lw 1564 599 m21 6 lw 3 lw 1601 558 m21 6 lw 3 lw 1639 525 m21 6 lw 3 lw 1677 510 m21 6 lw 3 lw 1714 482 m21 6 lw 3 lw 1752 464 m21 6 lw 3 lw 1789 431 m21 6 lw 3 lw 1827 421 m21 6 lw 3 lw
 1865 399 m21 6 lw 3 lw 1902 381 m21 6 lw 3 lw 1940 371 m21 6 lw 3 lw 1978 350 m21 6 lw 3 lw 2015 352 m21 6 lw 3 lw 2053 328 m21 6 lw 3 lw 2091 324 m21 6 lw 3 lw 2128 315 m21 6 lw 3 lw 2166 309 m21 6 lw 3 lw 2204 307 m21 6 lw black 340 223 m 1882 X s
 gsave  2268 2234 0 0 C 1923.86 58.2559 t 0 r /Helvetica findfont 83.8316 sf 0 0 m (Q [GeV]) show NC gr  340 279 m -56 Y s 387 251 m -28 Y s 434 251 m -28 Y s 481 251 m -28 Y s 528 279 m -56 Y s 575 251 m -28 Y s 622 251 m -28 Y s 670 251 m -28 Y s
 717 279 m -56 Y s 764 251 m -28 Y s 811 251 m -28 Y s 858 251 m -28 Y s 905 279 m -56 Y s 952 251 m -28 Y s 999 251 m -28 Y s 1046 251 m -28 Y s 1093 279 m -56 Y s 1140 251 m -28 Y s 1187 251 m -28 Y s 1234 251 m -28 Y s 1281 279 m -56 Y s 1328 251
 m -28 Y s 1375 251 m -28 Y s 1422 251 m -28 Y s 1469 279 m -56 Y s 1517 251 m -28 Y s 1564 251 m -28 Y s 1611 251 m -28 Y s 1658 279 m -56 Y s 1705 251 m -28 Y s 1752 251 m -28 Y s 1799 251 m -28 Y s 1846 279 m -56 Y s 1893 251 m -28 Y s 1940 251 m
 -28 Y s 1987 251 m -28 Y s 2034 279 m -56 Y s 2081 251 m -28 Y s 2128 251 m -28 Y s 2175 251 m -28 Y s 2222 279 m -56 Y s
 gsave  2268 2234 0 0 C 322.539 159.138 t 0 r /Helvetica findfont 62.5185 sf 0 0 m (0) show NC gr 
 gsave  2268 2234 0 0 C 484.518 159.138 t 0 r /Helvetica findfont 62.5185 sf 0 0 m (0.2) show NC gr 
 gsave  2268 2234 0 0 C 673.495 159.138 t 0 r /Helvetica findfont 62.5185 sf 0 0 m (0.4) show NC gr 
 gsave  2268 2234 0 0 C 861.05 159.138 t 0 r /Helvetica findfont 62.5185 sf 0 0 m (0.6) show NC gr 
 gsave  2268 2234 0 0 C 1050.03 159.138 t 0 r /Helvetica findfont 62.5185 sf 0 0 m (0.8) show NC gr 
 gsave  2268 2234 0 0 C 1268.84 159.138 t 0 r /Helvetica findfont 62.5185 sf 0 0 m (1) show NC gr 
 gsave  2268 2234 0 0 C 1426.56 159.138 t 0 r /Helvetica findfont 62.5185 sf 0 0 m (1.2) show NC gr 
 gsave  2268 2234 0 0 C 1614.11 159.138 t 0 r /Helvetica findfont 62.5185 sf 0 0 m (1.4) show NC gr 
 gsave  2268 2234 0 0 C 1803.09 159.138 t 0 r /Helvetica findfont 62.5185 sf 0 0 m (1.6) show NC gr 
 gsave  2268 2234 0 0 C 1990.65 159.138 t 0 r /Helvetica findfont 62.5185 sf 0 0 m (1.8) show NC gr 
 gsave  2268 2234 0 0 C 2205.2 159.138 t 0 r /Helvetica findfont 62.5185 sf 0 0 m (2) show NC gr  340 223 m 1944 Y s
 gsave  2268 2234 0 0 C 157.717 1903.97 t 90 r /Helvetica findfont 83.8316 sf 0 0 m ( dN/dQ) show NC gr  399 223 m -59 X s 370 302 m -30 X s 370 381 m -30 X s 370 460 m -30 X s 399 539 m -59 X s 370 618 m -30 X s 370 697 m -30 X s 370 775 m -30 X s
 399 854 m -59 X s 370 933 m -30 X s 370 1012 m -30 X s 370 1091 m -30 X s 399 1170 m -59 X s 370 1249 m -30 X s 370 1327 m -30 X s 370 1406 m -30 X s 399 1485 m -59 X s 370 1564 m -30 X s 370 1643 m -30 X s 370 1722 m -30 X s 399 1801 m -59 X s 370
 1879 m -30 X s 370 1958 m -30 X s 370 2037 m -30 X s 399 2116 m -59 X s 399 2116 m -59 X s
 gsave  2268 2234 0 0 C 295.542 201.764 t 0 r /Helvetica findfont 62.5185 sf 0 0 m (0) show NC gr 
 gsave  2268 2234 0 0 C 191.818 517.198 t 0 r /Helvetica findfont 62.5185 sf 0 0 m (2000) show NC gr 
 gsave  2268 2234 0 0 C 191.818 832.633 t 0 r /Helvetica findfont 62.5185 sf 0 0 m (4000) show NC gr 
 gsave  2268 2234 0 0 C 191.818 1148.07 t 0 r /Helvetica findfont 62.5185 sf 0 0 m (6000) show NC gr 
 gsave  2268 2234 0 0 C 191.818 1463.5 t 0 r /Helvetica findfont 62.5185 sf 0 0 m (8000) show NC gr 
 gsave  2268 2234 0 0 C 156.296 1778.94 t 0 r /Helvetica findfont 62.5185 sf 0 0 m (10000) show NC gr 
 gsave  2268 2234 0 0 C 156.296 2094.37 t 0 r /Helvetica findfont 62.5185 sf 0 0 m (12000) show NC gr  1 0 0 c 1 1 1 c 1 0 0 c 359 829 m 2 Y s 359 848 m 1 Y s 3 lw 359 839 m21 6 lw 3 lw 397 505 m21 6 lw 3 lw 434 632 m21 6 lw 472 766 m 1 Y s 472 784 m
 1 Y s 3 lw 472 776 m21 6 lw 510 936 m 2 Y s 510 955 m 3 Y s 3 lw 510 947 m21 6 lw 547 1079 m 3 Y s 547 1099 m 3 Y s 3 lw 547 1090 m21 6 lw 585 1241 m 4 Y s 585 1262 m 4 Y s 3 lw 585 1253 m21 6 lw 622 1348 m 5 Y s 622 1370 m 4 Y s 3 lw 622 1361 m21 6
 lw 660 1481 m 5 Y s 660 1503 m 6 Y s 3 lw 660 1495 m21 6 lw 698 1591 m 6 Y s 698 1614 m 6 Y s 3 lw 698 1606 m21 6 lw 735 1641 m 7 Y s 735 1665 m 6 Y s 3 lw 735 1656 m21 6 lw 773 1703 m 7 Y s 773 1727 m 6 Y s 3 lw 773 1718 m21 6 lw 811 1683 m 7 Y s
 811 1707 m 7 Y s 3 lw 811 1699 m21 6 lw 848 1651 m 7 Y s 848 1675 m 7 Y s 3 lw 848 1667 m21 6 lw 886 1643 m 6 Y s 886 1666 m 7 Y s 3 lw 886 1658 m21 6 lw 924 1584 m 6 Y s 924 1607 m 6 Y s 3 lw 924 1598 m21 6 lw 961 1494 m 6 Y s 961 1517 m 5 Y s 3 lw
 961 1508 m21 6 lw 999 1436 m 5 Y s 999 1458 m 6 Y s 3 lw 999 1450 m21 6 lw 1037 1377 m 5 Y s 1037 1399 m 5 Y s 3 lw 1037 1390 m21 6 lw 1074 1253 m 4 Y s 1074 1274 m 4 Y s 3 lw 1074 1266 m21 6 lw 1112 1206 m 4 Y s 1112 1227 m 4 Y s 3 lw 1112 1218 m21
 6 lw 1150 1105 m 3 Y s 1150 1125 m 3 Y s 3 lw 1150 1116 m21 6 lw 1187 1037 m 3 Y s 1187 1057 m 3 Y s 3 lw 1187 1049 m21 6 lw 1225 954 m 2 Y s 1225 973 m 2 Y s 3 lw 1225 965 m21 6 lw 1262 915 m 2 Y s 1262 934 m 2 Y s 3 lw 1262 926 m21 6 lw 1300 844 m
 1 Y s 1300 862 m 2 Y s 3 lw 1300 854 m21 6 lw 1338 782 m s 1338 800 m s 3 lw 1338 791 m21 6 lw 1375 744 m s 1375 761 m 1 Y s 3 lw 1375 753 m21 6 lw 1413 695 m s 1413 712 m s 3 lw 1413 704 m21 6 lw 3 lw 1451 657 m21 6 lw 3 lw 1488 616 m21 6 lw 3 lw
 1526 586 m21 6 lw 3 lw 1564 554 m21 6 lw 3 lw 1601 521 m21 6 lw 3 lw 1639 488 m21 6 lw 3 lw 1677 475 m21 6 lw 3 lw 1714 453 m21 6 lw 3 lw 1752 436 m21 6 lw 3 lw 1789 410 m21 6 lw 3 lw 1827 400 m21 6 lw 3 lw 1865 380 m21 6 lw 3 lw 1902 363 m21 6 lw 3
 lw 1940 357 m21 6 lw 3 lw 1978 338 m21 6 lw 3 lw 2015 340 m21 6 lw 3 lw 2053 318 m21 6 lw 3 lw 2091 315 m21 6 lw 3 lw 2128 307 m21 6 lw 3 lw 2166 301 m21 6 lw 3 lw 2204 299 m21 6 lw black 1 1 1 c 680 447 1474 1675 bf black 1474 1675 m 680 X s 2154
 1675 m 447 Y s 2154 2122 m -680 X s 1474 2122 m -447 Y s
 gsave  2268 2234 0 0 C 1490.5 2029.01 t 0 r /Helvetica findfont 49.7306 sf 0 0 m (shared VELO cut) show NC gr 
 gsave  2268 2234 0 0 C 1643.95 1881.24 t 0 r /Helvetica findfont 49.7306 sf 0 0 m (before) show NC gr  0 0 1 c 1559 1854 m 89 Y s 3 lw 1559 1899 m21 6 lw black
 gsave  2268 2234 0 0 C 1643.95 1732.05 t 0 r /Helvetica findfont 49.7306 sf 0 0 m (after) show NC gr  1 0 0 c 1559 1705 m 89 Y s 3 lw 1559 1750 m21 6 lw black
 gsave  2268 2234 0 0 C 521.461 291.279 t 0 r /Helvetica-Bold findfont 72.4646 sf 0 0 m (VELO tracks multiplicity: 2 \255 10) show NC gr 
 gr  gr showpage
end
%%EOF
