%!PS-Adobe-2.0 EPSF-2.0
%%BoundingBox:  0 0 567 558
%%Title: ./h2201_1_compare.eps: h2201_1_compare
%%Creator: ROOT Version 6.06/02
%%CreationDate: Fri Jan 27 15:06:33 2017
%%DocumentNeededResources: ProcSet (FontSetInit)
%%EndComments
%%BeginProlog
80 dict begin
/s {stroke} def /l {lineto} def /m {moveto} def /t {translate} def
/r {rotate} def /rl {roll}  def /R {repeat} def
/d {rlineto} def /rm {rmoveto} def /gr {grestore} def /f {eofill} def
/c {setrgbcolor} def /black {0 setgray} def /sd {setdash} def
/cl {closepath} def /sf {scalefont setfont} def /lw {setlinewidth} def
/box {m dup 0 exch d exch 0 d 0 exch neg d cl} def
/NC{systemdict begin initclip end}def/C{NC box clip newpath}def
/bl {box s} def /bf {gsave box gsave f grestore 1 lw [] 0 sd s grestore} def /Y { 0 exch d} def /X { 0 d} def 
/K {{pop pop 0 moveto} exch kshow} bind def
/ita {/ang 15 def gsave [1 0 ang dup sin exch cos div 1 0 0] concat} def 
/mp {newpath /y exch def /x exch def} def
/side {[w .77 mul w .23 mul] .385 w mul sd w 0 l currentpoint t -144 r} def
/mr {mp x y w2 0 360 arc} def /m24 {mr s} def /m20 {mr f} def
/mb {mp x y w2 add m w2 neg 0 d 0 w neg d w 0 d 0 w d cl} def
/mt {mp x y w2 add m w2 neg w neg d w 0 d cl} def
/m21 {mb f} def /m25 {mb s} def /m22 {mt f} def /m26{mt s} def
/m23 {mp x y w2 sub m w2 w d w neg 0 d cl f} def
/m27 {mp x y w2 add m w3 neg w2 neg d w3 w2 neg d w3 w2 d cl s} def
/m28 {mp x w2 sub y w2 sub w3 add m w3 0 d  0 w3 neg d w3 0 d 0 w3 d w3 0 d  0 w3 d w3 neg 0 d 0 w3 d w3 neg 0 d 0 w3 neg d w3 neg 0 d cl s } def
/m29 {mp gsave x w2 sub y w2 add w3 sub m currentpoint t 4 {side} repeat cl fill gr} def
/m30 {mp gsave x w2 sub y w2 add w3 sub m currentpoint t 4 {side} repeat cl s gr} def
/m31 {mp x y w2 sub m 0 w d x w2 sub y m w 0 d x w2 sub y w2 add m w w neg d x w2 sub y w2 sub m w w d s} def
/m32 {mp x y w2 sub m w2 w d w neg 0 d cl s} def
/m33 {mp x y w2 add m w3 neg w2 neg d w3 w2 neg d w3 w2 d cl f} def
/m34 {mp x w2 sub y w2 sub w3 add m w3 0 d  0 w3 neg d w3 0 d 0 w3 d w3 0 d  0 w3 d w3 neg 0 d 0 w3 d w3 neg 0 d 0 w3 neg d w3 neg 0 d cl f } def
/m2 {mp x y w2 sub m 0 w d x w2 sub y m w 0 d s} def
/m5 {mp x w2 sub y w2 sub m w w d x w2 sub y w2 add m w w neg d s} def
%%IncludeResource: ProcSet (FontSetInit)
%%IncludeResource: font Times-Roman
%%IncludeResource: font Times-Italic
%%IncludeResource: font Times-Bold
%%IncludeResource: font Times-BoldItalic
%%IncludeResource: font Helvetica
%%IncludeResource: font Helvetica-Oblique
%%IncludeResource: font Helvetica-Bold
%%IncludeResource: font Helvetica-BoldOblique
%%IncludeResource: font Courier
%%IncludeResource: font Courier-Oblique
%%IncludeResource: font Courier-Bold
%%IncludeResource: font Courier-BoldOblique
%%IncludeResource: font Symbol
%%IncludeResource: font ZapfDingbats
/reEncode {exch findfont dup length dict begin {1 index /FID eq  {pop pop} {def} ifelse } forall /Encoding exch def currentdict end dup /FontName get exch definefont pop } def [/Times-Bold /Times-Italic /Times-BoldItalic /Helvetica /Helvetica-Oblique
 /Helvetica-Bold /Helvetica-BoldOblique /Courier /Courier-Oblique /Courier-Bold /Courier-BoldOblique /Times-Roman /AvantGarde-Book /AvantGarde-BookOblique /AvantGarde-Demi /AvantGarde-DemiOblique /Bookman-Demi /Bookman-DemiItalic /Bookman-Light
 /Bookman-LightItalic /Helvetica-Narrow /Helvetica-Narrow-Bold /Helvetica-Narrow-BoldOblique /Helvetica-Narrow-Oblique /NewCenturySchlbk-Roman /NewCenturySchlbk-Bold /NewCenturySchlbk-BoldItalic /NewCenturySchlbk-Italic /Palatino-Bold
 /Palatino-BoldItalic /Palatino-Italic /Palatino-Roman ] {ISOLatin1Encoding reEncode } forall
%%EndProlog
%%BeginSetup
%%EndSetup
newpath  gsave  .25 .25 scale  gsave  0 0 t black[  ] 0 sd 6 lw 1 1 1 c 2268 2234 0 0 bf black 3 lw 1 1 1 c 1882 1944 340 223 bf black 1882 1944 340 223 bl 1 1 1 c 1882 1944 340 223 bf black 1882 1944 340 223 bl 0 0 1 c 6 lw 1 1 1 c 0 0 1 c 359 1916
 m 1 Y s 359 1934 m 2 Y s 3 lw /w 19 def /w2 {w 2 div} def /w3 {w 3 div} def 359 1926 m21 6 lw 3 lw 397 958 m21 6 lw 3 lw 434 913 m21 6 lw 3 lw 472 1004 m21 6 lw 3 lw 510 1148 m21 6 lw 3 lw 547 1317 m21 6 lw 585 1483 m s 585 1500 m s 3 lw 585 1491
 m21 6 lw 622 1642 m 1 Y s 622 1660 m s 3 lw 622 1651 m21 6 lw 660 1789 m 1 Y s 660 1807 m 1 Y s 3 lw 660 1799 m21 6 lw 698 1915 m 2 Y s 698 1934 m 1 Y s 3 lw 698 1925 m21 6 lw 735 2003 m 2 Y s 735 2022 m 2 Y s 3 lw 735 2013 m21 6 lw 773 2029 m 1 Y s
 773 2047 m 2 Y s 3 lw 773 2039 m21 6 lw 811 2054 m 1 Y s 811 2072 m 2 Y s 3 lw 811 2064 m21 6 lw 848 2018 m 2 Y s 848 2037 m 1 Y s 3 lw 848 2028 m21 6 lw 886 1995 m 2 Y s 886 2014 m 1 Y s 3 lw 886 2005 m21 6 lw 924 1911 m 2 Y s 924 1930 m 1 Y s 3 lw
 924 1921 m21 6 lw 961 1822 m 1 Y s 961 1840 m 1 Y s 3 lw 961 1832 m21 6 lw 999 1734 m 1 Y s 999 1752 m 1 Y s 3 lw 999 1744 m21 6 lw 1037 1657 m 1 Y s 1037 1675 m 1 Y s 3 lw 1037 1667 m21 6 lw 1074 1535 m s 1074 1552 m s 3 lw 1074 1544 m21 6 lw 3 lw
 1112 1437 m21 6 lw 3 lw 1150 1357 m21 6 lw 3 lw 1187 1271 m21 6 lw 3 lw 1225 1167 m21 6 lw 3 lw 1262 1092 m21 6 lw 3 lw 1300 1023 m21 6 lw 3 lw 1338 939 m21 6 lw 3 lw 1375 887 m21 6 lw 3 lw 1413 823 m21 6 lw 3 lw 1451 779 m21 6 lw 3 lw 1488 723 m21
 6 lw 3 lw 1526 677 m21 6 lw 3 lw 1564 641 m21 6 lw 3 lw 1601 600 m21 6 lw 3 lw 1639 565 m21 6 lw 3 lw 1677 545 m21 6 lw 3 lw 1714 511 m21 6 lw 3 lw 1752 488 m21 6 lw 3 lw 1789 458 m21 6 lw 3 lw 1827 444 m21 6 lw 3 lw 1865 425 m21 6 lw 3 lw 1902 400
 m21 6 lw 3 lw 1940 394 m21 6 lw 3 lw 1978 372 m21 6 lw 3 lw 2015 364 m21 6 lw 3 lw 2053 349 m21 6 lw 3 lw 2091 340 m21 6 lw 3 lw 2128 329 m21 6 lw 3 lw 2166 323 m21 6 lw 3 lw 2204 314 m21 6 lw black 340 223 m 1882 X s
 gsave  2268 2234 0 0 C 1923.86 58.2559 t 0 r /Helvetica findfont 83.8316 sf 0 0 m (Q [GeV]) show NC gr  340 279 m -56 Y s 387 251 m -28 Y s 434 251 m -28 Y s 481 251 m -28 Y s 528 279 m -56 Y s 575 251 m -28 Y s 622 251 m -28 Y s 670 251 m -28 Y s
 717 279 m -56 Y s 764 251 m -28 Y s 811 251 m -28 Y s 858 251 m -28 Y s 905 279 m -56 Y s 952 251 m -28 Y s 999 251 m -28 Y s 1046 251 m -28 Y s 1093 279 m -56 Y s 1140 251 m -28 Y s 1187 251 m -28 Y s 1234 251 m -28 Y s 1281 279 m -56 Y s 1328 251
 m -28 Y s 1375 251 m -28 Y s 1422 251 m -28 Y s 1469 279 m -56 Y s 1517 251 m -28 Y s 1564 251 m -28 Y s 1611 251 m -28 Y s 1658 279 m -56 Y s 1705 251 m -28 Y s 1752 251 m -28 Y s 1799 251 m -28 Y s 1846 279 m -56 Y s 1893 251 m -28 Y s 1940 251 m
 -28 Y s 1987 251 m -28 Y s 2034 279 m -56 Y s 2081 251 m -28 Y s 2128 251 m -28 Y s 2175 251 m -28 Y s 2222 279 m -56 Y s
 gsave  2268 2234 0 0 C 322.539 159.138 t 0 r /Helvetica findfont 62.5185 sf 0 0 m (0) show NC gr 
 gsave  2268 2234 0 0 C 484.518 159.138 t 0 r /Helvetica findfont 62.5185 sf 0 0 m (0.2) show NC gr 
 gsave  2268 2234 0 0 C 673.495 159.138 t 0 r /Helvetica findfont 62.5185 sf 0 0 m (0.4) show NC gr 
 gsave  2268 2234 0 0 C 861.05 159.138 t 0 r /Helvetica findfont 62.5185 sf 0 0 m (0.6) show NC gr 
 gsave  2268 2234 0 0 C 1050.03 159.138 t 0 r /Helvetica findfont 62.5185 sf 0 0 m (0.8) show NC gr 
 gsave  2268 2234 0 0 C 1268.84 159.138 t 0 r /Helvetica findfont 62.5185 sf 0 0 m (1) show NC gr 
 gsave  2268 2234 0 0 C 1426.56 159.138 t 0 r /Helvetica findfont 62.5185 sf 0 0 m (1.2) show NC gr 
 gsave  2268 2234 0 0 C 1614.11 159.138 t 0 r /Helvetica findfont 62.5185 sf 0 0 m (1.4) show NC gr 
 gsave  2268 2234 0 0 C 1803.09 159.138 t 0 r /Helvetica findfont 62.5185 sf 0 0 m (1.6) show NC gr 
 gsave  2268 2234 0 0 C 1990.65 159.138 t 0 r /Helvetica findfont 62.5185 sf 0 0 m (1.8) show NC gr 
 gsave  2268 2234 0 0 C 2205.2 159.138 t 0 r /Helvetica findfont 62.5185 sf 0 0 m (2) show NC gr  340 223 m 1944 Y s
 gsave  2268 2234 0 0 C 157.717 1903.97 t 90 r /Helvetica findfont 83.8316 sf 0 0 m ( dN/dQ) show NC gr  399 505 m -59 X s 370 562 m -30 X s 370 619 m -30 X s 370 677 m -30 X s 370 734 m -30 X s 399 791 m -59 X s 370 849 m -30 X s 370 906 m -30 X s
 370 963 m -30 X s 370 1021 m -30 X s 399 1078 m -59 X s 370 1135 m -30 X s 370 1193 m -30 X s 370 1250 m -30 X s 370 1307 m -30 X s 399 1364 m -59 X s 370 1422 m -30 X s 370 1479 m -30 X s 370 1536 m -30 X s 370 1594 m -30 X s 399 1651 m -59 X s 370
 1708 m -30 X s 370 1766 m -30 X s 370 1823 m -30 X s 370 1880 m -30 X s 399 1938 m -59 X s 399 505 m -59 X s 370 447 m -30 X s 370 390 m -30 X s 370 333 m -30 X s 370 275 m -30 X s 399 1938 m -59 X s 370 1995 m -30 X s 370 2052 m -30 X s 370 2110 m
 -30 X s
 gsave  2268 2234 0 0 C 191.818 483.098 t 0 r /Helvetica findfont 62.5185 sf 0 0 m (5000) show NC gr 
 gsave  2268 2234 0 0 C 156.296 768.693 t 0 r /Helvetica findfont 62.5185 sf 0 0 m (10000) show NC gr 
 gsave  2268 2234 0 0 C 156.296 1055.71 t 0 r /Helvetica findfont 62.5185 sf 0 0 m (15000) show NC gr 
 gsave  2268 2234 0 0 C 156.296 1342.73 t 0 r /Helvetica findfont 62.5185 sf 0 0 m (20000) show NC gr 
 gsave  2268 2234 0 0 C 156.296 1628.32 t 0 r /Helvetica findfont 62.5185 sf 0 0 m (25000) show NC gr 
 gsave  2268 2234 0 0 C 156.296 1915.34 t 0 r /Helvetica findfont 62.5185 sf 0 0 m (30000) show NC gr  1 0 0 c 1 1 1 c 1 0 0 c 3 lw 359 933 m21 6 lw 3 lw 397 470 m21 6 lw 3 lw 434 630 m21 6 lw 3 lw 472 818 m21 6 lw 3 lw 510 993 m21 6 lw 3 lw 547 1164
 m21 6 lw 3 lw 585 1331 m21 6 lw 3 lw 622 1474 m21 6 lw 660 1594 m s 660 1611 m 1 Y s 3 lw 660 1603 m21 6 lw 698 1709 m 1 Y s 698 1727 m s 3 lw 698 1718 m21 6 lw 735 1781 m 1 Y s 735 1799 m 1 Y s 3 lw 735 1790 m21 6 lw 773 1810 m 1 Y s 773 1828 m 1 Y
 s 3 lw 773 1819 m21 6 lw 811 1834 m 2 Y s 811 1853 m 1 Y s 3 lw 811 1844 m21 6 lw 848 1800 m 1 Y s 848 1818 m 1 Y s 3 lw 848 1809 m21 6 lw 886 1786 m 1 Y s 886 1804 m 1 Y s 3 lw 886 1796 m21 6 lw 924 1711 m 1 Y s 924 1729 m 1 Y s 3 lw 924 1721 m21 6
 lw 961 1641 m s 961 1659 m s 3 lw 961 1650 m21 6 lw 999 1562 m 1 Y s 999 1580 m s 3 lw 999 1571 m21 6 lw 1037 1497 m 1 Y s 1037 1515 m s 3 lw 1037 1506 m21 6 lw 3 lw 1074 1400 m21 6 lw 3 lw 1112 1307 m21 6 lw 3 lw 1150 1239 m21 6 lw 3 lw 1187 1165
 m21 6 lw 3 lw 1225 1071 m21 6 lw 3 lw 1262 1007 m21 6 lw 3 lw 1300 950 m21 6 lw 3 lw 1338 869 m21 6 lw 3 lw 1375 826 m21 6 lw 3 lw 1413 765 m21 6 lw 3 lw 1451 729 m21 6 lw 3 lw 1488 676 m21 6 lw 3 lw 1526 639 m21 6 lw 3 lw 1564 605 m21 6 lw 3 lw
 1601 568 m21 6 lw 3 lw 1639 535 m21 6 lw 3 lw 1677 517 m21 6 lw 3 lw 1714 487 m21 6 lw 3 lw 1752 467 m21 6 lw 3 lw 1789 440 m21 6 lw 3 lw 1827 425 m21 6 lw 3 lw 1865 409 m21 6 lw 3 lw 1902 385 m21 6 lw 3 lw 1940 381 m21 6 lw 3 lw 1978 361 m21 6 lw 3
 lw 2015 354 m21 6 lw 3 lw 2053 340 m21 6 lw 3 lw 2091 332 m21 6 lw 3 lw 2128 322 m21 6 lw 3 lw 2166 316 m21 6 lw 3 lw 2204 308 m21 6 lw black 1 1 1 c 680 447 1474 1675 bf black 1474 1675 m 680 X s 2154 1675 m 447 Y s 2154 2122 m -680 X s 1474 2122 m
 -447 Y s
 gsave  2268 2234 0 0 C 1490.5 2029.01 t 0 r /Helvetica findfont 49.7306 sf 0 0 m (shared VELO cut) show NC gr 
 gsave  2268 2234 0 0 C 1643.95 1881.24 t 0 r /Helvetica findfont 49.7306 sf 0 0 m (before) show NC gr  0 0 1 c 1559 1854 m 89 Y s 3 lw 1559 1899 m21 6 lw black
 gsave  2268 2234 0 0 C 1643.95 1732.05 t 0 r /Helvetica findfont 49.7306 sf 0 0 m (after) show NC gr  1 0 0 c 1559 1705 m 89 Y s 3 lw 1559 1750 m21 6 lw black
 gsave  2268 2234 0 0 C 521.461 291.279 t 0 r /Helvetica-Bold findfont 72.4646 sf 0 0 m (VELO tracks multiplicity: 2 \255 10) show NC gr 
 gr  gr showpage
end
%%EOF
