%!PS-Adobe-2.0 EPSF-2.0
%%BoundingBox:  0 0 567 544
%%Title: radius.eps: results
%%Creator: ROOT Version 6.06/02
%%CreationDate: Thu Feb  2 18:16:09 2017
%%DocumentNeededResources: ProcSet (FontSetInit)
%%EndComments
%%BeginProlog
80 dict begin
/s {stroke} def /l {lineto} def /m {moveto} def /t {translate} def
/r {rotate} def /rl {roll}  def /R {repeat} def
/d {rlineto} def /rm {rmoveto} def /gr {grestore} def /f {eofill} def
/c {setrgbcolor} def /black {0 setgray} def /sd {setdash} def
/cl {closepath} def /sf {scalefont setfont} def /lw {setlinewidth} def
/box {m dup 0 exch d exch 0 d 0 exch neg d cl} def
/NC{systemdict begin initclip end}def/C{NC box clip newpath}def
/bl {box s} def /bf {gsave box gsave f grestore 1 lw [] 0 sd s grestore} def /Y { 0 exch d} def /X { 0 d} def 
/K {{pop pop 0 moveto} exch kshow} bind def
/ita {/ang 15 def gsave [1 0 ang dup sin exch cos div 1 0 0] concat} def 
/mp {newpath /y exch def /x exch def} def
/side {[w .77 mul w .23 mul] .385 w mul sd w 0 l currentpoint t -144 r} def
/mr {mp x y w2 0 360 arc} def /m24 {mr s} def /m20 {mr f} def
/mb {mp x y w2 add m w2 neg 0 d 0 w neg d w 0 d 0 w d cl} def
/mt {mp x y w2 add m w2 neg w neg d w 0 d cl} def
/m21 {mb f} def /m25 {mb s} def /m22 {mt f} def /m26{mt s} def
/m23 {mp x y w2 sub m w2 w d w neg 0 d cl f} def
/m27 {mp x y w2 add m w3 neg w2 neg d w3 w2 neg d w3 w2 d cl s} def
/m28 {mp x w2 sub y w2 sub w3 add m w3 0 d  0 w3 neg d w3 0 d 0 w3 d w3 0 d  0 w3 d w3 neg 0 d 0 w3 d w3 neg 0 d 0 w3 neg d w3 neg 0 d cl s } def
/m29 {mp gsave x w2 sub y w2 add w3 sub m currentpoint t 4 {side} repeat cl fill gr} def
/m30 {mp gsave x w2 sub y w2 add w3 sub m currentpoint t 4 {side} repeat cl s gr} def
/m31 {mp x y w2 sub m 0 w d x w2 sub y m w 0 d x w2 sub y w2 add m w w neg d x w2 sub y w2 sub m w w d s} def
/m32 {mp x y w2 sub m w2 w d w neg 0 d cl s} def
/m33 {mp x y w2 add m w3 neg w2 neg d w3 w2 neg d w3 w2 d cl f} def
/m34 {mp x w2 sub y w2 sub w3 add m w3 0 d  0 w3 neg d w3 0 d 0 w3 d w3 0 d  0 w3 d w3 neg 0 d 0 w3 d w3 neg 0 d 0 w3 neg d w3 neg 0 d cl f } def
/m2 {mp x y w2 sub m 0 w d x w2 sub y m w 0 d s} def
/m5 {mp x w2 sub y w2 sub m w w d x w2 sub y w2 add m w w neg d s} def
%%IncludeResource: ProcSet (FontSetInit)
%%IncludeResource: font Times-Roman
%%IncludeResource: font Times-Italic
%%IncludeResource: font Times-Bold
%%IncludeResource: font Times-BoldItalic
%%IncludeResource: font Helvetica
%%IncludeResource: font Helvetica-Oblique
%%IncludeResource: font Helvetica-Bold
%%IncludeResource: font Helvetica-BoldOblique
%%IncludeResource: font Courier
%%IncludeResource: font Courier-Oblique
%%IncludeResource: font Courier-Bold
%%IncludeResource: font Courier-BoldOblique
%%IncludeResource: font Symbol
%%IncludeResource: font ZapfDingbats
/reEncode {exch findfont dup length dict begin {1 index /FID eq  {pop pop} {def} ifelse } forall /Encoding exch def currentdict end dup /FontName get exch definefont pop } def [/Times-Bold /Times-Italic /Times-BoldItalic /Helvetica /Helvetica-Oblique
 /Helvetica-Bold /Helvetica-BoldOblique /Courier /Courier-Oblique /Courier-Bold /Courier-BoldOblique /Times-Roman /AvantGarde-Book /AvantGarde-BookOblique /AvantGarde-Demi /AvantGarde-DemiOblique /Bookman-Demi /Bookman-DemiItalic /Bookman-Light
 /Bookman-LightItalic /Helvetica-Narrow /Helvetica-Narrow-Bold /Helvetica-Narrow-BoldOblique /Helvetica-Narrow-Oblique /NewCenturySchlbk-Roman /NewCenturySchlbk-Bold /NewCenturySchlbk-BoldItalic /NewCenturySchlbk-Italic /Palatino-Bold
 /Palatino-BoldItalic /Palatino-Italic /Palatino-Roman ] {ISOLatin1Encoding reEncode } forall
%%EndProlog
%%BeginSetup
%%EndSetup
newpath  gsave  .25 .25 scale  gsave  0 0 t 1 0 0 c[  ] 0 sd 9 lw 1 1 1 c 2268 2176 0 0 bf black 3 lw 1 1 1 c 1837 1763 340 326 bf black 1837 1763 340 326 bl 9 lw 340 326 m 1837 X s[ 4 8] 0 sd 3 lw 340 2089 m -1763 Y s 524 2089 m -1763 Y s 708 2089 m
 -1763 Y s 891 2089 m -1763 Y s 1075 2089 m -1763 Y s 1259 2089 m -1763 Y s 1442 2089 m -1763 Y s 1626 2089 m -1763 Y s 1810 2089 m -1763 Y s 1993 2089 m -1763 Y s 2177 2089 m -1763 Y s[  ] 0 sd 9 lw 340 326 m 1763 Y s[ 4 8] 0 sd 3 lw 2177 326 m
 -1837 X s 2177 620 m -1837 X s 2177 914 m -1837 X s 2177 1208 m -1837 X s 2177 1502 m -1837 X s 2177 1796 m -1837 X s 2177 2089 m -1837 X s[  ] 0 sd 9 lw 340 326 m 1837 X s
 gsave  2268 2176 0 0 C 1213.76 83.7077 t 0 r /Helvetica findfont 121.757 sf 0 0 m (data taking period) show NC gr  340 379 m -53 Y s 386 353 m -27 Y s 432 353 m -27 Y s 478 353 m -27 Y s 524 379 m -53 Y s 570 353 m -27 Y s 616 353 m -27 Y s 662 353
 m -27 Y s 708 379 m -53 Y s 753 353 m -27 Y s 799 353 m -27 Y s 845 353 m -27 Y s 891 379 m -53 Y s 937 353 m -27 Y s 983 353 m -27 Y s 1029 353 m -27 Y s 1075 379 m -53 Y s 1121 353 m -27 Y s 1167 353 m -27 Y s 1213 353 m -27 Y s 1259 379 m -53 Y s
 1305 353 m -27 Y s 1350 353 m -27 Y s 1396 353 m -27 Y s 1442 379 m -53 Y s 1488 353 m -27 Y s 1534 353 m -27 Y s 1580 353 m -27 Y s 1626 379 m -53 Y s 1672 353 m -27 Y s 1718 353 m -27 Y s 1764 353 m -27 Y s 1810 379 m -53 Y s 1856 353 m -27 Y s
 1901 353 m -27 Y s 1947 353 m -27 Y s 1993 379 m -53 Y s 2039 353 m -27 Y s 2085 353 m -27 Y s 2131 353 m -27 Y s 2177 379 m -53 Y s
 gsave  2268 2176 0 0 C 315.806 247.318 t 0 r /Helvetica findfont 79.9028 sf 0 0 m (0) show NC gr 
 gsave  2268 2176 0 0 C 464.197 247.318 t 0 r /Helvetica findfont 79.9028 sf 0 0 m (0.2) show NC gr 
 gsave  2268 2176 0 0 C 646.832 247.318 t 0 r /Helvetica findfont 79.9028 sf 0 0 m (0.4) show NC gr 
 gsave  2268 2176 0 0 C 833.272 247.318 t 0 r /Helvetica findfont 79.9028 sf 0 0 m (0.6) show NC gr 
 gsave  2268 2176 0 0 C 1015.91 247.318 t 0 r /Helvetica findfont 79.9028 sf 0 0 m (0.8) show NC gr 
 gsave  2268 2176 0 0 C 1240.4 247.318 t 0 r /Helvetica findfont 79.9028 sf 0 0 m (1) show NC gr 
 gsave  2268 2176 0 0 C 1384.98 247.318 t 0 r /Helvetica findfont 79.9028 sf 0 0 m (1.2) show NC gr 
 gsave  2268 2176 0 0 C 1567.62 247.318 t 0 r /Helvetica findfont 79.9028 sf 0 0 m (1.4) show NC gr 
 gsave  2268 2176 0 0 C 1750.25 247.318 t 0 r /Helvetica findfont 79.9028 sf 0 0 m (1.6) show NC gr 
 gsave  2268 2176 0 0 C 1932.89 247.318 t 0 r /Helvetica findfont 79.9028 sf 0 0 m (1.8) show NC gr 
 gsave  2268 2176 0 0 C 2153.57 247.318 t 0 r /Helvetica findfont 79.9028 sf 0 0 m (2) show NC gr  340 326 m 1763 Y s
 gsave  2268 2176 0 0 C 156.001 1773.08 t 90 r /Helvetica findfont 121.757 sf 0 0 m (R [fm]) show NC gr  395 326 m -55 X s 368 400 m -28 X s 368 473 m -28 X s 368 547 m -28 X s 395 620 m -55 X s 368 694 m -28 X s 368 767 m -28 X s 368 841 m -28 X s
 395 914 m -55 X s 368 988 m -28 X s 368 1061 m -28 X s 368 1134 m -28 X s 395 1208 m -55 X s 368 1281 m -28 X s 368 1355 m -28 X s 368 1428 m -28 X s 395 1502 m -55 X s 368 1575 m -28 X s 368 1649 m -28 X s 368 1722 m -28 X s 395 1796 m -55 X s 368
 1869 m -28 X s 368 1942 m -28 X s 368 2016 m -28 X s 395 2089 m -55 X s
 gsave  2268 2176 0 0 C 216.879 296.782 t 0 r /Helvetica findfont 79.9028 sf 0 0 m (0.8) show NC gr 
 gsave  2268 2176 0 0 C 296.782 593.563 t 0 r /Helvetica findfont 79.9028 sf 0 0 m (1) show NC gr 
 gsave  2268 2176 0 0 C 216.879 886.54 t 0 r /Helvetica findfont 79.9028 sf 0 0 m (1.2) show NC gr 
 gsave  2268 2176 0 0 C 216.879 1179.52 t 0 r /Helvetica findfont 79.9028 sf 0 0 m (1.4) show NC gr 
 gsave  2268 2176 0 0 C 216.879 1472.49 t 0 r /Helvetica findfont 79.9028 sf 0 0 m (1.6) show NC gr 
 gsave  2268 2176 0 0 C 216.879 1765.47 t 0 r /Helvetica findfont 79.9028 sf 0 0 m (1.8) show NC gr 
 gsave  2268 2176 0 0 C 285.367 2062.25 t 0 r /Helvetica findfont 79.9028 sf 0 0 m (2) show NC gr  1 0 0 c black 1 0 0 c 3 lw /w 43 def /w2 {w 2 div} def /w3 {w 3 div} def 799 1335 1718 1315 2 { m21} R 9 lw 799 1354 m 27 Y s 792 1381 m 15 X s 799
 1316 m -27 Y s 792 1289 m 15 X s 1718 1334 m 9 Y s 1710 1343 m 15 X s 1718 1296 m -9 Y s 1710 1287 m 15 X s
 gr  gr showpage
end
%%EOF
