%!PS-Adobe-2.0 EPSF-2.0
%%BoundingBox:  0 0 567 558
%%Title: ./RD_corr_RD_pion_0c5_h3014_1_h3414_1_compare.eps: RD_corr_RD_pion_0c5_h3014_1_h3414_1_compare
%%Creator: ROOT Version 6.06/02
%%CreationDate: Mon Nov 14 12:33:17 2016
%%DocumentNeededResources: ProcSet (FontSetInit)
%%EndComments
%%BeginProlog
80 dict begin
/s {stroke} def /l {lineto} def /m {moveto} def /t {translate} def
/r {rotate} def /rl {roll}  def /R {repeat} def
/d {rlineto} def /rm {rmoveto} def /gr {grestore} def /f {eofill} def
/c {setrgbcolor} def /black {0 setgray} def /sd {setdash} def
/cl {closepath} def /sf {scalefont setfont} def /lw {setlinewidth} def
/box {m dup 0 exch d exch 0 d 0 exch neg d cl} def
/NC{systemdict begin initclip end}def/C{NC box clip newpath}def
/bl {box s} def /bf {gsave box gsave f grestore 1 lw [] 0 sd s grestore} def /Y { 0 exch d} def /X { 0 d} def 
/K {{pop pop 0 moveto} exch kshow} bind def
/ita {/ang 15 def gsave [1 0 ang dup sin exch cos div 1 0 0] concat} def 
/mp {newpath /y exch def /x exch def} def
/side {[w .77 mul w .23 mul] .385 w mul sd w 0 l currentpoint t -144 r} def
/mr {mp x y w2 0 360 arc} def /m24 {mr s} def /m20 {mr f} def
/mb {mp x y w2 add m w2 neg 0 d 0 w neg d w 0 d 0 w d cl} def
/mt {mp x y w2 add m w2 neg w neg d w 0 d cl} def
/m21 {mb f} def /m25 {mb s} def /m22 {mt f} def /m26{mt s} def
/m23 {mp x y w2 sub m w2 w d w neg 0 d cl f} def
/m27 {mp x y w2 add m w3 neg w2 neg d w3 w2 neg d w3 w2 d cl s} def
/m28 {mp x w2 sub y w2 sub w3 add m w3 0 d  0 w3 neg d w3 0 d 0 w3 d w3 0 d  0 w3 d w3 neg 0 d 0 w3 d w3 neg 0 d 0 w3 neg d w3 neg 0 d cl s } def
/m29 {mp gsave x w2 sub y w2 add w3 sub m currentpoint t 4 {side} repeat cl fill gr} def
/m30 {mp gsave x w2 sub y w2 add w3 sub m currentpoint t 4 {side} repeat cl s gr} def
/m31 {mp x y w2 sub m 0 w d x w2 sub y m w 0 d x w2 sub y w2 add m w w neg d x w2 sub y w2 sub m w w d s} def
/m32 {mp x y w2 sub m w2 w d w neg 0 d cl s} def
/m33 {mp x y w2 add m w3 neg w2 neg d w3 w2 neg d w3 w2 d cl f} def
/m34 {mp x w2 sub y w2 sub w3 add m w3 0 d  0 w3 neg d w3 0 d 0 w3 d w3 0 d  0 w3 d w3 neg 0 d 0 w3 d w3 neg 0 d 0 w3 neg d w3 neg 0 d cl f } def
/m2 {mp x y w2 sub m 0 w d x w2 sub y m w 0 d s} def
/m5 {mp x w2 sub y w2 sub m w w d x w2 sub y w2 add m w w neg d s} def
%%IncludeResource: ProcSet (FontSetInit)
%%IncludeResource: font Times-Roman
%%IncludeResource: font Times-Italic
%%IncludeResource: font Times-Bold
%%IncludeResource: font Times-BoldItalic
%%IncludeResource: font Helvetica
%%IncludeResource: font Helvetica-Oblique
%%IncludeResource: font Helvetica-Bold
%%IncludeResource: font Helvetica-BoldOblique
%%IncludeResource: font Courier
%%IncludeResource: font Courier-Oblique
%%IncludeResource: font Courier-Bold
%%IncludeResource: font Courier-BoldOblique
%%IncludeResource: font Symbol
%%IncludeResource: font ZapfDingbats
/reEncode {exch findfont dup length dict begin {1 index /FID eq  {pop pop} {def} ifelse } forall /Encoding exch def currentdict end dup /FontName get exch definefont pop } def [/Times-Bold /Times-Italic /Times-BoldItalic /Helvetica /Helvetica-Oblique
 /Helvetica-Bold /Helvetica-BoldOblique /Courier /Courier-Oblique /Courier-Bold /Courier-BoldOblique /Times-Roman /AvantGarde-Book /AvantGarde-BookOblique /AvantGarde-Demi /AvantGarde-DemiOblique /Bookman-Demi /Bookman-DemiItalic /Bookman-Light
 /Bookman-LightItalic /Helvetica-Narrow /Helvetica-Narrow-Bold /Helvetica-Narrow-BoldOblique /Helvetica-Narrow-Oblique /NewCenturySchlbk-Roman /NewCenturySchlbk-Bold /NewCenturySchlbk-BoldItalic /NewCenturySchlbk-Italic /Palatino-Bold
 /Palatino-BoldItalic /Palatino-Italic /Palatino-Roman ] {ISOLatin1Encoding reEncode } forall
%%EndProlog
%%BeginSetup
%%EndSetup
newpath  gsave  .25 .25 scale  gsave  0 0 t black[  ] 0 sd 6 lw 1 1 1 c 2268 2234 0 0 bf black 3 lw 1 1 1 c 1882 1966 340 223 bf black 1882 1966 340 223 bl 1 1 1 c 1882 1966 340 223 bf black 1882 1966 340 223 bl 0 0 1 c 6 lw 1 1 1 c 0 0 1 c 359 1922
 m 12 Y s 359 1951 m 12 Y s 3 lw /w 19 def /w2 {w 2 div} def /w3 {w 3 div} def 359 1943 m21 6 lw 3 lw 397 1656 m21 6 lw 3 lw 434 1526 m21 6 lw 3 lw 472 1421 m21 6 lw 3 lw 510 1328 m21 6 lw 3 lw 547 1261 m21 6 lw 3 lw 585 1199 m21 6 lw 3 lw 622 1151
 m21 6 lw 3 lw 660 1114 m21 6 lw 3 lw 698 1079 m21 6 lw 3 lw 735 1049 m21 6 lw 3 lw 773 1026 m21 6 lw 3 lw 811 1003 m21 6 lw 3 lw 848 984 m21 6 lw 3 lw 886 968 m21 6 lw 3 lw 924 958 m21 6 lw 3 lw 961 941 m21 6 lw 3 lw 999 929 m21 6 lw 3 lw 1037 923
 m21 6 lw 3 lw 1074 919 m21 6 lw 3 lw 1112 911 m21 6 lw 3 lw 1150 906 m21 6 lw 3 lw 1187 903 m21 6 lw 3 lw 1225 901 m21 6 lw 3 lw 1262 902 m21 6 lw 3 lw 1300 896 m21 6 lw 3 lw 1338 896 m21 6 lw 3 lw 1375 898 m21 6 lw 3 lw 1413 898 m21 6 lw 3 lw 1451
 902 m21 6 lw 3 lw 1488 905 m21 6 lw 3 lw 1526 909 m21 6 lw 3 lw 1564 914 m21 6 lw 3 lw 1601 919 m21 6 lw 3 lw 1639 921 m21 6 lw 3 lw 1677 929 m21 6 lw 3 lw 1714 932 m21 6 lw 3 lw 1752 944 m21 6 lw 3 lw 1789 946 m21 6 lw 3 lw 1827 951 m21 6 lw 3 lw
 1865 956 m21 6 lw 3 lw 1902 960 m21 6 lw 3 lw 1940 960 m21 6 lw 3 lw 1978 973 m21 6 lw 3 lw 2015 980 m21 6 lw 3 lw 2053 984 m21 6 lw 3 lw 2091 990 m21 6 lw 3 lw 2128 993 m21 6 lw 3 lw 2166 997 m21 6 lw 3 lw 2204 1007 m21 6 lw black 340 223 m 1882 X
 s
 gsave  2268 2234 0 0 C 1923.86 58.2559 t 0 r /Helvetica findfont 83.8316 sf 0 0 m (Q [GeV]) show NC gr  340 279 m -56 Y s 387 251 m -28 Y s 434 251 m -28 Y s 481 251 m -28 Y s 528 279 m -56 Y s 575 251 m -28 Y s 622 251 m -28 Y s 670 251 m -28 Y s
 717 279 m -56 Y s 764 251 m -28 Y s 811 251 m -28 Y s 858 251 m -28 Y s 905 279 m -56 Y s 952 251 m -28 Y s 999 251 m -28 Y s 1046 251 m -28 Y s 1093 279 m -56 Y s 1140 251 m -28 Y s 1187 251 m -28 Y s 1234 251 m -28 Y s 1281 279 m -56 Y s 1328 251
 m -28 Y s 1375 251 m -28 Y s 1422 251 m -28 Y s 1469 279 m -56 Y s 1517 251 m -28 Y s 1564 251 m -28 Y s 1611 251 m -28 Y s 1658 279 m -56 Y s 1705 251 m -28 Y s 1752 251 m -28 Y s 1799 251 m -28 Y s 1846 279 m -56 Y s 1893 251 m -28 Y s 1940 251 m
 -28 Y s 1987 251 m -28 Y s 2034 279 m -56 Y s 2081 251 m -28 Y s 2128 251 m -28 Y s 2175 251 m -28 Y s 2222 279 m -56 Y s
 gsave  2268 2234 0 0 C 322.539 159.138 t 0 r /Helvetica findfont 62.5185 sf 0 0 m (0) show NC gr 
 gsave  2268 2234 0 0 C 484.518 159.138 t 0 r /Helvetica findfont 62.5185 sf 0 0 m (0.2) show NC gr 
 gsave  2268 2234 0 0 C 673.495 159.138 t 0 r /Helvetica findfont 62.5185 sf 0 0 m (0.4) show NC gr 
 gsave  2268 2234 0 0 C 861.05 159.138 t 0 r /Helvetica findfont 62.5185 sf 0 0 m (0.6) show NC gr 
 gsave  2268 2234 0 0 C 1050.03 159.138 t 0 r /Helvetica findfont 62.5185 sf 0 0 m (0.8) show NC gr 
 gsave  2268 2234 0 0 C 1268.84 159.138 t 0 r /Helvetica findfont 62.5185 sf 0 0 m (1) show NC gr 
 gsave  2268 2234 0 0 C 1426.56 159.138 t 0 r /Helvetica findfont 62.5185 sf 0 0 m (1.2) show NC gr 
 gsave  2268 2234 0 0 C 1614.11 159.138 t 0 r /Helvetica findfont 62.5185 sf 0 0 m (1.4) show NC gr 
 gsave  2268 2234 0 0 C 1803.09 159.138 t 0 r /Helvetica findfont 62.5185 sf 0 0 m (1.6) show NC gr 
 gsave  2268 2234 0 0 C 1990.65 159.138 t 0 r /Helvetica findfont 62.5185 sf 0 0 m (1.8) show NC gr 
 gsave  2268 2234 0 0 C 2205.2 159.138 t 0 r /Helvetica findfont 62.5185 sf 0 0 m (2) show NC gr  340 223 m 1966 Y s
 gsave  2268 2234 0 0 C 147.771 1594.22 t 90 r /Helvetica findfont 83.8316 sf 0 0 m (\(Q\) / \(0.04 GeV\)) show NC gr 
 gsave  2268 2234 0 0 C 174.768 1565.8 t 90 r /Helvetica findfont 55.4141 sf 0 0 m (2) show NC gr 
 gsave  2268 2234 0 0 C 147.771 1484.81 t 90 r /Helvetica findfont 83.8316 sf 0 0 m ( C) show NC gr  400 375 m -60 X s 370 450 m -30 X s 370 526 m -30 X s 370 601 m -30 X s 400 677 m -60 X s 370 753 m -30 X s 370 828 m -30 X s 370 904 m -30 X s 400
 979 m -60 X s 370 1055 m -30 X s 370 1131 m -30 X s 370 1206 m -30 X s 400 1282 m -60 X s 370 1357 m -30 X s 370 1433 m -30 X s 370 1509 m -30 X s 400 1584 m -60 X s 370 1660 m -30 X s 370 1735 m -30 X s 370 1811 m -30 X s 400 1887 m -60 X s 370
 1962 m -30 X s 370 2038 m -30 X s 370 2113 m -30 X s 400 2189 m -60 X s 400 375 m -60 X s 370 299 m -30 X s 370 223 m -30 X s
 gsave  2268 2234 0 0 C 242.97 352.377 t 0 r /Helvetica findfont 62.5185 sf 0 0 m (0.6) show NC gr 
 gsave  2268 2234 0 0 C 242.97 655.023 t 0 r /Helvetica findfont 62.5185 sf 0 0 m (0.8) show NC gr 
 gsave  2268 2234 0 0 C 305.488 956.249 t 0 r /Helvetica findfont 62.5185 sf 0 0 m (1) show NC gr 
 gsave  2268 2234 0 0 C 242.97 1258.9 t 0 r /Helvetica findfont 62.5185 sf 0 0 m (1.2) show NC gr 
 gsave  2268 2234 0 0 C 242.97 1560.12 t 0 r /Helvetica findfont 62.5185 sf 0 0 m (1.4) show NC gr 
 gsave  2268 2234 0 0 C 242.97 1864.19 t 0 r /Helvetica findfont 62.5185 sf 0 0 m (1.6) show NC gr 
 gsave  2268 2234 0 0 C 242.97 2166.83 t 0 r /Helvetica findfont 62.5185 sf 0 0 m (1.8) show NC gr  1 0 0 c 1 1 1 c 1 0 0 c 359 1854 m 12 Y s 359 1883 m 12 Y s 3 lw 359 1875 m21 6 lw 3 lw 397 1649 m21 6 lw 3 lw 434 1524 m21 6 lw 3 lw 472 1425 m21 6
 lw 3 lw 510 1333 m21 6 lw 3 lw 547 1256 m21 6 lw 3 lw 585 1200 m21 6 lw 3 lw 622 1152 m21 6 lw 3 lw 660 1112 m21 6 lw 3 lw 698 1078 m21 6 lw 3 lw 735 1047 m21 6 lw 3 lw 773 1028 m21 6 lw 3 lw 811 1004 m21 6 lw 3 lw 848 983 m21 6 lw 3 lw 886 968 m21
 6 lw 3 lw 924 956 m21 6 lw 3 lw 961 940 m21 6 lw 3 lw 999 933 m21 6 lw 3 lw 1037 923 m21 6 lw 3 lw 1074 916 m21 6 lw 3 lw 1112 910 m21 6 lw 3 lw 1150 907 m21 6 lw 3 lw 1187 902 m21 6 lw 3 lw 1225 899 m21 6 lw 3 lw 1262 903 m21 6 lw 3 lw 1300 898 m21
 6 lw 3 lw 1338 892 m21 6 lw 3 lw 1375 899 m21 6 lw 3 lw 1413 898 m21 6 lw 3 lw 1451 904 m21 6 lw 3 lw 1488 906 m21 6 lw 3 lw 1526 909 m21 6 lw 3 lw 1564 912 m21 6 lw 3 lw 1601 914 m21 6 lw 3 lw 1639 924 m21 6 lw 3 lw 1677 930 m21 6 lw 3 lw 1714 933
 m21 6 lw 3 lw 1752 941 m21 6 lw 3 lw 1789 947 m21 6 lw 3 lw 1827 948 m21 6 lw 3 lw 1865 958 m21 6 lw 3 lw 1902 964 m21 6 lw 3 lw 1940 964 m21 6 lw 3 lw 1978 978 m21 6 lw 3 lw 2015 986 m21 6 lw 3 lw 2053 985 m21 6 lw 3 lw 2091 994 m21 6 lw 3 lw 2128
 997 m21 6 lw 3 lw 2166 995 m21 6 lw 3 lw 2204 1004 m21 6 lw 0 1 0 c 1 1 1 c 0 1 0 c 359 1836 m 12 Y s 359 1865 m 13 Y s 3 lw 359 1857 m21 6 lw 3 lw 397 1653 m21 6 lw 3 lw 434 1519 m21 6 lw 3 lw 472 1424 m21 6 lw 3 lw 510 1332 m21 6 lw 3 lw 547 1260
 m21 6 lw 3 lw 585 1200 m21 6 lw 3 lw 622 1154 m21 6 lw 3 lw 660 1114 m21 6 lw 3 lw 698 1078 m21 6 lw 3 lw 735 1050 m21 6 lw 3 lw 773 1027 m21 6 lw 3 lw 811 1005 m21 6 lw 3 lw 848 985 m21 6 lw 3 lw 886 969 m21 6 lw 3 lw 924 955 m21 6 lw 3 lw 961 941
 m21 6 lw 3 lw 999 927 m21 6 lw 3 lw 1037 923 m21 6 lw 3 lw 1074 918 m21 6 lw 3 lw 1112 909 m21 6 lw 3 lw 1150 906 m21 6 lw 3 lw 1187 902 m21 6 lw 3 lw 1225 901 m21 6 lw 3 lw 1262 900 m21 6 lw 3 lw 1300 895 m21 6 lw 3 lw 1338 892 m21 6 lw 3 lw 1375
 898 m21 6 lw 3 lw 1413 899 m21 6 lw 3 lw 1451 903 m21 6 lw 3 lw 1488 907 m21 6 lw 3 lw 1526 909 m21 6 lw 3 lw 1564 911 m21 6 lw 3 lw 1601 918 m21 6 lw 3 lw 1639 924 m21 6 lw 3 lw 1677 929 m21 6 lw 3 lw 1714 935 m21 6 lw 3 lw 1752 941 m21 6 lw 3 lw
 1789 945 m21 6 lw 3 lw 1827 947 m21 6 lw 3 lw 1865 960 m21 6 lw 3 lw 1902 962 m21 6 lw 3 lw 1940 969 m21 6 lw 3 lw 1978 974 m21 6 lw 3 lw 2015 982 m21 6 lw 3 lw 2053 989 m21 6 lw 3 lw 2091 993 m21 6 lw 3 lw 2128 1000 m21 6 lw 3 lw 2166 1000 m21 6 lw
 3 lw 2204 1005 m21 6 lw 0.8 0 1 c 1 1 1 c 0.8 0 1 c 359 1755 m 12 Y s 359 1784 m 12 Y s 3 lw 359 1776 m21 6 lw 3 lw 397 1636 m21 6 lw 3 lw 434 1521 m21 6 lw 3 lw 472 1423 m21 6 lw 3 lw 510 1328 m21 6 lw 3 lw 547 1262 m21 6 lw 3 lw 585 1205 m21 6 lw
 3 lw 622 1154 m21 6 lw 3 lw 660 1114 m21 6 lw 3 lw 698 1083 m21 6 lw 3 lw 735 1051 m21 6 lw 3 lw 773 1027 m21 6 lw 3 lw 811 1005 m21 6 lw 3 lw 848 985 m21 6 lw 3 lw 886 969 m21 6 lw 3 lw 924 959 m21 6 lw 3 lw 961 942 m21 6 lw 3 lw 999 932 m21 6 lw 3
 lw 1037 924 m21 6 lw 3 lw 1074 919 m21 6 lw 3 lw 1112 908 m21 6 lw 3 lw 1150 906 m21 6 lw 3 lw 1187 902 m21 6 lw 3 lw 1225 901 m21 6 lw 3 lw 1262 900 m21 6 lw 3 lw 1300 896 m21 6 lw 3 lw 1338 892 m21 6 lw 3 lw 1375 897 m21 6 lw 3 lw 1413 893 m21 6
 lw 3 lw 1451 900 m21 6 lw 3 lw 1488 903 m21 6 lw 3 lw 1526 910 m21 6 lw 3 lw 1564 910 m21 6 lw 3 lw 1601 915 m21 6 lw 3 lw 1639 926 m21 6 lw 3 lw 1677 929 m21 6 lw 3 lw 1714 933 m21 6 lw 3 lw 1752 942 m21 6 lw 3 lw 1789 942 m21 6 lw 3 lw 1827 944
 m21 6 lw 3 lw 1865 959 m21 6 lw 3 lw 1902 962 m21 6 lw 3 lw 1940 967 m21 6 lw 3 lw 1978 973 m21 6 lw 3 lw 2015 982 m21 6 lw 3 lw 2053 988 m21 6 lw 3 lw 2091 994 m21 6 lw 3 lw 2128 999 m21 6 lw 3 lw 2166 1002 m21 6 lw 3 lw 2204 1006 m21 6 lw 0.4 0.4
 0.4 c 1 1 1 c 0.4 0.4 0.4 c 359 1609 m 12 Y s 359 1638 m 13 Y s 3 lw 359 1630 m21 6 lw 3 lw 397 1609 m21 6 lw 3 lw 434 1521 m21 6 lw 3 lw 472 1421 m21 6 lw 3 lw 510 1337 m21 6 lw 3 lw 547 1265 m21 6 lw 3 lw 585 1207 m21 6 lw 3 lw 622 1159 m21 6 lw 3
 lw 660 1118 m21 6 lw 3 lw 698 1085 m21 6 lw 3 lw 735 1057 m21 6 lw 3 lw 773 1031 m21 6 lw 3 lw 811 1012 m21 6 lw 3 lw 848 990 m21 6 lw 3 lw 886 974 m21 6 lw 3 lw 924 959 m21 6 lw 3 lw 961 945 m21 6 lw 3 lw 999 932 m21 6 lw 3 lw 1037 924 m21 6 lw 3
 lw 1074 919 m21 6 lw 3 lw 1112 910 m21 6 lw 3 lw 1150 907 m21 6 lw 3 lw 1187 903 m21 6 lw 3 lw 1225 899 m21 6 lw 3 lw 1262 901 m21 6 lw 3 lw 1300 896 m21 6 lw 3 lw 1338 889 m21 6 lw 3 lw 1375 896 m21 6 lw 3 lw 1413 894 m21 6 lw 3 lw 1451 898 m21 6
 lw 3 lw 1488 903 m21 6 lw 3 lw 1526 905 m21 6 lw 3 lw 1564 910 m21 6 lw 3 lw 1601 912 m21 6 lw 3 lw 1639 923 m21 6 lw 3 lw 1677 923 m21 6 lw 3 lw 1714 928 m21 6 lw 3 lw 1752 937 m21 6 lw 3 lw 1789 947 m21 6 lw 3 lw 1827 945 m21 6 lw 3 lw 1865 953
 m21 6 lw 3 lw 1902 965 m21 6 lw 3 lw 1940 973 m21 6 lw 3 lw 1978 969 m21 6 lw 3 lw 2015 986 m21 6 lw 3 lw 2053 987 m21 6 lw 3 lw 2091 993 m21 6 lw 3 lw 2128 999 m21 6 lw 3 lw 2166 1003 m21 6 lw 3 lw 2204 1005 m21 6 lw black 1 1 1 c 680 447 1474 1675
 bf black 1474 1675 m 680 X s 2154 1675 m 447 Y s 2154 2122 m -680 X s 1474 2122 m -447 Y s
 gsave  2268 2234 0 0 C 1490.5 2068.79 t 0 r /Helvetica findfont 56.835 sf 0 0 m (probNNpi cut) show NC gr 
 gsave  2268 2234 0 0 C 1643.95 1994.91 t 0 r /Helvetica findfont 56.835 sf 0 0 m (0.5) show NC gr  0 0 1 c 1559 1988 m 45 Y s 3 lw 1559 2010 m21 6 lw black
 gsave  2268 2234 0 0 C 1643.95 1919.6 t 0 r /Helvetica findfont 56.835 sf 0 0 m (0.6) show NC gr  1 0 0 c 1559 1913 m 45 Y s 3 lw 1559 1936 m21 6 lw black
 gsave  2268 2234 0 0 C 1643.95 1845.72 t 0 r /Helvetica findfont 56.835 sf 0 0 m (0.65) show NC gr  0 1 0 c 1559 1839 m 45 Y s 3 lw 1559 1861 m21 6 lw black
 gsave  2268 2234 0 0 C 1643.95 1770.41 t 0 r /Helvetica findfont 56.835 sf 0 0 m (0.7) show NC gr  0.8 0 1 c 1559 1765 m 44 Y s 3 lw 1559 1787 m21 6 lw black
 gsave  2268 2234 0 0 C 1643.95 1696.52 t 0 r /Helvetica findfont 56.835 sf 0 0 m (0.8) show NC gr  0.4 0.4 0.4 c 1559 1690 m 45 Y s 3 lw 1559 1712 m21 6 lw black
 gsave  2268 2234 0 0 C 906.518 670.653 t 0 r /Helvetica-Bold findfont 72.4646 sf 0 0 m (RD PIONS) show NC gr 
 gsave  2268 2234 0 0 C 906.518 558.404 t 0 r /Helvetica-Bold findfont 72.4646 sf 0 0 m (ref. sample: EVENT MIX) show NC gr 
 gsave  2268 2234 0 0 C 906.518 447.576 t 0 r /Helvetica-Bold findfont 72.4646 sf 0 0 m (VELO tracks multiplicity: < 10) show NC gr 
 gr  gr showpage
end
%%EOF
