%!PS-Adobe-2.0 EPSF-2.0
%%BoundingBox:  0 0 567 558
%%Title: ./RD_corr_RD_pion_0c5_h3014_2_h3414_2_compare.eps: RD_corr_RD_pion_0c5_h3014_2_h3414_2_compare
%%Creator: ROOT Version 6.06/02
%%CreationDate: Fri Nov  4 10:42:07 2016
%%DocumentNeededResources: ProcSet (FontSetInit)
%%EndComments
%%BeginProlog
80 dict begin
/s {stroke} def /l {lineto} def /m {moveto} def /t {translate} def
/r {rotate} def /rl {roll}  def /R {repeat} def
/d {rlineto} def /rm {rmoveto} def /gr {grestore} def /f {eofill} def
/c {setrgbcolor} def /black {0 setgray} def /sd {setdash} def
/cl {closepath} def /sf {scalefont setfont} def /lw {setlinewidth} def
/box {m dup 0 exch d exch 0 d 0 exch neg d cl} def
/NC{systemdict begin initclip end}def/C{NC box clip newpath}def
/bl {box s} def /bf {gsave box gsave f grestore 1 lw [] 0 sd s grestore} def /Y { 0 exch d} def /X { 0 d} def 
/K {{pop pop 0 moveto} exch kshow} bind def
/ita {/ang 15 def gsave [1 0 ang dup sin exch cos div 1 0 0] concat} def 
/mp {newpath /y exch def /x exch def} def
/side {[w .77 mul w .23 mul] .385 w mul sd w 0 l currentpoint t -144 r} def
/mr {mp x y w2 0 360 arc} def /m24 {mr s} def /m20 {mr f} def
/mb {mp x y w2 add m w2 neg 0 d 0 w neg d w 0 d 0 w d cl} def
/mt {mp x y w2 add m w2 neg w neg d w 0 d cl} def
/m21 {mb f} def /m25 {mb s} def /m22 {mt f} def /m26{mt s} def
/m23 {mp x y w2 sub m w2 w d w neg 0 d cl f} def
/m27 {mp x y w2 add m w3 neg w2 neg d w3 w2 neg d w3 w2 d cl s} def
/m28 {mp x w2 sub y w2 sub w3 add m w3 0 d  0 w3 neg d w3 0 d 0 w3 d w3 0 d  0 w3 d w3 neg 0 d 0 w3 d w3 neg 0 d 0 w3 neg d w3 neg 0 d cl s } def
/m29 {mp gsave x w2 sub y w2 add w3 sub m currentpoint t 4 {side} repeat cl fill gr} def
/m30 {mp gsave x w2 sub y w2 add w3 sub m currentpoint t 4 {side} repeat cl s gr} def
/m31 {mp x y w2 sub m 0 w d x w2 sub y m w 0 d x w2 sub y w2 add m w w neg d x w2 sub y w2 sub m w w d s} def
/m32 {mp x y w2 sub m w2 w d w neg 0 d cl s} def
/m33 {mp x y w2 add m w3 neg w2 neg d w3 w2 neg d w3 w2 d cl f} def
/m34 {mp x w2 sub y w2 sub w3 add m w3 0 d  0 w3 neg d w3 0 d 0 w3 d w3 0 d  0 w3 d w3 neg 0 d 0 w3 d w3 neg 0 d 0 w3 neg d w3 neg 0 d cl f } def
/m2 {mp x y w2 sub m 0 w d x w2 sub y m w 0 d s} def
/m5 {mp x w2 sub y w2 sub m w w d x w2 sub y w2 add m w w neg d s} def
%%IncludeResource: ProcSet (FontSetInit)
%%IncludeResource: font Times-Roman
%%IncludeResource: font Times-Italic
%%IncludeResource: font Times-Bold
%%IncludeResource: font Times-BoldItalic
%%IncludeResource: font Helvetica
%%IncludeResource: font Helvetica-Oblique
%%IncludeResource: font Helvetica-Bold
%%IncludeResource: font Helvetica-BoldOblique
%%IncludeResource: font Courier
%%IncludeResource: font Courier-Oblique
%%IncludeResource: font Courier-Bold
%%IncludeResource: font Courier-BoldOblique
%%IncludeResource: font Symbol
%%IncludeResource: font ZapfDingbats
/reEncode {exch findfont dup length dict begin {1 index /FID eq  {pop pop} {def} ifelse } forall /Encoding exch def currentdict end dup /FontName get exch definefont pop } def [/Times-Bold /Times-Italic /Times-BoldItalic /Helvetica /Helvetica-Oblique
 /Helvetica-Bold /Helvetica-BoldOblique /Courier /Courier-Oblique /Courier-Bold /Courier-BoldOblique /Times-Roman /AvantGarde-Book /AvantGarde-BookOblique /AvantGarde-Demi /AvantGarde-DemiOblique /Bookman-Demi /Bookman-DemiItalic /Bookman-Light
 /Bookman-LightItalic /Helvetica-Narrow /Helvetica-Narrow-Bold /Helvetica-Narrow-BoldOblique /Helvetica-Narrow-Oblique /NewCenturySchlbk-Roman /NewCenturySchlbk-Bold /NewCenturySchlbk-BoldItalic /NewCenturySchlbk-Italic /Palatino-Bold
 /Palatino-BoldItalic /Palatino-Italic /Palatino-Roman ] {ISOLatin1Encoding reEncode } forall
%%EndProlog
%%BeginSetup
%%EndSetup
newpath  gsave  .25 .25 scale  gsave  0 0 t black[  ] 0 sd 6 lw 1 1 1 c 2268 2234 0 0 bf black 3 lw 1 1 1 c 1882 1966 340 223 bf black 1882 1966 340 223 bl 1 1 1 c 1882 1966 340 223 bf black 1882 1966 340 223 bl 0 0 1 c 6 lw 1 1 1 c 0 0 1 c 359 1824
 m 3 Y s 359 1844 m 4 Y s 3 lw /w 19 def /w2 {w 2 div} def /w3 {w 3 div} def 359 1836 m21 6 lw 3 lw 397 1575 m21 6 lw 3 lw 434 1464 m21 6 lw 3 lw 472 1350 m21 6 lw 3 lw 510 1271 m21 6 lw 3 lw 547 1214 m21 6 lw 3 lw 585 1167 m21 6 lw 3 lw 622 1129 m21
 6 lw 3 lw 660 1100 m21 6 lw 3 lw 698 1073 m21 6 lw 3 lw 735 1049 m21 6 lw 3 lw 773 1027 m21 6 lw 3 lw 811 1012 m21 6 lw 3 lw 848 997 m21 6 lw 3 lw 886 983 m21 6 lw 3 lw 924 972 m21 6 lw 3 lw 961 960 m21 6 lw 3 lw 999 953 m21 6 lw 3 lw 1037 946 m21 6
 lw 3 lw 1074 940 m21 6 lw 3 lw 1112 935 m21 6 lw 3 lw 1150 931 m21 6 lw 3 lw 1187 928 m21 6 lw 3 lw 1225 924 m21 6 lw 3 lw 1262 923 m21 6 lw 3 lw 1300 921 m21 6 lw 3 lw 1338 921 m21 6 lw 3 lw 1375 918 m21 6 lw 3 lw 1413 919 m21 6 lw 3 lw 1451 921
 m21 6 lw 3 lw 1488 922 m21 6 lw 3 lw 1526 921 m21 6 lw 3 lw 1564 923 m21 6 lw 3 lw 1601 925 m21 6 lw 3 lw 1639 928 m21 6 lw 3 lw 1677 929 m21 6 lw 3 lw 1714 931 m21 6 lw 3 lw 1752 932 m21 6 lw 3 lw 1789 933 m21 6 lw 3 lw 1827 939 m21 6 lw 3 lw 1865
 938 m21 6 lw 3 lw 1902 939 m21 6 lw 3 lw 1940 944 m21 6 lw 3 lw 1978 944 m21 6 lw 3 lw 2015 945 m21 6 lw 3 lw 2053 951 m21 6 lw 3 lw 2091 951 m21 6 lw 3 lw 2128 955 m21 6 lw 3 lw 2166 953 m21 6 lw 3 lw 2204 959 m21 6 lw black 340 223 m 1882 X s
 gsave  2268 2234 0 0 C 1923.86 58.2559 t 0 r /Helvetica findfont 83.8316 sf 0 0 m (Q [GeV]) show NC gr  340 279 m -56 Y s 387 251 m -28 Y s 434 251 m -28 Y s 481 251 m -28 Y s 528 279 m -56 Y s 575 251 m -28 Y s 622 251 m -28 Y s 670 251 m -28 Y s
 717 279 m -56 Y s 764 251 m -28 Y s 811 251 m -28 Y s 858 251 m -28 Y s 905 279 m -56 Y s 952 251 m -28 Y s 999 251 m -28 Y s 1046 251 m -28 Y s 1093 279 m -56 Y s 1140 251 m -28 Y s 1187 251 m -28 Y s 1234 251 m -28 Y s 1281 279 m -56 Y s 1328 251
 m -28 Y s 1375 251 m -28 Y s 1422 251 m -28 Y s 1469 279 m -56 Y s 1517 251 m -28 Y s 1564 251 m -28 Y s 1611 251 m -28 Y s 1658 279 m -56 Y s 1705 251 m -28 Y s 1752 251 m -28 Y s 1799 251 m -28 Y s 1846 279 m -56 Y s 1893 251 m -28 Y s 1940 251 m
 -28 Y s 1987 251 m -28 Y s 2034 279 m -56 Y s 2081 251 m -28 Y s 2128 251 m -28 Y s 2175 251 m -28 Y s 2222 279 m -56 Y s
 gsave  2268 2234 0 0 C 322.539 159.138 t 0 r /Helvetica findfont 62.5185 sf 0 0 m (0) show NC gr 
 gsave  2268 2234 0 0 C 484.518 159.138 t 0 r /Helvetica findfont 62.5185 sf 0 0 m (0.2) show NC gr 
 gsave  2268 2234 0 0 C 673.495 159.138 t 0 r /Helvetica findfont 62.5185 sf 0 0 m (0.4) show NC gr 
 gsave  2268 2234 0 0 C 861.05 159.138 t 0 r /Helvetica findfont 62.5185 sf 0 0 m (0.6) show NC gr 
 gsave  2268 2234 0 0 C 1050.03 159.138 t 0 r /Helvetica findfont 62.5185 sf 0 0 m (0.8) show NC gr 
 gsave  2268 2234 0 0 C 1268.84 159.138 t 0 r /Helvetica findfont 62.5185 sf 0 0 m (1) show NC gr 
 gsave  2268 2234 0 0 C 1426.56 159.138 t 0 r /Helvetica findfont 62.5185 sf 0 0 m (1.2) show NC gr 
 gsave  2268 2234 0 0 C 1614.11 159.138 t 0 r /Helvetica findfont 62.5185 sf 0 0 m (1.4) show NC gr 
 gsave  2268 2234 0 0 C 1803.09 159.138 t 0 r /Helvetica findfont 62.5185 sf 0 0 m (1.6) show NC gr 
 gsave  2268 2234 0 0 C 1990.65 159.138 t 0 r /Helvetica findfont 62.5185 sf 0 0 m (1.8) show NC gr 
 gsave  2268 2234 0 0 C 2205.2 159.138 t 0 r /Helvetica findfont 62.5185 sf 0 0 m (2) show NC gr  340 223 m 1966 Y s
 gsave  2268 2234 0 0 C 147.771 1594.22 t 90 r /Helvetica findfont 83.8316 sf 0 0 m (\(Q\) / \(0.04 GeV\)) show NC gr 
 gsave  2268 2234 0 0 C 174.768 1565.8 t 90 r /Helvetica findfont 55.4141 sf 0 0 m (2) show NC gr 
 gsave  2268 2234 0 0 C 147.771 1484.81 t 90 r /Helvetica findfont 83.8316 sf 0 0 m ( C) show NC gr  400 375 m -60 X s 370 450 m -30 X s 370 526 m -30 X s 370 601 m -30 X s 400 677 m -60 X s 370 753 m -30 X s 370 828 m -30 X s 370 904 m -30 X s 400
 979 m -60 X s 370 1055 m -30 X s 370 1131 m -30 X s 370 1206 m -30 X s 400 1282 m -60 X s 370 1357 m -30 X s 370 1433 m -30 X s 370 1509 m -30 X s 400 1584 m -60 X s 370 1660 m -30 X s 370 1735 m -30 X s 370 1811 m -30 X s 400 1887 m -60 X s 370
 1962 m -30 X s 370 2038 m -30 X s 370 2113 m -30 X s 400 2189 m -60 X s 400 375 m -60 X s 370 299 m -30 X s 370 223 m -30 X s
 gsave  2268 2234 0 0 C 242.97 352.377 t 0 r /Helvetica findfont 62.5185 sf 0 0 m (0.6) show NC gr 
 gsave  2268 2234 0 0 C 242.97 655.023 t 0 r /Helvetica findfont 62.5185 sf 0 0 m (0.8) show NC gr 
 gsave  2268 2234 0 0 C 305.488 956.249 t 0 r /Helvetica findfont 62.5185 sf 0 0 m (1) show NC gr 
 gsave  2268 2234 0 0 C 242.97 1258.9 t 0 r /Helvetica findfont 62.5185 sf 0 0 m (1.2) show NC gr 
 gsave  2268 2234 0 0 C 242.97 1560.12 t 0 r /Helvetica findfont 62.5185 sf 0 0 m (1.4) show NC gr 
 gsave  2268 2234 0 0 C 242.97 1864.19 t 0 r /Helvetica findfont 62.5185 sf 0 0 m (1.6) show NC gr 
 gsave  2268 2234 0 0 C 242.97 2166.83 t 0 r /Helvetica findfont 62.5185 sf 0 0 m (1.8) show NC gr  1 0 0 c 1 1 1 c 1 0 0 c 359 1778 m 3 Y s 359 1798 m 4 Y s 3 lw 359 1790 m21 6 lw 3 lw 397 1578 m21 6 lw 3 lw 434 1462 m21 6 lw 3 lw 472 1349 m21 6 lw
 3 lw 510 1271 m21 6 lw 3 lw 547 1213 m21 6 lw 3 lw 585 1167 m21 6 lw 3 lw 622 1129 m21 6 lw 3 lw 660 1099 m21 6 lw 3 lw 698 1070 m21 6 lw 3 lw 735 1049 m21 6 lw 3 lw 773 1028 m21 6 lw 3 lw 811 1010 m21 6 lw 3 lw 848 996 m21 6 lw 3 lw 886 982 m21 6
 lw 3 lw 924 972 m21 6 lw 3 lw 961 960 m21 6 lw 3 lw 999 953 m21 6 lw 3 lw 1037 945 m21 6 lw 3 lw 1074 939 m21 6 lw 3 lw 1112 934 m21 6 lw 3 lw 1150 929 m21 6 lw 3 lw 1187 927 m21 6 lw 3 lw 1225 923 m21 6 lw 3 lw 1262 922 m21 6 lw 3 lw 1300 921 m21 6
 lw 3 lw 1338 921 m21 6 lw 3 lw 1375 920 m21 6 lw 3 lw 1413 920 m21 6 lw 3 lw 1451 921 m21 6 lw 3 lw 1488 921 m21 6 lw 3 lw 1526 923 m21 6 lw 3 lw 1564 925 m21 6 lw 3 lw 1601 924 m21 6 lw 3 lw 1639 928 m21 6 lw 3 lw 1677 931 m21 6 lw 3 lw 1714 932
 m21 6 lw 3 lw 1752 934 m21 6 lw 3 lw 1789 937 m21 6 lw 3 lw 1827 939 m21 6 lw 3 lw 1865 938 m21 6 lw 3 lw 1902 941 m21 6 lw 3 lw 1940 947 m21 6 lw 3 lw 1978 946 m21 6 lw 3 lw 2015 948 m21 6 lw 3 lw 2053 950 m21 6 lw 3 lw 2091 954 m21 6 lw 3 lw 2128
 954 m21 6 lw 3 lw 2166 956 m21 6 lw 3 lw 2204 960 m21 6 lw 0 1 0 c 1 1 1 c 0 1 0 c 359 1729 m 4 Y s 359 1750 m 3 Y s 3 lw 359 1741 m21 6 lw 3 lw 397 1572 m21 6 lw 3 lw 434 1464 m21 6 lw 3 lw 472 1347 m21 6 lw 3 lw 510 1270 m21 6 lw 3 lw 547 1212 m21
 6 lw 3 lw 585 1165 m21 6 lw 3 lw 622 1128 m21 6 lw 3 lw 660 1098 m21 6 lw 3 lw 698 1071 m21 6 lw 3 lw 735 1049 m21 6 lw 3 lw 773 1027 m21 6 lw 3 lw 811 1012 m21 6 lw 3 lw 848 997 m21 6 lw 3 lw 886 984 m21 6 lw 3 lw 924 972 m21 6 lw 3 lw 961 960 m21
 6 lw 3 lw 999 954 m21 6 lw 3 lw 1037 946 m21 6 lw 3 lw 1074 938 m21 6 lw 3 lw 1112 934 m21 6 lw 3 lw 1150 930 m21 6 lw 3 lw 1187 927 m21 6 lw 3 lw 1225 925 m21 6 lw 3 lw 1262 924 m21 6 lw 3 lw 1300 921 m21 6 lw 3 lw 1338 919 m21 6 lw 3 lw 1375 919
 m21 6 lw 3 lw 1413 919 m21 6 lw 3 lw 1451 921 m21 6 lw 3 lw 1488 920 m21 6 lw 3 lw 1526 924 m21 6 lw 3 lw 1564 924 m21 6 lw 3 lw 1601 925 m21 6 lw 3 lw 1639 929 m21 6 lw 3 lw 1677 930 m21 6 lw 3 lw 1714 932 m21 6 lw 3 lw 1752 934 m21 6 lw 3 lw 1789
 933 m21 6 lw 3 lw 1827 940 m21 6 lw 3 lw 1865 939 m21 6 lw 3 lw 1902 941 m21 6 lw 3 lw 1940 948 m21 6 lw 3 lw 1978 947 m21 6 lw 3 lw 2015 949 m21 6 lw 3 lw 2053 950 m21 6 lw 3 lw 2091 952 m21 6 lw 3 lw 2128 961 m21 6 lw 3 lw 2166 957 m21 6 lw 3 lw
 2204 964 m21 6 lw 0.8 0 1 c 1 1 1 c 0.8 0 1 c 359 1696 m 4 Y s 359 1717 m 4 Y s 3 lw 359 1709 m21 6 lw 3 lw 397 1567 m21 6 lw 3 lw 434 1461 m21 6 lw 3 lw 472 1345 m21 6 lw 3 lw 510 1272 m21 6 lw 3 lw 547 1211 m21 6 lw 3 lw 585 1166 m21 6 lw 3 lw 622
 1127 m21 6 lw 3 lw 660 1097 m21 6 lw 3 lw 698 1072 m21 6 lw 3 lw 735 1048 m21 6 lw 3 lw 773 1028 m21 6 lw 3 lw 811 1012 m21 6 lw 3 lw 848 996 m21 6 lw 3 lw 886 984 m21 6 lw 3 lw 924 971 m21 6 lw 3 lw 961 961 m21 6 lw 3 lw 999 953 m21 6 lw 3 lw 1037
 945 m21 6 lw 3 lw 1074 939 m21 6 lw 3 lw 1112 935 m21 6 lw 3 lw 1150 931 m21 6 lw 3 lw 1187 927 m21 6 lw 3 lw 1225 925 m21 6 lw 3 lw 1262 924 m21 6 lw 3 lw 1300 921 m21 6 lw 3 lw 1338 920 m21 6 lw 3 lw 1375 918 m21 6 lw 3 lw 1413 919 m21 6 lw 3 lw
 1451 920 m21 6 lw 3 lw 1488 921 m21 6 lw 3 lw 1526 922 m21 6 lw 3 lw 1564 925 m21 6 lw 3 lw 1601 925 m21 6 lw 3 lw 1639 929 m21 6 lw 3 lw 1677 929 m21 6 lw 3 lw 1714 931 m21 6 lw 3 lw 1752 935 m21 6 lw 3 lw 1789 938 m21 6 lw 3 lw 1827 940 m21 6 lw 3
 lw 1865 941 m21 6 lw 3 lw 1902 943 m21 6 lw 3 lw 1940 947 m21 6 lw 3 lw 1978 946 m21 6 lw 3 lw 2015 948 m21 6 lw 3 lw 2053 955 m21 6 lw 3 lw 2091 955 m21 6 lw 3 lw 2128 959 m21 6 lw 3 lw 2166 959 m21 6 lw 3 lw 2204 962 m21 6 lw 0.4 0.4 0.4 c 1 1 1 c
 0.4 0.4 0.4 c 359 1502 m 3 Y s 359 1522 m 4 Y s 3 lw 359 1514 m21 6 lw 3 lw 397 1538 m21 6 lw 3 lw 434 1445 m21 6 lw 3 lw 472 1343 m21 6 lw 3 lw 510 1269 m21 6 lw 3 lw 547 1213 m21 6 lw 3 lw 585 1168 m21 6 lw 3 lw 622 1131 m21 6 lw 3 lw 660 1102 m21
 6 lw 3 lw 698 1075 m21 6 lw 3 lw 735 1051 m21 6 lw 3 lw 773 1032 m21 6 lw 3 lw 811 1016 m21 6 lw 3 lw 848 999 m21 6 lw 3 lw 886 987 m21 6 lw 3 lw 924 976 m21 6 lw 3 lw 961 963 m21 6 lw 3 lw 999 955 m21 6 lw 3 lw 1037 948 m21 6 lw 3 lw 1074 940 m21 6
 lw 3 lw 1112 935 m21 6 lw 3 lw 1150 931 m21 6 lw 3 lw 1187 927 m21 6 lw 3 lw 1225 923 m21 6 lw 3 lw 1262 922 m21 6 lw 3 lw 1300 920 m21 6 lw 3 lw 1338 920 m21 6 lw 3 lw 1375 919 m21 6 lw 3 lw 1413 917 m21 6 lw 3 lw 1451 920 m21 6 lw 3 lw 1488 920
 m21 6 lw 3 lw 1526 923 m21 6 lw 3 lw 1564 922 m21 6 lw 3 lw 1601 923 m21 6 lw 3 lw 1639 929 m21 6 lw 3 lw 1677 930 m21 6 lw 3 lw 1714 931 m21 6 lw 3 lw 1752 934 m21 6 lw 3 lw 1789 942 m21 6 lw 3 lw 1827 940 m21 6 lw 3 lw 1865 937 m21 6 lw 3 lw 1902
 946 m21 6 lw 3 lw 1940 949 m21 6 lw 3 lw 1978 949 m21 6 lw 3 lw 2015 949 m21 6 lw 3 lw 2053 954 m21 6 lw 3 lw 2091 958 m21 6 lw 3 lw 2128 963 m21 6 lw 3 lw 2166 960 m21 6 lw 3 lw 2204 964 m21 6 lw black 1 1 1 c 680 447 1474 1675 bf black 1474 1675 m
 680 X s 2154 1675 m 447 Y s 2154 2122 m -680 X s 1474 2122 m -447 Y s
 gsave  2268 2234 0 0 C 1490.5 2068.79 t 0 r /Helvetica findfont 56.835 sf 0 0 m (probNNpi cut) show NC gr 
 gsave  2268 2234 0 0 C 1643.95 1994.91 t 0 r /Helvetica findfont 56.835 sf 0 0 m (0.5) show NC gr  0 0 1 c 1559 1988 m 45 Y s 3 lw 1559 2010 m21 6 lw black
 gsave  2268 2234 0 0 C 1643.95 1919.6 t 0 r /Helvetica findfont 56.835 sf 0 0 m (0.6) show NC gr  1 0 0 c 1559 1913 m 45 Y s 3 lw 1559 1936 m21 6 lw black
 gsave  2268 2234 0 0 C 1643.95 1845.72 t 0 r /Helvetica findfont 56.835 sf 0 0 m (0.65) show NC gr  0 1 0 c 1559 1839 m 45 Y s 3 lw 1559 1861 m21 6 lw black
 gsave  2268 2234 0 0 C 1643.95 1770.41 t 0 r /Helvetica findfont 56.835 sf 0 0 m (0.7) show NC gr  0.8 0 1 c 1559 1765 m 44 Y s 3 lw 1559 1787 m21 6 lw black
 gsave  2268 2234 0 0 C 1643.95 1696.52 t 0 r /Helvetica findfont 56.835 sf 0 0 m (0.8) show NC gr  0.4 0.4 0.4 c 1559 1690 m 45 Y s 3 lw 1559 1712 m21 6 lw black
 gsave  2268 2234 0 0 C 906.518 670.653 t 0 r /Helvetica-Bold findfont 72.4646 sf 0 0 m (RD PIONS) show NC gr 
 gsave  2268 2234 0 0 C 906.518 558.404 t 0 r /Helvetica-Bold findfont 72.4646 sf 0 0 m (ref. sample: EVENT MIX) show NC gr 
 gsave  2268 2234 0 0 C 906.518 447.576 t 0 r /Helvetica-Bold findfont 72.4646 sf 0 0 m (VELO tracks multiplicity: 11 \255 20) show NC gr 
 gr  gr showpage
end
%%EOF
