%!PS-Adobe-2.0 EPSF-2.0
%%BoundingBox:  0 0 567 558
%%Title: ./RD_pion_0c65_h3001_1_h3401_1_compare.eps: RD_pion_0c65_h3001_1_h3401_1_compare
%%Creator: ROOT Version 6.06/02
%%CreationDate: Fri Jan 27 15:22:08 2017
%%DocumentNeededResources: ProcSet (FontSetInit)
%%EndComments
%%BeginProlog
80 dict begin
/s {stroke} def /l {lineto} def /m {moveto} def /t {translate} def
/r {rotate} def /rl {roll}  def /R {repeat} def
/d {rlineto} def /rm {rmoveto} def /gr {grestore} def /f {eofill} def
/c {setrgbcolor} def /black {0 setgray} def /sd {setdash} def
/cl {closepath} def /sf {scalefont setfont} def /lw {setlinewidth} def
/box {m dup 0 exch d exch 0 d 0 exch neg d cl} def
/NC{systemdict begin initclip end}def/C{NC box clip newpath}def
/bl {box s} def /bf {gsave box gsave f grestore 1 lw [] 0 sd s grestore} def /Y { 0 exch d} def /X { 0 d} def 
/K {{pop pop 0 moveto} exch kshow} bind def
/ita {/ang 15 def gsave [1 0 ang dup sin exch cos div 1 0 0] concat} def 
/mp {newpath /y exch def /x exch def} def
/side {[w .77 mul w .23 mul] .385 w mul sd w 0 l currentpoint t -144 r} def
/mr {mp x y w2 0 360 arc} def /m24 {mr s} def /m20 {mr f} def
/mb {mp x y w2 add m w2 neg 0 d 0 w neg d w 0 d 0 w d cl} def
/mt {mp x y w2 add m w2 neg w neg d w 0 d cl} def
/m21 {mb f} def /m25 {mb s} def /m22 {mt f} def /m26{mt s} def
/m23 {mp x y w2 sub m w2 w d w neg 0 d cl f} def
/m27 {mp x y w2 add m w3 neg w2 neg d w3 w2 neg d w3 w2 d cl s} def
/m28 {mp x w2 sub y w2 sub w3 add m w3 0 d  0 w3 neg d w3 0 d 0 w3 d w3 0 d  0 w3 d w3 neg 0 d 0 w3 d w3 neg 0 d 0 w3 neg d w3 neg 0 d cl s } def
/m29 {mp gsave x w2 sub y w2 add w3 sub m currentpoint t 4 {side} repeat cl fill gr} def
/m30 {mp gsave x w2 sub y w2 add w3 sub m currentpoint t 4 {side} repeat cl s gr} def
/m31 {mp x y w2 sub m 0 w d x w2 sub y m w 0 d x w2 sub y w2 add m w w neg d x w2 sub y w2 sub m w w d s} def
/m32 {mp x y w2 sub m w2 w d w neg 0 d cl s} def
/m33 {mp x y w2 add m w3 neg w2 neg d w3 w2 neg d w3 w2 d cl f} def
/m34 {mp x w2 sub y w2 sub w3 add m w3 0 d  0 w3 neg d w3 0 d 0 w3 d w3 0 d  0 w3 d w3 neg 0 d 0 w3 d w3 neg 0 d 0 w3 neg d w3 neg 0 d cl f } def
/m2 {mp x y w2 sub m 0 w d x w2 sub y m w 0 d s} def
/m5 {mp x w2 sub y w2 sub m w w d x w2 sub y w2 add m w w neg d s} def
%%IncludeResource: ProcSet (FontSetInit)
%%IncludeResource: font Times-Roman
%%IncludeResource: font Times-Italic
%%IncludeResource: font Times-Bold
%%IncludeResource: font Times-BoldItalic
%%IncludeResource: font Helvetica
%%IncludeResource: font Helvetica-Oblique
%%IncludeResource: font Helvetica-Bold
%%IncludeResource: font Helvetica-BoldOblique
%%IncludeResource: font Courier
%%IncludeResource: font Courier-Oblique
%%IncludeResource: font Courier-Bold
%%IncludeResource: font Courier-BoldOblique
%%IncludeResource: font Symbol
%%IncludeResource: font ZapfDingbats
/reEncode {exch findfont dup length dict begin {1 index /FID eq  {pop pop} {def} ifelse } forall /Encoding exch def currentdict end dup /FontName get exch definefont pop } def [/Times-Bold /Times-Italic /Times-BoldItalic /Helvetica /Helvetica-Oblique
 /Helvetica-Bold /Helvetica-BoldOblique /Courier /Courier-Oblique /Courier-Bold /Courier-BoldOblique /Times-Roman /AvantGarde-Book /AvantGarde-BookOblique /AvantGarde-Demi /AvantGarde-DemiOblique /Bookman-Demi /Bookman-DemiItalic /Bookman-Light
 /Bookman-LightItalic /Helvetica-Narrow /Helvetica-Narrow-Bold /Helvetica-Narrow-BoldOblique /Helvetica-Narrow-Oblique /NewCenturySchlbk-Roman /NewCenturySchlbk-Bold /NewCenturySchlbk-BoldItalic /NewCenturySchlbk-Italic /Palatino-Bold
 /Palatino-BoldItalic /Palatino-Italic /Palatino-Roman ] {ISOLatin1Encoding reEncode } forall
%%EndProlog
%%BeginSetup
%%EndSetup
newpath  gsave  .25 .25 scale  gsave  0 0 t black[  ] 0 sd 6 lw 1 1 1 c 2268 2234 0 0 bf black 3 lw 1 1 1 c 1882 1966 340 223 bf black 1882 1966 340 223 bl 1 1 1 c 1882 1966 340 223 bf black 1882 1966 340 223 bl 0 0 1 c 6 lw 1 1 1 c 0 0 1 c 368 1893
 m 25 Y s 368 1929 m 24 Y s 3 lw /w 11 def /w2 {w 2 div} def /w3 {w 3 div} def 368 1923 m21 6 lw 387 1844 m 11 Y s 387 1867 m 11 Y s 3 lw 387 1861 m21 6 lw 406 1801 m 7 Y s 406 1819 m 7 Y s 3 lw 406 1814 m21 6 lw 425 1716 m 4 Y s 425 1732 m 4 Y s 3
 lw 425 1726 m21 6 lw 444 1652 m 2 Y s 444 1666 m 2 Y s 3 lw 444 1660 m21 6 lw 463 1581 m 1 Y s 463 1594 m 1 Y s 3 lw 463 1588 m21 6 lw 481 1536 m s 481 1548 m s 3 lw 481 1542 m21 6 lw 500 1491 m s 500 1502 m s 3 lw 500 1496 m21 6 lw 3 lw 519 1448
 m21 6 lw 3 lw 538 1407 m21 6 lw 3 lw 557 1374 m21 6 lw 3 lw 575 1346 m21 6 lw 3 lw 594 1307 m21 6 lw 3 lw 613 1284 m21 6 lw 3 lw 632 1260 m21 6 lw 3 lw 651 1242 m21 6 lw 3 lw 670 1225 m21 6 lw 3 lw 688 1203 m21 6 lw 3 lw 707 1188 m21 6 lw 3 lw 726
 1177 m21 6 lw 3 lw 745 1159 m21 6 lw 3 lw 764 1147 m21 6 lw 3 lw 782 1138 m21 6 lw 3 lw 801 1122 m21 6 lw 3 lw 820 1113 m21 6 lw 3 lw 839 1104 m21 6 lw 3 lw 858 1102 m21 6 lw 3 lw 877 1094 m21 6 lw 3 lw 895 1082 m21 6 lw 3 lw 914 1076 m21 6 lw 3 lw
 933 1069 m21 6 lw 3 lw 952 1064 m21 6 lw 3 lw 971 1060 m21 6 lw 3 lw 990 1057 m21 6 lw 3 lw 1008 1043 m21 6 lw 3 lw 1027 1046 m21 6 lw 3 lw 1046 1047 m21 6 lw 3 lw 1065 1036 m21 6 lw 3 lw 1084 1035 m21 6 lw 3 lw 1102 1033 m21 6 lw 3 lw 1121 1024 m21
 6 lw 3 lw 1140 1034 m21 6 lw 3 lw 1159 1028 m21 6 lw 3 lw 1178 1024 m21 6 lw 3 lw 1197 1027 m21 6 lw 3 lw 1215 1026 m21 6 lw 3 lw 1234 1022 m21 6 lw 3 lw 1253 1022 m21 6 lw 3 lw 1272 1022 m21 6 lw 3 lw 1291 1021 m21 6 lw 3 lw 1309 1028 m21 6 lw 3 lw
 1328 1015 m21 6 lw 3 lw 1347 1019 m21 6 lw 3 lw 1366 1028 m21 6 lw 3 lw 1385 1026 m21 6 lw 3 lw 1404 1019 m21 6 lw 3 lw 1422 1028 m21 6 lw 3 lw 1441 1032 m21 6 lw 3 lw 1460 1035 m21 6 lw 3 lw 1479 1033 m21 6 lw 3 lw 1498 1039 m21 6 lw 3 lw 1517 1049
 m21 6 lw 3 lw 1535 1046 m21 6 lw 3 lw 1554 1046 m21 6 lw 3 lw 1573 1060 m21 6 lw 3 lw 1592 1049 m21 6 lw 3 lw 1611 1056 m21 6 lw 3 lw 1629 1058 m21 6 lw 1648 1067 m s 1648 1079 m s 3 lw 1648 1073 m21 6 lw 1667 1062 m s 1667 1074 m s 3 lw 1667 1068
 m21 6 lw 1686 1071 m 1 Y s 1686 1083 m s 3 lw 1686 1077 m21 6 lw 1705 1066 m s 1705 1078 m s 3 lw 1705 1072 m21 6 lw 1724 1069 m s 1724 1081 m s 3 lw 1724 1075 m21 6 lw 1742 1087 m s 1742 1099 m s 3 lw 1742 1093 m21 6 lw 1761 1081 m 1 Y s 1761 1093
 m 1 Y s 3 lw 1761 1087 m21 6 lw 1780 1090 m 1 Y s 1780 1102 m 1 Y s 3 lw 1780 1097 m21 6 lw 1799 1089 m 1 Y s 1799 1102 m 1 Y s 3 lw 1799 1096 m21 6 lw 1818 1084 m 1 Y s 1818 1097 m 1 Y s 3 lw 1818 1091 m21 6 lw 1837 1088 m 1 Y s 1837 1101 m 1 Y s 3
 lw 1837 1095 m21 6 lw 1855 1099 m 1 Y s 1855 1112 m 1 Y s 3 lw 1855 1106 m21 6 lw 1874 1106 m 2 Y s 1874 1120 m 2 Y s 3 lw 1874 1114 m21 6 lw 1893 1097 m 2 Y s 1893 1110 m 2 Y s 3 lw 1893 1105 m21 6 lw 1912 1105 m 2 Y s 1912 1118 m 2 Y s 3 lw 1912
 1113 m21 6 lw 1931 1104 m 3 Y s 1931 1118 m 2 Y s 3 lw 1931 1112 m21 6 lw 1949 1119 m 3 Y s 1949 1133 m 3 Y s 3 lw 1949 1127 m21 6 lw 1968 1126 m 2 Y s 1968 1140 m 3 Y s 3 lw 1968 1134 m21 6 lw 1987 1136 m 3 Y s 1987 1151 m 3 Y s 3 lw 1987 1145 m21
 6 lw 2006 1129 m 3 Y s 2006 1144 m 3 Y s 3 lw 2006 1138 m21 6 lw 2025 1140 m 3 Y s 2025 1154 m 4 Y s 3 lw 2025 1149 m21 6 lw 2044 1136 m 4 Y s 2044 1151 m 4 Y s 3 lw 2044 1146 m21 6 lw 2062 1136 m 4 Y s 2062 1151 m 4 Y s 3 lw 2062 1145 m21 6 lw 2081
 1154 m 4 Y s 2081 1170 m 4 Y s 3 lw 2081 1164 m21 6 lw 2100 1149 m 4 Y s 2100 1164 m 5 Y s 3 lw 2100 1159 m21 6 lw 2119 1160 m 5 Y s 2119 1176 m 5 Y s 3 lw 2119 1170 m21 6 lw 2138 1148 m 5 Y s 2138 1164 m 5 Y s 3 lw 2138 1159 m21 6 lw 2156 1151 m 5
 Y s 2156 1167 m 5 Y s 3 lw 2156 1162 m21 6 lw 2175 1154 m 5 Y s 2175 1170 m 5 Y s 3 lw 2175 1165 m21 6 lw 2194 1154 m 6 Y s 2194 1171 m 5 Y s 3 lw 2194 1165 m21 6 lw 2213 1166 m 6 Y s 2213 1183 m 6 Y s 3 lw 2213 1177 m21 6 lw black 340 223 m 1882 X
 s
 gsave  2268 2234 0 0 C 1923.86 58.2559 t 0 r /Helvetica findfont 83.8316 sf 0 0 m (Q [GeV]) show NC gr  340 279 m -56 Y s 387 251 m -28 Y s 434 251 m -28 Y s 481 251 m -28 Y s 528 279 m -56 Y s 575 251 m -28 Y s 622 251 m -28 Y s 670 251 m -28 Y s
 717 279 m -56 Y s 764 251 m -28 Y s 811 251 m -28 Y s 858 251 m -28 Y s 905 279 m -56 Y s 952 251 m -28 Y s 999 251 m -28 Y s 1046 251 m -28 Y s 1093 279 m -56 Y s 1140 251 m -28 Y s 1187 251 m -28 Y s 1234 251 m -28 Y s 1281 279 m -56 Y s 1328 251
 m -28 Y s 1375 251 m -28 Y s 1422 251 m -28 Y s 1469 279 m -56 Y s 1517 251 m -28 Y s 1564 251 m -28 Y s 1611 251 m -28 Y s 1658 279 m -56 Y s 1705 251 m -28 Y s 1752 251 m -28 Y s 1799 251 m -28 Y s 1846 279 m -56 Y s 1893 251 m -28 Y s 1940 251 m
 -28 Y s 1987 251 m -28 Y s 2034 279 m -56 Y s 2081 251 m -28 Y s 2128 251 m -28 Y s 2175 251 m -28 Y s 2222 279 m -56 Y s
 gsave  2268 2234 0 0 C 322.539 159.138 t 0 r /Helvetica findfont 62.5185 sf 0 0 m (0) show NC gr 
 gsave  2268 2234 0 0 C 484.518 159.138 t 0 r /Helvetica findfont 62.5185 sf 0 0 m (0.2) show NC gr 
 gsave  2268 2234 0 0 C 673.495 159.138 t 0 r /Helvetica findfont 62.5185 sf 0 0 m (0.4) show NC gr 
 gsave  2268 2234 0 0 C 861.05 159.138 t 0 r /Helvetica findfont 62.5185 sf 0 0 m (0.6) show NC gr 
 gsave  2268 2234 0 0 C 1050.03 159.138 t 0 r /Helvetica findfont 62.5185 sf 0 0 m (0.8) show NC gr 
 gsave  2268 2234 0 0 C 1268.84 159.138 t 0 r /Helvetica findfont 62.5185 sf 0 0 m (1) show NC gr 
 gsave  2268 2234 0 0 C 1426.56 159.138 t 0 r /Helvetica findfont 62.5185 sf 0 0 m (1.2) show NC gr 
 gsave  2268 2234 0 0 C 1614.11 159.138 t 0 r /Helvetica findfont 62.5185 sf 0 0 m (1.4) show NC gr 
 gsave  2268 2234 0 0 C 1803.09 159.138 t 0 r /Helvetica findfont 62.5185 sf 0 0 m (1.6) show NC gr 
 gsave  2268 2234 0 0 C 1990.65 159.138 t 0 r /Helvetica findfont 62.5185 sf 0 0 m (1.8) show NC gr 
 gsave  2268 2234 0 0 C 2205.2 159.138 t 0 r /Helvetica findfont 62.5185 sf 0 0 m (2) show NC gr  340 223 m 1966 Y s
 gsave  2268 2234 0 0 C 147.771 1594.22 t 90 r /Helvetica findfont 83.8316 sf 0 0 m (\(Q\) / \(0.02 GeV\)) show NC gr 
 gsave  2268 2234 0 0 C 174.768 1565.8 t 90 r /Helvetica findfont 55.4141 sf 0 0 m (2) show NC gr 
 gsave  2268 2234 0 0 C 147.771 1508.97 t 90 r /Helvetica findfont 83.8316 sf 0 0 m (C) show NC gr  400 402 m -60 X s 370 491 m -30 X s 370 581 m -30 X s 370 670 m -30 X s 400 759 m -60 X s 370 849 m -30 X s 370 938 m -30 X s 370 1027 m -30 X s 400
 1117 m -60 X s 370 1206 m -30 X s 370 1295 m -30 X s 370 1385 m -30 X s 400 1474 m -60 X s 370 1564 m -30 X s 370 1653 m -30 X s 370 1742 m -30 X s 400 1832 m -60 X s 370 1921 m -30 X s 370 2010 m -30 X s 370 2100 m -30 X s 400 2189 m -60 X s 400
 402 m -60 X s 370 313 m -30 X s 370 223 m -30 X s
 gsave  2268 2234 0 0 C 242.97 379.374 t 0 r /Helvetica findfont 62.5185 sf 0 0 m (0.6) show NC gr 
 gsave  2268 2234 0 0 C 242.97 737.434 t 0 r /Helvetica findfont 62.5185 sf 0 0 m (0.8) show NC gr 
 gsave  2268 2234 0 0 C 305.488 1092.65 t 0 r /Helvetica findfont 62.5185 sf 0 0 m (1) show NC gr 
 gsave  2268 2234 0 0 C 242.97 1450.71 t 0 r /Helvetica findfont 62.5185 sf 0 0 m (1.2) show NC gr 
 gsave  2268 2234 0 0 C 242.97 1808.77 t 0 r /Helvetica findfont 62.5185 sf 0 0 m (1.4) show NC gr 
 gsave  2268 2234 0 0 C 242.97 2166.83 t 0 r /Helvetica findfont 62.5185 sf 0 0 m (1.6) show NC gr  1 0 0 c 1 1 1 c 1 0 0 c 368 1888 m 23 Y s 368 1922 m 23 Y s 3 lw 368 1917 m21 6 lw 387 1825 m 11 Y s 387 1847 m 11 Y s 3 lw 387 1841 m21 6 lw 406 1789
 m 6 Y s 406 1806 m 7 Y s 3 lw 406 1801 m21 6 lw 425 1704 m 3 Y s 425 1719 m 3 Y s 3 lw 425 1713 m21 6 lw 444 1646 m 2 Y s 444 1659 m 2 Y s 3 lw 444 1654 m21 6 lw 463 1559 m 1 Y s 463 1572 m 1 Y s 3 lw 463 1566 m21 6 lw 481 1539 m 1 Y s 481 1551 m 1
 Y s 3 lw 481 1545 m21 6 lw 3 lw 500 1476 m21 6 lw 3 lw 519 1434 m21 6 lw 3 lw 538 1402 m21 6 lw 3 lw 557 1368 m21 6 lw 3 lw 575 1334 m21 6 lw 3 lw 594 1306 m21 6 lw 3 lw 613 1278 m21 6 lw 3 lw 632 1259 m21 6 lw 3 lw 651 1238 m21 6 lw 3 lw 670 1217
 m21 6 lw 3 lw 688 1197 m21 6 lw 3 lw 707 1184 m21 6 lw 3 lw 726 1169 m21 6 lw 3 lw 745 1149 m21 6 lw 3 lw 764 1144 m21 6 lw 3 lw 782 1132 m21 6 lw 3 lw 801 1123 m21 6 lw 3 lw 820 1114 m21 6 lw 3 lw 839 1104 m21 6 lw 3 lw 858 1099 m21 6 lw 3 lw 877
 1090 m21 6 lw 3 lw 895 1083 m21 6 lw 3 lw 914 1074 m21 6 lw 3 lw 933 1070 m21 6 lw 3 lw 952 1064 m21 6 lw 3 lw 971 1059 m21 6 lw 3 lw 990 1053 m21 6 lw 3 lw 1008 1039 m21 6 lw 3 lw 1027 1046 m21 6 lw 3 lw 1046 1045 m21 6 lw 3 lw 1065 1040 m21 6 lw 3
 lw 1084 1034 m21 6 lw 3 lw 1102 1032 m21 6 lw 3 lw 1121 1029 m21 6 lw 3 lw 1140 1028 m21 6 lw 3 lw 1159 1024 m21 6 lw 3 lw 1178 1028 m21 6 lw 3 lw 1197 1029 m21 6 lw 3 lw 1215 1026 m21 6 lw 3 lw 1234 1022 m21 6 lw 3 lw 1253 1028 m21 6 lw 3 lw 1272
 1019 m21 6 lw 3 lw 1291 1020 m21 6 lw 3 lw 1309 1023 m21 6 lw 3 lw 1328 1016 m21 6 lw 3 lw 1347 1022 m21 6 lw 3 lw 1366 1026 m21 6 lw 3 lw 1385 1025 m21 6 lw 3 lw 1404 1024 m21 6 lw 3 lw 1422 1027 m21 6 lw 3 lw 1441 1030 m21 6 lw 3 lw 1460 1037 m21
 6 lw 3 lw 1479 1033 m21 6 lw 3 lw 1498 1039 m21 6 lw 3 lw 1517 1047 m21 6 lw 3 lw 1535 1045 m21 6 lw 3 lw 1554 1048 m21 6 lw 3 lw 1573 1056 m21 6 lw 3 lw 1592 1055 m21 6 lw 3 lw 1611 1056 m21 6 lw 3 lw 1629 1074 m21 6 lw 1648 1059 m s 1648 1071 m s
 3 lw 1648 1065 m21 6 lw 1667 1065 m s 1667 1076 m s 3 lw 1667 1071 m21 6 lw 1686 1068 m s 1686 1079 m 1 Y s 3 lw 1686 1074 m21 6 lw 1705 1069 m 1 Y s 1705 1081 m 1 Y s 3 lw 1705 1075 m21 6 lw 1724 1067 m s 1724 1079 m s 3 lw 1724 1073 m21 6 lw 1742
 1077 m s 1742 1089 m s 3 lw 1742 1083 m21 6 lw 1761 1076 m 1 Y s 1761 1088 m 1 Y s 3 lw 1761 1083 m21 6 lw 1780 1088 m 1 Y s 1780 1101 m 1 Y s 3 lw 1780 1095 m21 6 lw 1799 1106 m 1 Y s 1799 1119 m 1 Y s 3 lw 1799 1113 m21 6 lw 1818 1090 m 1 Y s 1818
 1103 m 1 Y s 3 lw 1818 1097 m21 6 lw 1837 1087 m 2 Y s 1837 1100 m 2 Y s 3 lw 1837 1094 m21 6 lw 1855 1104 m 2 Y s 1855 1117 m 2 Y s 3 lw 1855 1111 m21 6 lw 1874 1110 m 2 Y s 1874 1124 m 1 Y s 3 lw 1874 1118 m21 6 lw 1893 1095 m 2 Y s 1893 1108 m 2
 Y s 3 lw 1893 1103 m21 6 lw 1912 1111 m 2 Y s 1912 1124 m 3 Y s 3 lw 1912 1119 m21 6 lw 1931 1106 m 2 Y s 1931 1120 m 2 Y s 3 lw 1931 1114 m21 6 lw 1949 1110 m 3 Y s 1949 1124 m 3 Y s 3 lw 1949 1118 m21 6 lw 1968 1127 m 3 Y s 1968 1142 m 2 Y s 3 lw
 1968 1136 m21 6 lw 1987 1130 m 3 Y s 1987 1145 m 3 Y s 3 lw 1987 1139 m21 6 lw 2006 1136 m 3 Y s 2006 1150 m 3 Y s 3 lw 2006 1144 m21 6 lw 2025 1157 m 3 Y s 2025 1172 m 3 Y s 3 lw 2025 1166 m21 6 lw 2044 1132 m 4 Y s 2044 1147 m 4 Y s 3 lw 2044 1141
 m21 6 lw 2062 1145 m 4 Y s 2062 1160 m 4 Y s 3 lw 2062 1154 m21 6 lw 2081 1138 m 4 Y s 2081 1154 m 4 Y s 3 lw 2081 1148 m21 6 lw 2100 1150 m 4 Y s 2100 1165 m 4 Y s 3 lw 2100 1160 m21 6 lw 2119 1157 m 4 Y s 2119 1173 m 4 Y s 3 lw 2119 1167 m21 6 lw
 2138 1160 m 5 Y s 2138 1177 m 4 Y s 3 lw 2138 1171 m21 6 lw 2156 1140 m 4 Y s 2156 1156 m 5 Y s 3 lw 2156 1150 m21 6 lw 2175 1159 m 5 Y s 2175 1176 m 5 Y s 3 lw 2175 1170 m21 6 lw 2194 1153 m 5 Y s 2194 1170 m 5 Y s 3 lw 2194 1164 m21 6 lw 2213 1164
 m 6 Y s 2213 1181 m 6 Y s 3 lw 2213 1176 m21 6 lw 0 1 0 c 1 1 1 c 0 1 0 c 368 1853 m 22 Y s 368 1886 m 22 Y s 3 lw 368 1880 m21 6 lw 387 1817 m 10 Y s 387 1839 m 10 Y s 3 lw 387 1833 m21 6 lw 406 1759 m 6 Y s 406 1777 m 5 Y s 3 lw 406 1771 m21 6 lw
 425 1692 m 4 Y s 425 1707 m 4 Y s 3 lw 425 1701 m21 6 lw 444 1637 m 2 Y s 444 1651 m 2 Y s 3 lw 444 1645 m21 6 lw 463 1561 m 1 Y s 463 1574 m 1 Y s 3 lw 463 1568 m21 6 lw 481 1523 m 1 Y s 481 1535 m s 3 lw 481 1529 m21 6 lw 3 lw 500 1477 m21 6 lw 3
 lw 519 1426 m21 6 lw 3 lw 538 1398 m21 6 lw 3 lw 557 1358 m21 6 lw 3 lw 575 1329 m21 6 lw 3 lw 594 1303 m21 6 lw 3 lw 613 1273 m21 6 lw 3 lw 632 1251 m21 6 lw 3 lw 651 1234 m21 6 lw 3 lw 670 1218 m21 6 lw 3 lw 688 1197 m21 6 lw 3 lw 707 1181 m21 6
 lw 3 lw 726 1168 m21 6 lw 3 lw 745 1150 m21 6 lw 3 lw 764 1141 m21 6 lw 3 lw 782 1129 m21 6 lw 3 lw 801 1121 m21 6 lw 3 lw 820 1109 m21 6 lw 3 lw 839 1107 m21 6 lw 3 lw 858 1096 m21 6 lw 3 lw 877 1091 m21 6 lw 3 lw 895 1082 m21 6 lw 3 lw 914 1072
 m21 6 lw 3 lw 933 1070 m21 6 lw 3 lw 952 1064 m21 6 lw 3 lw 971 1056 m21 6 lw 3 lw 990 1051 m21 6 lw 3 lw 1008 1041 m21 6 lw 3 lw 1027 1048 m21 6 lw 3 lw 1046 1045 m21 6 lw 3 lw 1065 1040 m21 6 lw 3 lw 1084 1030 m21 6 lw 3 lw 1102 1031 m21 6 lw 3 lw
 1121 1031 m21 6 lw 3 lw 1140 1028 m21 6 lw 3 lw 1159 1028 m21 6 lw 3 lw 1178 1028 m21 6 lw 3 lw 1197 1029 m21 6 lw 3 lw 1215 1023 m21 6 lw 3 lw 1234 1028 m21 6 lw 3 lw 1253 1021 m21 6 lw 3 lw 1272 1022 m21 6 lw 3 lw 1291 1020 m21 6 lw 3 lw 1309 1029
 m21 6 lw 3 lw 1328 1016 m21 6 lw 3 lw 1347 1020 m21 6 lw 3 lw 1366 1025 m21 6 lw 3 lw 1385 1025 m21 6 lw 3 lw 1404 1024 m21 6 lw 3 lw 1422 1030 m21 6 lw 3 lw 1441 1029 m21 6 lw 3 lw 1460 1033 m21 6 lw 3 lw 1479 1034 m21 6 lw 3 lw 1498 1034 m21 6 lw
 3 lw 1517 1045 m21 6 lw 3 lw 1535 1041 m21 6 lw 3 lw 1554 1047 m21 6 lw 3 lw 1573 1057 m21 6 lw 3 lw 1592 1065 m21 6 lw 3 lw 1611 1055 m21 6 lw 3 lw 1629 1060 m21 6 lw 3 lw 1648 1065 m21 6 lw 1667 1064 m s 1667 1076 m s 3 lw 1667 1070 m21 6 lw 1686
 1068 m 1 Y s 1686 1080 m s 3 lw 1686 1074 m21 6 lw 1705 1071 m s 1705 1083 m s 3 lw 1705 1077 m21 6 lw 1724 1070 m 1 Y s 1724 1082 m 1 Y s 3 lw 1724 1076 m21 6 lw 1742 1084 m 1 Y s 1742 1096 m 1 Y s 3 lw 1742 1091 m21 6 lw 1761 1090 m 1 Y s 1761
 1102 m 1 Y s 3 lw 1761 1096 m21 6 lw 1780 1082 m 1 Y s 1780 1095 m 1 Y s 3 lw 1780 1089 m21 6 lw 1799 1104 m 2 Y s 1799 1117 m 1 Y s 3 lw 1799 1111 m21 6 lw 1818 1087 m 1 Y s 1818 1100 m 1 Y s 3 lw 1818 1094 m21 6 lw 1837 1089 m 2 Y s 1837 1102 m 2
 Y s 3 lw 1837 1096 m21 6 lw 1855 1091 m 2 Y s 1855 1104 m 2 Y s 3 lw 1855 1098 m21 6 lw 1874 1106 m 2 Y s 1874 1119 m 2 Y s 3 lw 1874 1114 m21 6 lw 1893 1110 m 2 Y s 1893 1123 m 3 Y s 3 lw 1893 1118 m21 6 lw 1912 1108 m 2 Y s 1912 1121 m 2 Y s 3 lw
 1912 1115 m21 6 lw 1931 1107 m 3 Y s 1931 1121 m 2 Y s 3 lw 1931 1115 m21 6 lw 1949 1122 m 3 Y s 1949 1136 m 3 Y s 3 lw 1949 1130 m21 6 lw 1968 1129 m 3 Y s 1968 1143 m 3 Y s 3 lw 1968 1138 m21 6 lw 1987 1121 m 3 Y s 1987 1135 m 3 Y s 3 lw 1987 1130
 m21 6 lw 2006 1130 m 3 Y s 2006 1144 m 3 Y s 3 lw 2006 1138 m21 6 lw 2025 1145 m 3 Y s 2025 1160 m 3 Y s 3 lw 2025 1154 m21 6 lw 2044 1146 m 4 Y s 2044 1161 m 4 Y s 3 lw 2044 1155 m21 6 lw 2062 1139 m 3 Y s 2062 1154 m 4 Y s 3 lw 2062 1148 m21 6 lw
 2081 1135 m 4 Y s 2081 1150 m 4 Y s 3 lw 2081 1144 m21 6 lw 2100 1140 m 4 Y s 2100 1156 m 4 Y s 3 lw 2100 1150 m21 6 lw 2119 1146 m 4 Y s 2119 1161 m 5 Y s 3 lw 2119 1156 m21 6 lw 2138 1146 m 5 Y s 2138 1162 m 5 Y s 3 lw 2138 1157 m21 6 lw 2156 1140
 m 4 Y s 2156 1156 m 5 Y s 3 lw 2156 1150 m21 6 lw 2175 1161 m 5 Y s 2175 1178 m 5 Y s 3 lw 2175 1172 m21 6 lw 2194 1149 m 5 Y s 2194 1165 m 5 Y s 3 lw 2194 1160 m21 6 lw 2213 1161 m 6 Y s 2213 1178 m 6 Y s 3 lw 2213 1173 m21 6 lw black 1 1 1 c 680
 447 1474 1675 bf black 1474 1675 m 680 X s 2154 1675 m 447 Y s 2154 2122 m -680 X s 1474 2122 m -447 Y s
 gsave  2268 2234 0 0 C 1490.5 2041.8 t 0 r /Helvetica findfont 68.202 sf 0 0 m (IP cut) show NC gr 
 gsave  2268 2234 0 0 C 1643.95 1929.55 t 0 r /Helvetica findfont 68.202 sf 0 0 m (0.30) show NC gr  0 0 1 c 1559 1921 m 67 Y s 3 lw 1559 1954 m21 6 lw black
 gsave  2268 2234 0 0 C 1643.95 1818.72 t 0 r /Helvetica findfont 68.202 sf 0 0 m (0.35) show NC gr  1 0 0 c 1559 1809 m 67 Y s 3 lw 1559 1843 m21 6 lw black
 gsave  2268 2234 0 0 C 1643.95 1706.47 t 0 r /Helvetica findfont 68.202 sf 0 0 m (0.40) show NC gr  0 1 0 c 1559 1698 m 67 Y s 3 lw 1559 1731 m21 6 lw black
 gsave  2268 2234 0 0 C 906.518 670.653 t 0 r /Helvetica-Bold findfont 72.4646 sf 0 0 m (RD PIONS) show NC gr 
 gsave  2268 2234 0 0 C 906.518 558.404 t 0 r /Helvetica-Bold findfont 72.4646 sf 0 0 m (ref. sample: EVENT MIX) show NC gr 
 gsave  2268 2234 0 0 C 906.518 447.576 t 0 r /Helvetica-Bold findfont 72.4646 sf 0 0 m (VELO tracks multiplicity: < 10) show NC gr 
 gr  gr showpage
end
%%EOF
