%!PS-Adobe-2.0 EPSF-2.0
%%BoundingBox:  0 0 567 558
%%Title: ./RD_pion_0c65_h3001_3_h3401_3_compare.eps: RD_pion_0c65_h3001_3_h3401_3_compare
%%Creator: ROOT Version 6.06/02
%%CreationDate: Fri Jan 27 15:22:09 2017
%%DocumentNeededResources: ProcSet (FontSetInit)
%%EndComments
%%BeginProlog
80 dict begin
/s {stroke} def /l {lineto} def /m {moveto} def /t {translate} def
/r {rotate} def /rl {roll}  def /R {repeat} def
/d {rlineto} def /rm {rmoveto} def /gr {grestore} def /f {eofill} def
/c {setrgbcolor} def /black {0 setgray} def /sd {setdash} def
/cl {closepath} def /sf {scalefont setfont} def /lw {setlinewidth} def
/box {m dup 0 exch d exch 0 d 0 exch neg d cl} def
/NC{systemdict begin initclip end}def/C{NC box clip newpath}def
/bl {box s} def /bf {gsave box gsave f grestore 1 lw [] 0 sd s grestore} def /Y { 0 exch d} def /X { 0 d} def 
/K {{pop pop 0 moveto} exch kshow} bind def
/ita {/ang 15 def gsave [1 0 ang dup sin exch cos div 1 0 0] concat} def 
/mp {newpath /y exch def /x exch def} def
/side {[w .77 mul w .23 mul] .385 w mul sd w 0 l currentpoint t -144 r} def
/mr {mp x y w2 0 360 arc} def /m24 {mr s} def /m20 {mr f} def
/mb {mp x y w2 add m w2 neg 0 d 0 w neg d w 0 d 0 w d cl} def
/mt {mp x y w2 add m w2 neg w neg d w 0 d cl} def
/m21 {mb f} def /m25 {mb s} def /m22 {mt f} def /m26{mt s} def
/m23 {mp x y w2 sub m w2 w d w neg 0 d cl f} def
/m27 {mp x y w2 add m w3 neg w2 neg d w3 w2 neg d w3 w2 d cl s} def
/m28 {mp x w2 sub y w2 sub w3 add m w3 0 d  0 w3 neg d w3 0 d 0 w3 d w3 0 d  0 w3 d w3 neg 0 d 0 w3 d w3 neg 0 d 0 w3 neg d w3 neg 0 d cl s } def
/m29 {mp gsave x w2 sub y w2 add w3 sub m currentpoint t 4 {side} repeat cl fill gr} def
/m30 {mp gsave x w2 sub y w2 add w3 sub m currentpoint t 4 {side} repeat cl s gr} def
/m31 {mp x y w2 sub m 0 w d x w2 sub y m w 0 d x w2 sub y w2 add m w w neg d x w2 sub y w2 sub m w w d s} def
/m32 {mp x y w2 sub m w2 w d w neg 0 d cl s} def
/m33 {mp x y w2 add m w3 neg w2 neg d w3 w2 neg d w3 w2 d cl f} def
/m34 {mp x w2 sub y w2 sub w3 add m w3 0 d  0 w3 neg d w3 0 d 0 w3 d w3 0 d  0 w3 d w3 neg 0 d 0 w3 d w3 neg 0 d 0 w3 neg d w3 neg 0 d cl f } def
/m2 {mp x y w2 sub m 0 w d x w2 sub y m w 0 d s} def
/m5 {mp x w2 sub y w2 sub m w w d x w2 sub y w2 add m w w neg d s} def
%%IncludeResource: ProcSet (FontSetInit)
%%IncludeResource: font Times-Roman
%%IncludeResource: font Times-Italic
%%IncludeResource: font Times-Bold
%%IncludeResource: font Times-BoldItalic
%%IncludeResource: font Helvetica
%%IncludeResource: font Helvetica-Oblique
%%IncludeResource: font Helvetica-Bold
%%IncludeResource: font Helvetica-BoldOblique
%%IncludeResource: font Courier
%%IncludeResource: font Courier-Oblique
%%IncludeResource: font Courier-Bold
%%IncludeResource: font Courier-BoldOblique
%%IncludeResource: font Symbol
%%IncludeResource: font ZapfDingbats
/reEncode {exch findfont dup length dict begin {1 index /FID eq  {pop pop} {def} ifelse } forall /Encoding exch def currentdict end dup /FontName get exch definefont pop } def [/Times-Bold /Times-Italic /Times-BoldItalic /Helvetica /Helvetica-Oblique
 /Helvetica-Bold /Helvetica-BoldOblique /Courier /Courier-Oblique /Courier-Bold /Courier-BoldOblique /Times-Roman /AvantGarde-Book /AvantGarde-BookOblique /AvantGarde-Demi /AvantGarde-DemiOblique /Bookman-Demi /Bookman-DemiItalic /Bookman-Light
 /Bookman-LightItalic /Helvetica-Narrow /Helvetica-Narrow-Bold /Helvetica-Narrow-BoldOblique /Helvetica-Narrow-Oblique /NewCenturySchlbk-Roman /NewCenturySchlbk-Bold /NewCenturySchlbk-BoldItalic /NewCenturySchlbk-Italic /Palatino-Bold
 /Palatino-BoldItalic /Palatino-Italic /Palatino-Roman ] {ISOLatin1Encoding reEncode } forall
%%EndProlog
%%BeginSetup
%%EndSetup
newpath  gsave  .25 .25 scale  gsave  0 0 t black[  ] 0 sd 6 lw 1 1 1 c 2268 2234 0 0 bf black 3 lw 1 1 1 c 1882 1966 340 223 bf black 1882 1966 340 223 bl 1 1 1 c 1882 1966 340 223 bf black 1882 1966 340 223 bl 0 0 1 c 6 lw 1 1 1 c 0 0 1 c 368 1767
 m 16 Y s 368 1794 m 15 Y s 3 lw /w 11 def /w2 {w 2 div} def /w3 {w 3 div} def 368 1788 m21 6 lw 387 1686 m 6 Y s 387 1704 m 6 Y s 3 lw 387 1698 m21 6 lw 406 1619 m 3 Y s 406 1633 m 3 Y s 3 lw 406 1627 m21 6 lw 425 1537 m 1 Y s 425 1550 m 1 Y s 3 lw
 425 1544 m21 6 lw 3 lw 444 1466 m21 6 lw 3 lw 463 1421 m21 6 lw 3 lw 481 1370 m21 6 lw 3 lw 500 1339 m21 6 lw 3 lw 519 1306 m21 6 lw 3 lw 538 1277 m21 6 lw 3 lw 557 1260 m21 6 lw 3 lw 575 1244 m21 6 lw 3 lw 594 1230 m21 6 lw 3 lw 613 1215 m21 6 lw 3
 lw 632 1204 m21 6 lw 3 lw 651 1189 m21 6 lw 3 lw 670 1181 m21 6 lw 3 lw 688 1171 m21 6 lw 3 lw 707 1162 m21 6 lw 3 lw 726 1157 m21 6 lw 3 lw 745 1148 m21 6 lw 3 lw 764 1139 m21 6 lw 3 lw 782 1136 m21 6 lw 3 lw 801 1133 m21 6 lw 3 lw 820 1123 m21 6
 lw 3 lw 839 1122 m21 6 lw 3 lw 858 1117 m21 6 lw 3 lw 877 1106 m21 6 lw 3 lw 895 1104 m21 6 lw 3 lw 914 1099 m21 6 lw 3 lw 933 1099 m21 6 lw 3 lw 952 1096 m21 6 lw 3 lw 971 1091 m21 6 lw 3 lw 990 1086 m21 6 lw 3 lw 1008 1090 m21 6 lw 3 lw 1027 1085
 m21 6 lw 3 lw 1046 1083 m21 6 lw 3 lw 1065 1080 m21 6 lw 3 lw 1084 1077 m21 6 lw 3 lw 1102 1079 m21 6 lw 3 lw 1121 1080 m21 6 lw 3 lw 1140 1075 m21 6 lw 3 lw 1159 1073 m21 6 lw 3 lw 1178 1077 m21 6 lw 3 lw 1197 1075 m21 6 lw 3 lw 1215 1075 m21 6 lw
 3 lw 1234 1076 m21 6 lw 3 lw 1253 1072 m21 6 lw 3 lw 1272 1074 m21 6 lw 3 lw 1291 1076 m21 6 lw 3 lw 1309 1073 m21 6 lw 3 lw 1328 1078 m21 6 lw 3 lw 1347 1075 m21 6 lw 3 lw 1366 1072 m21 6 lw 3 lw 1385 1079 m21 6 lw 3 lw 1404 1074 m21 6 lw 3 lw 1422
 1076 m21 6 lw 3 lw 1441 1075 m21 6 lw 3 lw 1460 1076 m21 6 lw 3 lw 1479 1077 m21 6 lw 3 lw 1498 1077 m21 6 lw 3 lw 1517 1084 m21 6 lw 3 lw 1535 1082 m21 6 lw 3 lw 1554 1085 m21 6 lw 3 lw 1573 1089 m21 6 lw 3 lw 1592 1087 m21 6 lw 3 lw 1611 1084 m21
 6 lw 3 lw 1629 1087 m21 6 lw 3 lw 1648 1090 m21 6 lw 3 lw 1667 1091 m21 6 lw 3 lw 1686 1087 m21 6 lw 3 lw 1705 1090 m21 6 lw 3 lw 1724 1094 m21 6 lw 3 lw 1742 1094 m21 6 lw 3 lw 1761 1098 m21 6 lw 3 lw 1780 1099 m21 6 lw 3 lw 1799 1098 m21 6 lw 3 lw
 1818 1100 m21 6 lw 3 lw 1837 1096 m21 6 lw 3 lw 1855 1106 m21 6 lw 3 lw 1874 1098 m21 6 lw 3 lw 1893 1100 m21 6 lw 3 lw 1912 1105 m21 6 lw 3 lw 1931 1106 m21 6 lw 3 lw 1949 1110 m21 6 lw 3 lw 1968 1111 m21 6 lw 3 lw 1987 1106 m21 6 lw 3 lw 2006 1106
 m21 6 lw 3 lw 2025 1112 m21 6 lw 3 lw 2044 1112 m21 6 lw 3 lw 2062 1116 m21 6 lw 3 lw 2081 1114 m21 6 lw 3 lw 2100 1116 m21 6 lw 3 lw 2119 1116 m21 6 lw 3 lw 2138 1117 m21 6 lw 3 lw 2156 1130 m21 6 lw 3 lw 2175 1114 m21 6 lw 3 lw 2194 1125 m21 6 lw
 3 lw 2213 1112 m21 6 lw black 340 223 m 1882 X s
 gsave  2268 2234 0 0 C 1923.86 58.2559 t 0 r /Helvetica findfont 83.8316 sf 0 0 m (Q [GeV]) show NC gr  340 279 m -56 Y s 387 251 m -28 Y s 434 251 m -28 Y s 481 251 m -28 Y s 528 279 m -56 Y s 575 251 m -28 Y s 622 251 m -28 Y s 670 251 m -28 Y s
 717 279 m -56 Y s 764 251 m -28 Y s 811 251 m -28 Y s 858 251 m -28 Y s 905 279 m -56 Y s 952 251 m -28 Y s 999 251 m -28 Y s 1046 251 m -28 Y s 1093 279 m -56 Y s 1140 251 m -28 Y s 1187 251 m -28 Y s 1234 251 m -28 Y s 1281 279 m -56 Y s 1328 251
 m -28 Y s 1375 251 m -28 Y s 1422 251 m -28 Y s 1469 279 m -56 Y s 1517 251 m -28 Y s 1564 251 m -28 Y s 1611 251 m -28 Y s 1658 279 m -56 Y s 1705 251 m -28 Y s 1752 251 m -28 Y s 1799 251 m -28 Y s 1846 279 m -56 Y s 1893 251 m -28 Y s 1940 251 m
 -28 Y s 1987 251 m -28 Y s 2034 279 m -56 Y s 2081 251 m -28 Y s 2128 251 m -28 Y s 2175 251 m -28 Y s 2222 279 m -56 Y s
 gsave  2268 2234 0 0 C 322.539 159.138 t 0 r /Helvetica findfont 62.5185 sf 0 0 m (0) show NC gr 
 gsave  2268 2234 0 0 C 484.518 159.138 t 0 r /Helvetica findfont 62.5185 sf 0 0 m (0.2) show NC gr 
 gsave  2268 2234 0 0 C 673.495 159.138 t 0 r /Helvetica findfont 62.5185 sf 0 0 m (0.4) show NC gr 
 gsave  2268 2234 0 0 C 861.05 159.138 t 0 r /Helvetica findfont 62.5185 sf 0 0 m (0.6) show NC gr 
 gsave  2268 2234 0 0 C 1050.03 159.138 t 0 r /Helvetica findfont 62.5185 sf 0 0 m (0.8) show NC gr 
 gsave  2268 2234 0 0 C 1268.84 159.138 t 0 r /Helvetica findfont 62.5185 sf 0 0 m (1) show NC gr 
 gsave  2268 2234 0 0 C 1426.56 159.138 t 0 r /Helvetica findfont 62.5185 sf 0 0 m (1.2) show NC gr 
 gsave  2268 2234 0 0 C 1614.11 159.138 t 0 r /Helvetica findfont 62.5185 sf 0 0 m (1.4) show NC gr 
 gsave  2268 2234 0 0 C 1803.09 159.138 t 0 r /Helvetica findfont 62.5185 sf 0 0 m (1.6) show NC gr 
 gsave  2268 2234 0 0 C 1990.65 159.138 t 0 r /Helvetica findfont 62.5185 sf 0 0 m (1.8) show NC gr 
 gsave  2268 2234 0 0 C 2205.2 159.138 t 0 r /Helvetica findfont 62.5185 sf 0 0 m (2) show NC gr  340 223 m 1966 Y s
 gsave  2268 2234 0 0 C 147.771 1594.22 t 90 r /Helvetica findfont 83.8316 sf 0 0 m (\(Q\) / \(0.02 GeV\)) show NC gr 
 gsave  2268 2234 0 0 C 174.768 1565.8 t 90 r /Helvetica findfont 55.4141 sf 0 0 m (2) show NC gr 
 gsave  2268 2234 0 0 C 147.771 1508.97 t 90 r /Helvetica findfont 83.8316 sf 0 0 m (C) show NC gr  400 402 m -60 X s 370 491 m -30 X s 370 581 m -30 X s 370 670 m -30 X s 400 759 m -60 X s 370 849 m -30 X s 370 938 m -30 X s 370 1027 m -30 X s 400
 1117 m -60 X s 370 1206 m -30 X s 370 1295 m -30 X s 370 1385 m -30 X s 400 1474 m -60 X s 370 1564 m -30 X s 370 1653 m -30 X s 370 1742 m -30 X s 400 1832 m -60 X s 370 1921 m -30 X s 370 2010 m -30 X s 370 2100 m -30 X s 400 2189 m -60 X s 400
 402 m -60 X s 370 313 m -30 X s 370 223 m -30 X s
 gsave  2268 2234 0 0 C 242.97 379.374 t 0 r /Helvetica findfont 62.5185 sf 0 0 m (0.6) show NC gr 
 gsave  2268 2234 0 0 C 242.97 737.434 t 0 r /Helvetica findfont 62.5185 sf 0 0 m (0.8) show NC gr 
 gsave  2268 2234 0 0 C 305.488 1092.65 t 0 r /Helvetica findfont 62.5185 sf 0 0 m (1) show NC gr 
 gsave  2268 2234 0 0 C 242.97 1450.71 t 0 r /Helvetica findfont 62.5185 sf 0 0 m (1.2) show NC gr 
 gsave  2268 2234 0 0 C 242.97 1808.77 t 0 r /Helvetica findfont 62.5185 sf 0 0 m (1.4) show NC gr 
 gsave  2268 2234 0 0 C 242.97 2166.83 t 0 r /Helvetica findfont 62.5185 sf 0 0 m (1.6) show NC gr  1 0 0 c 1 1 1 c 1 0 0 c 368 1795 m 15 Y s 368 1822 m 15 Y s 3 lw 368 1816 m21 6 lw 387 1671 m 6 Y s 387 1688 m 6 Y s 3 lw 387 1683 m21 6 lw 406 1616 m
 2 Y s 406 1630 m 2 Y s 3 lw 406 1624 m21 6 lw 425 1526 m 1 Y s 425 1539 m s 3 lw 425 1533 m21 6 lw 3 lw 444 1461 m21 6 lw 3 lw 463 1408 m21 6 lw 3 lw 481 1366 m21 6 lw 3 lw 500 1331 m21 6 lw 3 lw 519 1302 m21 6 lw 3 lw 538 1279 m21 6 lw 3 lw 557
 1252 m21 6 lw 3 lw 575 1243 m21 6 lw 3 lw 594 1226 m21 6 lw 3 lw 613 1211 m21 6 lw 3 lw 632 1199 m21 6 lw 3 lw 651 1188 m21 6 lw 3 lw 670 1177 m21 6 lw 3 lw 688 1169 m21 6 lw 3 lw 707 1158 m21 6 lw 3 lw 726 1150 m21 6 lw 3 lw 745 1145 m21 6 lw 3 lw
 764 1143 m21 6 lw 3 lw 782 1133 m21 6 lw 3 lw 801 1128 m21 6 lw 3 lw 820 1120 m21 6 lw 3 lw 839 1115 m21 6 lw 3 lw 858 1112 m21 6 lw 3 lw 877 1109 m21 6 lw 3 lw 895 1106 m21 6 lw 3 lw 914 1101 m21 6 lw 3 lw 933 1099 m21 6 lw 3 lw 952 1095 m21 6 lw 3
 lw 971 1095 m21 6 lw 3 lw 990 1091 m21 6 lw 3 lw 1008 1088 m21 6 lw 3 lw 1027 1087 m21 6 lw 3 lw 1046 1080 m21 6 lw 3 lw 1065 1079 m21 6 lw 3 lw 1084 1082 m21 6 lw 3 lw 1102 1081 m21 6 lw 3 lw 1121 1083 m21 6 lw 3 lw 1140 1074 m21 6 lw 3 lw 1159
 1078 m21 6 lw 3 lw 1178 1076 m21 6 lw 3 lw 1197 1073 m21 6 lw 3 lw 1215 1073 m21 6 lw 3 lw 1234 1073 m21 6 lw 3 lw 1253 1074 m21 6 lw 3 lw 1272 1070 m21 6 lw 3 lw 1291 1074 m21 6 lw 3 lw 1309 1076 m21 6 lw 3 lw 1328 1079 m21 6 lw 3 lw 1347 1074 m21
 6 lw 3 lw 1366 1076 m21 6 lw 3 lw 1385 1073 m21 6 lw 3 lw 1404 1073 m21 6 lw 3 lw 1422 1077 m21 6 lw 3 lw 1441 1076 m21 6 lw 3 lw 1460 1077 m21 6 lw 3 lw 1479 1084 m21 6 lw 3 lw 1498 1081 m21 6 lw 3 lw 1517 1084 m21 6 lw 3 lw 1535 1087 m21 6 lw 3 lw
 1554 1084 m21 6 lw 3 lw 1573 1087 m21 6 lw 3 lw 1592 1085 m21 6 lw 3 lw 1611 1085 m21 6 lw 3 lw 1629 1087 m21 6 lw 3 lw 1648 1089 m21 6 lw 3 lw 1667 1089 m21 6 lw 3 lw 1686 1085 m21 6 lw 3 lw 1705 1085 m21 6 lw 3 lw 1724 1092 m21 6 lw 3 lw 1742 1090
 m21 6 lw 3 lw 1761 1095 m21 6 lw 3 lw 1780 1095 m21 6 lw 3 lw 1799 1100 m21 6 lw 3 lw 1818 1097 m21 6 lw 3 lw 1837 1103 m21 6 lw 3 lw 1855 1106 m21 6 lw 3 lw 1874 1096 m21 6 lw 3 lw 1893 1104 m21 6 lw 3 lw 1912 1103 m21 6 lw 3 lw 1931 1103 m21 6 lw
 3 lw 1949 1106 m21 6 lw 3 lw 1968 1111 m21 6 lw 3 lw 1987 1110 m21 6 lw 3 lw 2006 1110 m21 6 lw 3 lw 2025 1106 m21 6 lw 3 lw 2044 1118 m21 6 lw 3 lw 2062 1113 m21 6 lw 3 lw 2081 1117 m21 6 lw 3 lw 2100 1112 m21 6 lw 3 lw 2119 1115 m21 6 lw 3 lw 2138
 1119 m21 6 lw 3 lw 2156 1115 m21 6 lw 3 lw 2175 1117 m21 6 lw 3 lw 2194 1124 m21 6 lw 3 lw 2213 1113 m21 6 lw 0 1 0 c 1 1 1 c 0 1 0 c 368 1761 m 15 Y s 368 1787 m 14 Y s 3 lw 368 1781 m21 6 lw 387 1665 m 6 Y s 387 1682 m 5 Y s 3 lw 387 1676 m21 6 lw
 406 1602 m 2 Y s 406 1616 m 2 Y s 3 lw 406 1610 m21 6 lw 425 1520 m 1 Y s 425 1532 m 1 Y s 3 lw 425 1526 m21 6 lw 3 lw 444 1457 m21 6 lw 3 lw 463 1402 m21 6 lw 3 lw 481 1361 m21 6 lw 3 lw 500 1325 m21 6 lw 3 lw 519 1296 m21 6 lw 3 lw 538 1274 m21 6
 lw 3 lw 557 1253 m21 6 lw 3 lw 575 1238 m21 6 lw 3 lw 594 1221 m21 6 lw 3 lw 613 1209 m21 6 lw 3 lw 632 1196 m21 6 lw 3 lw 651 1187 m21 6 lw 3 lw 670 1173 m21 6 lw 3 lw 688 1169 m21 6 lw 3 lw 707 1158 m21 6 lw 3 lw 726 1153 m21 6 lw 3 lw 745 1145
 m21 6 lw 3 lw 764 1139 m21 6 lw 3 lw 782 1134 m21 6 lw 3 lw 801 1127 m21 6 lw 3 lw 820 1122 m21 6 lw 3 lw 839 1117 m21 6 lw 3 lw 858 1111 m21 6 lw 3 lw 877 1108 m21 6 lw 3 lw 895 1102 m21 6 lw 3 lw 914 1103 m21 6 lw 3 lw 933 1097 m21 6 lw 3 lw 952
 1095 m21 6 lw 3 lw 971 1092 m21 6 lw 3 lw 990 1088 m21 6 lw 3 lw 1008 1088 m21 6 lw 3 lw 1027 1081 m21 6 lw 3 lw 1046 1086 m21 6 lw 3 lw 1065 1082 m21 6 lw 3 lw 1084 1078 m21 6 lw 3 lw 1102 1078 m21 6 lw 3 lw 1121 1078 m21 6 lw 3 lw 1140 1073 m21 6
 lw 3 lw 1159 1077 m21 6 lw 3 lw 1178 1078 m21 6 lw 3 lw 1197 1074 m21 6 lw 3 lw 1215 1075 m21 6 lw 3 lw 1234 1077 m21 6 lw 3 lw 1253 1071 m21 6 lw 3 lw 1272 1072 m21 6 lw 3 lw 1291 1079 m21 6 lw 3 lw 1309 1077 m21 6 lw 3 lw 1328 1079 m21 6 lw 3 lw
 1347 1077 m21 6 lw 3 lw 1366 1077 m21 6 lw 3 lw 1385 1076 m21 6 lw 3 lw 1404 1077 m21 6 lw 3 lw 1422 1079 m21 6 lw 3 lw 1441 1077 m21 6 lw 3 lw 1460 1074 m21 6 lw 3 lw 1479 1080 m21 6 lw 3 lw 1498 1082 m21 6 lw 3 lw 1517 1081 m21 6 lw 3 lw 1535 1083
 m21 6 lw 3 lw 1554 1083 m21 6 lw 3 lw 1573 1085 m21 6 lw 3 lw 1592 1090 m21 6 lw 3 lw 1611 1085 m21 6 lw 3 lw 1629 1083 m21 6 lw 3 lw 1648 1090 m21 6 lw 3 lw 1667 1089 m21 6 lw 3 lw 1686 1090 m21 6 lw 3 lw 1705 1088 m21 6 lw 3 lw 1724 1090 m21 6 lw
 3 lw 1742 1094 m21 6 lw 3 lw 1761 1099 m21 6 lw 3 lw 1780 1100 m21 6 lw 3 lw 1799 1099 m21 6 lw 3 lw 1818 1094 m21 6 lw 3 lw 1837 1093 m21 6 lw 3 lw 1855 1108 m21 6 lw 3 lw 1874 1097 m21 6 lw 3 lw 1893 1100 m21 6 lw 3 lw 1912 1102 m21 6 lw 3 lw 1931
 1108 m21 6 lw 3 lw 1949 1107 m21 6 lw 3 lw 1968 1101 m21 6 lw 3 lw 1987 1102 m21 6 lw 3 lw 2006 1103 m21 6 lw 3 lw 2025 1113 m21 6 lw 3 lw 2044 1105 m21 6 lw 3 lw 2062 1118 m21 6 lw 3 lw 2081 1117 m21 6 lw 3 lw 2100 1118 m21 6 lw 3 lw 2119 1118 m21
 6 lw 3 lw 2138 1120 m21 6 lw 3 lw 2156 1115 m21 6 lw 3 lw 2175 1115 m21 6 lw 3 lw 2194 1116 m21 6 lw 3 lw 2213 1117 m21 6 lw black 1 1 1 c 680 447 1474 1675 bf black 1474 1675 m 680 X s 2154 1675 m 447 Y s 2154 2122 m -680 X s 1474 2122 m -447 Y s
 gsave  2268 2234 0 0 C 1490.5 2041.8 t 0 r /Helvetica findfont 68.202 sf 0 0 m (IP cut) show NC gr 
 gsave  2268 2234 0 0 C 1643.95 1929.55 t 0 r /Helvetica findfont 68.202 sf 0 0 m (0.30) show NC gr  0 0 1 c 1559 1921 m 67 Y s 3 lw 1559 1954 m21 6 lw black
 gsave  2268 2234 0 0 C 1643.95 1818.72 t 0 r /Helvetica findfont 68.202 sf 0 0 m (0.35) show NC gr  1 0 0 c 1559 1809 m 67 Y s 3 lw 1559 1843 m21 6 lw black
 gsave  2268 2234 0 0 C 1643.95 1706.47 t 0 r /Helvetica findfont 68.202 sf 0 0 m (0.40) show NC gr  0 1 0 c 1559 1698 m 67 Y s 3 lw 1559 1731 m21 6 lw black
 gsave  2268 2234 0 0 C 906.518 670.653 t 0 r /Helvetica-Bold findfont 72.4646 sf 0 0 m (RD PIONS) show NC gr 
 gsave  2268 2234 0 0 C 906.518 558.404 t 0 r /Helvetica-Bold findfont 72.4646 sf 0 0 m (ref. sample: EVENT MIX) show NC gr 
 gsave  2268 2234 0 0 C 906.518 447.576 t 0 r /Helvetica-Bold findfont 72.4646 sf 0 0 m (VELO tracks multiplicity: 21 \255 60) show NC gr 
 gr  gr showpage
end
%%EOF
