%!PS-Adobe-2.0 EPSF-2.0
%%BoundingBox:  0 0 567 558
%%Title: ./RD_pion_0c65_h3001_2_h3401_2_compare.eps: RD_pion_0c65_h3001_2_h3401_2_compare
%%Creator: ROOT Version 6.06/02
%%CreationDate: Fri Jan 27 15:22:08 2017
%%DocumentNeededResources: ProcSet (FontSetInit)
%%EndComments
%%BeginProlog
80 dict begin
/s {stroke} def /l {lineto} def /m {moveto} def /t {translate} def
/r {rotate} def /rl {roll}  def /R {repeat} def
/d {rlineto} def /rm {rmoveto} def /gr {grestore} def /f {eofill} def
/c {setrgbcolor} def /black {0 setgray} def /sd {setdash} def
/cl {closepath} def /sf {scalefont setfont} def /lw {setlinewidth} def
/box {m dup 0 exch d exch 0 d 0 exch neg d cl} def
/NC{systemdict begin initclip end}def/C{NC box clip newpath}def
/bl {box s} def /bf {gsave box gsave f grestore 1 lw [] 0 sd s grestore} def /Y { 0 exch d} def /X { 0 d} def 
/K {{pop pop 0 moveto} exch kshow} bind def
/ita {/ang 15 def gsave [1 0 ang dup sin exch cos div 1 0 0] concat} def 
/mp {newpath /y exch def /x exch def} def
/side {[w .77 mul w .23 mul] .385 w mul sd w 0 l currentpoint t -144 r} def
/mr {mp x y w2 0 360 arc} def /m24 {mr s} def /m20 {mr f} def
/mb {mp x y w2 add m w2 neg 0 d 0 w neg d w 0 d 0 w d cl} def
/mt {mp x y w2 add m w2 neg w neg d w 0 d cl} def
/m21 {mb f} def /m25 {mb s} def /m22 {mt f} def /m26{mt s} def
/m23 {mp x y w2 sub m w2 w d w neg 0 d cl f} def
/m27 {mp x y w2 add m w3 neg w2 neg d w3 w2 neg d w3 w2 d cl s} def
/m28 {mp x w2 sub y w2 sub w3 add m w3 0 d  0 w3 neg d w3 0 d 0 w3 d w3 0 d  0 w3 d w3 neg 0 d 0 w3 d w3 neg 0 d 0 w3 neg d w3 neg 0 d cl s } def
/m29 {mp gsave x w2 sub y w2 add w3 sub m currentpoint t 4 {side} repeat cl fill gr} def
/m30 {mp gsave x w2 sub y w2 add w3 sub m currentpoint t 4 {side} repeat cl s gr} def
/m31 {mp x y w2 sub m 0 w d x w2 sub y m w 0 d x w2 sub y w2 add m w w neg d x w2 sub y w2 sub m w w d s} def
/m32 {mp x y w2 sub m w2 w d w neg 0 d cl s} def
/m33 {mp x y w2 add m w3 neg w2 neg d w3 w2 neg d w3 w2 d cl f} def
/m34 {mp x w2 sub y w2 sub w3 add m w3 0 d  0 w3 neg d w3 0 d 0 w3 d w3 0 d  0 w3 d w3 neg 0 d 0 w3 d w3 neg 0 d 0 w3 neg d w3 neg 0 d cl f } def
/m2 {mp x y w2 sub m 0 w d x w2 sub y m w 0 d s} def
/m5 {mp x w2 sub y w2 sub m w w d x w2 sub y w2 add m w w neg d s} def
%%IncludeResource: ProcSet (FontSetInit)
%%IncludeResource: font Times-Roman
%%IncludeResource: font Times-Italic
%%IncludeResource: font Times-Bold
%%IncludeResource: font Times-BoldItalic
%%IncludeResource: font Helvetica
%%IncludeResource: font Helvetica-Oblique
%%IncludeResource: font Helvetica-Bold
%%IncludeResource: font Helvetica-BoldOblique
%%IncludeResource: font Courier
%%IncludeResource: font Courier-Oblique
%%IncludeResource: font Courier-Bold
%%IncludeResource: font Courier-BoldOblique
%%IncludeResource: font Symbol
%%IncludeResource: font ZapfDingbats
/reEncode {exch findfont dup length dict begin {1 index /FID eq  {pop pop} {def} ifelse } forall /Encoding exch def currentdict end dup /FontName get exch definefont pop } def [/Times-Bold /Times-Italic /Times-BoldItalic /Helvetica /Helvetica-Oblique
 /Helvetica-Bold /Helvetica-BoldOblique /Courier /Courier-Oblique /Courier-Bold /Courier-BoldOblique /Times-Roman /AvantGarde-Book /AvantGarde-BookOblique /AvantGarde-Demi /AvantGarde-DemiOblique /Bookman-Demi /Bookman-DemiItalic /Bookman-Light
 /Bookman-LightItalic /Helvetica-Narrow /Helvetica-Narrow-Bold /Helvetica-Narrow-BoldOblique /Helvetica-Narrow-Oblique /NewCenturySchlbk-Roman /NewCenturySchlbk-Bold /NewCenturySchlbk-BoldItalic /NewCenturySchlbk-Italic /Palatino-Bold
 /Palatino-BoldItalic /Palatino-Italic /Palatino-Roman ] {ISOLatin1Encoding reEncode } forall
%%EndProlog
%%BeginSetup
%%EndSetup
newpath  gsave  .25 .25 scale  gsave  0 0 t black[  ] 0 sd 6 lw 1 1 1 c 2268 2234 0 0 bf black 3 lw 1 1 1 c 1882 1966 340 223 bf black 1882 1966 340 223 bl 1 1 1 c 1882 1966 340 223 bf black 1882 1966 340 223 bl 0 0 1 c 6 lw 1 1 1 c 0 0 1 c 368 1846
 m 17 Y s 368 1874 m 17 Y s 3 lw /w 11 def /w2 {w 2 div} def /w3 {w 3 div} def 368 1869 m21 6 lw 387 1765 m 6 Y s 387 1783 m 7 Y s 3 lw 387 1777 m21 6 lw 406 1714 m 4 Y s 406 1729 m 4 Y s 3 lw 406 1723 m21 6 lw 425 1647 m 2 Y s 425 1660 m 1 Y s 3 lw
 425 1654 m21 6 lw 444 1563 m 1 Y s 444 1575 m s 3 lw 444 1569 m21 6 lw 3 lw 463 1512 m21 6 lw 3 lw 481 1455 m21 6 lw 3 lw 500 1415 m21 6 lw 3 lw 519 1374 m21 6 lw 3 lw 538 1342 m21 6 lw 3 lw 557 1319 m21 6 lw 3 lw 575 1290 m21 6 lw 3 lw 594 1270 m21
 6 lw 3 lw 613 1254 m21 6 lw 3 lw 632 1235 m21 6 lw 3 lw 651 1216 m21 6 lw 3 lw 670 1207 m21 6 lw 3 lw 688 1200 m21 6 lw 3 lw 707 1179 m21 6 lw 3 lw 726 1169 m21 6 lw 3 lw 745 1157 m21 6 lw 3 lw 764 1151 m21 6 lw 3 lw 782 1143 m21 6 lw 3 lw 801 1130
 m21 6 lw 3 lw 820 1125 m21 6 lw 3 lw 839 1121 m21 6 lw 3 lw 858 1112 m21 6 lw 3 lw 877 1107 m21 6 lw 3 lw 895 1102 m21 6 lw 3 lw 914 1092 m21 6 lw 3 lw 933 1093 m21 6 lw 3 lw 952 1087 m21 6 lw 3 lw 971 1079 m21 6 lw 3 lw 990 1081 m21 6 lw 3 lw 1008
 1071 m21 6 lw 3 lw 1027 1070 m21 6 lw 3 lw 1046 1067 m21 6 lw 3 lw 1065 1063 m21 6 lw 3 lw 1084 1065 m21 6 lw 3 lw 1102 1062 m21 6 lw 3 lw 1121 1061 m21 6 lw 3 lw 1140 1058 m21 6 lw 3 lw 1159 1059 m21 6 lw 3 lw 1178 1056 m21 6 lw 3 lw 1197 1056 m21
 6 lw 3 lw 1215 1058 m21 6 lw 3 lw 1234 1052 m21 6 lw 3 lw 1253 1050 m21 6 lw 3 lw 1272 1056 m21 6 lw 3 lw 1291 1055 m21 6 lw 3 lw 1309 1048 m21 6 lw 3 lw 1328 1049 m21 6 lw 3 lw 1347 1053 m21 6 lw 3 lw 1366 1053 m21 6 lw 3 lw 1385 1053 m21 6 lw 3 lw
 1404 1051 m21 6 lw 3 lw 1422 1056 m21 6 lw 3 lw 1441 1053 m21 6 lw 3 lw 1460 1056 m21 6 lw 3 lw 1479 1061 m21 6 lw 3 lw 1498 1058 m21 6 lw 3 lw 1517 1060 m21 6 lw 3 lw 1535 1060 m21 6 lw 3 lw 1554 1059 m21 6 lw 3 lw 1573 1055 m21 6 lw 3 lw 1592 1064
 m21 6 lw 3 lw 1611 1066 m21 6 lw 3 lw 1629 1069 m21 6 lw 3 lw 1648 1071 m21 6 lw 3 lw 1667 1064 m21 6 lw 3 lw 1686 1070 m21 6 lw 3 lw 1705 1067 m21 6 lw 3 lw 1724 1075 m21 6 lw 3 lw 1742 1084 m21 6 lw 3 lw 1761 1078 m21 6 lw 3 lw 1780 1074 m21 6 lw
 3 lw 1799 1077 m21 6 lw 3 lw 1818 1081 m21 6 lw 3 lw 1837 1085 m21 6 lw 3 lw 1855 1080 m21 6 lw 3 lw 1874 1086 m21 6 lw 3 lw 1893 1094 m21 6 lw 3 lw 1912 1096 m21 6 lw 3 lw 1931 1101 m21 6 lw 3 lw 1949 1091 m21 6 lw 3 lw 1968 1095 m21 6 lw 3 lw 1987
 1096 m21 6 lw 3 lw 2006 1093 m21 6 lw 3 lw 2025 1098 m21 6 lw 3 lw 2044 1104 m21 6 lw 3 lw 2062 1107 m21 6 lw 3 lw 2081 1115 m21 6 lw 3 lw 2100 1097 m21 6 lw 2119 1110 m s 2119 1121 m s 3 lw 2119 1115 m21 6 lw 2138 1096 m s 2138 1107 m s 3 lw 2138
 1102 m21 6 lw 2156 1114 m 1 Y s 2156 1126 m s 3 lw 2156 1120 m21 6 lw 2175 1097 m s 2175 1109 m s 3 lw 2175 1103 m21 6 lw 2194 1111 m 1 Y s 2194 1123 m 1 Y s 3 lw 2194 1117 m21 6 lw 2213 1107 m 1 Y s 2213 1119 m 1 Y s 3 lw 2213 1114 m21 6 lw black
 340 223 m 1882 X s
 gsave  2268 2234 0 0 C 1923.86 58.2559 t 0 r /Helvetica findfont 83.8316 sf 0 0 m (Q [GeV]) show NC gr  340 279 m -56 Y s 387 251 m -28 Y s 434 251 m -28 Y s 481 251 m -28 Y s 528 279 m -56 Y s 575 251 m -28 Y s 622 251 m -28 Y s 670 251 m -28 Y s
 717 279 m -56 Y s 764 251 m -28 Y s 811 251 m -28 Y s 858 251 m -28 Y s 905 279 m -56 Y s 952 251 m -28 Y s 999 251 m -28 Y s 1046 251 m -28 Y s 1093 279 m -56 Y s 1140 251 m -28 Y s 1187 251 m -28 Y s 1234 251 m -28 Y s 1281 279 m -56 Y s 1328 251
 m -28 Y s 1375 251 m -28 Y s 1422 251 m -28 Y s 1469 279 m -56 Y s 1517 251 m -28 Y s 1564 251 m -28 Y s 1611 251 m -28 Y s 1658 279 m -56 Y s 1705 251 m -28 Y s 1752 251 m -28 Y s 1799 251 m -28 Y s 1846 279 m -56 Y s 1893 251 m -28 Y s 1940 251 m
 -28 Y s 1987 251 m -28 Y s 2034 279 m -56 Y s 2081 251 m -28 Y s 2128 251 m -28 Y s 2175 251 m -28 Y s 2222 279 m -56 Y s
 gsave  2268 2234 0 0 C 322.539 159.138 t 0 r /Helvetica findfont 62.5185 sf 0 0 m (0) show NC gr 
 gsave  2268 2234 0 0 C 484.518 159.138 t 0 r /Helvetica findfont 62.5185 sf 0 0 m (0.2) show NC gr 
 gsave  2268 2234 0 0 C 673.495 159.138 t 0 r /Helvetica findfont 62.5185 sf 0 0 m (0.4) show NC gr 
 gsave  2268 2234 0 0 C 861.05 159.138 t 0 r /Helvetica findfont 62.5185 sf 0 0 m (0.6) show NC gr 
 gsave  2268 2234 0 0 C 1050.03 159.138 t 0 r /Helvetica findfont 62.5185 sf 0 0 m (0.8) show NC gr 
 gsave  2268 2234 0 0 C 1268.84 159.138 t 0 r /Helvetica findfont 62.5185 sf 0 0 m (1) show NC gr 
 gsave  2268 2234 0 0 C 1426.56 159.138 t 0 r /Helvetica findfont 62.5185 sf 0 0 m (1.2) show NC gr 
 gsave  2268 2234 0 0 C 1614.11 159.138 t 0 r /Helvetica findfont 62.5185 sf 0 0 m (1.4) show NC gr 
 gsave  2268 2234 0 0 C 1803.09 159.138 t 0 r /Helvetica findfont 62.5185 sf 0 0 m (1.6) show NC gr 
 gsave  2268 2234 0 0 C 1990.65 159.138 t 0 r /Helvetica findfont 62.5185 sf 0 0 m (1.8) show NC gr 
 gsave  2268 2234 0 0 C 2205.2 159.138 t 0 r /Helvetica findfont 62.5185 sf 0 0 m (2) show NC gr  340 223 m 1966 Y s
 gsave  2268 2234 0 0 C 147.771 1594.22 t 90 r /Helvetica findfont 83.8316 sf 0 0 m (\(Q\) / \(0.02 GeV\)) show NC gr 
 gsave  2268 2234 0 0 C 174.768 1565.8 t 90 r /Helvetica findfont 55.4141 sf 0 0 m (2) show NC gr 
 gsave  2268 2234 0 0 C 147.771 1508.97 t 90 r /Helvetica findfont 83.8316 sf 0 0 m (C) show NC gr  400 402 m -60 X s 370 491 m -30 X s 370 581 m -30 X s 370 670 m -30 X s 400 759 m -60 X s 370 849 m -30 X s 370 938 m -30 X s 370 1027 m -30 X s 400
 1117 m -60 X s 370 1206 m -30 X s 370 1295 m -30 X s 370 1385 m -30 X s 400 1474 m -60 X s 370 1564 m -30 X s 370 1653 m -30 X s 370 1742 m -30 X s 400 1832 m -60 X s 370 1921 m -30 X s 370 2010 m -30 X s 370 2100 m -30 X s 400 2189 m -60 X s 400
 402 m -60 X s 370 313 m -30 X s 370 223 m -30 X s
 gsave  2268 2234 0 0 C 242.97 379.374 t 0 r /Helvetica findfont 62.5185 sf 0 0 m (0.6) show NC gr 
 gsave  2268 2234 0 0 C 242.97 737.434 t 0 r /Helvetica findfont 62.5185 sf 0 0 m (0.8) show NC gr 
 gsave  2268 2234 0 0 C 305.488 1092.65 t 0 r /Helvetica findfont 62.5185 sf 0 0 m (1) show NC gr 
 gsave  2268 2234 0 0 C 242.97 1450.71 t 0 r /Helvetica findfont 62.5185 sf 0 0 m (1.2) show NC gr 
 gsave  2268 2234 0 0 C 242.97 1808.77 t 0 r /Helvetica findfont 62.5185 sf 0 0 m (1.4) show NC gr 
 gsave  2268 2234 0 0 C 242.97 2166.83 t 0 r /Helvetica findfont 62.5185 sf 0 0 m (1.6) show NC gr  1 0 0 c 1 1 1 c 1 0 0 c 368 1798 m 16 Y s 368 1825 m 15 Y s 3 lw 368 1819 m21 6 lw 387 1732 m 6 Y s 387 1750 m 6 Y s 3 lw 387 1744 m21 6 lw 406 1700 m
 3 Y s 406 1714 m 3 Y s 3 lw 406 1709 m21 6 lw 425 1638 m 1 Y s 425 1651 m 1 Y s 3 lw 425 1645 m21 6 lw 444 1565 m 1 Y s 444 1577 m s 3 lw 444 1571 m21 6 lw 3 lw 463 1502 m21 6 lw 3 lw 481 1452 m21 6 lw 3 lw 500 1409 m21 6 lw 3 lw 519 1374 m21 6 lw 3
 lw 538 1340 m21 6 lw 3 lw 557 1315 m21 6 lw 3 lw 575 1286 m21 6 lw 3 lw 594 1269 m21 6 lw 3 lw 613 1245 m21 6 lw 3 lw 632 1232 m21 6 lw 3 lw 651 1213 m21 6 lw 3 lw 670 1201 m21 6 lw 3 lw 688 1193 m21 6 lw 3 lw 707 1172 m21 6 lw 3 lw 726 1166 m21 6
 lw 3 lw 745 1158 m21 6 lw 3 lw 764 1149 m21 6 lw 3 lw 782 1138 m21 6 lw 3 lw 801 1127 m21 6 lw 3 lw 820 1125 m21 6 lw 3 lw 839 1117 m21 6 lw 3 lw 858 1112 m21 6 lw 3 lw 877 1103 m21 6 lw 3 lw 895 1104 m21 6 lw 3 lw 914 1091 m21 6 lw 3 lw 933 1090
 m21 6 lw 3 lw 952 1086 m21 6 lw 3 lw 971 1083 m21 6 lw 3 lw 990 1076 m21 6 lw 3 lw 1008 1074 m21 6 lw 3 lw 1027 1070 m21 6 lw 3 lw 1046 1071 m21 6 lw 3 lw 1065 1064 m21 6 lw 3 lw 1084 1068 m21 6 lw 3 lw 1102 1061 m21 6 lw 3 lw 1121 1060 m21 6 lw 3
 lw 1140 1054 m21 6 lw 3 lw 1159 1061 m21 6 lw 3 lw 1178 1057 m21 6 lw 3 lw 1197 1057 m21 6 lw 3 lw 1215 1055 m21 6 lw 3 lw 1234 1056 m21 6 lw 3 lw 1253 1049 m21 6 lw 3 lw 1272 1052 m21 6 lw 3 lw 1291 1052 m21 6 lw 3 lw 1309 1049 m21 6 lw 3 lw 1328
 1050 m21 6 lw 3 lw 1347 1050 m21 6 lw 3 lw 1366 1056 m21 6 lw 3 lw 1385 1050 m21 6 lw 3 lw 1404 1052 m21 6 lw 3 lw 1422 1057 m21 6 lw 3 lw 1441 1057 m21 6 lw 3 lw 1460 1052 m21 6 lw 3 lw 1479 1058 m21 6 lw 3 lw 1498 1056 m21 6 lw 3 lw 1517 1061 m21
 6 lw 3 lw 1535 1062 m21 6 lw 3 lw 1554 1059 m21 6 lw 3 lw 1573 1062 m21 6 lw 3 lw 1592 1062 m21 6 lw 3 lw 1611 1064 m21 6 lw 3 lw 1629 1064 m21 6 lw 3 lw 1648 1065 m21 6 lw 3 lw 1667 1072 m21 6 lw 3 lw 1686 1073 m21 6 lw 3 lw 1705 1072 m21 6 lw 3 lw
 1724 1082 m21 6 lw 3 lw 1742 1084 m21 6 lw 3 lw 1761 1075 m21 6 lw 3 lw 1780 1075 m21 6 lw 3 lw 1799 1075 m21 6 lw 3 lw 1818 1081 m21 6 lw 3 lw 1837 1087 m21 6 lw 3 lw 1855 1081 m21 6 lw 3 lw 1874 1077 m21 6 lw 3 lw 1893 1088 m21 6 lw 3 lw 1912 1085
 m21 6 lw 3 lw 1931 1094 m21 6 lw 3 lw 1949 1091 m21 6 lw 3 lw 1968 1096 m21 6 lw 3 lw 1987 1096 m21 6 lw 3 lw 2006 1085 m21 6 lw 3 lw 2025 1104 m21 6 lw 3 lw 2044 1096 m21 6 lw 3 lw 2062 1096 m21 6 lw 3 lw 2081 1105 m21 6 lw 3 lw 2100 1106 m21 6 lw
 2119 1101 m s 2119 1112 m s 3 lw 2119 1106 m21 6 lw 2138 1099 m s 2138 1111 m s 3 lw 2138 1105 m21 6 lw 2156 1108 m s 2156 1119 m 1 Y s 3 lw 2156 1114 m21 6 lw 2175 1098 m s 2175 1109 m 1 Y s 3 lw 2175 1104 m21 6 lw 2194 1100 m s 2194 1111 m 1 Y s 3
 lw 2194 1106 m21 6 lw 2213 1108 m s 2213 1120 m s 3 lw 2213 1114 m21 6 lw 0 1 0 c 1 1 1 c 0 1 0 c 368 1814 m 15 Y s 368 1841 m 15 Y s 3 lw 368 1835 m21 6 lw 387 1747 m 6 Y s 387 1765 m 6 Y s 3 lw 387 1759 m21 6 lw 406 1702 m 3 Y s 406 1716 m 3 Y s 3
 lw 406 1710 m21 6 lw 425 1630 m 1 Y s 425 1643 m 1 Y s 3 lw 425 1637 m21 6 lw 3 lw 444 1566 m21 6 lw 3 lw 463 1505 m21 6 lw 3 lw 481 1442 m21 6 lw 3 lw 500 1406 m21 6 lw 3 lw 519 1368 m21 6 lw 3 lw 538 1334 m21 6 lw 3 lw 557 1310 m21 6 lw 3 lw 575
 1284 m21 6 lw 3 lw 594 1263 m21 6 lw 3 lw 613 1244 m21 6 lw 3 lw 632 1227 m21 6 lw 3 lw 651 1205 m21 6 lw 3 lw 670 1198 m21 6 lw 3 lw 688 1187 m21 6 lw 3 lw 707 1171 m21 6 lw 3 lw 726 1166 m21 6 lw 3 lw 745 1158 m21 6 lw 3 lw 764 1148 m21 6 lw 3 lw
 782 1137 m21 6 lw 3 lw 801 1127 m21 6 lw 3 lw 820 1122 m21 6 lw 3 lw 839 1114 m21 6 lw 3 lw 858 1110 m21 6 lw 3 lw 877 1104 m21 6 lw 3 lw 895 1103 m21 6 lw 3 lw 914 1088 m21 6 lw 3 lw 933 1091 m21 6 lw 3 lw 952 1083 m21 6 lw 3 lw 971 1083 m21 6 lw 3
 lw 990 1077 m21 6 lw 3 lw 1008 1075 m21 6 lw 3 lw 1027 1071 m21 6 lw 3 lw 1046 1072 m21 6 lw 3 lw 1065 1065 m21 6 lw 3 lw 1084 1064 m21 6 lw 3 lw 1102 1064 m21 6 lw 3 lw 1121 1061 m21 6 lw 3 lw 1140 1062 m21 6 lw 3 lw 1159 1058 m21 6 lw 3 lw 1178
 1058 m21 6 lw 3 lw 1197 1056 m21 6 lw 3 lw 1215 1054 m21 6 lw 3 lw 1234 1050 m21 6 lw 3 lw 1253 1051 m21 6 lw 3 lw 1272 1056 m21 6 lw 3 lw 1291 1046 m21 6 lw 3 lw 1309 1048 m21 6 lw 3 lw 1328 1050 m21 6 lw 3 lw 1347 1052 m21 6 lw 3 lw 1366 1052 m21
 6 lw 3 lw 1385 1056 m21 6 lw 3 lw 1404 1049 m21 6 lw 3 lw 1422 1053 m21 6 lw 3 lw 1441 1059 m21 6 lw 3 lw 1460 1056 m21 6 lw 3 lw 1479 1057 m21 6 lw 3 lw 1498 1057 m21 6 lw 3 lw 1517 1055 m21 6 lw 3 lw 1535 1059 m21 6 lw 3 lw 1554 1062 m21 6 lw 3 lw
 1573 1059 m21 6 lw 3 lw 1592 1063 m21 6 lw 3 lw 1611 1064 m21 6 lw 3 lw 1629 1068 m21 6 lw 3 lw 1648 1063 m21 6 lw 3 lw 1667 1066 m21 6 lw 3 lw 1686 1072 m21 6 lw 3 lw 1705 1076 m21 6 lw 3 lw 1724 1072 m21 6 lw 3 lw 1742 1087 m21 6 lw 3 lw 1761 1069
 m21 6 lw 3 lw 1780 1077 m21 6 lw 3 lw 1799 1078 m21 6 lw 3 lw 1818 1082 m21 6 lw 3 lw 1837 1090 m21 6 lw 3 lw 1855 1082 m21 6 lw 3 lw 1874 1086 m21 6 lw 3 lw 1893 1085 m21 6 lw 3 lw 1912 1081 m21 6 lw 3 lw 1931 1094 m21 6 lw 3 lw 1949 1095 m21 6 lw
 3 lw 1968 1092 m21 6 lw 3 lw 1987 1102 m21 6 lw 3 lw 2006 1082 m21 6 lw 3 lw 2025 1098 m21 6 lw 3 lw 2044 1104 m21 6 lw 3 lw 2062 1095 m21 6 lw 3 lw 2081 1107 m21 6 lw 3 lw 2100 1108 m21 6 lw 2119 1110 m s 2119 1122 m s 3 lw 2119 1116 m21 6 lw 2138
 1088 m s 2138 1099 m s 3 lw 2138 1094 m21 6 lw 2156 1112 m 1 Y s 2156 1124 m s 3 lw 2156 1118 m21 6 lw 2175 1096 m s 2175 1108 m s 3 lw 2175 1102 m21 6 lw 2194 1108 m s 2194 1120 m s 3 lw 2194 1114 m21 6 lw 2213 1111 m 1 Y s 2213 1123 m 1 Y s 3 lw
 2213 1117 m21 6 lw black 1 1 1 c 680 447 1474 1675 bf black 1474 1675 m 680 X s 2154 1675 m 447 Y s 2154 2122 m -680 X s 1474 2122 m -447 Y s
 gsave  2268 2234 0 0 C 1490.5 2041.8 t 0 r /Helvetica findfont 68.202 sf 0 0 m (IP cut) show NC gr 
 gsave  2268 2234 0 0 C 1643.95 1929.55 t 0 r /Helvetica findfont 68.202 sf 0 0 m (0.30) show NC gr  0 0 1 c 1559 1921 m 67 Y s 3 lw 1559 1954 m21 6 lw black
 gsave  2268 2234 0 0 C 1643.95 1818.72 t 0 r /Helvetica findfont 68.202 sf 0 0 m (0.35) show NC gr  1 0 0 c 1559 1809 m 67 Y s 3 lw 1559 1843 m21 6 lw black
 gsave  2268 2234 0 0 C 1643.95 1706.47 t 0 r /Helvetica findfont 68.202 sf 0 0 m (0.40) show NC gr  0 1 0 c 1559 1698 m 67 Y s 3 lw 1559 1731 m21 6 lw black
 gsave  2268 2234 0 0 C 906.518 670.653 t 0 r /Helvetica-Bold findfont 72.4646 sf 0 0 m (RD PIONS) show NC gr 
 gsave  2268 2234 0 0 C 906.518 558.404 t 0 r /Helvetica-Bold findfont 72.4646 sf 0 0 m (ref. sample: EVENT MIX) show NC gr 
 gsave  2268 2234 0 0 C 906.518 447.576 t 0 r /Helvetica-Bold findfont 72.4646 sf 0 0 m (VELO tracks multiplicity: 11 \255 20) show NC gr 
 gr  gr showpage
end
%%EOF
