%!PS-Adobe-2.0 EPSF-2.0
%%BoundingBox:  0 0 567 409
%%Title: /afs/cern.ch/work/m/marcin/pvs/RecGenScatter.eps: cd1
%%Creator: ROOT Version 5.34/36
%%CreationDate: Tue Jan 24 12:05:12 2017
%%EndComments
%%BeginProlog
80 dict begin
/s {stroke} def /l {lineto} def /m {moveto} def /t {translate} def
/r {rotate} def /rl {roll}  def /R {repeat} def
/d {rlineto} def /rm {rmoveto} def /gr {grestore} def /f {eofill} def
/c {setrgbcolor} def /black {0 setgray} def /sd {setdash} def
/cl {closepath} def /sf {scalefont setfont} def /lw {setlinewidth} def
/box {m dup 0 exch d exch 0 d 0 exch neg d cl} def
/NC{systemdict begin initclip end}def/C{NC box clip newpath}def
/bl {box s} def /bf {gsave box gsave f grestore 1 lw [] 0 sd s grestore} def /Y { 0 exch d} def /X { 0 d} def 
/K {{pop pop 0 moveto} exch kshow} bind def
/ita {/ang 15 def gsave [1 0 ang dup sin exch cos div 1 0 0] concat} def 
/mp {newpath /y exch def /x exch def} def
/side {[w .77 mul w .23 mul] .385 w mul sd w 0 l currentpoint t -144 r} def
/mr {mp x y w2 0 360 arc} def /m24 {mr s} def /m20 {mr f} def
/mb {mp x y w2 add m w2 neg 0 d 0 w neg d w 0 d 0 w d cl} def
/mt {mp x y w2 add m w2 neg w neg d w 0 d cl} def
/m21 {mb f} def /m25 {mb s} def /m22 {mt f} def /m26{mt s} def
/m23 {mp x y w2 sub m w2 w d w neg 0 d cl f} def
/m27 {mp x y w2 add m w3 neg w2 neg d w3 w2 neg d w3 w2 d cl s} def
/m28 {mp x w2 sub y w2 sub w3 add m w3 0 d  0 w3 neg d w3 0 d 0 w3 d w3 0 d  0 w3 d w3 neg 0 d 0 w3 d w3 neg 0 d 0 w3 neg d w3 neg 0 d cl s } def
/m29 {mp gsave x w2 sub y w2 add w3 sub m currentpoint t 4 {side} repeat cl fill gr} def
/m30 {mp gsave x w2 sub y w2 add w3 sub m currentpoint t 4 {side} repeat cl s gr} def
/m31 {mp x y w2 sub m 0 w d x w2 sub y m w 0 d x w2 sub y w2 add m w w neg d x w2 sub y w2 sub m w w d s} def
/m32 {mp x y w2 sub m w2 w d w neg 0 d cl s} def
/m33 {mp x y w2 add m w3 neg w2 neg d w3 w2 neg d w3 w2 d cl f} def
/m34 {mp x w2 sub y w2 sub w3 add m w3 0 d  0 w3 neg d w3 0 d 0 w3 d w3 0 d  0 w3 d w3 neg 0 d 0 w3 d w3 neg 0 d 0 w3 neg d w3 neg 0 d cl f } def
/m2 {mp x y w2 sub m 0 w d x w2 sub y m w 0 d s} def
/m5 {mp x w2 sub y w2 sub m w w d x w2 sub y w2 add m w w neg d s} def
/reEncode {exch findfont dup length dict begin {1 index /FID eq  {pop pop} {def} ifelse } forall /Encoding exch def currentdict end dup /FontName get exch definefont pop } def [/Times-Bold /Times-Italic /Times-BoldItalic /Helvetica /Helvetica-Oblique
 /Helvetica-Bold /Helvetica-BoldOblique /Courier /Courier-Oblique /Courier-Bold /Courier-BoldOblique /Times-Roman /AvantGarde-Book /AvantGarde-BookOblique /AvantGarde-Demi /AvantGarde-DemiOblique /Bookman-Demi /Bookman-DemiItalic /Bookman-Light
 /Bookman-LightItalic /Helvetica-Narrow /Helvetica-Narrow-Bold /Helvetica-Narrow-BoldOblique /Helvetica-Narrow-Oblique /NewCenturySchlbk-Roman /NewCenturySchlbk-Bold /NewCenturySchlbk-BoldItalic /NewCenturySchlbk-Italic /Palatino-Bold
 /Palatino-BoldItalic /Palatino-Italic /Palatino-Roman ] {ISOLatin1Encoding reEncode } forall
%%EndProlog
%%BeginSetup
%%EndSetup
newpath  gsave  .25 .25 scale  gsave  0 0 t 1 0 0 c[  ] 0 sd 3 lw 1 1 1 c 2268 1637 0 0 bf black 1 1 1 c 1814 1309 227 164 bf black 1814 1309 227 164 bl 1 1 1 c 1814 1309 227 164 bf black 1814 1309 227 164 bl 6 lw 1 1 1 c black 15 11 344 248 bl 1 1 1
 c black 19 14 365 247 bl 1 1 1 c black 22 16 386 246 bl 1 1 1 c black 23 16 408 246 bl 1 1 1 c black 22 16 431 246 bl 1 1 1 c black 20 15 455 246 bl 1 1 1 c black 17 13 479 247 bl 1 1 1 c black 14 10 503 249 bl 1 1 1 c black 14 10 526 249 bl 1 1 1 c
 black 11 8 550 250 bl 1 1 1 c black 9 6 574 251 bl 1 1 1 c black 7 5 597 251 bl 1 1 1 c black 5 4 621 252 bl 1 1 1 c black 5 3 644 252 bl 1 1 1 c black 4 3 667 252 bl 1 1 1 c black 3 2 690 253 bl 1 1 1 c black 2 1 713 253 bl 1 1 1 c black 2 1 736
 253 bl 1 1 1 c black 1 2 759 253 bl 1 1 1 c black 1 2 782 253 bl 1 1 1 c black 1 2 805 253 bl 1 1 1 c black 1 2 850 253 bl 1 1 1 c black 2 1 1122 254 bl 1 1 1 c black 1 1 1281 254 bl 1 1 1 c black 9 6 347 267 bl 1 1 1 c black 14 10 367 265 bl 1 1 1
 c black 17 12 388 264 bl 1 1 1 c black 19 14 410 263 bl 1 1 1 c black 20 15 432 263 bl 1 1 1 c black 20 14 455 263 bl 1 1 1 c black 19 14 478 263 bl 1 1 1 c black 17 12 502 264 bl 1 1 1 c black 15 10 525 265 bl 1 1 1 c black 15 10 548 265 bl 1 1 1 c
 black 13 10 572 265 bl 1 1 1 c black 9 6 596 267 bl 1 1 1 c black 7 6 620 267 bl 1 1 1 c black 7 4 643 268 bl 1 1 1 c black 6 4 666 268 bl 1 1 1 c black 5 4 689 268 bl 1 1 1 c black 4 3 712 269 bl 1 1 1 c black 2 2 736 269 bl 1 1 1 c black 3 2 758
 269 bl 1 1 1 c black 2 2 781 269 bl 1 1 1 c black 2 1 804 270 bl 1 1 1 c black 2 1 827 270 bl 1 1 1 c black 1 1 850 270 bl 1 1 1 c black 1 1 873 270 bl 1 1 1 c black 2 1 895 270 bl 1 1 1 c black 2 1 918 270 bl 1 1 1 c black 2 1 986 270 bl 1 1 1 c
 black 1 1 1009 270 bl 1 1 1 c black 1 1 1145 270 bl 1 1 1 c black 5 5 349 284 bl 1 1 1 c black 9 7 370 283 bl 1 1 1 c black 11 8 391 282 bl 1 1 1 c black 15 11 412 281 bl 1 1 1 c black 16 12 434 280 bl 1 1 1 c black 18 13 456 280 bl 1 1 1 c black 17
 13 479 280 bl 1 1 1 c black 17 13 502 280 bl 1 1 1 c black 16 11 525 281 bl 1 1 1 c black 15 11 548 281 bl 1 1 1 c black 13 9 572 282 bl 1 1 1 c black 13 9 594 282 bl 1 1 1 c black 11 7 618 283 bl 1 1 1 c black 9 6 642 283 bl 1 1 1 c black 8 5 665
 284 bl 1 1 1 c black 7 5 688 284 bl 1 1 1 c black 5 4 712 284 bl 1 1 1 c black 4 3 735 285 bl 1 1 1 c black 3 3 758 285 bl 1 1 1 c black 3 3 781 285 bl 1 1 1 c black 2 2 804 285 bl 1 1 1 c black 2 1 827 286 bl 1 1 1 c black 1 1 850 286 bl 1 1 1 c
 black 1 2 873 286 bl 1 1 1 c black 2 1 895 286 bl 1 1 1 c black 2 2 918 286 bl 1 1 1 c black 1 2 941 286 bl 1 1 1 c black 2 2 986 286 bl 1 1 1 c black 1 2 1168 286 bl 1 1 1 c black 2 2 1190 286 bl 1 1 1 c black 3 3 350 301 bl 1 1 1 c black 6 4 371
 301 bl 1 1 1 c black 8 6 393 300 bl 1 1 1 c black 9 7 415 299 bl 1 1 1 c black 12 9 436 298 bl 1 1 1 c black 14 10 458 298 bl 1 1 1 c black 15 11 480 297 bl 1 1 1 c black 16 11 502 297 bl 1 1 1 c black 16 11 525 297 bl 1 1 1 c black 15 11 548 297 bl
 1 1 1 c black 14 10 571 298 bl 1 1 1 c black 12 9 595 298 bl 1 1 1 c black 13 10 617 298 bl 1 1 1 c black 13 9 640 298 bl 1 1 1 c black 8 6 665 300 bl 1 1 1 c black 8 6 688 300 bl 1 1 1 c black 7 4 711 301 bl 1 1 1 c black 6 4 734 301 bl 1 1 1 c
 black 5 3 757 301 bl 1 1 1 c black 5 3 780 301 bl 1 1 1 c black 4 3 803 301 bl 1 1 1 c black 3 2 826 302 bl 1 1 1 c black 3 2 849 302 bl 1 1 1 c black 2 2 872 302 bl 1 1 1 c black 2 2 895 302 bl 1 1 1 c black 1 2 918 302 bl 1 1 1 c black 1 1 941 303
 bl 1 1 1 c black 2 1 986 303 bl 1 1 1 c black 2 1 1054 303 bl 1 1 1 c black 1 1 1077 303 bl 1 1 1 c black 2 1 1394 303 bl 1 1 1 c black 1 1 1440 303 bl 1 1 1 c black 3 2 350 318 bl 1 1 1 c black 4 2 372 318 bl 1 1 1 c black 5 4 394 317 bl 1 1 1 c
 black 7 4 416 317 bl 1 1 1 c black 8 6 438 316 bl 1 1 1 c black 10 8 460 315 bl 1 1 1 c black 13 9 481 315 bl 1 1 1 c black 13 10 504 314 bl 1 1 1 c black 14 10 526 314 bl 1 1 1 c black 15 10 548 314 bl 1 1 1 c black 14 10 571 314 bl 1 1 1 c black
 14 10 594 314 bl 1 1 1 c black 13 9 617 315 bl 1 1 1 c black 11 8 641 315 bl 1 1 1 c black 12 9 663 315 bl 1 1 1 c black 9 6 687 316 bl 1 1 1 c black 9 6 710 316 bl 1 1 1 c black 6 5 734 317 bl 1 1 1 c black 6 4 757 317 bl 1 1 1 c black 5 4 780 317
 bl 1 1 1 c black 4 3 803 318 bl 1 1 1 c black 4 3 826 318 bl 1 1 1 c black 3 2 849 318 bl 1 1 1 c black 2 2 872 318 bl 1 1 1 c black 2 2 895 318 bl 1 1 1 c black 2 1 917 319 bl 1 1 1 c black 2 1 940 319 bl 1 1 1 c black 2 1 963 319 bl 1 1 1 c black
 2 1 986 319 bl 1 1 1 c black 1 1 1009 319 bl 1 1 1 c black 2 1 1031 319 bl 1 1 1 c black 2 1 1054 319 bl 1 1 1 c black 1 1 1077 319 bl 1 1 1 c black 1 1 1213 319 bl 1 1 1 c black 1 1 351 335 bl 1 1 1 c black 2 1 373 335 bl 1 1 1 c black 4 3 395 334
 bl 1 1 1 c black 5 3 417 334 bl 1 1 1 c black 6 4 439 334 bl 1 1 1 c black 7 5 461 333 bl 1 1 1 c black 9 6 483 333 bl 1 1 1 c black 11 7 505 332 bl 1 1 1 c black 12 9 527 331 bl 1 1 1 c black 11 9 550 331 bl 1 1 1 c black 13 9 572 331 bl 1 1 1 c
 black 12 9 595 331 bl 1 1 1 c black 12 9 618 331 bl 1 1 1 c black 12 9 640 331 bl 1 1 1 c black 10 7 664 332 bl 1 1 1 c black 13 9 685 331 bl 1 1 1 c black 12 9 708 331 bl 1 1 1 c black 8 7 733 332 bl 1 1 1 c black 7 5 756 333 bl 1 1 1 c black 7 5
 779 333 bl 1 1 1 c black 6 5 802 333 bl 1 1 1 c black 5 3 825 334 bl 1 1 1 c black 5 3 848 334 bl 1 1 1 c black 4 3 871 334 bl 1 1 1 c black 3 2 894 335 bl 1 1 1 c black 3 2 917 335 bl 1 1 1 c black 2 1 940 335 bl 1 1 1 c black 2 1 963 335 bl 1 1 1
 c black 1 1 986 335 bl 1 1 1 c black 1 2 1009 335 bl 1 1 1 c black 2 2 1031 335 bl 1 1 1 c black 2 2 1054 335 bl 1 1 1 c black 1 2 1077 335 bl 1 1 1 c black 1 2 1145 335 bl 1 1 1 c black 1 2 351 351 bl 1 1 1 c black 2 2 373 351 bl 1 1 1 c black 3 2
 395 351 bl 1 1 1 c black 3 2 418 351 bl 1 1 1 c black 3 2 441 351 bl 1 1 1 c black 5 4 462 350 bl 1 1 1 c black 5 4 485 350 bl 1 1 1 c black 7 6 507 349 bl 1 1 1 c black 8 6 529 349 bl 1 1 1 c black 10 8 551 348 bl 1 1 1 c black 11 8 573 348 bl 1 1
 1 c black 11 8 595 348 bl 1 1 1 c black 11 8 618 348 bl 1 1 1 c black 11 8 641 348 bl 1 1 1 c black 10 8 664 348 bl 1 1 1 c black 10 8 687 348 bl 1 1 1 c black 10 8 709 348 bl 1 1 1 c black 12 8 731 348 bl 1 1 1 c black 9 6 755 349 bl 1 1 1 c black
 7 6 779 349 bl 1 1 1 c black 6 4 802 350 bl 1 1 1 c black 6 4 825 350 bl 1 1 1 c black 6 4 847 350 bl 1 1 1 c black 5 4 871 350 bl 1 1 1 c black 4 3 894 350 bl 1 1 1 c black 3 2 917 351 bl 1 1 1 c black 2 2 940 351 bl 1 1 1 c black 3 2 962 351 bl 1
 1 1 c black 3 2 985 351 bl 1 1 1 c black 2 2 1008 351 bl 1 1 1 c black 2 1 1031 352 bl 1 1 1 c black 1 1 1054 352 bl 1 1 1 c black 1 1 1077 352 bl 1 1 1 c black 2 2 1099 351 bl 1 1 1 c black 2 1 1122 352 bl 1 1 1 c black 1 1 1145 352 bl 1 1 1 c
 black 2 1 1462 352 bl 1 1 1 c black 1 1 351 368 bl 1 1 1 c black 1 1 374 368 bl 1 1 1 c black 2 1 396 368 bl 1 1 1 c black 3 2 418 367 bl 1 1 1 c black 3 2 441 367 bl 1 1 1 c black 4 3 463 367 bl 1 1 1 c black 5 3 485 367 bl 1 1 1 c black 5 4 508
 366 bl 1 1 1 c black 6 5 530 366 bl 1 1 1 c black 7 5 552 366 bl 1 1 1 c black 9 6 574 365 bl 1 1 1 c black 10 7 596 365 bl 1 1 1 c black 10 7 619 365 bl 1 1 1 c black 10 7 641 365 bl 1 1 1 c black 10 7 664 365 bl 1 1 1 c black 11 8 686 364 bl 1 1 1
 c black 10 7 709 365 bl 1 1 1 c black 10 7 732 365 bl 1 1 1 c black 11 8 754 364 bl 1 1 1 c black 11 8 777 364 bl 1 1 1 c black 8 6 801 365 bl 1 1 1 c black 7 5 824 366 bl 1 1 1 c black 7 5 847 366 bl 1 1 1 c black 6 4 870 366 bl 1 1 1 c black 5 3
 893 367 bl 1 1 1 c black 5 3 916 367 bl 1 1 1 c black 4 3 939 367 bl 1 1 1 c black 3 2 962 367 bl 1 1 1 c black 3 2 985 367 bl 1 1 1 c black 3 2 1008 367 bl 1 1 1 c black 2 1 1031 368 bl 1 1 1 c black 1 1 1054 368 bl 1 1 1 c black 2 1 1076 368 bl 1
 1 1 c black 2 1 1099 368 bl 1 1 1 c black 2 1 1122 368 bl 1 1 1 c black 1 1 1145 368 bl 1 1 1 c black 2 1 1167 368 bl 1 1 1 c black 2 2 1190 368 bl 1 1 1 c black 1 2 1213 368 bl 1 1 1 c black 1 2 1304 368 bl 1 1 1 c black 1 2 374 384 bl 1 1 1 c
 black 2 2 396 384 bl 1 1 1 c black 2 1 419 384 bl 1 1 1 c black 2 2 441 384 bl 1 1 1 c black 2 2 464 384 bl 1 1 1 c black 3 3 486 383 bl 1 1 1 c black 3 3 509 383 bl 1 1 1 c black 4 3 531 383 bl 1 1 1 c black 5 4 553 383 bl 1 1 1 c black 7 5 575 382
 bl 1 1 1 c black 8 5 597 382 bl 1 1 1 c black 7 5 620 382 bl 1 1 1 c black 9 6 642 382 bl 1 1 1 c black 10 7 664 381 bl 1 1 1 c black 10 7 687 381 bl 1 1 1 c black 10 7 709 381 bl 1 1 1 c black 10 7 732 381 bl 1 1 1 c black 9 7 755 381 bl 1 1 1 c
 black 9 7 778 381 bl 1 1 1 c black 10 8 800 381 bl 1 1 1 c black 7 5 824 382 bl 1 1 1 c black 7 5 847 382 bl 1 1 1 c black 6 5 870 382 bl 1 1 1 c black 6 5 893 382 bl 1 1 1 c black 5 4 916 383 bl 1 1 1 c black 4 3 939 383 bl 1 1 1 c black 4 3 962
 383 bl 1 1 1 c black 3 3 985 383 bl 1 1 1 c black 4 3 1007 383 bl 1 1 1 c black 2 2 1031 384 bl 1 1 1 c black 3 2 1053 384 bl 1 1 1 c black 2 2 1076 384 bl 1 1 1 c black 2 2 1099 384 bl 1 1 1 c black 1 1 1122 384 bl 1 1 1 c black 1 2 1145 384 bl 1 1
 1 c black 2 2 1167 384 bl 1 1 1 c black 2 2 1190 384 bl 1 1 1 c black 1 2 1213 384 bl 1 1 1 c black 2 2 1235 384 bl 1 1 1 c black 1 2 1281 384 bl 1 1 1 c black 1 2 1304 384 bl 1 1 1 c black 1 1 374 401 bl 1 1 1 c black 2 1 396 401 bl 1 1 1 c black 1
 1 419 401 bl 1 1 1 c black 1 1 442 401 bl 1 1 1 c black 2 2 464 400 bl 1 1 1 c black 3 2 486 400 bl 1 1 1 c black 3 2 509 400 bl 1 1 1 c black 4 2 531 400 bl 1 1 1 c black 3 2 554 400 bl 1 1 1 c black 5 4 576 399 bl 1 1 1 c black 6 4 598 399 bl 1 1
 1 c black 6 4 621 399 bl 1 1 1 c black 7 6 643 398 bl 1 1 1 c black 8 6 665 398 bl 1 1 1 c black 8 6 688 398 bl 1 1 1 c black 9 6 710 398 bl 1 1 1 c black 8 6 733 398 bl 1 1 1 c black 9 6 755 398 bl 1 1 1 c black 9 6 778 398 bl 1 1 1 c black 8 6 801
 398 bl 1 1 1 c black 11 8 822 397 bl 1 1 1 c black 11 8 845 397 bl 1 1 1 c black 8 6 869 398 bl 1 1 1 c black 7 4 892 399 bl 1 1 1 c black 6 4 915 399 bl 1 1 1 c black 6 4 938 399 bl 1 1 1 c black 5 4 961 399 bl 1 1 1 c black 3 2 985 400 bl 1 1 1 c
 black 4 2 1007 400 bl 1 1 1 c black 3 2 1030 400 bl 1 1 1 c black 3 2 1053 400 bl 1 1 1 c black 3 2 1076 400 bl 1 1 1 c black 2 2 1099 400 bl 1 1 1 c black 1 2 1122 400 bl 1 1 1 c black 1 1 1145 401 bl 1 1 1 c black 2 1 1167 401 bl 1 1 1 c black 2 1
 1190 401 bl 1 1 1 c black 2 2 1212 400 bl 1 1 1 c black 2 1 1258 401 bl 1 1 1 c black 1 1 1281 401 bl 1 1 1 c black 1 1 1304 401 bl 1 1 1 c black 2 1 1326 401 bl 1 1 1 c black 2 2 351 417 bl 1 1 1 c black 1 1 374 417 bl 1 1 1 c black 2 1 396 417 bl
 1 1 1 c black 1 1 419 417 bl 1 1 1 c black 1 2 442 417 bl 1 1 1 c black 2 1 464 417 bl 1 1 1 c black 1 1 487 417 bl 1 1 1 c black 2 1 509 417 bl 1 1 1 c black 2 2 532 416 bl 1 1 1 c black 3 2 554 416 bl 1 1 1 c black 3 2 577 416 bl 1 1 1 c black 4 3
 599 416 bl 1 1 1 c black 5 3 621 416 bl 1 1 1 c black 6 4 643 415 bl 1 1 1 c black 6 5 666 415 bl 1 1 1 c black 7 5 688 415 bl 1 1 1 c black 7 5 711 415 bl 1 1 1 c black 8 5 733 415 bl 1 1 1 c black 8 6 756 414 bl 1 1 1 c black 8 6 778 414 bl 1 1 1
 c black 8 6 801 414 bl 1 1 1 c black 8 5 824 415 bl 1 1 1 c black 8 6 846 414 bl 1 1 1 c black 10 7 868 414 bl 1 1 1 c black 7 5 892 415 bl 1 1 1 c black 7 5 915 415 bl 1 1 1 c black 6 5 938 415 bl 1 1 1 c black 6 4 961 415 bl 1 1 1 c black 5 3 984
 416 bl 1 1 1 c black 4 3 1007 416 bl 1 1 1 c black 4 3 1030 416 bl 1 1 1 c black 3 3 1053 416 bl 1 1 1 c black 3 2 1076 416 bl 1 1 1 c black 2 1 1099 417 bl 1 1 1 c black 3 1 1121 417 bl 1 1 1 c black 2 1 1144 417 bl 1 1 1 c black 2 1 1167 417 bl 1
 1 1 c black 1 1 1190 417 bl 1 1 1 c black 1 1 1213 417 bl 1 1 1 c black 1 2 1236 417 bl 1 1 1 c black 2 2 1258 417 bl 1 1 1 c black 1 2 1281 417 bl 1 1 1 c black 2 2 1326 417 bl 1 1 1 c black 2 1 351 434 bl 1 1 1 c black 1 1 374 434 bl 1 1 1 c black
 1 1 397 434 bl 1 1 1 c black 1 2 419 433 bl 1 1 1 c black 1 1 442 434 bl 1 1 1 c black 2 2 464 433 bl 1 1 1 c black 1 2 487 433 bl 1 1 1 c black 2 2 509 433 bl 1 1 1 c black 2 2 532 433 bl 1 1 1 c black 2 2 555 433 bl 1 1 1 c black 3 2 577 433 bl 1
 1 1 c black 2 2 600 433 bl 1 1 1 c black 4 3 622 432 bl 1 1 1 c black 4 3 644 432 bl 1 1 1 c black 4 3 667 432 bl 1 1 1 c black 5 4 689 432 bl 1 1 1 c black 6 4 711 432 bl 1 1 1 c black 6 5 734 431 bl 1 1 1 c black 7 5 756 431 bl 1 1 1 c black 7 5
 779 431 bl 1 1 1 c black 8 6 801 431 bl 1 1 1 c black 8 6 824 431 bl 1 1 1 c black 9 6 846 431 bl 1 1 1 c black 8 5 869 431 bl 1 1 1 c black 10 7 891 430 bl 1 1 1 c black 9 7 914 430 bl 1 1 1 c black 6 5 938 431 bl 1 1 1 c black 6 4 961 432 bl 1 1 1
 c black 5 4 984 432 bl 1 1 1 c black 6 4 1006 432 bl 1 1 1 c black 5 4 1029 432 bl 1 1 1 c black 3 3 1053 432 bl 1 1 1 c black 4 3 1075 432 bl 1 1 1 c black 4 3 1098 432 bl 1 1 1 c black 3 2 1121 433 bl 1 1 1 c black 2 2 1144 433 bl 1 1 1 c black 2
 2 1167 433 bl 1 1 1 c black 2 1 1190 433 bl 1 1 1 c black 2 2 1212 433 bl 1 1 1 c black 2 2 1235 433 bl 1 1 1 c black 1 2 1258 433 bl 1 1 1 c black 1 2 1281 433 bl 1 1 1 c black 2 2 1303 433 bl 1 1 1 c black 2 1 1326 434 bl 1 1 1 c black 1 2 1349
 433 bl 1 1 1 c black 1 1 1372 434 bl 1 1 1 c black 1 2 1576 433 bl 1 1 1 c black 2 1 419 450 bl 1 1 1 c black 1 1 442 450 bl 1 1 1 c black 2 1 464 450 bl 1 1 1 c black 1 1 487 450 bl 1 1 1 c black 1 1 510 450 bl 1 1 1 c black 2 1 532 450 bl 1 1 1 c
 black 1 2 555 449 bl 1 1 1 c black 2 2 577 449 bl 1 1 1 c black 2 2 600 449 bl 1 1 1 c black 3 2 622 449 bl 1 1 1 c black 3 2 645 449 bl 1 1 1 c black 4 2 667 449 bl 1 1 1 c black 5 3 689 449 bl 1 1 1 c black 5 4 712 448 bl 1 1 1 c black 6 4 734 448
 bl 1 1 1 c black 5 4 757 448 bl 1 1 1 c black 7 4 779 448 bl 1 1 1 c black 8 5 801 448 bl 1 1 1 c black 7 5 824 448 bl 1 1 1 c black 7 5 847 448 bl 1 1 1 c black 6 5 870 448 bl 1 1 1 c black 7 6 892 447 bl 1 1 1 c black 7 5 915 448 bl 1 1 1 c black
 10 7 936 447 bl 1 1 1 c black 6 4 961 448 bl 1 1 1 c black 6 4 983 448 bl 1 1 1 c black 5 4 1007 448 bl 1 1 1 c black 5 4 1029 448 bl 1 1 1 c black 5 4 1052 448 bl 1 1 1 c black 4 4 1075 448 bl 1 1 1 c black 4 3 1098 449 bl 1 1 1 c black 3 3 1121
 449 bl 1 1 1 c black 4 2 1143 449 bl 1 1 1 c black 3 2 1166 449 bl 1 1 1 c black 2 2 1190 449 bl 1 1 1 c black 2 2 1212 449 bl 1 1 1 c black 2 2 1235 449 bl 1 1 1 c black 1 1 1258 450 bl 1 1 1 c black 1 1 1281 450 bl 1 1 1 c black 1 1 1304 450 bl 1
 1 1 c black 2 1 1326 450 bl 1 1 1 c black 1 1 1349 450 bl 1 1 1 c black 1 1 1372 450 bl 1 1 1 c black 2 1 1394 450 bl 1 1 1 c black 1 1 1417 450 bl 1 1 1 c black 2 1 1462 450 bl 1 1 1 c black 2 1 1485 450 bl 1 1 1 c black 2 1 1553 450 bl 1 1 1 c
 black 1 2 419 466 bl 1 1 1 c black 1 2 442 466 bl 1 1 1 c black 2 2 464 466 bl 1 1 1 c black 2 2 487 466 bl 1 1 1 c black 1 2 510 466 bl 1 1 1 c black 2 2 532 466 bl 1 1 1 c black 2 2 555 466 bl 1 1 1 c black 1 2 578 466 bl 1 1 1 c black 2 1 600 466
 bl 1 1 1 c black 2 1 623 466 bl 1 1 1 c black 3 1 645 466 bl 1 1 1 c black 2 1 668 466 bl 1 1 1 c black 3 3 690 465 bl 1 1 1 c black 3 3 713 465 bl 1 1 1 c black 4 3 735 465 bl 1 1 1 c black 5 3 757 465 bl 1 1 1 c black 5 3 780 465 bl 1 1 1 c black
 6 5 802 464 bl 1 1 1 c black 6 5 825 464 bl 1 1 1 c black 7 5 847 464 bl 1 1 1 c black 6 5 870 464 bl 1 1 1 c black 7 5 892 464 bl 1 1 1 c black 7 5 915 464 bl 1 1 1 c black 6 5 938 464 bl 1 1 1 c black 10 7 959 463 bl 1 1 1 c black 9 7 982 463 bl 1
 1 1 c black 6 5 1006 464 bl 1 1 1 c black 6 3 1029 465 bl 1 1 1 c black 5 3 1052 465 bl 1 1 1 c black 4 3 1075 465 bl 1 1 1 c black 4 3 1098 465 bl 1 1 1 c black 5 3 1120 465 bl 1 1 1 c black 4 3 1143 465 bl 1 1 1 c black 4 3 1166 465 bl 1 1 1 c
 black 3 3 1189 465 bl 1 1 1 c black 3 1 1212 466 bl 1 1 1 c black 2 1 1235 466 bl 1 1 1 c black 3 1 1257 466 bl 1 1 1 c black 2 1 1280 466 bl 1 1 1 c black 2 1 1303 466 bl 1 1 1 c black 1 1 1326 466 bl 1 1 1 c black 1 2 1349 466 bl 1 1 1 c black 2 2
 1394 466 bl 1 1 1 c black 1 2 1417 466 bl 1 1 1 c black 1 2 1440 466 bl 1 1 1 c black 2 2 1462 466 bl 1 1 1 c black 1 2 1485 466 bl 1 1 1 c black 1 1 419 483 bl 1 1 1 c black 1 1 442 483 bl 1 1 1 c black 1 1 510 483 bl 1 1 1 c black 2 2 532 482 bl 1
 1 1 c black 1 2 555 482 bl 1 1 1 c black 1 2 578 482 bl 1 1 1 c black 2 2 600 482 bl 1 1 1 c black 2 2 623 482 bl 1 1 1 c black 2 2 645 482 bl 1 1 1 c black 2 2 668 482 bl 1 1 1 c black 3 2 690 482 bl 1 1 1 c black 3 2 713 482 bl 1 1 1 c black 4 2
 735 482 bl 1 1 1 c black 4 3 758 481 bl 1 1 1 c black 4 3 780 481 bl 1 1 1 c black 4 4 803 481 bl 1 1 1 c black 5 4 825 481 bl 1 1 1 c black 5 4 848 481 bl 1 1 1 c black 6 4 870 481 bl 1 1 1 c black 6 4 893 481 bl 1 1 1 c black 7 5 915 480 bl 1 1 1
 c black 6 4 938 481 bl 1 1 1 c black 6 4 961 481 bl 1 1 1 c black 5 4 984 481 bl 1 1 1 c black 9 6 1005 480 bl 1 1 1 c black 6 4 1029 481 bl 1 1 1 c black 5 4 1052 481 bl 1 1 1 c black 5 4 1075 481 bl 1 1 1 c black 5 4 1097 481 bl 1 1 1 c black 5 3
 1120 481 bl 1 1 1 c black 4 3 1143 481 bl 1 1 1 c black 4 3 1166 481 bl 1 1 1 c black 3 2 1189 482 bl 1 1 1 c black 3 2 1212 482 bl 1 1 1 c black 3 2 1234 482 bl 1 1 1 c black 3 2 1257 482 bl 1 1 1 c black 2 2 1280 482 bl 1 1 1 c black 2 2 1303 482
 bl 1 1 1 c black 1 2 1326 482 bl 1 1 1 c black 2 2 1348 482 bl 1 1 1 c black 1 1 1372 483 bl 1 1 1 c black 2 1 1394 483 bl 1 1 1 c black 1 1 1417 483 bl 1 1 1 c black 1 1 1553 483 bl 1 1 1 c black 2 1 487 499 bl 1 1 1 c black 1 1 510 499 bl 1 1 1 c
 black 1 1 533 499 bl 1 1 1 c black 2 1 555 499 bl 1 1 1 c black 1 1 578 499 bl 1 1 1 c black 2 1 600 499 bl 1 1 1 c black 2 1 623 499 bl 1 1 1 c black 1 1 646 499 bl 1 1 1 c black 2 1 668 499 bl 1 1 1 c black 2 1 691 499 bl 1 1 1 c black 2 1 713 499
 bl 1 1 1 c black 2 2 736 498 bl 1 1 1 c black 3 2 758 498 bl 1 1 1 c black 4 3 780 498 bl 1 1 1 c black 4 3 803 498 bl 1 1 1 c black 5 3 825 498 bl 1 1 1 c black 5 3 848 498 bl 1 1 1 c black 5 4 871 497 bl 1 1 1 c black 5 4 893 497 bl 1 1 1 c black
 5 4 916 497 bl 1 1 1 c black 6 4 938 497 bl 1 1 1 c black 6 4 961 497 bl 1 1 1 c black 5 4 984 497 bl 1 1 1 c black 6 4 1006 497 bl 1 1 1 c black 9 6 1027 496 bl 1 1 1 c black 9 6 1050 496 bl 1 1 1 c black 5 3 1075 498 bl 1 1 1 c black 5 3 1097 498
 bl 1 1 1 c black 5 3 1120 498 bl 1 1 1 c black 4 3 1143 498 bl 1 1 1 c black 4 3 1166 498 bl 1 1 1 c black 5 3 1188 498 bl 1 1 1 c black 3 2 1212 498 bl 1 1 1 c black 4 2 1234 498 bl 1 1 1 c black 3 2 1257 498 bl 1 1 1 c black 3 2 1280 498 bl 1 1 1
 c black 2 1 1303 499 bl 1 1 1 c black 2 1 1326 499 bl 1 1 1 c black 2 1 1348 499 bl 1 1 1 c black 2 1 1371 499 bl 1 1 1 c black 2 1 1394 499 bl 1 1 1 c black 1 1 1417 499 bl 1 1 1 c black 2 1 1439 499 bl 1 1 1 c black 2 1 1462 499 bl 1 1 1 c black 2
 1 1485 499 bl 1 1 1 c black 1 1 1508 499 bl 1 1 1 c black 2 1 1553 499 bl 1 1 1 c black 1 1 1576 499 bl 1 1 1 c black 2 1 1598 499 bl 1 1 1 c black 1 1 1712 499 bl 1 1 1 c black 1 2 397 515 bl 1 1 1 c black 2 2 487 515 bl 1 1 1 c black 1 2 510 515
 bl 1 1 1 c black 1 2 533 515 bl 1 1 1 c black 2 2 555 515 bl 1 1 1 c black 1 2 578 515 bl 1 1 1 c black 2 2 623 515 bl 1 1 1 c black 1 2 646 515 bl 1 1 1 c black 2 2 668 515 bl 1 1 1 c black 2 2 691 515 bl 1 1 1 c black 1 1 714 515 bl 1 1 1 c black
 2 1 736 515 bl 1 1 1 c black 2 1 759 515 bl 1 1 1 c black 2 1 781 515 bl 1 1 1 c black 2 2 804 515 bl 1 1 1 c black 3 3 826 514 bl 1 1 1 c black 3 3 849 514 bl 1 1 1 c black 4 3 871 514 bl 1 1 1 c black 5 3 893 514 bl 1 1 1 c black 5 3 916 514 bl 1
 1 1 c black 4 3 939 514 bl 1 1 1 c black 5 3 961 514 bl 1 1 1 c black 5 3 984 514 bl 1 1 1 c black 6 4 1006 514 bl 1 1 1 c black 6 5 1029 513 bl 1 1 1 c black 5 4 1052 514 bl 1 1 1 c black 9 7 1073 512 bl 1 1 1 c black 5 3 1097 514 bl 1 1 1 c black
 5 3 1120 514 bl 1 1 1 c black 5 4 1143 514 bl 1 1 1 c black 4 3 1166 514 bl 1 1 1 c black 3 3 1189 514 bl 1 1 1 c black 4 3 1211 514 bl 1 1 1 c black 4 3 1234 514 bl 1 1 1 c black 3 2 1257 515 bl 1 1 1 c black 3 2 1280 515 bl 1 1 1 c black 2 2 1303
 515 bl 1 1 1 c black 2 1 1326 515 bl 1 1 1 c black 2 1 1348 515 bl 1 1 1 c black 2 1 1371 515 bl 1 1 1 c black 2 2 1394 515 bl 1 1 1 c black 1 2 1417 515 bl 1 1 1 c black 2 2 1439 515 bl 1 1 1 c black 2 2 1462 515 bl 1 1 1 c black 1 2 1485 515 bl 1
 1 1 c black 1 2 1508 515 bl 1 1 1 c black 2 2 1553 515 bl 1 1 1 c black 2 2 1666 515 bl 1 1 1 c black 2 1 419 532 bl 1 1 1 c black 2 1 464 532 bl 1 1 1 c black 1 1 533 532 bl 1 1 1 c black 1 1 601 532 bl 1 1 1 c black 2 1 623 532 bl 1 1 1 c black 1
 1 646 532 bl 1 1 1 c black 1 1 669 532 bl 1 1 1 c black 2 1 691 532 bl 1 1 1 c black 1 1 714 532 bl 1 1 1 c black 2 1 736 532 bl 1 1 1 c black 2 2 759 531 bl 1 1 1 c black 1 2 782 531 bl 1 1 1 c black 2 2 804 531 bl 1 1 1 c black 3 2 826 531 bl 1 1
 1 c black 3 2 849 531 bl 1 1 1 c black 3 2 872 531 bl 1 1 1 c black 4 2 894 531 bl 1 1 1 c black 5 3 916 530 bl 1 1 1 c black 4 2 939 531 bl 1 1 1 c black 5 4 961 530 bl 1 1 1 c black 5 4 984 530 bl 1 1 1 c black 4 4 1007 530 bl 1 1 1 c black 5 4
 1029 530 bl 1 1 1 c black 5 4 1052 530 bl 1 1 1 c black 4 4 1075 530 bl 1 1 1 c black 8 6 1096 529 bl 1 1 1 c black 9 6 1118 529 bl 1 1 1 c black 5 4 1143 530 bl 1 1 1 c black 4 4 1166 530 bl 1 1 1 c black 5 4 1188 530 bl 1 1 1 c black 4 3 1211 530
 bl 1 1 1 c black 4 2 1234 531 bl 1 1 1 c black 3 2 1257 531 bl 1 1 1 c black 3 2 1280 531 bl 1 1 1 c black 3 2 1302 531 bl 1 1 1 c black 3 2 1325 531 bl 1 1 1 c black 3 2 1348 531 bl 1 1 1 c black 2 2 1371 531 bl 1 1 1 c black 2 2 1394 531 bl 1 1 1
 c black 1 2 1417 531 bl 1 1 1 c black 2 2 1439 531 bl 1 1 1 c black 2 2 1462 531 bl 1 1 1 c black 1 1 1485 532 bl 1 1 1 c black 1 1 1508 532 bl 1 1 1 c black 2 1 1530 532 bl 1 1 1 c black 2 1 1553 532 bl 1 1 1 c black 1 1 1576 532 bl 1 1 1 c black 2
 1 1598 532 bl 1 1 1 c black 2 1 1689 532 bl 1 1 1 c black 2 2 419 548 bl 1 1 1 c black 1 2 442 548 bl 1 1 1 c black 2 2 555 548 bl 1 1 1 c black 1 2 578 548 bl 1 1 1 c black 2 2 623 548 bl 1 1 1 c black 1 2 646 548 bl 1 1 1 c black 1 2 669 548 bl 1
 1 1 c black 2 1 691 548 bl 1 1 1 c black 1 1 714 548 bl 1 1 1 c black 1 2 737 548 bl 1 1 1 c black 2 1 759 548 bl 1 1 1 c black 1 1 782 548 bl 1 1 1 c black 2 1 804 548 bl 1 1 1 c black 2 1 827 548 bl 1 1 1 c black 3 2 849 547 bl 1 1 1 c black 2 2
 872 547 bl 1 1 1 c black 3 2 894 547 bl 1 1 1 c black 3 3 917 547 bl 1 1 1 c black 4 3 939 547 bl 1 1 1 c black 4 3 962 547 bl 1 1 1 c black 5 3 984 547 bl 1 1 1 c black 4 3 1007 547 bl 1 1 1 c black 4 3 1030 547 bl 1 1 1 c black 5 3 1052 547 bl 1 1
 1 c black 4 3 1075 547 bl 1 1 1 c black 5 3 1097 547 bl 1 1 1 c black 5 3 1120 547 bl 1 1 1 c black 8 6 1141 545 bl 1 1 1 c black 8 6 1164 545 bl 1 1 1 c black 5 3 1188 547 bl 1 1 1 c black 4 3 1211 547 bl 1 1 1 c black 4 3 1234 547 bl 1 1 1 c black
 3 2 1257 547 bl 1 1 1 c black 3 2 1280 547 bl 1 1 1 c black 3 2 1302 547 bl 1 1 1 c black 3 2 1325 547 bl 1 1 1 c black 3 2 1348 547 bl 1 1 1 c black 2 2 1371 547 bl 1 1 1 c black 2 1 1394 548 bl 1 1 1 c black 2 1 1416 548 bl 1 1 1 c black 2 1 1439
 548 bl 1 1 1 c black 1 1 1462 548 bl 1 1 1 c black 1 1 1485 548 bl 1 1 1 c black 2 1 1507 548 bl 1 1 1 c black 2 2 1530 548 bl 1 1 1 c black 1 2 1553 548 bl 1 1 1 c black 2 2 1598 548 bl 1 1 1 c black 1 2 1644 548 bl 1 1 1 c black 1 2 1803 548 bl 1
 1 1 c black 2 2 1893 548 bl 1 1 1 c black 1 1 510 565 bl 1 1 1 c black 1 1 533 565 bl 1 1 1 c black 1 1 578 565 bl 1 1 1 c black 2 2 623 564 bl 1 1 1 c black 1 1 646 565 bl 1 1 1 c black 1 1 669 565 bl 1 1 1 c black 2 2 691 564 bl 1 1 1 c black 1 2
 714 564 bl 1 1 1 c black 2 2 736 564 bl 1 1 1 c black 2 2 759 564 bl 1 1 1 c black 1 2 782 564 bl 1 1 1 c black 2 2 804 564 bl 1 1 1 c black 2 1 827 564 bl 1 1 1 c black 1 2 850 564 bl 1 1 1 c black 2 2 872 564 bl 1 1 1 c black 2 2 895 564 bl 1 1 1
 c black 3 2 917 564 bl 1 1 1 c black 3 2 940 564 bl 1 1 1 c black 3 2 962 564 bl 1 1 1 c black 3 3 985 563 bl 1 1 1 c black 4 3 1007 563 bl 1 1 1 c black 4 3 1030 563 bl 1 1 1 c black 5 3 1052 563 bl 1 1 1 c black 4 3 1075 563 bl 1 1 1 c black 4 3
 1098 563 bl 1 1 1 c black 5 3 1120 563 bl 1 1 1 c black 4 3 1143 563 bl 1 1 1 c black 4 3 1166 563 bl 1 1 1 c black 8 6 1187 562 bl 1 1 1 c black 3 3 1212 563 bl 1 1 1 c black 4 3 1234 563 bl 1 1 1 c black 3 2 1257 564 bl 1 1 1 c black 3 2 1280 564
 bl 1 1 1 c black 3 2 1302 564 bl 1 1 1 c black 3 3 1325 563 bl 1 1 1 c black 3 2 1348 564 bl 1 1 1 c black 2 2 1371 564 bl 1 1 1 c black 3 2 1393 564 bl 1 1 1 c black 3 2 1416 564 bl 1 1 1 c black 2 1 1439 564 bl 1 1 1 c black 2 1 1462 564 bl 1 1 1
 c black 1 2 1485 564 bl 1 1 1 c black 2 2 1507 564 bl 1 1 1 c black 2 2 1530 564 bl 1 1 1 c black 1 2 1553 564 bl 1 1 1 c black 1 1 1576 565 bl 1 1 1 c black 2 2 1598 564 bl 1 1 1 c black 1 2 1644 564 bl 1 1 1 c black 2 2 1666 564 bl 1 1 1 c black 1
 1 1735 565 bl 1 1 1 c black 1 2 1780 564 bl 1 1 1 c black 1 1 1984 565 bl 1 1 1 c black 1 1 578 581 bl 1 1 1 c black 1 1 669 581 bl 1 1 1 c black 1 1 737 581 bl 1 1 1 c black 2 1 759 581 bl 1 1 1 c black 1 1 782 581 bl 1 1 1 c black 1 1 805 581 bl 1
 1 1 c black 2 1 827 581 bl 1 1 1 c black 1 1 850 581 bl 1 1 1 c black 2 1 872 581 bl 1 1 1 c black 1 1 895 581 bl 1 1 1 c black 1 2 918 580 bl 1 1 1 c black 2 2 940 580 bl 1 1 1 c black 2 2 963 580 bl 1 1 1 c black 3 2 985 580 bl 1 1 1 c black 4 2
 1007 580 bl 1 1 1 c black 3 2 1030 580 bl 1 1 1 c black 3 2 1053 580 bl 1 1 1 c black 4 2 1075 580 bl 1 1 1 c black 4 3 1098 580 bl 1 1 1 c black 5 3 1120 580 bl 1 1 1 c black 4 2 1143 580 bl 1 1 1 c black 4 3 1166 580 bl 1 1 1 c black 5 4 1188 579
 bl 1 1 1 c black 8 6 1209 578 bl 1 1 1 c black 8 6 1232 578 bl 1 1 1 c black 3 2 1257 580 bl 1 1 1 c black 3 2 1280 580 bl 1 1 1 c black 4 2 1302 580 bl 1 1 1 c black 3 2 1325 580 bl 1 1 1 c black 3 2 1348 580 bl 1 1 1 c black 2 2 1371 580 bl 1 1 1
 c black 3 2 1393 580 bl 1 1 1 c black 2 2 1416 580 bl 1 1 1 c black 2 2 1439 580 bl 1 1 1 c black 2 2 1462 580 bl 1 1 1 c black 2 2 1484 580 bl 1 1 1 c black 2 1 1507 581 bl 1 1 1 c black 2 2 1530 580 bl 1 1 1 c black 1 1 1553 581 bl 1 1 1 c black 2
 1 1575 581 bl 1 1 1 c black 2 1 1598 581 bl 1 1 1 c black 1 1 1621 581 bl 1 1 1 c black 1 1 1644 581 bl 1 1 1 c black 2 1 1689 581 bl 1 1 1 c black 1 1 1780 581 bl 1 1 1 c black 1 1 1803 581 bl 1 1 1 c black 2 1 1961 581 bl 1 1 1 c black 1 2 601 597
 bl 1 1 1 c black 1 2 714 597 bl 1 1 1 c black 1 2 737 597 bl 1 1 1 c black 2 2 759 597 bl 1 1 1 c black 1 1 782 597 bl 1 1 1 c black 2 2 827 597 bl 1 1 1 c black 1 1 850 597 bl 1 1 1 c black 2 1 872 597 bl 1 1 1 c black 2 1 895 597 bl 1 1 1 c black
 2 1 917 597 bl 1 1 1 c black 2 1 940 597 bl 1 1 1 c black 2 1 963 597 bl 1 1 1 c black 3 1 985 597 bl 1 1 1 c black 2 1 1008 597 bl 1 1 1 c black 3 3 1030 596 bl 1 1 1 c black 3 2 1053 596 bl 1 1 1 c black 4 3 1075 596 bl 1 1 1 c black 3 3 1098 596
 bl 1 1 1 c black 3 3 1121 596 bl 1 1 1 c black 4 3 1143 596 bl 1 1 1 c black 4 3 1166 596 bl 1 1 1 c black 3 3 1189 596 bl 1 1 1 c black 3 3 1212 596 bl 1 1 1 c black 4 3 1234 596 bl 1 1 1 c black 7 5 1255 595 bl 1 1 1 c black 3 3 1280 596 bl 1 1 1
 c black 4 3 1302 596 bl 1 1 1 c black 3 3 1325 596 bl 1 1 1 c black 3 3 1348 596 bl 1 1 1 c black 2 2 1371 596 bl 1 1 1 c black 3 2 1393 596 bl 1 1 1 c black 3 2 1416 596 bl 1 1 1 c black 2 1 1439 597 bl 1 1 1 c black 2 1 1462 597 bl 1 1 1 c black 1
 1 1485 597 bl 1 1 1 c black 2 1 1507 597 bl 1 1 1 c black 1 1 1530 597 bl 1 1 1 c black 1 2 1553 597 bl 1 1 1 c black 2 1 1575 597 bl 1 1 1 c black 2 1 1598 597 bl 1 1 1 c black 1 1 1621 597 bl 1 1 1 c black 1 2 1644 597 bl 1 1 1 c black 1 2 1735
 597 bl 1 1 1 c black 2 2 1757 597 bl 1 1 1 c black 1 2 1780 597 bl 1 1 1 c black 1 1 533 614 bl 1 1 1 c black 1 1 601 614 bl 1 1 1 c black 2 1 691 614 bl 1 1 1 c black 2 1 759 614 bl 1 1 1 c black 1 1 805 614 bl 1 1 1 c black 1 1 850 614 bl 1 1 1 c
 black 1 1 873 614 bl 1 1 1 c black 2 2 895 613 bl 1 1 1 c black 1 2 918 613 bl 1 1 1 c black 2 2 940 613 bl 1 1 1 c black 2 2 963 613 bl 1 1 1 c black 1 2 986 613 bl 1 1 1 c black 2 2 1008 613 bl 1 1 1 c black 2 2 1031 613 bl 1 1 1 c black 3 2 1053
 613 bl 1 1 1 c black 3 2 1076 613 bl 1 1 1 c black 3 2 1098 613 bl 1 1 1 c black 3 2 1121 613 bl 1 1 1 c black 2 2 1144 613 bl 1 1 1 c black 4 2 1166 613 bl 1 1 1 c black 3 2 1189 613 bl 1 1 1 c black 3 2 1212 613 bl 1 1 1 c black 4 2 1234 613 bl 1
 1 1 c black 3 2 1257 613 bl 1 1 1 c black 8 6 1277 611 bl 1 1 1 c black 8 6 1300 611 bl 1 1 1 c black 3 2 1325 613 bl 1 1 1 c black 3 2 1348 613 bl 1 1 1 c black 2 2 1371 613 bl 1 1 1 c black 3 2 1393 613 bl 1 1 1 c black 3 2 1416 613 bl 1 1 1 c
 black 2 2 1439 613 bl 1 1 1 c black 2 2 1462 613 bl 1 1 1 c black 2 2 1484 613 bl 1 1 1 c black 2 2 1507 613 bl 1 1 1 c black 2 2 1530 613 bl 1 1 1 c black 1 2 1553 613 bl 1 1 1 c black 2 2 1575 613 bl 1 1 1 c black 2 2 1598 613 bl 1 1 1 c black 1 2
 1621 613 bl 1 1 1 c black 1 2 1644 613 bl 1 1 1 c black 2 2 1666 613 bl 1 1 1 c black 2 1 1689 614 bl 1 1 1 c black 1 1 1712 614 bl 1 1 1 c black 1 1 1735 614 bl 1 1 1 c black 2 1 1757 614 bl 1 1 1 c black 1 1 1780 614 bl 1 1 1 c black 2 1 1825 614
 bl 1 1 1 c black 1 1 1848 614 bl 1 1 1 c black 1 1 465 630 bl 1 1 1 c black 1 1 669 630 bl 1 1 1 c black 1 1 737 630 bl 1 1 1 c black 2 1 782 630 bl 1 1 1 c black 1 1 805 630 bl 1 1 1 c black 2 1 827 630 bl 1 1 1 c black 1 1 850 630 bl 1 1 1 c black
 1 1 873 630 bl 1 1 1 c black 2 1 895 630 bl 1 1 1 c black 2 1 918 630 bl 1 1 1 c black 1 1 941 630 bl 1 1 1 c black 2 1 963 630 bl 1 1 1 c black 1 1 986 630 bl 1 1 1 c black 2 1 1008 630 bl 1 1 1 c black 2 1 1031 630 bl 1 1 1 c black 3 2 1053 629 bl
 1 1 1 c black 2 2 1076 629 bl 1 1 1 c black 2 2 1099 629 bl 1 1 1 c black 3 2 1121 629 bl 1 1 1 c black 3 2 1144 629 bl 1 1 1 c black 3 2 1166 629 bl 1 1 1 c black 3 2 1189 629 bl 1 1 1 c black 3 2 1212 629 bl 1 1 1 c black 3 2 1234 629 bl 1 1 1 c
 black 3 2 1257 629 bl 1 1 1 c black 3 2 1280 629 bl 1 1 1 c black 3 2 1302 629 bl 1 1 1 c black 7 6 1323 627 bl 1 1 1 c black 3 2 1348 629 bl 1 1 1 c black 4 2 1370 629 bl 1 1 1 c black 3 2 1393 629 bl 1 1 1 c black 2 2 1416 629 bl 1 1 1 c black 2 2
 1439 629 bl 1 1 1 c black 3 2 1461 629 bl 1 1 1 c black 3 2 1484 629 bl 1 1 1 c black 2 2 1507 629 bl 1 1 1 c black 2 2 1530 629 bl 1 1 1 c black 1 1 1553 630 bl 1 1 1 c black 2 1 1575 630 bl 1 1 1 c black 1 1 1598 630 bl 1 1 1 c black 1 1 1621 630
 bl 1 1 1 c black 2 1 1643 630 bl 1 1 1 c black 2 1 1666 630 bl 1 1 1 c black 2 1 1689 630 bl 1 1 1 c black 1 1 1712 630 bl 1 1 1 c black 2 1 1734 630 bl 1 1 1 c black 2 1 1757 630 bl 1 1 1 c black 1 1 1780 630 bl 1 1 1 c black 2 1 1893 630 bl 1 1 1
 c black 2 2 691 646 bl 1 1 1 c black 1 2 805 646 bl 1 1 1 c black 2 2 872 646 bl 1 1 1 c black 2 2 895 646 bl 1 1 1 c black 1 2 918 646 bl 1 1 1 c black 1 2 941 646 bl 1 1 1 c black 2 2 963 646 bl 1 1 1 c black 1 2 986 646 bl 1 1 1 c black 2 2 1008
 646 bl 1 1 1 c black 2 2 1031 646 bl 1 1 1 c black 1 2 1054 646 bl 1 1 1 c black 2 1 1076 646 bl 1 1 1 c black 2 1 1099 646 bl 1 1 1 c black 2 1 1122 646 bl 1 1 1 c black 2 1 1144 646 bl 1 1 1 c black 3 3 1166 645 bl 1 1 1 c black 3 2 1189 646 bl 1
 1 1 c black 3 2 1212 646 bl 1 1 1 c black 3 3 1234 645 bl 1 1 1 c black 3 2 1257 646 bl 1 1 1 c black 2 1 1280 646 bl 1 1 1 c black 3 3 1302 645 bl 1 1 1 c black 3 2 1325 646 bl 1 1 1 c black 7 5 1346 644 bl 1 1 1 c black 8 5 1368 644 bl 1 1 1 c
 black 3 2 1393 646 bl 1 1 1 c black 3 2 1416 646 bl 1 1 1 c black 2 1 1439 646 bl 1 1 1 c black 2 1 1462 646 bl 1 1 1 c black 3 1 1484 646 bl 1 1 1 c black 2 2 1507 646 bl 1 1 1 c black 2 1 1530 646 bl 1 1 1 c black 2 1 1552 646 bl 1 1 1 c black 2 1
 1575 646 bl 1 1 1 c black 2 2 1598 646 bl 1 1 1 c black 1 2 1621 646 bl 1 1 1 c black 2 1 1643 646 bl 1 1 1 c black 2 2 1666 646 bl 1 1 1 c black 1 2 1689 646 bl 1 1 1 c black 2 2 1711 646 bl 1 1 1 c black 1 2 1735 646 bl 1 1 1 c black 1 2 1757 646
 bl 1 1 1 c black 1 2 1803 646 bl 1 1 1 c black 2 2 1825 646 bl 1 1 1 c black 1 2 1848 646 bl 1 1 1 c black 2 2 1893 646 bl 1 1 1 c black 2 1 782 663 bl 1 1 1 c black 1 1 805 663 bl 1 1 1 c black 2 1 827 663 bl 1 1 1 c black 1 1 873 663 bl 1 1 1 c
 black 1 1 918 663 bl 1 1 1 c black 1 1 941 663 bl 1 1 1 c black 2 1 986 663 bl 1 1 1 c black 1 1 1009 663 bl 1 1 1 c black 2 2 1031 662 bl 1 1 1 c black 1 2 1054 662 bl 1 1 1 c black 2 2 1076 662 bl 1 1 1 c black 2 2 1099 662 bl 1 1 1 c black 1 2
 1122 662 bl 1 1 1 c black 2 2 1144 662 bl 1 1 1 c black 2 2 1167 662 bl 1 1 1 c black 2 2 1190 662 bl 1 1 1 c black 2 2 1212 662 bl 1 1 1 c black 2 2 1235 662 bl 1 1 1 c black 3 2 1257 662 bl 1 1 1 c black 3 2 1280 662 bl 1 1 1 c black 2 2 1303 662
 bl 1 1 1 c black 3 2 1325 662 bl 1 1 1 c black 3 2 1348 662 bl 1 1 1 c black 4 2 1370 662 bl 1 1 1 c black 7 6 1391 660 bl 1 1 1 c black 3 2 1416 662 bl 1 1 1 c black 2 2 1439 662 bl 1 1 1 c black 3 2 1461 662 bl 1 1 1 c black 2 2 1484 662 bl 1 1 1
 c black 2 2 1507 662 bl 1 1 1 c black 2 2 1530 662 bl 1 1 1 c black 1 2 1553 662 bl 1 1 1 c black 2 2 1575 662 bl 1 1 1 c black 1 2 1598 662 bl 1 1 1 c black 1 2 1621 662 bl 1 1 1 c black 2 2 1643 662 bl 1 1 1 c black 2 1 1666 663 bl 1 1 1 c black 1
 2 1689 662 bl 1 1 1 c black 1 1 1712 663 bl 1 1 1 c black 2 1 1734 663 bl 1 1 1 c black 1 1 1757 663 bl 1 1 1 c black 1 1 1780 663 bl 1 1 1 c black 1 1 1916 663 bl 1 1 1 c black 2 1 1961 663 bl 1 1 1 c black 1 1 2007 663 bl 1 1 1 c black 1 2 442 679
 bl 1 1 1 c black 1 2 714 679 bl 1 1 1 c black 1 2 805 679 bl 1 1 1 c black 2 2 895 679 bl 1 1 1 c black 2 2 918 679 bl 1 1 1 c black 2 2 986 679 bl 1 1 1 c black 2 1 1031 679 bl 1 1 1 c black 2 1 1054 679 bl 1 1 1 c black 1 1 1077 679 bl 1 1 1 c
 black 2 1 1099 679 bl 1 1 1 c black 1 1 1122 679 bl 1 1 1 c black 1 2 1145 679 bl 1 1 1 c black 2 1 1167 679 bl 1 1 1 c black 1 1 1190 679 bl 1 1 1 c black 2 1 1212 679 bl 1 1 1 c black 2 1 1235 679 bl 1 1 1 c black 2 1 1258 679 bl 1 1 1 c black 3 2
 1280 678 bl 1 1 1 c black 2 2 1303 678 bl 1 1 1 c black 3 2 1325 678 bl 1 1 1 c black 3 2 1348 678 bl 1 1 1 c black 2 2 1371 678 bl 1 1 1 c black 3 2 1393 678 bl 1 1 1 c black 7 5 1414 677 bl 1 1 1 c black 8 5 1436 677 bl 1 1 1 c black 3 2 1461 678
 bl 1 1 1 c black 2 1 1484 679 bl 1 1 1 c black 2 1 1507 679 bl 1 1 1 c black 2 2 1530 678 bl 1 1 1 c black 2 1 1552 679 bl 1 1 1 c black 2 1 1575 679 bl 1 1 1 c black 1 1 1598 679 bl 1 1 1 c black 1 1 1621 679 bl 1 1 1 c black 2 1 1643 679 bl 1 1 1
 c black 2 1 1666 679 bl 1 1 1 c black 1 1 1689 679 bl 1 1 1 c black 2 1 1734 679 bl 1 1 1 c black 1 1 1757 679 bl 1 1 1 c black 1 2 1780 679 bl 1 1 1 c black 2 1 1802 679 bl 1 1 1 c black 2 1 1870 679 bl 1 1 1 c black 1 2 1984 679 bl 1 1 1 c black 2
 2 782 695 bl 1 1 1 c black 2 2 827 695 bl 1 1 1 c black 1 2 873 695 bl 1 1 1 c black 2 2 895 695 bl 1 1 1 c black 1 2 941 695 bl 1 1 1 c black 2 2 963 695 bl 1 1 1 c black 1 2 1009 695 bl 1 1 1 c black 2 2 1031 695 bl 1 1 1 c black 2 2 1054 695 bl 1
 1 1 c black 2 2 1076 695 bl 1 1 1 c black 2 2 1099 695 bl 1 1 1 c black 2 2 1122 695 bl 1 1 1 c black 1 2 1145 695 bl 1 1 1 c black 2 1 1167 695 bl 1 1 1 c black 1 2 1190 695 bl 1 1 1 c black 2 1 1212 695 bl 1 1 1 c black 2 1 1235 695 bl 1 1 1 c
 black 1 1 1258 695 bl 1 1 1 c black 3 2 1280 695 bl 1 1 1 c black 2 2 1303 695 bl 1 1 1 c black 2 1 1326 695 bl 1 1 1 c black 2 2 1348 695 bl 1 1 1 c black 2 2 1371 695 bl 1 1 1 c black 3 2 1393 695 bl 1 1 1 c black 2 1 1416 695 bl 1 1 1 c black 2 1
 1439 695 bl 1 1 1 c black 7 5 1459 693 bl 1 1 1 c black 2 1 1484 695 bl 1 1 1 c black 2 1 1507 695 bl 1 1 1 c black 2 1 1530 695 bl 1 1 1 c black 2 1 1552 695 bl 1 1 1 c black 2 1 1575 695 bl 1 1 1 c black 2 1 1598 695 bl 1 1 1 c black 1 2 1621 695
 bl 1 1 1 c black 2 2 1643 695 bl 1 1 1 c black 2 2 1666 695 bl 1 1 1 c black 1 2 1689 695 bl 1 1 1 c black 1 2 1712 695 bl 1 1 1 c black 2 2 1734 695 bl 1 1 1 c black 1 2 1757 695 bl 1 1 1 c black 2 2 1779 695 bl 1 1 1 c black 2 2 1802 695 bl 1 1 1
 c black 1 2 1825 695 bl 1 1 1 c black 1 2 1848 695 bl 1 1 1 c black 2 2 1870 695 bl 1 1 1 c black 2 2 1893 695 bl 1 1 1 c black 1 2 1939 695 bl 1 1 1 c black 1 2 1984 695 bl 1 1 1 c black 1 2 2007 695 bl 1 1 1 c black 1 1 646 712 bl 1 1 1 c black 1
 1 805 712 bl 1 1 1 c black 2 1 895 712 bl 1 1 1 c black 1 1 941 712 bl 1 1 1 c black 2 1 963 712 bl 1 1 1 c black 2 1 986 712 bl 1 1 1 c black 1 1 1009 712 bl 1 1 1 c black 1 1 1032 712 bl 1 1 1 c black 1 1 1054 712 bl 1 1 1 c black 2 1 1099 712 bl
 1 1 1 c black 2 1 1122 712 bl 1 1 1 c black 1 1 1145 712 bl 1 1 1 c black 2 1 1167 712 bl 1 1 1 c black 2 1 1190 712 bl 1 1 1 c black 1 1 1213 712 bl 1 1 1 c black 2 2 1235 711 bl 1 1 1 c black 1 2 1258 711 bl 1 1 1 c black 2 2 1280 711 bl 1 1 1 c
 black 2 1 1303 712 bl 1 1 1 c black 2 2 1326 711 bl 1 1 1 c black 2 2 1348 711 bl 1 1 1 c black 2 2 1371 711 bl 1 1 1 c black 1 2 1394 711 bl 1 1 1 c black 2 2 1416 711 bl 1 1 1 c black 2 2 1439 711 bl 1 1 1 c black 2 2 1462 711 bl 1 1 1 c black 7 6
 1482 709 bl 1 1 1 c black 8 6 1504 709 bl 1 1 1 c black 2 2 1530 711 bl 1 1 1 c black 2 2 1552 711 bl 1 1 1 c black 2 2 1575 711 bl 1 1 1 c black 2 2 1598 711 bl 1 1 1 c black 1 2 1621 711 bl 1 1 1 c black 2 2 1643 711 bl 1 1 1 c black 2 2 1666 711
 bl 1 1 1 c black 1 2 1689 711 bl 1 1 1 c black 2 2 1711 711 bl 1 1 1 c black 2 1 1734 712 bl 1 1 1 c black 1 2 1757 711 bl 1 1 1 c black 1 1 1780 712 bl 1 1 1 c black 2 1 1802 712 bl 1 1 1 c black 2 1 1825 712 bl 1 1 1 c black 1 1 1848 712 bl 1 1 1
 c black 2 1 1870 712 bl 1 1 1 c black 2 1 1893 712 bl 1 1 1 c black 1 1 1916 712 bl 1 1 1 c black 1 1 1939 712 bl 1 1 1 c black 2 1 1961 712 bl 1 1 1 c black 2 2 918 728 bl 1 1 1 c black 1 2 941 728 bl 1 1 1 c black 2 1 1031 728 bl 1 1 1 c black 1 2
 1077 728 bl 1 1 1 c black 1 2 1100 728 bl 1 1 1 c black 2 2 1122 728 bl 1 1 1 c black 2 2 1167 728 bl 1 1 1 c black 2 2 1190 728 bl 1 1 1 c black 1 1 1213 728 bl 1 1 1 c black 2 1 1235 728 bl 1 1 1 c black 1 1 1258 728 bl 1 1 1 c black 2 1 1280 728
 bl 1 1 1 c black 2 1 1303 728 bl 1 1 1 c black 1 1 1326 728 bl 1 1 1 c black 2 1 1348 728 bl 1 1 1 c black 2 1 1371 728 bl 1 1 1 c black 2 1 1394 728 bl 1 1 1 c black 2 1 1416 728 bl 1 1 1 c black 2 1 1439 728 bl 1 1 1 c black 2 1 1462 728 bl 1 1 1
 c black 2 1 1484 728 bl 1 1 1 c black 2 1 1507 728 bl 1 1 1 c black 7 5 1527 726 bl 1 1 1 c black 2 1 1552 728 bl 1 1 1 c black 2 1 1575 728 bl 1 1 1 c black 1 1 1598 728 bl 1 1 1 c black 2 1 1620 728 bl 1 1 1 c black 2 1 1643 728 bl 1 1 1 c black 2
 1 1666 728 bl 1 1 1 c black 1 1 1689 728 bl 1 1 1 c black 1 1 1712 728 bl 1 1 1 c black 2 1 1734 728 bl 1 1 1 c black 1 1 1757 728 bl 1 1 1 c black 1 2 1780 728 bl 1 1 1 c black 2 1 1802 728 bl 1 1 1 c black 1 1 1825 728 bl 1 1 1 c black 1 2 1848
 728 bl 1 1 1 c black 2 2 1870 728 bl 1 1 1 c black 1 1 1916 728 bl 1 1 1 c black 1 2 1939 728 bl 1 1 1 c black 2 2 1961 728 bl 1 1 1 c black 1 2 1984 728 bl 1 1 1 c black 1 2 2007 728 bl 1 1 1 c black 2 1 827 745 bl 1 1 1 c black 2 1 963 745 bl 1 1
 1 c black 1 2 1009 744 bl 1 1 1 c black 2 2 1031 744 bl 1 1 1 c black 2 1 1054 745 bl 1 1 1 c black 2 2 1099 744 bl 1 1 1 c black 2 1 1122 745 bl 1 1 1 c black 1 2 1145 744 bl 1 1 1 c black 1 1 1168 745 bl 1 1 1 c black 2 1 1190 745 bl 1 1 1 c black
 1 2 1213 744 bl 1 1 1 c black 1 2 1236 744 bl 1 1 1 c black 1 2 1258 744 bl 1 1 1 c black 1 2 1281 744 bl 1 1 1 c black 2 2 1303 744 bl 1 1 1 c black 1 2 1326 744 bl 1 1 1 c black 2 2 1348 744 bl 1 1 1 c black 2 2 1371 744 bl 1 1 1 c black 1 2 1394
 744 bl 1 1 1 c black 2 2 1416 744 bl 1 1 1 c black 2 1 1439 744 bl 1 1 1 c black 2 2 1462 744 bl 1 1 1 c black 1 2 1485 744 bl 1 1 1 c black 2 2 1507 744 bl 1 1 1 c black 2 2 1530 744 bl 1 1 1 c black 7 5 1550 742 bl 1 1 1 c black 8 5 1572 742 bl 1
 1 1 c black 2 2 1598 744 bl 1 1 1 c black 1 2 1621 744 bl 1 1 1 c black 2 2 1643 744 bl 1 1 1 c black 2 2 1666 744 bl 1 1 1 c black 1 2 1689 744 bl 1 1 1 c black 1 1 1712 745 bl 1 1 1 c black 2 2 1734 744 bl 1 1 1 c black 1 2 1757 744 bl 1 1 1 c
 black 2 2 1779 744 bl 1 1 1 c black 2 2 1802 744 bl 1 1 1 c black 2 2 1825 744 bl 1 1 1 c black 1 2 1848 744 bl 1 1 1 c black 2 2 1870 744 bl 1 1 1 c black 2 1 1893 745 bl 1 1 1 c black 1 2 1916 744 bl 1 1 1 c black 1 1 1939 745 bl 1 1 1 c black 2 1
 1961 745 bl 1 1 1 c black 1 1 2007 745 bl 1 1 1 c black 1 1 533 761 bl 1 1 1 c black 1 1 669 761 bl 1 1 1 c black 2 1 895 761 bl 1 1 1 c black 2 1 918 761 bl 1 1 1 c black 2 1 986 761 bl 1 1 1 c black 1 1 1145 761 bl 1 1 1 c black 1 1 1168 761 bl 1
 1 1 c black 2 1 1190 761 bl 1 1 1 c black 2 1 1235 761 bl 1 1 1 c black 1 1 1258 761 bl 1 1 1 c black 1 1 1281 761 bl 1 1 1 c black 1 1 1304 761 bl 1 1 1 c black 2 1 1326 761 bl 1 1 1 c black 1 1 1349 761 bl 1 1 1 c black 2 1 1371 761 bl 1 1 1 c
 black 2 1 1394 761 bl 1 1 1 c black 2 2 1416 760 bl 1 1 1 c black 2 1 1439 761 bl 1 1 1 c black 2 2 1462 760 bl 1 1 1 c black 1 1 1485 761 bl 1 1 1 c black 1 1 1508 761 bl 1 1 1 c black 2 2 1530 760 bl 1 1 1 c black 1 1 1553 761 bl 1 1 1 c black 2 1
 1575 761 bl 1 1 1 c black 7 5 1595 759 bl 1 1 1 c black 1 1 1621 761 bl 1 1 1 c black 2 2 1643 760 bl 1 1 1 c black 2 2 1666 760 bl 1 1 1 c black 1 1 1689 761 bl 1 1 1 c black 2 1 1711 761 bl 1 1 1 c black 1 1 1735 761 bl 1 1 1 c black 2 1 1757 761
 bl 1 1 1 c black 2 1 1779 761 bl 1 1 1 c black 2 1 1802 761 bl 1 1 1 c black 1 1 1825 761 bl 1 1 1 c black 1 1 1848 761 bl 1 1 1 c black 2 1 1870 761 bl 1 1 1 c black 2 1 1893 761 bl 1 1 1 c black 1 1 1916 761 bl 1 1 1 c black 2 1 2006 761 bl 1 1 1
 c black 2 1 2029 761 bl 1 1 1 c black 1 2 510 777 bl 1 1 1 c black 1 2 1009 777 bl 1 1 1 c black 1 2 1145 777 bl 1 1 1 c black 1 2 1168 777 bl 1 1 1 c black 2 2 1190 777 bl 1 1 1 c black 2 2 1258 777 bl 1 1 1 c black 1 1 1281 777 bl 1 1 1 c black 1
 2 1304 777 bl 1 1 1 c black 1 1 1326 777 bl 1 1 1 c black 1 2 1349 777 bl 1 1 1 c black 2 2 1371 777 bl 1 1 1 c black 1 1 1394 777 bl 1 1 1 c black 1 2 1417 777 bl 1 1 1 c black 2 1 1439 777 bl 1 1 1 c black 2 1 1462 777 bl 1 1 1 c black 1 1 1485
 777 bl 1 1 1 c black 2 1 1507 777 bl 1 1 1 c black 2 1 1530 777 bl 1 1 1 c black 1 1 1553 777 bl 1 1 1 c black 2 1 1575 777 bl 1 1 1 c black 1 1 1598 777 bl 1 1 1 c black 7 5 1618 775 bl 1 1 1 c black 7 5 1641 775 bl 1 1 1 c black 2 2 1666 777 bl 1
 1 1 c black 1 1 1689 777 bl 1 1 1 c black 1 2 1712 777 bl 1 1 1 c black 2 1 1734 777 bl 1 1 1 c black 1 1 1757 777 bl 1 1 1 c black 2 1 1779 777 bl 1 1 1 c black 2 1 1802 777 bl 1 1 1 c black 1 2 1825 777 bl 1 1 1 c black 1 2 1848 777 bl 1 1 1 c
 black 2 2 1870 777 bl 1 1 1 c black 2 2 1893 777 bl 1 1 1 c black 1 2 1916 777 bl 1 1 1 c black 2 2 1961 777 bl 1 1 1 c black 1 2 1984 777 bl 1 1 1 c black 2 2 2029 777 bl 1 1 1 c black 1 1 714 794 bl 1 1 1 c black 1 1 1009 794 bl 1 1 1 c black 2 1
 1054 794 bl 1 1 1 c black 2 1 1099 794 bl 1 1 1 c black 2 1 1122 794 bl 1 1 1 c black 2 1 1190 794 bl 1 1 1 c black 1 1 1281 794 bl 1 1 1 c black 1 1 1304 794 bl 1 1 1 c black 2 1 1326 794 bl 1 1 1 c black 1 1 1349 794 bl 1 1 1 c black 1 1 1372 794
 bl 1 1 1 c black 2 1 1394 794 bl 1 1 1 c black 1 1 1417 794 bl 1 1 1 c black 2 2 1439 793 bl 1 1 1 c black 2 2 1462 793 bl 1 1 1 c black 1 2 1485 793 bl 1 1 1 c black 2 2 1507 793 bl 1 1 1 c black 2 2 1530 793 bl 1 1 1 c black 1 2 1553 793 bl 1 1 1
 c black 2 2 1575 793 bl 1 1 1 c black 2 2 1598 793 bl 1 1 1 c black 1 2 1621 793 bl 1 1 1 c black 2 2 1643 793 bl 1 1 1 c black 7 5 1663 791 bl 1 1 1 c black 2 2 1688 793 bl 1 1 1 c black 1 2 1712 793 bl 1 1 1 c black 2 2 1734 793 bl 1 1 1 c black 1
 2 1757 793 bl 1 1 1 c black 2 2 1779 793 bl 1 1 1 c black 2 2 1802 793 bl 1 1 1 c black 1 1 1825 794 bl 1 1 1 c black 1 2 1848 793 bl 1 1 1 c black 2 1 1870 794 bl 1 1 1 c black 2 1 1893 794 bl 1 1 1 c black 1 1 1916 794 bl 1 1 1 c black 1 1 1939
 794 bl 1 1 1 c black 2 1 1961 794 bl 1 1 1 c black 1 1 1984 794 bl 1 1 1 c black 1 1 2007 794 bl 1 1 1 c black 2 1 782 810 bl 1 1 1 c black 2 1 895 810 bl 1 1 1 c black 2 1 963 810 bl 1 1 1 c black 1 1 1009 810 bl 1 1 1 c black 1 1 1168 810 bl 1 1 1
 c black 2 1 1190 810 bl 1 1 1 c black 1 1 1236 810 bl 1 1 1 c black 1 1 1304 810 bl 1 1 1 c black 1 1 1349 810 bl 1 1 1 c black 2 1 1371 810 bl 1 1 1 c black 1 1 1417 810 bl 1 1 1 c black 2 1 1439 810 bl 1 1 1 c black 1 1 1462 810 bl 1 1 1 c black 1
 1 1485 810 bl 1 1 1 c black 1 1 1508 810 bl 1 1 1 c black 2 1 1530 810 bl 1 1 1 c black 2 1 1552 810 bl 1 1 1 c black 1 1 1576 810 bl 1 1 1 c black 2 1 1598 810 bl 1 1 1 c black 1 1 1621 810 bl 1 1 1 c black 1 1 1644 810 bl 1 1 1 c black 2 1 1666
 810 bl 1 1 1 c black 7 5 1686 808 bl 1 1 1 c black 7 5 1709 808 bl 1 1 1 c black 2 1 1734 810 bl 1 1 1 c black 1 1 1757 810 bl 1 1 1 c black 1 1 1780 810 bl 1 1 1 c black 2 1 1802 810 bl 1 1 1 c black 2 1 1825 810 bl 1 1 1 c black 1 1 1848 810 bl 1
 1 1 c black 1 1 1916 810 bl 1 1 1 c black 1 1 1939 810 bl 1 1 1 c black 1 1 1961 810 bl 1 1 1 c black 1 1 1984 810 bl 1 1 1 c black 1 1 2007 810 bl 1 1 1 c black 2 1 2029 810 bl 1 1 1 c black 1 2 737 826 bl 1 1 1 c black 1 2 1304 826 bl 1 1 1 c
 black 2 2 1326 826 bl 1 1 1 c black 1 2 1349 826 bl 1 1 1 c black 1 2 1372 826 bl 1 1 1 c black 2 2 1394 826 bl 1 1 1 c black 1 2 1417 826 bl 1 1 1 c black 2 2 1439 826 bl 1 1 1 c black 2 2 1462 826 bl 1 1 1 c black 1 2 1485 826 bl 1 1 1 c black 1 2
 1508 826 bl 1 1 1 c black 1 2 1530 826 bl 1 1 1 c black 1 2 1553 826 bl 1 1 1 c black 1 2 1576 826 bl 1 1 1 c black 2 2 1598 826 bl 1 1 1 c black 1 2 1621 826 bl 1 1 1 c black 1 2 1644 826 bl 1 1 1 c black 2 2 1666 826 bl 1 1 1 c black 2 2 1689 826
 bl 1 1 1 c black 2 2 1711 826 bl 1 1 1 c black 7 5 1731 824 bl 1 1 1 c black 7 5 1754 824 bl 1 1 1 c black 1 2 1780 826 bl 1 1 1 c black 2 2 1802 826 bl 1 1 1 c black 2 2 1847 826 bl 1 1 1 c black 2 2 1870 826 bl 1 1 1 c black 2 2 1893 826 bl 1 1 1
 c black 1 2 1916 826 bl 1 1 1 c black 1 2 1939 826 bl 1 1 1 c black 2 2 1961 826 bl 1 1 1 c black 1 2 2007 826 bl 1 1 1 c black 2 2 2029 826 bl 1 1 1 c black 2 1 1258 843 bl 1 1 1 c black 1 1 1281 843 bl 1 1 1 c black 2 1 1326 843 bl 1 1 1 c black 2
 1 1371 843 bl 1 1 1 c black 2 1 1394 843 bl 1 1 1 c black 1 1 1417 843 bl 1 1 1 c black 2 1 1462 843 bl 1 1 1 c black 1 1 1485 843 bl 1 1 1 c black 2 1 1507 843 bl 1 1 1 c black 2 1 1530 843 bl 1 1 1 c black 1 1 1553 843 bl 1 1 1 c black 1 1 1576
 843 bl 1 1 1 c black 2 1 1598 843 bl 1 1 1 c black 2 1 1643 843 bl 1 1 1 c black 2 1 1666 843 bl 1 1 1 c black 1 1 1689 843 bl 1 1 1 c black 1 1 1712 843 bl 1 1 1 c black 2 1 1734 843 bl 1 1 1 c black 1 1 1757 843 bl 1 1 1 c black 7 5 1777 840 bl 1
 1 1 c black 2 1 1802 843 bl 1 1 1 c black 1 1 1825 843 bl 1 1 1 c black 1 1 1848 843 bl 1 1 1 c black 2 1 1870 843 bl 1 1 1 c black 1 1 1893 843 bl 1 1 1 c black 1 1 1939 843 bl 1 1 1 c black 2 1 1961 843 bl 1 1 1 c black 1 1 1984 843 bl 1 1 1 c
 black 1 1 2007 843 bl 1 1 1 c black 2 2 918 859 bl 1 1 1 c black 2 2 1190 859 bl 1 1 1 c black 1 2 1372 859 bl 1 1 1 c black 1 2 1440 859 bl 1 1 1 c black 2 2 1485 859 bl 1 1 1 c black 2 2 1530 859 bl 1 1 1 c black 2 2 1553 859 bl 1 1 1 c black 1 2
 1576 859 bl 1 1 1 c black 2 1 1598 859 bl 1 1 1 c black 1 2 1621 859 bl 1 1 1 c black 2 1 1643 859 bl 1 1 1 c black 2 2 1666 859 bl 1 1 1 c black 1 1 1712 859 bl 1 1 1 c black 2 2 1734 859 bl 1 1 1 c black 1 1 1757 859 bl 1 1 1 c black 1 1 1780 859
 bl 1 1 1 c black 7 5 1799 857 bl 1 1 1 c black 7 5 1822 857 bl 1 1 1 c black 1 2 1848 859 bl 1 1 1 c black 2 1 1870 859 bl 1 1 1 c black 2 2 1893 859 bl 1 1 1 c black 1 1 1916 859 bl 1 1 1 c black 1 2 1939 859 bl 1 1 1 c black 2 2 1961 859 bl 1 1 1
 c black 1 2 1984 859 bl 1 1 1 c black 2 2 2029 859 bl 1 1 1 c black 2 1 986 876 bl 1 1 1 c black 1 1 1440 876 bl 1 1 1 c black 2 1 1485 876 bl 1 1 1 c black 1 1 1508 876 bl 1 1 1 c black 2 2 1530 875 bl 1 1 1 c black 1 2 1553 875 bl 1 1 1 c black 1
 2 1576 875 bl 1 1 1 c black 2 2 1598 875 bl 1 1 1 c black 1 2 1621 875 bl 1 1 1 c black 1 2 1644 875 bl 1 1 1 c black 2 1 1666 876 bl 1 1 1 c black 2 2 1689 875 bl 1 1 1 c black 2 2 1711 875 bl 1 1 1 c black 2 2 1734 875 bl 1 1 1 c black 1 2 1757
 875 bl 1 1 1 c black 1 2 1780 875 bl 1 1 1 c black 2 2 1802 875 bl 1 1 1 c black 2 2 1825 875 bl 1 1 1 c black 7 5 1845 873 bl 1 1 1 c black 2 2 1870 875 bl 1 1 1 c black 2 2 1893 875 bl 1 1 1 c black 1 2 1916 875 bl 1 1 1 c black 1 1 1939 876 bl 1
 1 1 c black 2 2 1961 875 bl 1 1 1 c black 1 2 1984 875 bl 1 1 1 c black 2 2 2006 875 bl 1 1 1 c black 2 1 2029 876 bl 1 1 1 c black 2 1 782 892 bl 1 1 1 c black 1 1 1372 892 bl 1 1 1 c black 2 1 1394 892 bl 1 1 1 c black 1 1 1485 892 bl 1 1 1 c
 black 1 1 1508 892 bl 1 1 1 c black 1 1 1553 892 bl 1 1 1 c black 2 1 1621 892 bl 1 1 1 c black 2 1 1666 892 bl 1 1 1 c black 2 1 1689 892 bl 1 1 1 c black 1 1 1712 892 bl 1 1 1 c black 2 1 1734 892 bl 1 1 1 c black 2 1 1757 892 bl 1 1 1 c black 1 1
 1803 892 bl 1 1 1 c black 2 1 1847 892 bl 1 1 1 c black 7 5 1867 890 bl 1 1 1 c black 7 5 1890 890 bl 1 1 1 c black 1 1 1916 892 bl 1 1 1 c black 1 1 1939 892 bl 1 1 1 c black 1 1 1984 892 bl 1 1 1 c black 1 2 941 908 bl 1 1 1 c black 2 2 986 908 bl
 1 1 1 c black 1 2 1236 908 bl 1 1 1 c black 1 2 1372 908 bl 1 1 1 c black 1 2 1508 908 bl 1 1 1 c black 2 2 1553 908 bl 1 1 1 c black 1 2 1576 908 bl 1 1 1 c black 2 2 1598 908 bl 1 1 1 c black 1 2 1644 908 bl 1 1 1 c black 2 2 1666 908 bl 1 1 1 c
 black 2 2 1689 908 bl 1 1 1 c black 1 2 1712 908 bl 1 1 1 c black 2 2 1734 908 bl 1 1 1 c black 1 2 1780 908 bl 1 1 1 c black 1 2 1803 908 bl 1 1 1 c black 2 2 1825 908 bl 1 1 1 c black 1 2 1848 908 bl 1 1 1 c black 2 2 1893 908 bl 1 1 1 c black 7 5
 1913 906 bl 1 1 1 c black 1 2 1984 908 bl 1 1 1 c black 2 2 2006 908 bl 1 1 1 c black 2 2 2029 908 bl 1 1 1 c black 1 1 1009 925 bl 1 1 1 c black 2 1 1122 925 bl 1 1 1 c black 1 1 1349 925 bl 1 1 1 c black 1 1 1417 925 bl 1 1 1 c black 2 1 1553 925
 bl 1 1 1 c black 1 1 1644 925 bl 1 1 1 c black 2 1 1666 925 bl 1 1 1 c black 1 2 1712 924 bl 1 1 1 c black 2 1 1757 925 bl 1 1 1 c black 1 1 1780 925 bl 1 1 1 c black 1 1 1803 925 bl 1 1 1 c black 2 1 1825 925 bl 1 1 1 c black 1 1 1871 925 bl 1 1 1
 c black 1 2 1916 924 bl 1 1 1 c black 7 5 1935 922 bl 1 1 1 c black 7 5 1958 922 bl 1 1 1 c black 1 1 1984 925 bl 1 1 1 c black 1 1 2007 925 bl 1 1 1 c black 2 1 2029 925 bl 1 1 1 c black 1 1 1145 941 bl 1 1 1 c black 2 1 1190 941 bl 1 1 1 c black 1
 1 1304 941 bl 1 1 1 c black 1 1 1417 941 bl 1 1 1 c black 2 1 1689 941 bl 1 1 1 c black 1 1 1712 941 bl 1 1 1 c black 1 1 1735 941 bl 1 1 1 c black 1 1 1780 941 bl 1 1 1 c black 1 1 1871 941 bl 1 1 1 c black 2 1 1961 941 bl 1 1 1 c black 7 5 1981
 939 bl 1 1 1 c black 2 1 2029 941 bl 1 1 1 c black 2 2 918 957 bl 1 1 1 c black 2 2 1598 957 bl 1 1 1 c black 1 2 1712 957 bl 1 1 1 c black 2 2 1734 957 bl 1 1 1 c black 1 2 1780 957 bl 1 1 1 c black 2 2 1802 957 bl 1 1 1 c black 2 2 1825 957 bl 1 1
 1 c black 1 2 1916 957 bl 1 1 1 c black 2 2 1961 957 bl 1 1 1 c black 7 5 2003 955 bl 1 1 1 c black 7 5 2026 955 bl 1 1 1 c black 2 1 1190 974 bl 1 1 1 c black 1 1 1304 974 bl 1 1 1 c black 1 1 1349 974 bl 1 1 1 c black 1 1 1735 974 bl 1 1 1 c black
 2 1 1757 974 bl 1 1 1 c black 2 1 1825 974 bl 1 1 1 c black 2 1 1893 974 bl 1 1 1 c black 1 1 1916 974 bl 1 1 1 c black 1 1 1939 974 bl 1 1 1 c black 1 1 2007 974 bl 1 1 1 c black 2 1 2029 974 bl 1 1 1 c black 1 2 1417 990 bl 1 1 1 c black 1 2 1644
 990 bl 1 1 1 c black 2 2 1825 990 bl 1 1 1 c black 1 2 1871 990 bl 1 1 1 c black 2 1 1961 990 bl 1 1 1 c black 2 2 2029 990 bl 1 1 1 c black 2 2 1598 1006 bl 1 1 1 c black 1 2 1803 1006 bl 1 1 1 c black 1 2 1984 1006 bl 1 1 1 c black 1 2 2007 1006
 bl 1 1 1 c black 2 2 2029 1006 bl 1 1 1 c black 1 1 1848 1023 bl 1 1 1 c black 1 1 1939 1023 bl 1 1 1 c black 2 1 1961 1023 bl 1 1 1 c black 1 1 2007 1023 bl 1 1 1 c black 1 2 1871 1039 bl 1 1 1 c black 1 2 1939 1039 bl 1 1 1 c black 2 2 1961 1039
 bl 1 1 1 c black 2 2 1893 1055 bl 1 1 1 c black 1 1 1916 1056 bl 1 1 1 c black 1 1 1984 1056 bl 1 1 1 c black 2 1 1825 1105 bl 1 1 1 c black 2 1 2029 1121 bl 1 1 1 c black 1 1 1984 1154 bl 1 1 1 c black 1 1 2007 1154 bl 1 1 1 c black 2 2 1757 1219
 bl 1 1 1 c black 1 1 1440 1252 bl 1 1 1 c black 3 lw 227 164 m 1814 X s
 gsave  2268 1637 0 0 C 2000.59 17.0505 t 0 r /Helvetica findfont 39.7845 sf 0 0 m (ch) show NC gr 
 gsave  2268 1637 0 0 C 1645.37 36.9428 t 0 r /Helvetica findfont 62.5185 sf 0 0 m (Generated N) show NC gr  227 203 m -39 Y s 272 183 m -19 Y s 317 183 m -19 Y s 363 183 m -19 Y s 408 183 m -19 Y s 454 203 m -39 Y s 499 183 m -19 Y s 544 183 m -19 Y
 s 590 183 m -19 Y s 635 183 m -19 Y s 680 203 m -39 Y s 726 183 m -19 Y s 771 183 m -19 Y s 816 183 m -19 Y s 862 183 m -19 Y s 907 203 m -39 Y s 952 183 m -19 Y s 998 183 m -19 Y s 1043 183 m -19 Y s 1089 183 m -19 Y s 1134 203 m -39 Y s 1179 183 m
 -19 Y s 1225 183 m -19 Y s 1270 183 m -19 Y s 1315 183 m -19 Y s 1361 203 m -39 Y s 1406 183 m -19 Y s 1451 183 m -19 Y s 1497 183 m -19 Y s 1542 183 m -19 Y s 1587 203 m -39 Y s 1633 183 m -19 Y s 1678 183 m -19 Y s 1723 183 m -19 Y s 1769 183 m
 -19 Y s 1814 203 m -39 Y s 1860 183 m -19 Y s 1905 183 m -19 Y s 1950 183 m -19 Y s 1996 183 m -19 Y s 2041 203 m -39 Y s
 gsave  2268 1637 0 0 C 210.29 116.512 t 0 r /Helvetica findfont 45.468 sf 0 0 m (0) show NC gr 
 gsave  2268 1637 0 0 C 426.263 116.512 t 0 r /Helvetica findfont 45.468 sf 0 0 m (10) show NC gr 
 gsave  2268 1637 0 0 C 653.603 116.512 t 0 r /Helvetica findfont 45.468 sf 0 0 m (20) show NC gr 
 gsave  2268 1637 0 0 C 880.943 116.512 t 0 r /Helvetica findfont 45.468 sf 0 0 m (30) show NC gr 
 gsave  2268 1637 0 0 C 1108.28 116.512 t 0 r /Helvetica findfont 45.468 sf 0 0 m (40) show NC gr 
 gsave  2268 1637 0 0 C 1332.78 116.512 t 0 r /Helvetica findfont 45.468 sf 0 0 m (50) show NC gr 
 gsave  2268 1637 0 0 C 1560.12 116.512 t 0 r /Helvetica findfont 45.468 sf 0 0 m (60) show NC gr 
 gsave  2268 1637 0 0 C 1787.46 116.512 t 0 r /Helvetica findfont 45.468 sf 0 0 m (70) show NC gr 
 gsave  2268 1637 0 0 C 2014.8 116.512 t 0 r /Helvetica findfont 45.468 sf 0 0 m (80) show NC gr  227 164 m 1309 Y s
 gsave  2268 1637 0 0 C 99.4613 1435.08 t 90 r /Helvetica findfont 39.7845 sf 0 0 m (ch) show NC gr 
 gsave  2268 1637 0 0 C 79.569 971.879 t 90 r /Helvetica findfont 62.5185 sf 0 0 m (Reconstructed N) show NC gr  281 164 m -54 X s 254 196 m -27 X s 254 229 m -27 X s 254 262 m -27 X s 254 295 m -27 X s 281 327 m -54 X s 254 360 m -27 X s 254 393 m
 -27 X s 254 426 m -27 X s 254 458 m -27 X s 281 491 m -54 X s 254 524 m -27 X s 254 557 m -27 X s 254 589 m -27 X s 254 622 m -27 X s 281 655 m -54 X s 254 687 m -27 X s 254 720 m -27 X s 254 753 m -27 X s 254 786 m -27 X s 281 818 m -54 X s 254 851
 m -27 X s 254 884 m -27 X s 254 917 m -27 X s 254 949 m -27 X s 281 982 m -54 X s 254 1015 m -27 X s 254 1048 m -27 X s 254 1080 m -27 X s 254 1113 m -27 X s 281 1146 m -54 X s 254 1179 m -27 X s 254 1211 m -27 X s 254 1244 m -27 X s 254 1277 m -27
 X s 281 1309 m -54 X s 254 1342 m -27 X s 254 1375 m -27 X s 254 1408 m -27 X s 254 1440 m -27 X s 281 1473 m -54 X s
 gsave  2268 1637 0 0 C 187.555 147.771 t 0 r /Helvetica findfont 45.468 sf 0 0 m (0) show NC gr 
 gsave  2268 1637 0 0 C 164.822 312.592 t 0 r /Helvetica findfont 45.468 sf 0 0 m (10) show NC gr 
 gsave  2268 1637 0 0 C 164.822 474.572 t 0 r /Helvetica findfont 45.468 sf 0 0 m (20) show NC gr 
 gsave  2268 1637 0 0 C 164.822 639.394 t 0 r /Helvetica findfont 45.468 sf 0 0 m (30) show NC gr 
 gsave  2268 1637 0 0 C 164.822 801.374 t 0 r /Helvetica findfont 45.468 sf 0 0 m (40) show NC gr 
 gsave  2268 1637 0 0 C 164.822 966.195 t 0 r /Helvetica findfont 45.468 sf 0 0 m (50) show NC gr 
 gsave  2268 1637 0 0 C 164.822 1131.02 t 0 r /Helvetica findfont 45.468 sf 0 0 m (60) show NC gr 
 gsave  2268 1637 0 0 C 164.822 1293 t 0 r /Helvetica findfont 45.468 sf 0 0 m (70) show NC gr 
 gsave  2268 1637 0 0 C 164.822 1457.82 t 0 r /Helvetica findfont 45.468 sf 0 0 m (80) show NC gr 
 gr  gr showpage
end
%%EOF
