%!PS-Adobe-2.0 EPSF-2.0
%%BoundingBox:  0 0 567 546
%%Title: plots/resQQF.eps: cd1
%%Creator: ROOT Version 5.34/36
%%CreationDate: Fri Dec  9 15:09:06 2016
%%EndComments
%%BeginProlog
80 dict begin
/s {stroke} def /l {lineto} def /m {moveto} def /t {translate} def
/r {rotate} def /rl {roll}  def /R {repeat} def
/d {rlineto} def /rm {rmoveto} def /gr {grestore} def /f {eofill} def
/c {setrgbcolor} def /black {0 setgray} def /sd {setdash} def
/cl {closepath} def /sf {scalefont setfont} def /lw {setlinewidth} def
/box {m dup 0 exch d exch 0 d 0 exch neg d cl} def
/NC{systemdict begin initclip end}def/C{NC box clip newpath}def
/bl {box s} def /bf {gsave box gsave f grestore 1 lw [] 0 sd s grestore} def /Y { 0 exch d} def /X { 0 d} def 
/K {{pop pop 0 moveto} exch kshow} bind def
/ita {/ang 15 def gsave [1 0 ang dup sin exch cos div 1 0 0] concat} def 
/mp {newpath /y exch def /x exch def} def
/side {[w .77 mul w .23 mul] .385 w mul sd w 0 l currentpoint t -144 r} def
/mr {mp x y w2 0 360 arc} def /m24 {mr s} def /m20 {mr f} def
/mb {mp x y w2 add m w2 neg 0 d 0 w neg d w 0 d 0 w d cl} def
/mt {mp x y w2 add m w2 neg w neg d w 0 d cl} def
/m21 {mb f} def /m25 {mb s} def /m22 {mt f} def /m26{mt s} def
/m23 {mp x y w2 sub m w2 w d w neg 0 d cl f} def
/m27 {mp x y w2 add m w3 neg w2 neg d w3 w2 neg d w3 w2 d cl s} def
/m28 {mp x w2 sub y w2 sub w3 add m w3 0 d  0 w3 neg d w3 0 d 0 w3 d w3 0 d  0 w3 d w3 neg 0 d 0 w3 d w3 neg 0 d 0 w3 neg d w3 neg 0 d cl s } def
/m29 {mp gsave x w2 sub y w2 add w3 sub m currentpoint t 4 {side} repeat cl fill gr} def
/m30 {mp gsave x w2 sub y w2 add w3 sub m currentpoint t 4 {side} repeat cl s gr} def
/m31 {mp x y w2 sub m 0 w d x w2 sub y m w 0 d x w2 sub y w2 add m w w neg d x w2 sub y w2 sub m w w d s} def
/m32 {mp x y w2 sub m w2 w d w neg 0 d cl s} def
/m33 {mp x y w2 add m w3 neg w2 neg d w3 w2 neg d w3 w2 d cl f} def
/m34 {mp x w2 sub y w2 sub w3 add m w3 0 d  0 w3 neg d w3 0 d 0 w3 d w3 0 d  0 w3 d w3 neg 0 d 0 w3 d w3 neg 0 d 0 w3 neg d w3 neg 0 d cl f } def
/m2 {mp x y w2 sub m 0 w d x w2 sub y m w 0 d s} def
/m5 {mp x w2 sub y w2 sub m w w d x w2 sub y w2 add m w w neg d s} def
/reEncode {exch findfont dup length dict begin {1 index /FID eq  {pop pop} {def} ifelse } forall /Encoding exch def currentdict end dup /FontName get exch definefont pop } def [/Times-Bold /Times-Italic /Times-BoldItalic /Helvetica /Helvetica-Oblique
 /Helvetica-Bold /Helvetica-BoldOblique /Courier /Courier-Oblique /Courier-Bold /Courier-BoldOblique /Times-Roman /AvantGarde-Book /AvantGarde-BookOblique /AvantGarde-Demi /AvantGarde-DemiOblique /Bookman-Demi /Bookman-DemiItalic /Bookman-Light
 /Bookman-LightItalic /Helvetica-Narrow /Helvetica-Narrow-Bold /Helvetica-Narrow-BoldOblique /Helvetica-Narrow-Oblique /NewCenturySchlbk-Roman /NewCenturySchlbk-Bold /NewCenturySchlbk-BoldItalic /NewCenturySchlbk-Italic /Palatino-Bold
 /Palatino-BoldItalic /Palatino-Italic /Palatino-Roman ] {ISOLatin1Encoding reEncode } forall
%%EndProlog
%%BeginSetup
%%EndSetup
newpath  gsave  .25 .25 scale  gsave  0 0 t black[  ] 0 sd 9 lw 1 1 1 c 2268 2184 0 0 bf black 3 lw 1 1 1 c 1814 1748 227 218 bf black 1814 1748 227 218 bl 0.8 0.8 0.6 c 1 0 0 c black 272 975 m 5 Y s 272 995 m 4 Y s 1 0 0 c /w 21 def /w2 {w 2 div}
 def /w3 {w 3 div} def 272 987 m20 black 363 994 m 9 Y s 363 1018 m 9 Y s 1 0 0 c 363 1011 m20 black 454 983 m 8 Y s 454 1007 m 8 Y s 1 0 0 c 454 999 m20 black 544 1046 m 15 Y s 544 1076 m 16 Y s 1 0 0 c 544 1069 m20 black 635 1027 m 11 Y s 635 1053
 m 11 Y s 1 0 0 c 635 1046 m20 black 726 1058 m 15 Y s 726 1088 m 15 Y s 1 0 0 c 726 1080 m20 black 816 1090 m 18 Y s 816 1123 m 18 Y s 1 0 0 c 816 1115 m20 black 907 1133 m 19 Y s 907 1167 m 19 Y s 1 0 0 c 907 1160 m20 black 998 1086 m 22 Y s 998
 1123 m 22 Y s 1 0 0 c 998 1115 m20 black 1089 1166 m 25 Y s 1089 1207 m 25 Y s 1 0 0 c 1089 1199 m20 black 1179 1096 m 21 Y s 1179 1132 m 21 Y s 1 0 0 c 1179 1124 m20 black 1270 1125 m 24 Y s 1270 1164 m 24 Y s 1 0 0 c 1270 1156 m20 black 1361 1124
 m 27 Y s 1361 1167 m 27 Y s 1 0 0 c 1361 1159 m20 black 1451 1156 m 39 Y s 1451 1210 m 40 Y s 1 0 0 c 1451 1203 m20 black 1542 1198 m 34 Y s 1542 1247 m 34 Y s 1 0 0 c 1542 1239 m20 black 1633 1175 m 37 Y s 1633 1227 m 38 Y s 1 0 0 c 1633 1220 m20
 black 1723 1197 m 44 Y s 1723 1256 m 44 Y s 1 0 0 c 1723 1248 m20 black 1814 1234 m 65 Y s 1814 1314 m 64 Y s 1 0 0 c 1814 1306 m20 black 1905 1211 m 42 Y s 1905 1268 m 42 Y s 1 0 0 c 1905 1260 m20 black 1996 1265 m 76 Y s 1996 1356 m 76 Y s 1 0 0 c
 1996 1348 m20 black 9 lw 227 218 m 1814 X s
 gsave  2268 2184 0 0 C 1744.4 68.259 t 0 r /Helvetica findfont 83.4277 sf 0 0 m (Q [GeV]) show NC gr  227 271 m -53 Y s 272 245 m -27 Y s 317 245 m -27 Y s 363 245 m -27 Y s 408 271 m -53 Y s 454 245 m -27 Y s 499 245 m -27 Y s 544 245 m -27 Y s 590
 271 m -53 Y s 635 245 m -27 Y s 680 245 m -27 Y s 726 245 m -27 Y s 771 271 m -53 Y s 816 245 m -27 Y s 862 245 m -27 Y s 907 245 m -27 Y s 952 271 m -53 Y s 998 245 m -27 Y s 1043 245 m -27 Y s 1089 245 m -27 Y s 1134 271 m -53 Y s 1179 245 m -27 Y
 s 1225 245 m -27 Y s 1270 245 m -27 Y s 1315 271 m -53 Y s 1361 245 m -27 Y s 1406 245 m -27 Y s 1451 245 m -27 Y s 1497 271 m -53 Y s 1542 245 m -27 Y s 1587 245 m -27 Y s 1633 245 m -27 Y s 1678 271 m -53 Y s 1723 245 m -27 Y s 1769 245 m -27 Y s
 1814 245 m -27 Y s 1860 271 m -53 Y s 1905 245 m -27 Y s 1950 245 m -27 Y s 1996 245 m -27 Y s 2041 271 m -53 Y s
 gsave  2268 2184 0 0 C 204.777 155.479 t 0 r /Helvetica findfont 60.6747 sf 0 0 m (0) show NC gr 
 gsave  2268 2184 0 0 C 364.048 155.479 t 0 r /Helvetica findfont 60.6747 sf 0 0 m (0.2) show NC gr 
 gsave  2268 2184 0 0 C 546.072 155.479 t 0 r /Helvetica findfont 60.6747 sf 0 0 m (0.4) show NC gr 
 gsave  2268 2184 0 0 C 728.096 155.479 t 0 r /Helvetica findfont 60.6747 sf 0 0 m (0.6) show NC gr 
 gsave  2268 2184 0 0 C 910.12 155.479 t 0 r /Helvetica findfont 60.6747 sf 0 0 m (0.8) show NC gr 
 gsave  2268 2184 0 0 C 1122.48 155.479 t 0 r /Helvetica findfont 60.6747 sf 0 0 m (1) show NC gr 
 gsave  2268 2184 0 0 C 1270.38 155.479 t 0 r /Helvetica findfont 60.6747 sf 0 0 m (1.2) show NC gr 
 gsave  2268 2184 0 0 C 1452.4 155.479 t 0 r /Helvetica findfont 60.6747 sf 0 0 m (1.4) show NC gr 
 gsave  2268 2184 0 0 C 1634.42 155.479 t 0 r /Helvetica findfont 60.6747 sf 0 0 m (1.6) show NC gr 
 gsave  2268 2184 0 0 C 1816.45 155.479 t 0 r /Helvetica findfont 60.6747 sf 0 0 m (1.8) show NC gr 
 gsave  2268 2184 0 0 C 2021.23 155.479 t 0 r /Helvetica findfont 60.6747 sf 0 0 m (2) show NC gr  227 218 m 1748 Y s
 gsave  2268 2184 0 0 C 72.0512 1642.01 t 90 r /Helvetica findfont 83.4277 sf 0 0 m (Q\) [GeV]) show NC gr 
 gsave  2268 2184 0 0 C 72.0512 1588.92 t 90 r /Symbol findfont 83.4277 sf 0 0 m (D) show NC gr 
 gsave  2268 2184 0 0 C 72.0512 1562.37 t 90 r /Helvetica findfont 83.4277 sf 0 0 m (\() show NC gr 
 gsave  2268 2184 0 0 C 72.0512 1513.08 t 90 r /Symbol findfont 83.4277 sf 0 0 m (s) show NC gr  281 218 m -54 X s 254 277 m -27 X s 254 335 m -27 X s 254 393 m -27 X s 281 451 m -54 X s 254 510 m -27 X s 254 568 m -27 X s 254 626 m -27 X s 281 684 m
 -54 X s 254 743 m -27 X s 254 801 m -27 X s 254 859 m -27 X s 281 917 m -54 X s 254 976 m -27 X s 254 1034 m -27 X s 254 1092 m -27 X s 281 1150 m -54 X s 254 1209 m -27 X s 254 1267 m -27 X s 254 1325 m -27 X s 281 1383 m -54 X s 254 1442 m -27 X s
 254 1500 m -27 X s 254 1558 m -27 X s 281 1616 m -54 X s 254 1675 m -27 X s 254 1733 m -27 X s 254 1791 m -27 X s 281 1849 m -54 X s 281 1849 m -54 X s 254 1908 m -27 X s
 gsave  2268 2184 0 0 C 178.232 197.193 t 0 r /Helvetica findfont 60.6747 sf 0 0 m (0) show NC gr 
 gsave  2268 2184 0 0 C 60.6747 432.307 t 0 r /Helvetica findfont 60.6747 sf 0 0 m (0.002) show NC gr 
 gsave  2268 2184 0 0 C 60.6747 663.629 t 0 r /Helvetica findfont 60.6747 sf 0 0 m (0.004) show NC gr 
 gsave  2268 2184 0 0 C 60.6747 894.952 t 0 r /Helvetica findfont 60.6747 sf 0 0 m (0.006) show NC gr 
 gsave  2268 2184 0 0 C 60.6747 1130.07 t 0 r /Helvetica findfont 60.6747 sf 0 0 m (0.008) show NC gr 
 gsave  2268 2184 0 0 C 106.181 1361.39 t 0 r /Helvetica findfont 60.6747 sf 0 0 m (0.01) show NC gr 
 gsave  2268 2184 0 0 C 60.6747 1596.5 t 0 r /Helvetica findfont 60.6747 sf 0 0 m (0.012) show NC gr 
 gsave  2268 2184 0 0 C 60.6747 1827.82 t 0 r /Helvetica findfont 60.6747 sf 0 0 m (0.014) show NC gr  3 lw
 gr  gr showpage
end
%%EOF
