%!PS-Adobe-2.0 EPSF-2.0
%%BoundingBox:  0 0 567 544
%%Title: toy_lambda.eps:  toy mc pull distributions
%%Creator: ROOT Version 5.34/25
%%CreationDate: Wed Feb  1 20:51:53 2017
%%EndComments
%%BeginProlog
80 dict begin
/s {stroke} def /l {lineto} def /m {moveto} def /t {translate} def
/r {rotate} def /rl {roll}  def /R {repeat} def
/d {rlineto} def /rm {rmoveto} def /gr {grestore} def /f {eofill} def
/c {setrgbcolor} def /black {0 setgray} def /sd {setdash} def
/cl {closepath} def /sf {scalefont setfont} def /lw {setlinewidth} def
/box {m dup 0 exch d exch 0 d 0 exch neg d cl} def
/NC{systemdict begin initclip end}def/C{NC box clip newpath}def
/bl {box s} def /bf {box f} def /Y { 0 exch d} def /X { 0 d} def 
/K {{pop pop 0 moveto} exch kshow} bind def
/ita {/ang 15 def gsave [1 0 ang dup sin exch cos div 1 0 0] concat} def 
/mp {newpath /y exch def /x exch def} def
/side {[w .77 mul w .23 mul] .385 w mul sd w 0 l currentpoint t -144 r} def
/mr {mp x y w2 0 360 arc} def /m24 {mr s} def /m20 {mr f} def
/mb {mp x y w2 add m w2 neg 0 d 0 w neg d w 0 d 0 w d cl} def
/mt {mp x y w2 add m w2 neg w neg d w 0 d cl} def
/m21 {mb f} def /m25 {mb s} def /m22 {mt f} def /m26{mt s} def
/m23 {mp x y w2 sub m w2 w d w neg 0 d cl f} def
/m27 {mp x y w2 add m w3 neg w2 neg d w3 w2 neg d w3 w2 d cl s} def
/m28 {mp x w2 sub y w2 sub w3 add m w3 0 d  0 w3 neg d w3 0 d 0 w3 d w3 0 d  0 w3 d w3 neg 0 d 0 w3 d w3 neg 0 d 0 w3 neg d w3 neg 0 d cl s } def
/m29 {mp gsave x w2 sub y w2 add w3 sub m currentpoint t 4 {side} repeat cl fill gr} def
/m30 {mp gsave x w2 sub y w2 add w3 sub m currentpoint t 4 {side} repeat cl s gr} def
/m31 {mp x y w2 sub m 0 w d x w2 sub y m w 0 d x w2 sub y w2 add m w w neg d x w2 sub y w2 sub m w w d s} def
/m32 {mp x y w2 sub m w2 w d w neg 0 d cl s} def
/m33 {mp x y w2 add m w3 neg w2 neg d w3 w2 neg d w3 w2 d cl f} def
/m34 {mp x w2 sub y w2 sub w3 add m w3 0 d  0 w3 neg d w3 0 d 0 w3 d w3 0 d  0 w3 d w3 neg 0 d 0 w3 d w3 neg 0 d 0 w3 neg d w3 neg 0 d cl f } def
/m2 {mp x y w2 sub m 0 w d x w2 sub y m w 0 d s} def
/m5 {mp x w2 sub y w2 sub m w w d x w2 sub y w2 add m w w neg d s} def
/reEncode {exch findfont dup length dict begin {1 index /FID eq  {pop pop} {def} ifelse } forall /Encoding exch def currentdict end dup /FontName get exch definefont pop } def [/Times-Bold /Times-Italic /Times-BoldItalic /Helvetica /Helvetica-Oblique
 /Helvetica-Bold /Helvetica-BoldOblique /Courier /Courier-Oblique /Courier-Bold /Courier-BoldOblique /Times-Roman /AvantGarde-Book /AvantGarde-BookOblique /AvantGarde-Demi /AvantGarde-DemiOblique /Bookman-Demi /Bookman-DemiItalic /Bookman-Light
 /Bookman-LightItalic /Helvetica-Narrow /Helvetica-Narrow-Bold /Helvetica-Narrow-BoldOblique /Helvetica-Narrow-Oblique /NewCenturySchlbk-Roman /NewCenturySchlbk-Bold /NewCenturySchlbk-BoldItalic /NewCenturySchlbk-Italic /Palatino-Bold
 /Palatino-BoldItalic /Palatino-Italic /Palatino-Roman ] {ISOLatin1Encoding reEncode } forall
%%EndProlog
%%BeginSetup
%%EndSetup
newpath  gsave  .25 .25 scale  gsave  0 0 t black[  ] 0 sd 3 lw 1 1 1 c 2268 2176 0 0 bf black 1 1 1 c 2222 1045 23 1110 bf black 1 1 1 c 1778 836 245 1214 bf black 1778 836 245 1214 bl 0 0 0.6 c 1 1 1 c black 0 0 0.6 c 245 1214 m 427 X 47 Y 35 X -47
 Y 36 X 94 Y 35 X -94 Y 36 X 375 Y 35 X -187 Y 36 X 93 Y 36 X 328 Y 35 X -140 Y 36 X 140 Y 35 X 94 Y 36 X -141 Y 71 X 94 Y 71 X -141 Y 36 X 281 Y 35 X -281 Y 36 X -93 Y 71 X -141 Y 35 X -46 Y 36 X -94 Y 71 X -141 Y 36 X 47 Y 35 X -47 Y 71 X 47 Y 36 X
 -47 Y 320 X s 1 0 0 c 6 lw 0.95 0.95 0.95 c black 1 0 0 c 254 1214 m 35 X 18 1 d 107 X 18 1 d 17 X 18 1 d 18 1 d 18 1 d 17 1 d 18 2 d 18 2 d 18 3 d 18 3 d 17 4 d 18 6 d 18 6 d 18 8 d 17 9 d 18 10 d 18 13 d 18 14 d 18 17 d 17 18 d 18 21 d 18 23 d 18
 26 d 18 28 d 17 30 d 18 32 d 18 34 d 18 35 d 17 35 d 18 36 d 18 36 d 18 35 d 18 34 d 17 31 d 18 29 d 18 25 d 18 22 d 17 17 d 18 12 d 18 7 d s 1125 1883 m 18 3 d 18 -4 d 17 -8 d 18 -13 d 18 -18 d 18 -22 d 17 -26 d 18 -30 d 18 -32 d 18 -33 d 18 -36 d
 17 -36 d 18 -36 d 18 -35 d 18 -35 d 17 -33 d 18 -32 d 18 -29 d 18 -28 d 18 -25 d 17 -23 d 18 -21 d 18 -18 d 18 -16 d 17 -14 d 18 -12 d 18 -10 d 18 -9 d 18 -7 d 17 -6 d 18 -5 d 18 -4 d 18 -4 d 17 -2 d 18 -3 d 18 -1 d 18 -2 d 18 -1 d 17 X 18 -1 d 18 X
 18 -1 d 106 X 18 -1 d s 1996 1214 m 18 X s black 3 lw 245 1214 m 1778 X s
 gsave  2222 1045 23 1110 C 1932.89 1145.27 t 0 r /Helvetica findfont 34.314 sf 0 0 m (R pull) show NC gr  245 1240 m -26 Y s 280 1227 m -13 Y s 316 1227 m -13 Y s 352 1227 m -13 Y s 387 1227 m -13 Y s 423 1240 m -26 Y s 458 1227 m -13 Y s 494 1227 m
 -13 Y s 529 1227 m -13 Y s 565 1227 m -13 Y s 600 1240 m -26 Y s 636 1227 m -13 Y s 672 1227 m -13 Y s 707 1227 m -13 Y s 743 1227 m -13 Y s 778 1240 m -26 Y s 814 1227 m -13 Y s 849 1227 m -13 Y s 885 1227 m -13 Y s 921 1227 m -13 Y s 956 1240 m
 -26 Y s 992 1227 m -13 Y s 1027 1227 m -13 Y s 1063 1227 m -13 Y s 1098 1227 m -13 Y s 1134 1240 m -26 Y s 1169 1227 m -13 Y s 1205 1227 m -13 Y s 1241 1227 m -13 Y s 1276 1227 m -13 Y s 1312 1240 m -26 Y s 1347 1227 m -13 Y s 1383 1227 m -13 Y s
 1418 1227 m -13 Y s 1454 1227 m -13 Y s 1489 1240 m -26 Y s 1525 1227 m -13 Y s 1561 1227 m -13 Y s 1596 1227 m -13 Y s 1632 1227 m -13 Y s 1667 1240 m -26 Y s 1703 1227 m -13 Y s 1738 1227 m -13 Y s 1774 1227 m -13 Y s 1809 1227 m -13 Y s 1845 1240
 m -26 Y s 1881 1227 m -13 Y s 1916 1227 m -13 Y s 1952 1227 m -13 Y s 1987 1227 m -13 Y s 2023 1240 m -26 Y s 2023 1240 m -26 Y s
 gsave  2222 1045 23 1110 C 239.708 1183.32 t 0 r /Helvetica findfont 34.314 sf 0 0 m (5) show NC gr 
 gsave  2222 1045 23 1110 C 224.489 1183.32 t 0 r /Symbol findfont 34.314 sf 0 0 m (-) show NC gr 
 gsave  2222 1045 23 1110 C 418.538 1183.32 t 0 r /Helvetica findfont 34.314 sf 0 0 m (4) show NC gr 
 gsave  2222 1045 23 1110 C 403.319 1183.32 t 0 r /Symbol findfont 34.314 sf 0 0 m (-) show NC gr 
 gsave  2222 1045 23 1110 C 593.563 1183.32 t 0 r /Helvetica findfont 34.314 sf 0 0 m (3) show NC gr 
 gsave  2222 1045 23 1110 C 578.344 1183.32 t 0 r /Symbol findfont 34.314 sf 0 0 m (-) show NC gr 
 gsave  2222 1045 23 1110 C 772.393 1183.32 t 0 r /Helvetica findfont 34.314 sf 0 0 m (2) show NC gr 
 gsave  2222 1045 23 1110 C 757.174 1183.32 t 0 r /Symbol findfont 34.314 sf 0 0 m (-) show NC gr 
 gsave  2222 1045 23 1110 C 955.028 1183.32 t 0 r /Helvetica findfont 34.314 sf 0 0 m (1) show NC gr 
 gsave  2222 1045 23 1110 C 936.004 1183.32 t 0 r /Symbol findfont 34.314 sf 0 0 m (-) show NC gr 
 gsave  2222 1045 23 1110 C 1122.44 1183.32 t 0 r /Helvetica findfont 34.314 sf 0 0 m (0) show NC gr 
 gsave  2222 1045 23 1110 C 1301.27 1183.32 t 0 r /Helvetica findfont 34.314 sf 0 0 m (1) show NC gr 
 gsave  2222 1045 23 1110 C 1476.3 1183.32 t 0 r /Helvetica findfont 34.314 sf 0 0 m (2) show NC gr 
 gsave  2222 1045 23 1110 C 1655.13 1183.32 t 0 r /Helvetica findfont 34.314 sf 0 0 m (3) show NC gr 
 gsave  2222 1045 23 1110 C 1830.15 1183.32 t 0 r /Helvetica findfont 34.314 sf 0 0 m (4) show NC gr 
 gsave  2222 1045 23 1110 C 2008.98 1183.32 t 0 r /Helvetica findfont 34.314 sf 0 0 m (5) show NC gr  245 1214 m 836 Y s
 gsave  2222 1045 23 1110 C 129.366 1814.93 t 90 r /Helvetica findfont 34.314 sf 0 0 m (No. od MC toys) show NC gr  298 1214 m -53 X s 272 1238 m -27 X s 272 1261 m -27 X s 272 1285 m -27 X s 298 1308 m -53 X s 272 1331 m -27 X s 272 1355 m -27 X s
 272 1378 m -27 X s 298 1402 m -53 X s 272 1425 m -27 X s 272 1449 m -27 X s 272 1472 m -27 X s 298 1495 m -53 X s 272 1519 m -27 X s 272 1542 m -27 X s 272 1566 m -27 X s 298 1589 m -53 X s 272 1612 m -27 X s 272 1636 m -27 X s 272 1659 m -27 X s
 298 1683 m -53 X s 272 1706 m -27 X s 272 1729 m -27 X s 272 1753 m -27 X s 298 1776 m -53 X s 272 1800 m -27 X s 272 1823 m -27 X s 272 1847 m -27 X s 298 1870 m -53 X s 272 1893 m -27 X s 272 1917 m -27 X s 272 1940 m -27 X s 298 1964 m -53 X s
 298 1964 m -53 X s 272 1987 m -27 X s 272 2010 m -27 X s 272 2034 m -27 X s
 gsave  2222 1045 23 1110 C 213.074 1202.35 t 0 r /Helvetica findfont 34.314 sf 0 0 m (0) show NC gr 
 gsave  2222 1045 23 1110 C 213.074 1293.66 t 0 r /Helvetica findfont 34.314 sf 0 0 m (2) show NC gr 
 gsave  2222 1045 23 1110 C 213.074 1388.79 t 0 r /Helvetica findfont 34.314 sf 0 0 m (4) show NC gr 
 gsave  2222 1045 23 1110 C 213.074 1483.91 t 0 r /Helvetica findfont 34.314 sf 0 0 m (6) show NC gr 
 gsave  2222 1045 23 1110 C 213.074 1575.23 t 0 r /Helvetica findfont 34.314 sf 0 0 m (8) show NC gr 
 gsave  2222 1045 23 1110 C 194.05 1670.35 t 0 r /Helvetica findfont 34.314 sf 0 0 m (10) show NC gr 
 gsave  2222 1045 23 1110 C 194.05 1761.67 t 0 r /Helvetica findfont 34.314 sf 0 0 m (12) show NC gr 
 gsave  2222 1045 23 1110 C 194.05 1856.79 t 0 r /Helvetica findfont 34.314 sf 0 0 m (14) show NC gr 
 gsave  2222 1045 23 1110 C 194.05 1951.91 t 0 r /Helvetica findfont 34.314 sf 0 0 m (16) show NC gr  1 1 1 c black
 gsave  2222 1045 23 1110 C 837.077 2100.3 t 0 r /Helvetica findfont 53.3774 sf 0 0 m (ToyMC R pull distribution) show NC gr  1 1 1 c 445 167 1756 1920 bf black 1756 1920 m 445 X s 2201 1920 m 167 Y s 2201 2087 m -445 X s 1756 2087 m -167 Y s 1 1 1 c
 black
 gsave  2222 1045 23 1110 C 1891.03 2054.64 t 0 r /Helvetica findfont 34.314 sf 0 0 m (dist_R_pull) show NC gr  1756 2045 m 445 X s
 gsave  2222 1045 23 1110 C 1776.89 2008.98 t 0 r /Helvetica findfont 34.314 sf 0 0 m (Entries ) show NC gr 
 gsave  2222 1045 23 1110 C 2107.91 2008.98 t 0 r /Helvetica findfont 34.314 sf 0 0 m ( 200) show NC gr 
 gsave  2222 1045 23 1110 C 1776.89 1967.13 t 0 r /Helvetica findfont 34.314 sf 0 0 m (Mean  ) show NC gr 
 gsave  2222 1045 23 1110 C 2043.23 1967.13 t 0 r /Helvetica findfont 34.314 sf 0 0 m ( 0.04636) show NC gr 
 gsave  2222 1045 23 1110 C 1776.89 1925.28 t 0 r /Helvetica findfont 34.314 sf 0 0 m (RMS   ) show NC gr 
 gsave  2222 1045 23 1110 C 2069.86 1925.28 t 0 r /Helvetica findfont 34.314 sf 0 0 m (  1.017) show NC gr  1 1 1 c black
 gsave  2222 1045 23 1110 C 837.077 2100.3 t 0 r /Helvetica findfont 53.3774 sf 0 0 m (ToyMC R pull distribution) show NC gr  1 1 1 c 2222 1044 23 22 bf black 1 1 1 c 1778 836 245 126 bf black 1778 836 245 126 bl 0 0 0.6 c 1 1 1 c black 0 0 0.6 c 245
 126 m 427 X 44 Y 106 X 89 Y 71 X -89 Y 36 X 89 Y 36 X 221 Y 35 X -44 Y 36 X 354 Y 35 X 44 Y 36 X 88 Y 35 X -44 Y 36 X -177 Y 71 X 44 Y 36 X 133 Y 35 X -177 Y 36 X 177 Y 35 X -531 Y 36 X -132 Y 35 X 88 Y 71 X -88 Y 36 X -45 Y 36 X -44 Y 71 X 44 Y 35
 X -44 Y 356 X s 1 0 0 c 6 lw 0.95 0.95 0.95 c black 1 0 0 c 254 126 m 284 X 18 1 d 53 X 18 1 d 18 1 d 18 1 d 17 1 d 18 3 d 18 3 d 18 4 d 18 6 d 17 7 d 18 9 d 18 12 d 18 15 d 18 19 d 17 22 d 18 27 d 18 31 d 18 36 d 17 40 d 18 44 d 18 48 d 18 50 d 18
 52 d 17 53 d 18 51 d 18 49 d 18 44 d 17 38 d 18 31 d 18 22 d s 1125 847 m 18 13 d 18 2 d 17 -8 d 18 -17 d 18 -27 d 18 -34 d 17 -42 d 18 -47 d 18 -50 d 18 -52 d 18 -52 d 17 -52 d 18 -49 d 18 -46 d 18 -42 d 17 -38 d 18 -33 d 18 -29 d 18 -25 d 18 -20 d
 17 -17 d 18 -13 d 18 -11 d 18 -8 d 17 -7 d 18 -4 d 18 -4 d 18 -3 d 18 -2 d 17 -1 d 18 -1 d 18 X 18 -1 d 35 X 18 -1 d 231 X s 1996 126 m 18 X s black 3 lw 245 126 m 1778 X s
 gsave  2222 1044 23 22 C 1959.52 57.0734 t 0 r /Helvetica findfont 34.314 sf 0 0 m ( pull) show NC gr 
 gsave  2222 1044 23 22 C 1940.5 57.0734 t 0 r /Symbol findfont 34.314 sf 0 0 m (l) show NC gr  245 151 m -25 Y s 280 139 m -13 Y s 316 139 m -13 Y s 352 139 m -13 Y s 387 139 m -13 Y s 423 151 m -25 Y s 458 139 m -13 Y s 494 139 m -13 Y s 529 139 m
 -13 Y s 565 139 m -13 Y s 600 151 m -25 Y s 636 139 m -13 Y s 672 139 m -13 Y s 707 139 m -13 Y s 743 139 m -13 Y s 778 151 m -25 Y s 814 139 m -13 Y s 849 139 m -13 Y s 885 139 m -13 Y s 921 139 m -13 Y s 956 151 m -25 Y s 992 139 m -13 Y s 1027
 139 m -13 Y s 1063 139 m -13 Y s 1098 139 m -13 Y s 1134 151 m -25 Y s 1169 139 m -13 Y s 1205 139 m -13 Y s 1241 139 m -13 Y s 1276 139 m -13 Y s 1312 151 m -25 Y s 1347 139 m -13 Y s 1383 139 m -13 Y s 1418 139 m -13 Y s 1454 139 m -13 Y s 1489
 151 m -25 Y s 1525 139 m -13 Y s 1561 139 m -13 Y s 1596 139 m -13 Y s 1632 139 m -13 Y s 1667 151 m -25 Y s 1703 139 m -13 Y s 1738 139 m -13 Y s 1774 139 m -13 Y s 1809 139 m -13 Y s 1845 151 m -25 Y s 1881 139 m -13 Y s 1916 139 m -13 Y s 1952
 139 m -13 Y s 1987 139 m -13 Y s 2023 151 m -25 Y s 2023 151 m -25 Y s
 gsave  2222 1044 23 22 C 239.708 95.1223 t 0 r /Helvetica findfont 34.314 sf 0 0 m (5) show NC gr 
 gsave  2222 1044 23 22 C 224.489 95.1223 t 0 r /Symbol findfont 34.314 sf 0 0 m (-) show NC gr 
 gsave  2222 1044 23 22 C 418.538 95.1223 t 0 r /Helvetica findfont 34.314 sf 0 0 m (4) show NC gr 
 gsave  2222 1044 23 22 C 403.319 95.1223 t 0 r /Symbol findfont 34.314 sf 0 0 m (-) show NC gr 
 gsave  2222 1044 23 22 C 593.563 95.1223 t 0 r /Helvetica findfont 34.314 sf 0 0 m (3) show NC gr 
 gsave  2222 1044 23 22 C 578.344 95.1223 t 0 r /Symbol findfont 34.314 sf 0 0 m (-) show NC gr 
 gsave  2222 1044 23 22 C 772.393 95.1223 t 0 r /Helvetica findfont 34.314 sf 0 0 m (2) show NC gr 
 gsave  2222 1044 23 22 C 757.174 95.1223 t 0 r /Symbol findfont 34.314 sf 0 0 m (-) show NC gr 
 gsave  2222 1044 23 22 C 955.028 95.1223 t 0 r /Helvetica findfont 34.314 sf 0 0 m (1) show NC gr 
 gsave  2222 1044 23 22 C 936.004 95.1223 t 0 r /Symbol findfont 34.314 sf 0 0 m (-) show NC gr 
 gsave  2222 1044 23 22 C 1122.44 95.1223 t 0 r /Helvetica findfont 34.314 sf 0 0 m (0) show NC gr 
 gsave  2222 1044 23 22 C 1301.27 95.1223 t 0 r /Helvetica findfont 34.314 sf 0 0 m (1) show NC gr 
 gsave  2222 1044 23 22 C 1476.3 95.1223 t 0 r /Helvetica findfont 34.314 sf 0 0 m (2) show NC gr 
 gsave  2222 1044 23 22 C 1655.13 95.1223 t 0 r /Helvetica findfont 34.314 sf 0 0 m (3) show NC gr 
 gsave  2222 1044 23 22 C 1830.15 95.1223 t 0 r /Helvetica findfont 34.314 sf 0 0 m (4) show NC gr 
 gsave  2222 1044 23 22 C 2008.98 95.1223 t 0 r /Helvetica findfont 34.314 sf 0 0 m (5) show NC gr  245 126 m 836 Y s
 gsave  2222 1044 23 22 C 129.366 726.735 t 90 r /Helvetica findfont 34.314 sf 0 0 m (No. od MC toys) show NC gr  298 126 m -53 X s 272 148 m -27 X s 272 170 m -27 X s 272 193 m -27 X s 298 215 m -53 X s 272 237 m -27 X s 272 259 m -27 X s 272 281 m
 -27 X s 298 303 m -53 X s 272 325 m -27 X s 272 347 m -27 X s 272 369 m -27 X s 298 392 m -53 X s 272 414 m -27 X s 272 436 m -27 X s 272 458 m -27 X s 298 480 m -53 X s 272 502 m -27 X s 272 524 m -27 X s 272 546 m -27 X s 298 568 m -53 X s 272 591
 m -27 X s 272 613 m -27 X s 272 635 m -27 X s 298 657 m -53 X s 272 679 m -27 X s 272 701 m -27 X s 272 723 m -27 X s 298 745 m -53 X s 272 767 m -27 X s 272 790 m -27 X s 272 812 m -27 X s 298 834 m -53 X s 272 856 m -27 X s 272 878 m -27 X s 272
 900 m -27 X s 298 922 m -53 X s 298 922 m -53 X s 272 944 m -27 X s
 gsave  2222 1044 23 22 C 213.074 114.147 t 0 r /Helvetica findfont 34.314 sf 0 0 m (0) show NC gr 
 gsave  2222 1044 23 22 C 213.074 201.659 t 0 r /Helvetica findfont 34.314 sf 0 0 m (2) show NC gr 
 gsave  2222 1044 23 22 C 213.074 289.172 t 0 r /Helvetica findfont 34.314 sf 0 0 m (4) show NC gr 
 gsave  2222 1044 23 22 C 213.074 376.684 t 0 r /Helvetica findfont 34.314 sf 0 0 m (6) show NC gr 
 gsave  2222 1044 23 22 C 213.074 468.002 t 0 r /Helvetica findfont 34.314 sf 0 0 m (8) show NC gr 
 gsave  2222 1044 23 22 C 194.05 555.514 t 0 r /Helvetica findfont 34.314 sf 0 0 m (10) show NC gr 
 gsave  2222 1044 23 22 C 194.05 643.027 t 0 r /Helvetica findfont 34.314 sf 0 0 m (12) show NC gr 
 gsave  2222 1044 23 22 C 194.05 730.54 t 0 r /Helvetica findfont 34.314 sf 0 0 m (14) show NC gr 
 gsave  2222 1044 23 22 C 194.05 821.857 t 0 r /Helvetica findfont 34.314 sf 0 0 m (16) show NC gr 
 gsave  2222 1044 23 22 C 194.05 909.37 t 0 r /Helvetica findfont 34.314 sf 0 0 m (18) show NC gr  1 1 1 c black
 gsave  2222 1044 23 22 C 1057.76 1012.1 t 0 r /Helvetica findfont 53.3774 sf 0 0 m ( pull distribution) show NC gr 
 gsave  2222 1044 23 22 C 1027.32 1012.1 t 0 r /Symbol findfont 53.3774 sf 0 0 m (l) show NC gr 
 gsave  2222 1044 23 22 C 840.881 1012.1 t 0 r /Helvetica findfont 53.3774 sf 0 0 m (ToyMC ) show NC gr  1 1 1 c 445 168 1756 831 bf black 1756 831 m 445 X s 2201 831 m 168 Y s 2201 999 m -445 X s 1756 999 m -168 Y s 1 1 1 c black
 gsave  2222 1044 23 22 C 1845.37 966.443 t 0 r /Helvetica findfont 34.314 sf 0 0 m (dist_lambda_pull) show NC gr  1756 957 m 445 X s
 gsave  2222 1044 23 22 C 1776.89 920.784 t 0 r /Helvetica findfont 34.314 sf 0 0 m (Entries ) show NC gr 
 gsave  2222 1044 23 22 C 2107.91 920.784 t 0 r /Helvetica findfont 34.314 sf 0 0 m ( 200) show NC gr 
 gsave  2222 1044 23 22 C 1776.89 878.93 t 0 r /Helvetica findfont 34.314 sf 0 0 m (Mean  ) show NC gr 
 gsave  2222 1044 23 22 C 2062.25 878.93 t 0 r /Helvetica findfont 34.314 sf 0 0 m ( 0.1202) show NC gr 
 gsave  2222 1044 23 22 C 1776.89 837.077 t 0 r /Helvetica findfont 34.314 sf 0 0 m (RMS   ) show NC gr 
 gsave  2222 1044 23 22 C 2062.25 837.077 t 0 r /Helvetica findfont 34.314 sf 0 0 m ( 0.9254) show NC gr  1 1 1 c black
 gsave  2222 1044 23 22 C 1057.76 1012.1 t 0 r /Helvetica findfont 53.3774 sf 0 0 m ( pull distribution) show NC gr 
 gsave  2222 1044 23 22 C 1027.32 1012.1 t 0 r /Symbol findfont 53.3774 sf 0 0 m (l) show NC gr 
 gsave  2222 1044 23 22 C 840.881 1012.1 t 0 r /Helvetica findfont 53.3774 sf 0 0 m (ToyMC ) show NC gr 
 gr  gr showpage
end
%%EOF
