%!PS-Adobe-2.0 EPSF-2.0
%%BoundingBox:  0 0 567 558
%%Title: ./DR_pion_0c65_h3015_1_h3401_1_compare.eps: DR_pion_0c65_h3015_1_h3401_1_compare
%%Creator: ROOT Version 6.06/02
%%CreationDate: Tue Jan 31 09:43:05 2017
%%DocumentNeededResources: ProcSet (FontSetInit)
%%EndComments
%%BeginProlog
80 dict begin
/s {stroke} def /l {lineto} def /m {moveto} def /t {translate} def
/r {rotate} def /rl {roll}  def /R {repeat} def
/d {rlineto} def /rm {rmoveto} def /gr {grestore} def /f {eofill} def
/c {setrgbcolor} def /black {0 setgray} def /sd {setdash} def
/cl {closepath} def /sf {scalefont setfont} def /lw {setlinewidth} def
/box {m dup 0 exch d exch 0 d 0 exch neg d cl} def
/NC{systemdict begin initclip end}def/C{NC box clip newpath}def
/bl {box s} def /bf {gsave box gsave f grestore 1 lw [] 0 sd s grestore} def /Y { 0 exch d} def /X { 0 d} def 
/K {{pop pop 0 moveto} exch kshow} bind def
/ita {/ang 15 def gsave [1 0 ang dup sin exch cos div 1 0 0] concat} def 
/mp {newpath /y exch def /x exch def} def
/side {[w .77 mul w .23 mul] .385 w mul sd w 0 l currentpoint t -144 r} def
/mr {mp x y w2 0 360 arc} def /m24 {mr s} def /m20 {mr f} def
/mb {mp x y w2 add m w2 neg 0 d 0 w neg d w 0 d 0 w d cl} def
/mt {mp x y w2 add m w2 neg w neg d w 0 d cl} def
/m21 {mb f} def /m25 {mb s} def /m22 {mt f} def /m26{mt s} def
/m23 {mp x y w2 sub m w2 w d w neg 0 d cl f} def
/m27 {mp x y w2 add m w3 neg w2 neg d w3 w2 neg d w3 w2 d cl s} def
/m28 {mp x w2 sub y w2 sub w3 add m w3 0 d  0 w3 neg d w3 0 d 0 w3 d w3 0 d  0 w3 d w3 neg 0 d 0 w3 d w3 neg 0 d 0 w3 neg d w3 neg 0 d cl s } def
/m29 {mp gsave x w2 sub y w2 add w3 sub m currentpoint t 4 {side} repeat cl fill gr} def
/m30 {mp gsave x w2 sub y w2 add w3 sub m currentpoint t 4 {side} repeat cl s gr} def
/m31 {mp x y w2 sub m 0 w d x w2 sub y m w 0 d x w2 sub y w2 add m w w neg d x w2 sub y w2 sub m w w d s} def
/m32 {mp x y w2 sub m w2 w d w neg 0 d cl s} def
/m33 {mp x y w2 add m w3 neg w2 neg d w3 w2 neg d w3 w2 d cl f} def
/m34 {mp x w2 sub y w2 sub w3 add m w3 0 d  0 w3 neg d w3 0 d 0 w3 d w3 0 d  0 w3 d w3 neg 0 d 0 w3 d w3 neg 0 d 0 w3 neg d w3 neg 0 d cl f } def
/m2 {mp x y w2 sub m 0 w d x w2 sub y m w 0 d s} def
/m5 {mp x w2 sub y w2 sub m w w d x w2 sub y w2 add m w w neg d s} def
%%IncludeResource: ProcSet (FontSetInit)
%%IncludeResource: font Times-Roman
%%IncludeResource: font Times-Italic
%%IncludeResource: font Times-Bold
%%IncludeResource: font Times-BoldItalic
%%IncludeResource: font Helvetica
%%IncludeResource: font Helvetica-Oblique
%%IncludeResource: font Helvetica-Bold
%%IncludeResource: font Helvetica-BoldOblique
%%IncludeResource: font Courier
%%IncludeResource: font Courier-Oblique
%%IncludeResource: font Courier-Bold
%%IncludeResource: font Courier-BoldOblique
%%IncludeResource: font Symbol
%%IncludeResource: font ZapfDingbats
/reEncode {exch findfont dup length dict begin {1 index /FID eq  {pop pop} {def} ifelse } forall /Encoding exch def currentdict end dup /FontName get exch definefont pop } def [/Times-Bold /Times-Italic /Times-BoldItalic /Helvetica /Helvetica-Oblique
 /Helvetica-Bold /Helvetica-BoldOblique /Courier /Courier-Oblique /Courier-Bold /Courier-BoldOblique /Times-Roman /AvantGarde-Book /AvantGarde-BookOblique /AvantGarde-Demi /AvantGarde-DemiOblique /Bookman-Demi /Bookman-DemiItalic /Bookman-Light
 /Bookman-LightItalic /Helvetica-Narrow /Helvetica-Narrow-Bold /Helvetica-Narrow-BoldOblique /Helvetica-Narrow-Oblique /NewCenturySchlbk-Roman /NewCenturySchlbk-Bold /NewCenturySchlbk-BoldItalic /NewCenturySchlbk-Italic /Palatino-Bold
 /Palatino-BoldItalic /Palatino-Italic /Palatino-Roman ] {ISOLatin1Encoding reEncode } forall
%%EndProlog
%%BeginSetup
%%EndSetup
newpath  gsave  .25 .25 scale  gsave  0 0 t black[  ] 0 sd 6 lw 1 1 1 c 2268 2234 0 0 bf black 3 lw 1 1 1 c 1882 1966 340 223 bf black 1882 1966 340 223 bl 1 1 1 c 1882 1966 340 223 bf black 1882 1966 340 223 bl 0 0 1 c 6 lw 1 1 1 c 0 0 1 c 406 1810
 m 19 Y s 406 1846 m 20 Y s 3 lw /w 19 def /w2 {w 2 div} def /w3 {w 3 div} def 406 1838 m21 6 lw 425 1704 m 13 Y s 425 1734 m 13 Y s 3 lw 425 1726 m21 6 lw 444 1588 m 9 Y s 444 1614 m 9 Y s 3 lw 444 1605 m21 6 lw 463 1523 m 7 Y s 463 1547 m 7 Y s 3
 lw 463 1538 m21 6 lw 481 1451 m 5 Y s 481 1473 m 5 Y s 3 lw 481 1465 m21 6 lw 500 1390 m 4 Y s 500 1411 m 4 Y s 3 lw 500 1403 m21 6 lw 519 1349 m 3 Y s 519 1369 m 3 Y s 3 lw 519 1360 m21 6 lw 538 1321 m 2 Y s 538 1340 m 2 Y s 3 lw 538 1332 m21 6 lw
 557 1287 m 2 Y s 557 1306 m 1 Y s 3 lw 557 1297 m21 6 lw 575 1258 m 2 Y s 575 1277 m 1 Y s 3 lw 575 1268 m21 6 lw 594 1248 m 1 Y s 594 1266 m 1 Y s 3 lw 594 1258 m21 6 lw 613 1204 m s 613 1222 m s 3 lw 613 1213 m21 6 lw 3 lw 632 1183 m21 6 lw 3 lw
 651 1170 m21 6 lw 3 lw 670 1168 m21 6 lw 3 lw 688 1147 m21 6 lw 3 lw 707 1144 m21 6 lw 3 lw 726 1139 m21 6 lw 3 lw 745 1125 m21 6 lw 3 lw 764 1108 m21 6 lw 3 lw 782 1100 m21 6 lw 3 lw 801 1092 m21 6 lw 3 lw 820 1097 m21 6 lw 3 lw 839 1080 m21 6 lw 3
 lw 858 1071 m21 6 lw 3 lw 877 1073 m21 6 lw 3 lw 895 1062 m21 6 lw 3 lw 914 1056 m21 6 lw 3 lw 933 1064 m21 6 lw 3 lw 952 1048 m21 6 lw 3 lw 971 1047 m21 6 lw 3 lw 990 1051 m21 6 lw 3 lw 1008 1049 m21 6 lw 3 lw 1027 1046 m21 6 lw 3 lw 1046 1043 m21
 6 lw 3 lw 1065 1047 m21 6 lw 3 lw 1084 1043 m21 6 lw 3 lw 1102 1045 m21 6 lw 3 lw 1121 1048 m21 6 lw 3 lw 1140 1043 m21 6 lw 3 lw 1159 1038 m21 6 lw 3 lw 1178 1042 m21 6 lw 3 lw 1197 1047 m21 6 lw 3 lw 1215 1056 m21 6 lw 3 lw 1234 1062 m21 6 lw 1253
 1042 m s 1253 1059 m s 3 lw 1253 1050 m21 6 lw 1272 1064 m 1 Y s 1272 1082 m s 3 lw 1272 1073 m21 6 lw 1291 1054 m s 1291 1071 m 1 Y s 3 lw 1291 1063 m21 6 lw 1309 1063 m 1 Y s 1309 1081 m 1 Y s 3 lw 1309 1073 m21 6 lw 1328 1049 m 1 Y s 1328 1067 m
 s 3 lw 1328 1058 m21 6 lw 1347 1054 m 1 Y s 1347 1072 m 1 Y s 3 lw 1347 1063 m21 6 lw 1366 1066 m 2 Y s 1366 1085 m 1 Y s 3 lw 1366 1076 m21 6 lw 1385 1068 m 1 Y s 1385 1086 m 2 Y s 3 lw 1385 1078 m21 6 lw 1404 1064 m 2 Y s 1404 1083 m 1 Y s 3 lw
 1404 1074 m21 6 lw 1422 1072 m 1 Y s 1422 1090 m 2 Y s 3 lw 1422 1082 m21 6 lw 1441 1072 m 2 Y s 1441 1091 m 2 Y s 3 lw 1441 1082 m21 6 lw 1460 1081 m 3 Y s 1460 1101 m 2 Y s 3 lw 1460 1092 m21 6 lw 1479 1072 m 2 Y s 1479 1091 m 3 Y s 3 lw 1479 1083
 m21 6 lw 1498 1074 m 3 Y s 1498 1094 m 3 Y s 3 lw 1498 1086 m21 6 lw 1517 1093 m 3 Y s 1517 1113 m 3 Y s 3 lw 1517 1105 m21 6 lw 1535 1091 m 4 Y s 1535 1112 m 3 Y s 3 lw 1535 1103 m21 6 lw 1554 1086 m 3 Y s 1554 1107 m 3 Y s 3 lw 1554 1098 m21 6 lw
 1573 1104 m 4 Y s 1573 1125 m 5 Y s 3 lw 1573 1117 m21 6 lw 1592 1108 m 4 Y s 1592 1129 m 5 Y s 3 lw 1592 1121 m21 6 lw 1611 1126 m 5 Y s 1611 1148 m 4 Y s 3 lw 1611 1139 m21 6 lw 1629 1095 m 5 Y s 1629 1117 m 5 Y s 3 lw 1629 1108 m21 6 lw 1648 1113
 m 5 Y s 1648 1135 m 5 Y s 3 lw 1648 1126 m21 6 lw 1667 1111 m 6 Y s 1667 1134 m 5 Y s 3 lw 1667 1125 m21 6 lw 1686 1119 m 6 Y s 1686 1142 m 6 Y s 3 lw 1686 1134 m21 6 lw 1705 1116 m 7 Y s 1705 1140 m 6 Y s 3 lw 1705 1131 m21 6 lw 1724 1131 m 7 Y s
 1724 1155 m 6 Y s 3 lw 1724 1146 m21 6 lw 1742 1126 m 7 Y s 1742 1150 m 7 Y s 3 lw 1742 1141 m21 6 lw 1761 1139 m 8 Y s 1761 1164 m 7 Y s 3 lw 1761 1155 m21 6 lw 1780 1143 m 8 Y s 1780 1168 m 8 Y s 3 lw 1780 1160 m21 6 lw 1799 1147 m 8 Y s 1799 1172
 m 9 Y s 3 lw 1799 1164 m21 6 lw 1818 1100 m 8 Y s 1818 1125 m 8 Y s 3 lw 1818 1116 m21 6 lw 1837 1110 m 9 Y s 1837 1136 m 8 Y s 3 lw 1837 1127 m21 6 lw 1855 1135 m 9 Y s 1855 1161 m 9 Y s 3 lw 1855 1152 m21 6 lw 1874 1119 m 9 Y s 1874 1145 m 10 Y s
 3 lw 1874 1137 m21 6 lw 1893 1150 m 10 Y s 1893 1177 m 10 Y s 3 lw 1893 1169 m21 6 lw 1912 1114 m 10 Y s 1912 1141 m 10 Y s 3 lw 1912 1133 m21 6 lw 1931 1137 m 11 Y s 1931 1165 m 10 Y s 3 lw 1931 1156 m21 6 lw 1949 1168 m 11 Y s 1949 1196 m 12 Y s 3
 lw 1949 1188 m21 6 lw 1968 1170 m 12 Y s 1968 1199 m 12 Y s 3 lw 1968 1191 m21 6 lw 1987 1166 m 13 Y s 1987 1196 m 12 Y s 3 lw 1987 1187 m21 6 lw 2006 1190 m 13 Y s 2006 1220 m 13 Y s 3 lw 2006 1211 m21 6 lw 2025 1156 m 13 Y s 2025 1186 m 13 Y s 3
 lw 2025 1178 m21 6 lw 2044 1180 m 14 Y s 2044 1211 m 14 Y s 3 lw 2044 1203 m21 6 lw 2062 1165 m 14 Y s 2062 1196 m 14 Y s 3 lw 2062 1187 m21 6 lw 2081 1171 m 15 Y s 2081 1203 m 14 Y s 3 lw 2081 1194 m21 6 lw 2100 1168 m 15 Y s 2100 1200 m 15 Y s 3
 lw 2100 1192 m21 6 lw 2119 1162 m 15 Y s 2119 1194 m 16 Y s 3 lw 2119 1186 m21 6 lw 2138 1097 m 16 Y s 2138 1130 m 15 Y s 3 lw 2138 1121 m21 6 lw 2156 1093 m 16 Y s 2156 1126 m 16 Y s 3 lw 2156 1117 m21 6 lw 2175 1138 m 16 Y s 2175 1171 m 17 Y s 3
 lw 2175 1163 m21 6 lw 2194 1158 m 17 Y s 2194 1192 m 18 Y s 3 lw 2194 1184 m21 6 lw 2213 1183 m 18 Y s 2213 1218 m 18 Y s 3 lw 2213 1210 m21 6 lw black 340 223 m 1882 X s
 gsave  2268 2234 0 0 C 1923.86 58.2559 t 0 r /Helvetica findfont 83.8316 sf 0 0 m (Q [GeV]) show NC gr  340 279 m -56 Y s 387 251 m -28 Y s 434 251 m -28 Y s 481 251 m -28 Y s 528 279 m -56 Y s 575 251 m -28 Y s 622 251 m -28 Y s 670 251 m -28 Y s
 717 279 m -56 Y s 764 251 m -28 Y s 811 251 m -28 Y s 858 251 m -28 Y s 905 279 m -56 Y s 952 251 m -28 Y s 999 251 m -28 Y s 1046 251 m -28 Y s 1093 279 m -56 Y s 1140 251 m -28 Y s 1187 251 m -28 Y s 1234 251 m -28 Y s 1281 279 m -56 Y s 1328 251
 m -28 Y s 1375 251 m -28 Y s 1422 251 m -28 Y s 1469 279 m -56 Y s 1517 251 m -28 Y s 1564 251 m -28 Y s 1611 251 m -28 Y s 1658 279 m -56 Y s 1705 251 m -28 Y s 1752 251 m -28 Y s 1799 251 m -28 Y s 1846 279 m -56 Y s 1893 251 m -28 Y s 1940 251 m
 -28 Y s 1987 251 m -28 Y s 2034 279 m -56 Y s 2081 251 m -28 Y s 2128 251 m -28 Y s 2175 251 m -28 Y s 2222 279 m -56 Y s
 gsave  2268 2234 0 0 C 322.539 159.138 t 0 r /Helvetica findfont 62.5185 sf 0 0 m (0) show NC gr 
 gsave  2268 2234 0 0 C 484.518 159.138 t 0 r /Helvetica findfont 62.5185 sf 0 0 m (0.2) show NC gr 
 gsave  2268 2234 0 0 C 673.495 159.138 t 0 r /Helvetica findfont 62.5185 sf 0 0 m (0.4) show NC gr 
 gsave  2268 2234 0 0 C 861.05 159.138 t 0 r /Helvetica findfont 62.5185 sf 0 0 m (0.6) show NC gr 
 gsave  2268 2234 0 0 C 1050.03 159.138 t 0 r /Helvetica findfont 62.5185 sf 0 0 m (0.8) show NC gr 
 gsave  2268 2234 0 0 C 1268.84 159.138 t 0 r /Helvetica findfont 62.5185 sf 0 0 m (1) show NC gr 
 gsave  2268 2234 0 0 C 1426.56 159.138 t 0 r /Helvetica findfont 62.5185 sf 0 0 m (1.2) show NC gr 
 gsave  2268 2234 0 0 C 1614.11 159.138 t 0 r /Helvetica findfont 62.5185 sf 0 0 m (1.4) show NC gr 
 gsave  2268 2234 0 0 C 1803.09 159.138 t 0 r /Helvetica findfont 62.5185 sf 0 0 m (1.6) show NC gr 
 gsave  2268 2234 0 0 C 1990.65 159.138 t 0 r /Helvetica findfont 62.5185 sf 0 0 m (1.8) show NC gr 
 gsave  2268 2234 0 0 C 2205.2 159.138 t 0 r /Helvetica findfont 62.5185 sf 0 0 m (2) show NC gr  340 223 m 1966 Y s
 gsave  2268 2234 0 0 C 152.034 1450.71 t 90 r /Helvetica findfont 83.8316 sf 0 0 m ( DR\(Q\) / \(0.02 GeV\)) show NC gr  400 402 m -60 X s 370 491 m -30 X s 370 581 m -30 X s 370 670 m -30 X s 400 759 m -60 X s 370 849 m -30 X s 370 938 m -30 X s
 370 1027 m -30 X s 400 1117 m -60 X s 370 1206 m -30 X s 370 1295 m -30 X s 370 1385 m -30 X s 400 1474 m -60 X s 370 1564 m -30 X s 370 1653 m -30 X s 370 1742 m -30 X s 400 1832 m -60 X s 370 1921 m -30 X s 370 2010 m -30 X s 370 2100 m -30 X s
 400 2189 m -60 X s 400 402 m -60 X s 370 313 m -30 X s 370 223 m -30 X s
 gsave  2268 2234 0 0 C 242.97 379.374 t 0 r /Helvetica findfont 62.5185 sf 0 0 m (0.6) show NC gr 
 gsave  2268 2234 0 0 C 242.97 737.434 t 0 r /Helvetica findfont 62.5185 sf 0 0 m (0.8) show NC gr 
 gsave  2268 2234 0 0 C 305.488 1092.65 t 0 r /Helvetica findfont 62.5185 sf 0 0 m (1) show NC gr 
 gsave  2268 2234 0 0 C 242.97 1450.71 t 0 r /Helvetica findfont 62.5185 sf 0 0 m (1.2) show NC gr 
 gsave  2268 2234 0 0 C 242.97 1808.77 t 0 r /Helvetica findfont 62.5185 sf 0 0 m (1.4) show NC gr 
 gsave  2268 2234 0 0 C 242.97 2166.83 t 0 r /Helvetica findfont 62.5185 sf 0 0 m (1.6) show NC gr  1 0 0 c 1 1 1 c 1 0 0 c 406 1844 m 8 Y s 406 1870 m 8 Y s 3 lw 406 1861 m21 6 lw 425 1679 m 4 Y s 425 1700 m 5 Y s 3 lw 425 1692 m21 6 lw 444 1591 m 2
 Y s 444 1610 m 3 Y s 3 lw 444 1602 m21 6 lw 463 1521 m 1 Y s 463 1539 m s 3 lw 463 1530 m21 6 lw 3 lw 481 1477 m21 6 lw 3 lw 500 1400 m21 6 lw 3 lw 519 1359 m21 6 lw 3 lw 538 1335 m21 6 lw 3 lw 557 1296 m21 6 lw 3 lw 575 1250 m21 6 lw 3 lw 594 1244
 m21 6 lw 3 lw 613 1213 m21 6 lw 3 lw 632 1198 m21 6 lw 3 lw 651 1189 m21 6 lw 3 lw 670 1165 m21 6 lw 3 lw 688 1151 m21 6 lw 3 lw 707 1145 m21 6 lw 3 lw 726 1129 m21 6 lw 3 lw 745 1115 m21 6 lw 3 lw 764 1108 m21 6 lw 3 lw 782 1102 m21 6 lw 3 lw 801
 1096 m21 6 lw 3 lw 820 1080 m21 6 lw 3 lw 839 1082 m21 6 lw 3 lw 858 1072 m21 6 lw 3 lw 877 1069 m21 6 lw 3 lw 895 1062 m21 6 lw 3 lw 914 1063 m21 6 lw 3 lw 933 1063 m21 6 lw 3 lw 952 1053 m21 6 lw 3 lw 971 1053 m21 6 lw 3 lw 990 1047 m21 6 lw 3 lw
 1008 1041 m21 6 lw 3 lw 1027 1044 m21 6 lw 3 lw 1046 1049 m21 6 lw 3 lw 1065 1045 m21 6 lw 3 lw 1084 1033 m21 6 lw 3 lw 1102 1049 m21 6 lw 3 lw 1121 1046 m21 6 lw 3 lw 1140 1049 m21 6 lw 3 lw 1159 1050 m21 6 lw 3 lw 1178 1050 m21 6 lw 3 lw 1197 1055
 m21 6 lw 3 lw 1215 1053 m21 6 lw 3 lw 1234 1067 m21 6 lw 3 lw 1253 1063 m21 6 lw 3 lw 1272 1055 m21 6 lw 3 lw 1291 1067 m21 6 lw 3 lw 1309 1069 m21 6 lw 3 lw 1328 1054 m21 6 lw 3 lw 1347 1069 m21 6 lw 3 lw 1366 1073 m21 6 lw 3 lw 1385 1084 m21 6 lw
 3 lw 1404 1077 m21 6 lw 3 lw 1422 1084 m21 6 lw 3 lw 1441 1081 m21 6 lw 3 lw 1460 1092 m21 6 lw 3 lw 1479 1089 m21 6 lw 3 lw 1498 1092 m21 6 lw 3 lw 1517 1091 m21 6 lw 3 lw 1535 1091 m21 6 lw 3 lw 1554 1113 m21 6 lw 3 lw 1573 1103 m21 6 lw 3 lw 1592
 1108 m21 6 lw 3 lw 1611 1113 m21 6 lw 3 lw 1629 1124 m21 6 lw 3 lw 1648 1119 m21 6 lw 3 lw 1667 1115 m21 6 lw 1686 1130 m s 1686 1147 m 1 Y s 3 lw 1686 1139 m21 6 lw 1705 1116 m 1 Y s 1705 1134 m s 3 lw 1705 1125 m21 6 lw 1724 1113 m s 1724 1130 m 1
 Y s 3 lw 1724 1122 m21 6 lw 1742 1135 m 1 Y s 1742 1153 m 1 Y s 3 lw 1742 1144 m21 6 lw 1761 1136 m 1 Y s 1761 1154 m 1 Y s 3 lw 1761 1145 m21 6 lw 1780 1146 m 2 Y s 1780 1165 m 1 Y s 3 lw 1780 1156 m21 6 lw 1799 1149 m 2 Y s 1799 1168 m 1 Y s 3 lw
 1799 1159 m21 6 lw 1818 1129 m 1 Y s 1818 1147 m 2 Y s 3 lw 1818 1139 m21 6 lw 1837 1130 m 2 Y s 1837 1149 m 2 Y s 3 lw 1837 1141 m21 6 lw 1855 1140 m 2 Y s 1855 1159 m 2 Y s 3 lw 1855 1150 m21 6 lw 1874 1120 m 2 Y s 1874 1139 m 2 Y s 3 lw 1874 1131
 m21 6 lw 1893 1112 m 3 Y s 1893 1132 m 2 Y s 3 lw 1893 1123 m21 6 lw 1912 1136 m 3 Y s 1912 1156 m 3 Y s 3 lw 1912 1148 m21 6 lw 1931 1151 m 3 Y s 1931 1171 m 4 Y s 3 lw 1931 1163 m21 6 lw 1949 1156 m 4 Y s 1949 1177 m 3 Y s 3 lw 1949 1168 m21 6 lw
 1968 1153 m 4 Y s 1968 1174 m 3 Y s 3 lw 1968 1165 m21 6 lw 1987 1166 m 4 Y s 1987 1187 m 5 Y s 3 lw 1987 1179 m21 6 lw 2006 1171 m 4 Y s 2006 1192 m 5 Y s 3 lw 2006 1184 m21 6 lw 2025 1176 m 4 Y s 2025 1197 m 5 Y s 3 lw 2025 1189 m21 6 lw 2044 1162
 m 5 Y s 2044 1184 m 5 Y s 3 lw 2044 1176 m21 6 lw 2062 1172 m 5 Y s 2062 1195 m 5 Y s 3 lw 2062 1186 m21 6 lw 2081 1163 m 5 Y s 2081 1185 m 6 Y s 3 lw 2081 1177 m21 6 lw 2100 1152 m 6 Y s 2100 1175 m 6 Y s 3 lw 2100 1166 m21 6 lw 2119 1174 m 6 Y s
 2119 1197 m 6 Y s 3 lw 2119 1189 m21 6 lw 2138 1154 m 6 Y s 2138 1177 m 7 Y s 3 lw 2138 1169 m21 6 lw 2156 1147 m 7 Y s 2156 1171 m 7 Y s 3 lw 2156 1162 m21 6 lw 2175 1174 m 7 Y s 2175 1199 m 7 Y s 3 lw 2175 1190 m21 6 lw 2194 1162 m 7 Y s 2194 1186
 m 7 Y s 3 lw 2194 1177 m21 6 lw 2213 1151 m 8 Y s 2213 1176 m 7 Y s 3 lw 2213 1167 m21 6 lw black 1 1 1 c 680 447 1474 1675 bf black 1474 1675 m 680 X s 2154 1675 m 447 Y s 2154 2122 m -680 X s 1474 2122 m -447 Y s
 gsave  2268 2234 0 0 C 1490.5 2033.27 t 0 r /Helvetica findfont 49.7306 sf 0 0 m (Data taking period) show NC gr 
 gsave  2268 2234 0 0 C 1643.95 1885.5 t 0 r /Helvetica findfont 49.7306 sf 0 0 m (before technical stop) show NC gr  0 0 1 c 1559 1854 m 89 Y s 3 lw 1559 1899 m21 6 lw black
 gsave  2268 2234 0 0 C 1643.95 1736.31 t 0 r /Helvetica findfont 49.7306 sf 0 0 m (after technical stop) show NC gr  1 0 0 c 1559 1705 m 89 Y s 3 lw 1559 1750 m21 6 lw black
 gsave  2268 2234 0 0 C 906.518 670.653 t 0 r /Helvetica-Bold findfont 72.4646 sf 0 0 m (DR PIONS) show NC gr 
 gsave  2268 2234 0 0 C 906.518 558.404 t 0 r /Helvetica-Bold findfont 72.4646 sf 0 0 m (ref. sample: EVENT MIX) show NC gr 
 gsave  2268 2234 0 0 C 906.518 447.576 t 0 r /Helvetica-Bold findfont 72.4646 sf 0 0 m (VELO tracks multiplicity: 2 \255 10) show NC gr 
 gr  gr showpage
end
%%EOF
