%!PS-Adobe-2.0 EPSF-2.0
%%BoundingBox:  0 0 567 558
%%Title: ./before_RD_pion_0c65_h2701_1_compare.eps: before_RD_pion_0c65_h2701_1_compare
%%Creator: ROOT Version 5.34/25
%%CreationDate: Thu Dec 22 10:55:21 2016
%%EndComments
%%BeginProlog
80 dict begin
/s {stroke} def /l {lineto} def /m {moveto} def /t {translate} def
/r {rotate} def /rl {roll}  def /R {repeat} def
/d {rlineto} def /rm {rmoveto} def /gr {grestore} def /f {eofill} def
/c {setrgbcolor} def /black {0 setgray} def /sd {setdash} def
/cl {closepath} def /sf {scalefont setfont} def /lw {setlinewidth} def
/box {m dup 0 exch d exch 0 d 0 exch neg d cl} def
/NC{systemdict begin initclip end}def/C{NC box clip newpath}def
/bl {box s} def /bf {box f} def /Y { 0 exch d} def /X { 0 d} def 
/K {{pop pop 0 moveto} exch kshow} bind def
/ita {/ang 15 def gsave [1 0 ang dup sin exch cos div 1 0 0] concat} def 
/mp {newpath /y exch def /x exch def} def
/side {[w .77 mul w .23 mul] .385 w mul sd w 0 l currentpoint t -144 r} def
/mr {mp x y w2 0 360 arc} def /m24 {mr s} def /m20 {mr f} def
/mb {mp x y w2 add m w2 neg 0 d 0 w neg d w 0 d 0 w d cl} def
/mt {mp x y w2 add m w2 neg w neg d w 0 d cl} def
/m21 {mb f} def /m25 {mb s} def /m22 {mt f} def /m26{mt s} def
/m23 {mp x y w2 sub m w2 w d w neg 0 d cl f} def
/m27 {mp x y w2 add m w3 neg w2 neg d w3 w2 neg d w3 w2 d cl s} def
/m28 {mp x w2 sub y w2 sub w3 add m w3 0 d  0 w3 neg d w3 0 d 0 w3 d w3 0 d  0 w3 d w3 neg 0 d 0 w3 d w3 neg 0 d 0 w3 neg d w3 neg 0 d cl s } def
/m29 {mp gsave x w2 sub y w2 add w3 sub m currentpoint t 4 {side} repeat cl fill gr} def
/m30 {mp gsave x w2 sub y w2 add w3 sub m currentpoint t 4 {side} repeat cl s gr} def
/m31 {mp x y w2 sub m 0 w d x w2 sub y m w 0 d x w2 sub y w2 add m w w neg d x w2 sub y w2 sub m w w d s} def
/m32 {mp x y w2 sub m w2 w d w neg 0 d cl s} def
/m33 {mp x y w2 add m w3 neg w2 neg d w3 w2 neg d w3 w2 d cl f} def
/m34 {mp x w2 sub y w2 sub w3 add m w3 0 d  0 w3 neg d w3 0 d 0 w3 d w3 0 d  0 w3 d w3 neg 0 d 0 w3 d w3 neg 0 d 0 w3 neg d w3 neg 0 d cl f } def
/m2 {mp x y w2 sub m 0 w d x w2 sub y m w 0 d s} def
/m5 {mp x w2 sub y w2 sub m w w d x w2 sub y w2 add m w w neg d s} def
/reEncode {exch findfont dup length dict begin {1 index /FID eq  {pop pop} {def} ifelse } forall /Encoding exch def currentdict end dup /FontName get exch definefont pop } def [/Times-Bold /Times-Italic /Times-BoldItalic /Helvetica /Helvetica-Oblique
 /Helvetica-Bold /Helvetica-BoldOblique /Courier /Courier-Oblique /Courier-Bold /Courier-BoldOblique /Times-Roman /AvantGarde-Book /AvantGarde-BookOblique /AvantGarde-Demi /AvantGarde-DemiOblique /Bookman-Demi /Bookman-DemiItalic /Bookman-Light
 /Bookman-LightItalic /Helvetica-Narrow /Helvetica-Narrow-Bold /Helvetica-Narrow-BoldOblique /Helvetica-Narrow-Oblique /NewCenturySchlbk-Roman /NewCenturySchlbk-Bold /NewCenturySchlbk-BoldItalic /NewCenturySchlbk-Italic /Palatino-Bold
 /Palatino-BoldItalic /Palatino-Italic /Palatino-Roman ] {ISOLatin1Encoding reEncode } forall
%%EndProlog
%%BeginSetup
%%EndSetup
newpath  gsave  .25 .25 scale  gsave  0 0 t black[  ] 0 sd 6 lw 1 1 1 c 2268 2234 0 0 bf black 3 lw 1 1 1 c 1882 1966 340 223 bf black 1882 1966 340 223 bl 1 1 1 c 1882 1966 340 223 bf black 1882 1966 340 223 bl 0 0 1 c 6 lw 1 1 1 c 0 0 1 c 3 lw /w
 19 def /w2 {w 2 div} def /w3 {w 3 div} def 364 243 m21 6 lw 3 lw 411 241 m21 6 lw 3 lw 458 240 m21 6 lw 3 lw 505 243 m21 6 lw 3 lw 552 240 m21 6 lw 3 lw 599 243 m21 6 lw 3 lw 646 241 m21 6 lw 3 lw 693 242 m21 6 lw 3 lw 740 237 m21 6 lw 3 lw 787 240
 m21 6 lw 3 lw 834 238 m21 6 lw 3 lw 881 239 m21 6 lw 3 lw 928 237 m21 6 lw 3 lw 975 236 m21 6 lw 3 lw 1022 238 m21 6 lw 3 lw 1070 242 m21 6 lw 3 lw 1117 263 m21 6 lw 3 lw 1164 345 m21 6 lw 3 lw 1211 617 m21 6 lw 1258 2073 m 3 Y s 1258 2093 m 2 Y s 3
 lw 1258 2084 m21 6 lw 1305 2065 m 2 Y s 1305 2084 m 3 Y s 3 lw 1305 2076 m21 6 lw 3 lw 1352 629 m21 6 lw 3 lw 1399 339 m21 6 lw 3 lw 1446 265 m21 6 lw 3 lw 1493 243 m21 6 lw 3 lw 1540 237 m21 6 lw 3 lw 1587 238 m21 6 lw 3 lw 1634 238 m21 6 lw 3 lw
 1681 237 m21 6 lw 3 lw 1728 238 m21 6 lw 3 lw 1775 238 m21 6 lw 3 lw 1822 241 m21 6 lw 3 lw 1869 240 m21 6 lw 3 lw 1917 242 m21 6 lw 3 lw 1964 240 m21 6 lw 3 lw 2011 240 m21 6 lw 3 lw 2058 243 m21 6 lw 3 lw 2105 242 m21 6 lw 3 lw 2152 243 m21 6 lw 3
 lw 2199 240 m21 6 lw black 340 223 m 1882 X s
 gsave  2268 2234 0 0 C 2195.25 41.2054 t 0 r /Helvetica findfont 55.4141 sf 0 0 m (x) show NC gr 
 gsave  2268 2234 0 0 C 2172.52 61.0976 t 0 r /Helvetica findfont 83.8316 sf 0 0 m (t) show NC gr 
 gsave  2268 2234 0 0 C 2121.37 61.0976 t 0 r /Symbol findfont 83.8316 sf 0 0 m (D) show NC gr  340 279 m -56 Y s 387 251 m -28 Y s 434 251 m -28 Y s 481 251 m -28 Y s 528 251 m -28 Y s 575 279 m -56 Y s 622 251 m -28 Y s 670 251 m -28 Y s 717 251 m
 -28 Y s 764 251 m -28 Y s 811 279 m -56 Y s 858 251 m -28 Y s 905 251 m -28 Y s 952 251 m -28 Y s 999 251 m -28 Y s 1046 279 m -56 Y s 1093 251 m -28 Y s 1140 251 m -28 Y s 1187 251 m -28 Y s 1234 251 m -28 Y s 1281 279 m -56 Y s 1328 251 m -28 Y s
 1375 251 m -28 Y s 1422 251 m -28 Y s 1469 251 m -28 Y s 1517 279 m -56 Y s 1564 251 m -28 Y s 1611 251 m -28 Y s 1658 251 m -28 Y s 1705 251 m -28 Y s 1752 279 m -56 Y s 1799 251 m -28 Y s 1846 251 m -28 Y s 1893 251 m -28 Y s 1940 251 m -28 Y s
 1987 279 m -56 Y s 2034 251 m -28 Y s 2081 251 m -28 Y s 2128 251 m -28 Y s 2175 251 m -28 Y s 2222 279 m -56 Y s
 gsave  2268 2234 0 0 C 278.492 159.138 t 0 r /Helvetica findfont 62.5185 sf 0 0 m (0.002) show NC gr 
 gsave  2268 2234 0 0 C 244.391 159.138 t 0 r /Symbol findfont 62.5185 sf 0 0 m (-) show NC gr 
 gsave  2268 2234 0 0 C 495.885 159.138 t 0 r /Helvetica findfont 62.5185 sf 0 0 m (0.0015) show NC gr 
 gsave  2268 2234 0 0 C 461.784 159.138 t 0 r /Symbol findfont 62.5185 sf 0 0 m (-) show NC gr 
 gsave  2268 2234 0 0 C 754.485 159.138 t 0 r /Helvetica findfont 62.5185 sf 0 0 m (0.001) show NC gr 
 gsave  2268 2234 0 0 C 720.384 159.138 t 0 r /Symbol findfont 62.5185 sf 0 0 m (-) show NC gr 
 gsave  2268 2234 0 0 C 967.616 159.138 t 0 r /Helvetica findfont 62.5185 sf 0 0 m (0.0005) show NC gr 
 gsave  2268 2234 0 0 C 933.515 159.138 t 0 r /Symbol findfont 62.5185 sf 0 0 m (-) show NC gr 
 gsave  2268 2234 0 0 C 1263.16 159.138 t 0 r /Helvetica findfont 62.5185 sf 0 0 m (0) show NC gr 
 gsave  2268 2234 0 0 C 1420.88 159.138 t 0 r /Helvetica findfont 62.5185 sf 0 0 m (0.0005) show NC gr 
 gsave  2268 2234 0 0 C 1678.05 159.138 t 0 r /Helvetica findfont 62.5185 sf 0 0 m (0.001) show NC gr 
 gsave  2268 2234 0 0 C 1891.18 159.138 t 0 r /Helvetica findfont 62.5185 sf 0 0 m (0.0015) show NC gr 
 gsave  2268 2234 0 0 C 2144.1 159.138 t 0 r /Helvetica findfont 62.5185 sf 0 0 m (0.002) show NC gr  340 223 m 1966 Y s
 gsave  2268 2234 0 0 C 171.926 2162.57 t 90 r /Helvetica findfont 55.4141 sf 0 0 m (x) show NC gr 
 gsave  2268 2234 0 0 C 150.613 2139.84 t 90 r /Helvetica findfont 83.8316 sf 0 0 m (t) show NC gr 
 gsave  2268 2234 0 0 C 150.613 2088.69 t 90 r /Symbol findfont 83.8316 sf 0 0 m (D) show NC gr 
 gsave  2268 2234 0 0 C 150.613 1956.54 t 90 r /Helvetica findfont 83.8316 sf 0 0 m (dN/) show NC gr  400 223 m -60 X s 370 291 m -30 X s 370 358 m -30 X s 370 426 m -30 X s 370 494 m -30 X s 400 561 m -60 X s 370 629 m -30 X s 370 696 m -30 X s 370
 764 m -30 X s 370 831 m -30 X s 400 899 m -60 X s 370 967 m -30 X s 370 1034 m -30 X s 370 1102 m -30 X s 370 1169 m -30 X s 400 1237 m -60 X s 370 1304 m -30 X s 370 1372 m -30 X s 370 1439 m -30 X s 370 1507 m -30 X s 400 1575 m -60 X s 370 1642 m
 -30 X s 370 1710 m -30 X s 370 1777 m -30 X s 370 1845 m -30 X s 400 1912 m -60 X s 400 1912 m -60 X s 370 1980 m -30 X s 370 2047 m -30 X s 370 2115 m -30 X s 370 2183 m -30 X s
 gsave  2268 2234 0 0 C 295.542 201.764 t 0 r /Helvetica findfont 62.5185 sf 0 0 m (0) show NC gr 
 gsave  2268 2234 0 0 C 191.818 538.512 t 0 r /Helvetica findfont 62.5185 sf 0 0 m (5000) show NC gr 
 gsave  2268 2234 0 0 C 156.296 876.68 t 0 r /Helvetica findfont 62.5185 sf 0 0 m (10000) show NC gr 
 gsave  2268 2234 0 0 C 156.296 1214.85 t 0 r /Helvetica findfont 62.5185 sf 0 0 m (15000) show NC gr 
 gsave  2268 2234 0 0 C 156.296 1553.02 t 0 r /Helvetica findfont 62.5185 sf 0 0 m (20000) show NC gr 
 gsave  2268 2234 0 0 C 156.296 1889.76 t 0 r /Helvetica findfont 62.5185 sf 0 0 m (25000) show NC gr  1 0 0 c 1 1 1 c 1 0 0 c 3 lw 364 235 m21 6 lw 3 lw 411 233 m21 6 lw 3 lw 458 232 m21 6 lw 3 lw 505 234 m21 6 lw 3 lw 552 232 m21 6 lw 3 lw 599 232
 m21 6 lw 3 lw 646 232 m21 6 lw 3 lw 693 232 m21 6 lw 3 lw 740 230 m21 6 lw 3 lw 787 231 m21 6 lw 3 lw 834 230 m21 6 lw 3 lw 881 230 m21 6 lw 3 lw 928 229 m21 6 lw 3 lw 975 228 m21 6 lw 3 lw 1022 228 m21 6 lw 3 lw 1070 227 m21 6 lw 3 lw 1117 227 m21
 6 lw 3 lw 1164 232 m21 6 lw 3 lw 1211 244 m21 6 lw 3 lw 1258 262 m21 6 lw 3 lw 1305 259 m21 6 lw 3 lw 1352 245 m21 6 lw 3 lw 1399 232 m21 6 lw 3 lw 1446 227 m21 6 lw 3 lw 1493 227 m21 6 lw 3 lw 1540 227 m21 6 lw 3 lw 1587 228 m21 6 lw 3 lw 1634 229
 m21 6 lw 3 lw 1681 228 m21 6 lw 3 lw 1728 230 m21 6 lw 3 lw 1775 230 m21 6 lw 3 lw 1822 231 m21 6 lw 3 lw 1869 233 m21 6 lw 3 lw 1917 233 m21 6 lw 3 lw 1964 232 m21 6 lw 3 lw 2011 232 m21 6 lw 3 lw 2058 234 m21 6 lw 3 lw 2105 234 m21 6 lw 3 lw 2152
 234 m21 6 lw 3 lw 2199 233 m21 6 lw black 1 1 1 c 680 447 1474 1675 bf black 1474 1675 m 680 X s 2154 1675 m 447 Y s 2154 2122 m -680 X s 1474 2122 m -447 Y s
 gsave  2268 2234 0 0 C 1643.95 1994.91 t 0 r /Helvetica findfont 39.7845 sf 0 0 m (before final selection) show NC gr  0 0 1 c 1559 1943 m 134 Y s 3 lw 1559 2010 m21 6 lw black
 gsave  2268 2234 0 0 C 1643.95 1771.83 t 0 r /Helvetica findfont 39.7845 sf 0 0 m (after final selection) show NC gr  1 0 0 c 1559 1720 m 134 Y s 3 lw 1559 1787 m21 6 lw black
 gsave  2268 2234 0 0 C 906.518 670.653 t 0 r /Helvetica-Bold findfont 72.4646 sf 0 0 m (DATA) show NC gr 
 gsave  2268 2234 0 0 C 906.518 558.404 t 0 r /Helvetica-Bold findfont 72.4646 sf 0 0 m (VELO tracks multiplicity: 2 \255 10) show NC gr 
 gr  gr showpage
end
%%EOF
