%!PS-Adobe-2.0 EPSF-2.0
%%BoundingBox:  0 0 567 558
%%Title: ./h2701_1_compare.eps: h2701_1_compare
%%Creator: ROOT Version 6.06/02
%%CreationDate: Fri Jan 27 14:20:16 2017
%%DocumentNeededResources: ProcSet (FontSetInit)
%%EndComments
%%BeginProlog
80 dict begin
/s {stroke} def /l {lineto} def /m {moveto} def /t {translate} def
/r {rotate} def /rl {roll}  def /R {repeat} def
/d {rlineto} def /rm {rmoveto} def /gr {grestore} def /f {eofill} def
/c {setrgbcolor} def /black {0 setgray} def /sd {setdash} def
/cl {closepath} def /sf {scalefont setfont} def /lw {setlinewidth} def
/box {m dup 0 exch d exch 0 d 0 exch neg d cl} def
/NC{systemdict begin initclip end}def/C{NC box clip newpath}def
/bl {box s} def /bf {gsave box gsave f grestore 1 lw [] 0 sd s grestore} def /Y { 0 exch d} def /X { 0 d} def 
/K {{pop pop 0 moveto} exch kshow} bind def
/ita {/ang 15 def gsave [1 0 ang dup sin exch cos div 1 0 0] concat} def 
/mp {newpath /y exch def /x exch def} def
/side {[w .77 mul w .23 mul] .385 w mul sd w 0 l currentpoint t -144 r} def
/mr {mp x y w2 0 360 arc} def /m24 {mr s} def /m20 {mr f} def
/mb {mp x y w2 add m w2 neg 0 d 0 w neg d w 0 d 0 w d cl} def
/mt {mp x y w2 add m w2 neg w neg d w 0 d cl} def
/m21 {mb f} def /m25 {mb s} def /m22 {mt f} def /m26{mt s} def
/m23 {mp x y w2 sub m w2 w d w neg 0 d cl f} def
/m27 {mp x y w2 add m w3 neg w2 neg d w3 w2 neg d w3 w2 d cl s} def
/m28 {mp x w2 sub y w2 sub w3 add m w3 0 d  0 w3 neg d w3 0 d 0 w3 d w3 0 d  0 w3 d w3 neg 0 d 0 w3 d w3 neg 0 d 0 w3 neg d w3 neg 0 d cl s } def
/m29 {mp gsave x w2 sub y w2 add w3 sub m currentpoint t 4 {side} repeat cl fill gr} def
/m30 {mp gsave x w2 sub y w2 add w3 sub m currentpoint t 4 {side} repeat cl s gr} def
/m31 {mp x y w2 sub m 0 w d x w2 sub y m w 0 d x w2 sub y w2 add m w w neg d x w2 sub y w2 sub m w w d s} def
/m32 {mp x y w2 sub m w2 w d w neg 0 d cl s} def
/m33 {mp x y w2 add m w3 neg w2 neg d w3 w2 neg d w3 w2 d cl f} def
/m34 {mp x w2 sub y w2 sub w3 add m w3 0 d  0 w3 neg d w3 0 d 0 w3 d w3 0 d  0 w3 d w3 neg 0 d 0 w3 d w3 neg 0 d 0 w3 neg d w3 neg 0 d cl f } def
/m2 {mp x y w2 sub m 0 w d x w2 sub y m w 0 d s} def
/m5 {mp x w2 sub y w2 sub m w w d x w2 sub y w2 add m w w neg d s} def
%%IncludeResource: ProcSet (FontSetInit)
%%IncludeResource: font Times-Roman
%%IncludeResource: font Times-Italic
%%IncludeResource: font Times-Bold
%%IncludeResource: font Times-BoldItalic
%%IncludeResource: font Helvetica
%%IncludeResource: font Helvetica-Oblique
%%IncludeResource: font Helvetica-Bold
%%IncludeResource: font Helvetica-BoldOblique
%%IncludeResource: font Courier
%%IncludeResource: font Courier-Oblique
%%IncludeResource: font Courier-Bold
%%IncludeResource: font Courier-BoldOblique
%%IncludeResource: font Symbol
%%IncludeResource: font ZapfDingbats
/reEncode {exch findfont dup length dict begin {1 index /FID eq  {pop pop} {def} ifelse } forall /Encoding exch def currentdict end dup /FontName get exch definefont pop } def [/Times-Bold /Times-Italic /Times-BoldItalic /Helvetica /Helvetica-Oblique
 /Helvetica-Bold /Helvetica-BoldOblique /Courier /Courier-Oblique /Courier-Bold /Courier-BoldOblique /Times-Roman /AvantGarde-Book /AvantGarde-BookOblique /AvantGarde-Demi /AvantGarde-DemiOblique /Bookman-Demi /Bookman-DemiItalic /Bookman-Light
 /Bookman-LightItalic /Helvetica-Narrow /Helvetica-Narrow-Bold /Helvetica-Narrow-BoldOblique /Helvetica-Narrow-Oblique /NewCenturySchlbk-Roman /NewCenturySchlbk-Bold /NewCenturySchlbk-BoldItalic /NewCenturySchlbk-Italic /Palatino-Bold
 /Palatino-BoldItalic /Palatino-Italic /Palatino-Roman ] {ISOLatin1Encoding reEncode } forall
%%EndProlog
%%BeginSetup
%%EndSetup
newpath  gsave  .25 .25 scale  gsave  0 0 t black[  ] 0 sd 6 lw 1 1 1 c 2268 2234 0 0 bf black 3 lw 1 1 1 c 1882 1966 340 223 bf black 1882 1966 340 223 bl 1 1 1 c 1882 1966 340 223 bf black 1882 1966 340 223 bl 0 0 1 c 6 lw 1 1 1 c 0 0 1 c 3 lw /w
 19 def /w2 {w 2 div} def /w3 {w 3 div} def 364 266 m21 6 lw 3 lw 411 262 m21 6 lw 3 lw 458 257 m21 6 lw 3 lw 505 257 m21 6 lw 3 lw 552 256 m21 6 lw 3 lw 599 258 m21 6 lw 3 lw 646 259 m21 6 lw 3 lw 693 251 m21 6 lw 3 lw 740 250 m21 6 lw 3 lw 787 252
 m21 6 lw 3 lw 834 248 m21 6 lw 3 lw 881 249 m21 6 lw 3 lw 928 251 m21 6 lw 3 lw 975 254 m21 6 lw 3 lw 1022 257 m21 6 lw 3 lw 1070 286 m21 6 lw 3 lw 1117 378 m21 6 lw 1164 656 m 3 Y s 1164 676 m 2 Y s 3 lw 1164 667 m21 6 lw 1211 1365 m 9 Y s 1211
 1391 m 9 Y s 3 lw 1211 1383 m21 6 lw 1258 2051 m 14 Y s 1258 2082 m 13 Y s 3 lw 1258 2073 m21 6 lw 1305 2014 m 13 Y s 1305 2044 m 14 Y s 3 lw 1305 2036 m21 6 lw 1352 1353 m 9 Y s 1352 1379 m 9 Y s 3 lw 1352 1371 m21 6 lw 1399 625 m 2 Y s 1399 644 m
 2 Y s 3 lw 1399 636 m21 6 lw 3 lw 1446 374 m21 6 lw 3 lw 1493 288 m21 6 lw 3 lw 1540 256 m21 6 lw 3 lw 1587 244 m21 6 lw 3 lw 1634 251 m21 6 lw 3 lw 1681 248 m21 6 lw 3 lw 1728 247 m21 6 lw 3 lw 1775 248 m21 6 lw 3 lw 1822 253 m21 6 lw 3 lw 1869 256
 m21 6 lw 3 lw 1917 257 m21 6 lw 3 lw 1964 256 m21 6 lw 3 lw 2011 253 m21 6 lw 3 lw 2058 260 m21 6 lw 3 lw 2105 261 m21 6 lw 3 lw 2152 265 m21 6 lw 3 lw 2199 258 m21 6 lw black 340 223 m 1882 X s
 gsave  2268 2234 0 0 C 2195.25 41.2054 t 0 r /Helvetica findfont 55.4141 sf 0 0 m (x) show NC gr 
 gsave  2268 2234 0 0 C 2172.52 61.0976 t 0 r /Helvetica findfont 83.8316 sf 0 0 m (t) show NC gr 
 gsave  2268 2234 0 0 C 2121.37 61.0976 t 0 r /Symbol findfont 83.8316 sf 0 0 m (D) show NC gr  340 279 m -56 Y s 387 251 m -28 Y s 434 251 m -28 Y s 481 251 m -28 Y s 528 251 m -28 Y s 575 279 m -56 Y s 622 251 m -28 Y s 670 251 m -28 Y s 717 251 m
 -28 Y s 764 251 m -28 Y s 811 279 m -56 Y s 858 251 m -28 Y s 905 251 m -28 Y s 952 251 m -28 Y s 999 251 m -28 Y s 1046 279 m -56 Y s 1093 251 m -28 Y s 1140 251 m -28 Y s 1187 251 m -28 Y s 1234 251 m -28 Y s 1281 279 m -56 Y s 1328 251 m -28 Y s
 1375 251 m -28 Y s 1422 251 m -28 Y s 1469 251 m -28 Y s 1517 279 m -56 Y s 1564 251 m -28 Y s 1611 251 m -28 Y s 1658 251 m -28 Y s 1705 251 m -28 Y s 1752 279 m -56 Y s 1799 251 m -28 Y s 1846 251 m -28 Y s 1893 251 m -28 Y s 1940 251 m -28 Y s
 1987 279 m -56 Y s 2034 251 m -28 Y s 2081 251 m -28 Y s 2128 251 m -28 Y s 2175 251 m -28 Y s 2222 279 m -56 Y s
 gsave  2268 2234 0 0 C 278.492 159.138 t 0 r /Helvetica findfont 62.5185 sf 0 0 m (0.002) show NC gr 
 gsave  2268 2234 0 0 C 244.391 159.138 t 0 r /Symbol findfont 62.5185 sf 0 0 m (-) show NC gr 
 gsave  2268 2234 0 0 C 495.885 159.138 t 0 r /Helvetica findfont 62.5185 sf 0 0 m (0.0015) show NC gr 
 gsave  2268 2234 0 0 C 461.784 159.138 t 0 r /Symbol findfont 62.5185 sf 0 0 m (-) show NC gr 
 gsave  2268 2234 0 0 C 754.485 159.138 t 0 r /Helvetica findfont 62.5185 sf 0 0 m (0.001) show NC gr 
 gsave  2268 2234 0 0 C 720.384 159.138 t 0 r /Symbol findfont 62.5185 sf 0 0 m (-) show NC gr 
 gsave  2268 2234 0 0 C 967.616 159.138 t 0 r /Helvetica findfont 62.5185 sf 0 0 m (0.0005) show NC gr 
 gsave  2268 2234 0 0 C 933.515 159.138 t 0 r /Symbol findfont 62.5185 sf 0 0 m (-) show NC gr 
 gsave  2268 2234 0 0 C 1263.16 159.138 t 0 r /Helvetica findfont 62.5185 sf 0 0 m (0) show NC gr 
 gsave  2268 2234 0 0 C 1420.88 159.138 t 0 r /Helvetica findfont 62.5185 sf 0 0 m (0.0005) show NC gr 
 gsave  2268 2234 0 0 C 1678.05 159.138 t 0 r /Helvetica findfont 62.5185 sf 0 0 m (0.001) show NC gr 
 gsave  2268 2234 0 0 C 1891.18 159.138 t 0 r /Helvetica findfont 62.5185 sf 0 0 m (0.0015) show NC gr 
 gsave  2268 2234 0 0 C 2144.1 159.138 t 0 r /Helvetica findfont 62.5185 sf 0 0 m (0.002) show NC gr  340 223 m 1966 Y s
 gsave  2268 2234 0 0 C 171.926 2162.57 t 90 r /Helvetica findfont 55.4141 sf 0 0 m (x) show NC gr 
 gsave  2268 2234 0 0 C 150.613 2139.84 t 90 r /Helvetica findfont 83.8316 sf 0 0 m (t) show NC gr 
 gsave  2268 2234 0 0 C 150.613 2088.69 t 90 r /Symbol findfont 83.8316 sf 0 0 m (D) show NC gr 
 gsave  2268 2234 0 0 C 150.613 1933.81 t 90 r /Helvetica findfont 83.8316 sf 0 0 m ( dN/) show NC gr  400 223 m -60 X s 370 276 m -30 X s 370 329 m -30 X s 370 382 m -30 X s 370 435 m -30 X s 400 488 m -60 X s 370 541 m -30 X s 370 594 m -30 X s 370
 646 m -30 X s 370 699 m -30 X s 400 752 m -60 X s 370 805 m -30 X s 370 858 m -30 X s 370 911 m -30 X s 370 964 m -30 X s 400 1017 m -60 X s 370 1070 m -30 X s 370 1123 m -30 X s 370 1175 m -30 X s 370 1228 m -30 X s 400 1281 m -60 X s 370 1334 m
 -30 X s 370 1387 m -30 X s 370 1440 m -30 X s 370 1493 m -30 X s 400 1546 m -60 X s 370 1599 m -30 X s 370 1651 m -30 X s 370 1704 m -30 X s 370 1757 m -30 X s 400 1810 m -60 X s 370 1863 m -30 X s 370 1916 m -30 X s 370 1969 m -30 X s 370 2022 m
 -30 X s 400 2075 m -60 X s 400 2075 m -60 X s 370 2127 m -30 X s 370 2180 m -30 X s
 gsave  2268 2234 0 0 C 295.542 201.764 t 0 r /Helvetica findfont 62.5185 sf 0 0 m (0) show NC gr 
 gsave  2268 2234 0 0 C 191.818 466.047 t 0 r /Helvetica findfont 62.5185 sf 0 0 m (1000) show NC gr 
 gsave  2268 2234 0 0 C 191.818 730.33 t 0 r /Helvetica findfont 62.5185 sf 0 0 m (2000) show NC gr 
 gsave  2268 2234 0 0 C 191.818 994.612 t 0 r /Helvetica findfont 62.5185 sf 0 0 m (3000) show NC gr 
 gsave  2268 2234 0 0 C 191.818 1258.9 t 0 r /Helvetica findfont 62.5185 sf 0 0 m (4000) show NC gr 
 gsave  2268 2234 0 0 C 191.818 1523.18 t 0 r /Helvetica findfont 62.5185 sf 0 0 m (5000) show NC gr 
 gsave  2268 2234 0 0 C 191.818 1787.46 t 0 r /Helvetica findfont 62.5185 sf 0 0 m (6000) show NC gr 
 gsave  2268 2234 0 0 C 191.818 2053.16 t 0 r /Helvetica findfont 62.5185 sf 0 0 m (7000) show NC gr  1 0 0 c 1 1 1 c 1 0 0 c 3 lw 364 260 m21 6 lw 3 lw 411 254 m21 6 lw 3 lw 458 251 m21 6 lw 3 lw 505 251 m21 6 lw 3 lw 552 249 m21 6 lw 3 lw 599 252
 m21 6 lw 3 lw 646 253 m21 6 lw 3 lw 693 247 m21 6 lw 3 lw 740 244 m21 6 lw 3 lw 787 245 m21 6 lw 3 lw 834 239 m21 6 lw 3 lw 881 239 m21 6 lw 3 lw 928 242 m21 6 lw 3 lw 975 237 m21 6 lw 3 lw 1022 237 m21 6 lw 3 lw 1070 235 m21 6 lw 3 lw 1117 239 m21
 6 lw 3 lw 1164 257 m21 6 lw 3 lw 1211 299 m21 6 lw 3 lw 1258 343 m21 6 lw 3 lw 1305 339 m21 6 lw 3 lw 1352 295 m21 6 lw 3 lw 1399 257 m21 6 lw 3 lw 1446 241 m21 6 lw 3 lw 1493 240 m21 6 lw 3 lw 1540 236 m21 6 lw 3 lw 1587 233 m21 6 lw 3 lw 1634 242
 m21 6 lw 3 lw 1681 239 m21 6 lw 3 lw 1728 242 m21 6 lw 3 lw 1775 242 m21 6 lw 3 lw 1822 246 m21 6 lw 3 lw 1869 250 m21 6 lw 3 lw 1917 252 m21 6 lw 3 lw 1964 248 m21 6 lw 3 lw 2011 248 m21 6 lw 3 lw 2058 254 m21 6 lw 3 lw 2105 254 m21 6 lw 3 lw 2152
 258 m21 6 lw 3 lw 2199 251 m21 6 lw black 1 1 1 c 680 447 1474 1675 bf black 1474 1675 m 680 X s 2154 1675 m 447 Y s 2154 2122 m -680 X s 1474 2122 m -447 Y s
 gsave  2268 2234 0 0 C 1643.95 1960.81 t 0 r /Helvetica findfont 130.721 sf 0 0 m (before) show NC gr  0 0 1 c 1559 1943 m 134 Y s 3 lw 1559 2010 m21 6 lw black
 gsave  2268 2234 0 0 C 1643.95 1737.73 t 0 r /Helvetica findfont 130.721 sf 0 0 m (after) show NC gr  1 0 0 c 1559 1720 m 134 Y s 3 lw 1559 1787 m21 6 lw black
 gsave  2268 2234 0 0 C 1473.45 1229.06 t 0 r /Helvetica-Bold findfont 72.4646 sf 0 0 m (VELO tracks) show NC gr 
 gsave  2268 2234 0 0 C 1473.45 1116.81 t 0 r /Helvetica-Bold findfont 72.4646 sf 0 0 m (multiplicity: 2 \255 10) show NC gr 
 gr  gr showpage
end
%%EOF
