%!PS-Adobe-2.0 EPSF-2.0
%%BoundingBox:  0 0 567 558
%%Title: ./h2801_1_compare.eps: h2801_1_compare
%%Creator: ROOT Version 6.06/02
%%CreationDate: Fri Jan 27 14:20:16 2017
%%DocumentNeededResources: ProcSet (FontSetInit)
%%EndComments
%%BeginProlog
80 dict begin
/s {stroke} def /l {lineto} def /m {moveto} def /t {translate} def
/r {rotate} def /rl {roll}  def /R {repeat} def
/d {rlineto} def /rm {rmoveto} def /gr {grestore} def /f {eofill} def
/c {setrgbcolor} def /black {0 setgray} def /sd {setdash} def
/cl {closepath} def /sf {scalefont setfont} def /lw {setlinewidth} def
/box {m dup 0 exch d exch 0 d 0 exch neg d cl} def
/NC{systemdict begin initclip end}def/C{NC box clip newpath}def
/bl {box s} def /bf {gsave box gsave f grestore 1 lw [] 0 sd s grestore} def /Y { 0 exch d} def /X { 0 d} def 
/K {{pop pop 0 moveto} exch kshow} bind def
/ita {/ang 15 def gsave [1 0 ang dup sin exch cos div 1 0 0] concat} def 
/mp {newpath /y exch def /x exch def} def
/side {[w .77 mul w .23 mul] .385 w mul sd w 0 l currentpoint t -144 r} def
/mr {mp x y w2 0 360 arc} def /m24 {mr s} def /m20 {mr f} def
/mb {mp x y w2 add m w2 neg 0 d 0 w neg d w 0 d 0 w d cl} def
/mt {mp x y w2 add m w2 neg w neg d w 0 d cl} def
/m21 {mb f} def /m25 {mb s} def /m22 {mt f} def /m26{mt s} def
/m23 {mp x y w2 sub m w2 w d w neg 0 d cl f} def
/m27 {mp x y w2 add m w3 neg w2 neg d w3 w2 neg d w3 w2 d cl s} def
/m28 {mp x w2 sub y w2 sub w3 add m w3 0 d  0 w3 neg d w3 0 d 0 w3 d w3 0 d  0 w3 d w3 neg 0 d 0 w3 d w3 neg 0 d 0 w3 neg d w3 neg 0 d cl s } def
/m29 {mp gsave x w2 sub y w2 add w3 sub m currentpoint t 4 {side} repeat cl fill gr} def
/m30 {mp gsave x w2 sub y w2 add w3 sub m currentpoint t 4 {side} repeat cl s gr} def
/m31 {mp x y w2 sub m 0 w d x w2 sub y m w 0 d x w2 sub y w2 add m w w neg d x w2 sub y w2 sub m w w d s} def
/m32 {mp x y w2 sub m w2 w d w neg 0 d cl s} def
/m33 {mp x y w2 add m w3 neg w2 neg d w3 w2 neg d w3 w2 d cl f} def
/m34 {mp x w2 sub y w2 sub w3 add m w3 0 d  0 w3 neg d w3 0 d 0 w3 d w3 0 d  0 w3 d w3 neg 0 d 0 w3 d w3 neg 0 d 0 w3 neg d w3 neg 0 d cl f } def
/m2 {mp x y w2 sub m 0 w d x w2 sub y m w 0 d s} def
/m5 {mp x w2 sub y w2 sub m w w d x w2 sub y w2 add m w w neg d s} def
%%IncludeResource: ProcSet (FontSetInit)
%%IncludeResource: font Times-Roman
%%IncludeResource: font Times-Italic
%%IncludeResource: font Times-Bold
%%IncludeResource: font Times-BoldItalic
%%IncludeResource: font Helvetica
%%IncludeResource: font Helvetica-Oblique
%%IncludeResource: font Helvetica-Bold
%%IncludeResource: font Helvetica-BoldOblique
%%IncludeResource: font Courier
%%IncludeResource: font Courier-Oblique
%%IncludeResource: font Courier-Bold
%%IncludeResource: font Courier-BoldOblique
%%IncludeResource: font Symbol
%%IncludeResource: font ZapfDingbats
/reEncode {exch findfont dup length dict begin {1 index /FID eq  {pop pop} {def} ifelse } forall /Encoding exch def currentdict end dup /FontName get exch definefont pop } def [/Times-Bold /Times-Italic /Times-BoldItalic /Helvetica /Helvetica-Oblique
 /Helvetica-Bold /Helvetica-BoldOblique /Courier /Courier-Oblique /Courier-Bold /Courier-BoldOblique /Times-Roman /AvantGarde-Book /AvantGarde-BookOblique /AvantGarde-Demi /AvantGarde-DemiOblique /Bookman-Demi /Bookman-DemiItalic /Bookman-Light
 /Bookman-LightItalic /Helvetica-Narrow /Helvetica-Narrow-Bold /Helvetica-Narrow-BoldOblique /Helvetica-Narrow-Oblique /NewCenturySchlbk-Roman /NewCenturySchlbk-Bold /NewCenturySchlbk-BoldItalic /NewCenturySchlbk-Italic /Palatino-Bold
 /Palatino-BoldItalic /Palatino-Italic /Palatino-Roman ] {ISOLatin1Encoding reEncode } forall
%%EndProlog
%%BeginSetup
%%EndSetup
newpath  gsave  .25 .25 scale  gsave  0 0 t black[  ] 0 sd 6 lw 1 1 1 c 2268 2234 0 0 bf black 3 lw 1 1 1 c 1882 1966 340 223 bf black 1882 1966 340 223 bl 1 1 1 c 1882 1966 340 223 bf black 1882 1966 340 223 bl 0 0 1 c 6 lw 1 1 1 c 0 0 1 c 3 lw /w
 19 def /w2 {w 2 div} def /w3 {w 3 div} def 364 252 m21 6 lw 3 lw 411 248 m21 6 lw 3 lw 458 249 m21 6 lw 3 lw 505 245 m21 6 lw 3 lw 552 246 m21 6 lw 3 lw 599 247 m21 6 lw 3 lw 646 245 m21 6 lw 3 lw 693 240 m21 6 lw 3 lw 740 240 m21 6 lw 3 lw 787 240
 m21 6 lw 3 lw 834 238 m21 6 lw 3 lw 881 237 m21 6 lw 3 lw 928 240 m21 6 lw 3 lw 975 239 m21 6 lw 3 lw 1022 242 m21 6 lw 3 lw 1070 246 m21 6 lw 3 lw 1117 272 m21 6 lw 3 lw 1164 347 m21 6 lw 3 lw 1211 620 m21 6 lw 1258 2059 m 10 Y s 1258 2086 m 9 Y s
 3 lw 1258 2077 m21 6 lw 1305 2056 m 10 Y s 1305 2083 m 9 Y s 3 lw 1305 2074 m21 6 lw 1352 635 m 1 Y s 1352 653 m s 3 lw 1352 644 m21 6 lw 3 lw 1399 338 m21 6 lw 3 lw 1446 273 m21 6 lw 3 lw 1493 251 m21 6 lw 3 lw 1540 242 m21 6 lw 3 lw 1587 239 m21 6
 lw 3 lw 1634 238 m21 6 lw 3 lw 1681 240 m21 6 lw 3 lw 1728 240 m21 6 lw 3 lw 1775 240 m21 6 lw 3 lw 1822 238 m21 6 lw 3 lw 1869 245 m21 6 lw 3 lw 1917 243 m21 6 lw 3 lw 1964 245 m21 6 lw 3 lw 2011 248 m21 6 lw 3 lw 2058 248 m21 6 lw 3 lw 2105 250
 m21 6 lw 3 lw 2152 248 m21 6 lw 3 lw 2199 252 m21 6 lw black 340 223 m 1882 X s
 gsave  2268 2234 0 0 C 2195.25 46.8889 t 0 r /Helvetica findfont 55.4141 sf 0 0 m (y) show NC gr 
 gsave  2268 2234 0 0 C 2172.52 68.202 t 0 r /Helvetica findfont 83.8316 sf 0 0 m (t) show NC gr 
 gsave  2268 2234 0 0 C 2121.37 68.202 t 0 r /Symbol findfont 83.8316 sf 0 0 m (D) show NC gr  340 279 m -56 Y s 387 251 m -28 Y s 434 251 m -28 Y s 481 251 m -28 Y s 528 251 m -28 Y s 575 279 m -56 Y s 622 251 m -28 Y s 670 251 m -28 Y s 717 251 m
 -28 Y s 764 251 m -28 Y s 811 279 m -56 Y s 858 251 m -28 Y s 905 251 m -28 Y s 952 251 m -28 Y s 999 251 m -28 Y s 1046 279 m -56 Y s 1093 251 m -28 Y s 1140 251 m -28 Y s 1187 251 m -28 Y s 1234 251 m -28 Y s 1281 279 m -56 Y s 1328 251 m -28 Y s
 1375 251 m -28 Y s 1422 251 m -28 Y s 1469 251 m -28 Y s 1517 279 m -56 Y s 1564 251 m -28 Y s 1611 251 m -28 Y s 1658 251 m -28 Y s 1705 251 m -28 Y s 1752 279 m -56 Y s 1799 251 m -28 Y s 1846 251 m -28 Y s 1893 251 m -28 Y s 1940 251 m -28 Y s
 1987 279 m -56 Y s 2034 251 m -28 Y s 2081 251 m -28 Y s 2128 251 m -28 Y s 2175 251 m -28 Y s 2222 279 m -56 Y s
 gsave  2268 2234 0 0 C 278.492 159.138 t 0 r /Helvetica findfont 62.5185 sf 0 0 m (0.002) show NC gr 
 gsave  2268 2234 0 0 C 244.391 159.138 t 0 r /Symbol findfont 62.5185 sf 0 0 m (-) show NC gr 
 gsave  2268 2234 0 0 C 495.885 159.138 t 0 r /Helvetica findfont 62.5185 sf 0 0 m (0.0015) show NC gr 
 gsave  2268 2234 0 0 C 461.784 159.138 t 0 r /Symbol findfont 62.5185 sf 0 0 m (-) show NC gr 
 gsave  2268 2234 0 0 C 754.485 159.138 t 0 r /Helvetica findfont 62.5185 sf 0 0 m (0.001) show NC gr 
 gsave  2268 2234 0 0 C 720.384 159.138 t 0 r /Symbol findfont 62.5185 sf 0 0 m (-) show NC gr 
 gsave  2268 2234 0 0 C 967.616 159.138 t 0 r /Helvetica findfont 62.5185 sf 0 0 m (0.0005) show NC gr 
 gsave  2268 2234 0 0 C 933.515 159.138 t 0 r /Symbol findfont 62.5185 sf 0 0 m (-) show NC gr 
 gsave  2268 2234 0 0 C 1263.16 159.138 t 0 r /Helvetica findfont 62.5185 sf 0 0 m (0) show NC gr 
 gsave  2268 2234 0 0 C 1420.88 159.138 t 0 r /Helvetica findfont 62.5185 sf 0 0 m (0.0005) show NC gr 
 gsave  2268 2234 0 0 C 1678.05 159.138 t 0 r /Helvetica findfont 62.5185 sf 0 0 m (0.001) show NC gr 
 gsave  2268 2234 0 0 C 1891.18 159.138 t 0 r /Helvetica findfont 62.5185 sf 0 0 m (0.0015) show NC gr 
 gsave  2268 2234 0 0 C 2144.1 159.138 t 0 r /Helvetica findfont 62.5185 sf 0 0 m (0.002) show NC gr  340 223 m 1966 Y s
 gsave  2268 2234 0 0 C 164.822 2162.57 t 90 r /Helvetica findfont 55.4141 sf 0 0 m (y) show NC gr 
 gsave  2268 2234 0 0 C 144.929 2139.84 t 90 r /Helvetica findfont 83.8316 sf 0 0 m (t) show NC gr 
 gsave  2268 2234 0 0 C 144.929 2088.69 t 90 r /Symbol findfont 83.8316 sf 0 0 m (D) show NC gr 
 gsave  2268 2234 0 0 C 144.929 1933.81 t 90 r /Helvetica findfont 83.8316 sf 0 0 m ( dN/) show NC gr  400 223 m -60 X s 370 313 m -30 X s 370 402 m -30 X s 370 492 m -30 X s 400 581 m -60 X s 370 670 m -30 X s 370 760 m -30 X s 370 849 m -30 X s 400
 939 m -60 X s 370 1028 m -30 X s 370 1118 m -30 X s 370 1207 m -30 X s 400 1296 m -60 X s 370 1386 m -30 X s 370 1475 m -30 X s 370 1565 m -30 X s 400 1654 m -60 X s 370 1743 m -30 X s 370 1833 m -30 X s 370 1922 m -30 X s 400 2012 m -60 X s 400
 2012 m -60 X s 370 2101 m -30 X s
 gsave  2268 2234 0 0 C 295.542 201.764 t 0 r /Helvetica findfont 62.5185 sf 0 0 m (0) show NC gr 
 gsave  2268 2234 0 0 C 191.818 558.404 t 0 r /Helvetica findfont 62.5185 sf 0 0 m (2000) show NC gr 
 gsave  2268 2234 0 0 C 191.818 916.464 t 0 r /Helvetica findfont 62.5185 sf 0 0 m (4000) show NC gr 
 gsave  2268 2234 0 0 C 191.818 1274.52 t 0 r /Helvetica findfont 62.5185 sf 0 0 m (6000) show NC gr 
 gsave  2268 2234 0 0 C 191.818 1632.59 t 0 r /Helvetica findfont 62.5185 sf 0 0 m (8000) show NC gr 
 gsave  2268 2234 0 0 C 156.296 1989.22 t 0 r /Helvetica findfont 62.5185 sf 0 0 m (10000) show NC gr  1 0 0 c 1 1 1 c 1 0 0 c 3 lw 364 248 m21 6 lw 3 lw 411 244 m21 6 lw 3 lw 458 243 m21 6 lw 3 lw 505 240 m21 6 lw 3 lw 552 242 m21 6 lw 3 lw 599 242
 m21 6 lw 3 lw 646 241 m21 6 lw 3 lw 693 236 m21 6 lw 3 lw 740 236 m21 6 lw 3 lw 787 235 m21 6 lw 3 lw 834 234 m21 6 lw 3 lw 881 231 m21 6 lw 3 lw 928 233 m21 6 lw 3 lw 975 232 m21 6 lw 3 lw 1022 230 m21 6 lw 3 lw 1070 229 m21 6 lw 3 lw 1117 232 m21
 6 lw 3 lw 1164 241 m21 6 lw 3 lw 1211 256 m21 6 lw 3 lw 1258 337 m21 6 lw 3 lw 1305 324 m21 6 lw 3 lw 1352 257 m21 6 lw 3 lw 1399 237 m21 6 lw 3 lw 1446 234 m21 6 lw 3 lw 1493 232 m21 6 lw 3 lw 1540 231 m21 6 lw 3 lw 1587 232 m21 6 lw 3 lw 1634 232
 m21 6 lw 3 lw 1681 235 m21 6 lw 3 lw 1728 236 m21 6 lw 3 lw 1775 236 m21 6 lw 3 lw 1822 235 m21 6 lw 3 lw 1869 241 m21 6 lw 3 lw 1917 239 m21 6 lw 3 lw 1964 241 m21 6 lw 3 lw 2011 243 m21 6 lw 3 lw 2058 244 m21 6 lw 3 lw 2105 243 m21 6 lw 3 lw 2152
 243 m21 6 lw 3 lw 2199 246 m21 6 lw black 1 1 1 c 680 447 1474 1675 bf black 1474 1675 m 680 X s 2154 1675 m 447 Y s 2154 2122 m -680 X s 1474 2122 m -447 Y s
 gsave  2268 2234 0 0 C 1643.95 1960.81 t 0 r /Helvetica findfont 130.721 sf 0 0 m (before) show NC gr  0 0 1 c 1559 1943 m 134 Y s 3 lw 1559 2010 m21 6 lw black
 gsave  2268 2234 0 0 C 1643.95 1737.73 t 0 r /Helvetica findfont 130.721 sf 0 0 m (after) show NC gr  1 0 0 c 1559 1720 m 134 Y s 3 lw 1559 1787 m21 6 lw black
 gsave  2268 2234 0 0 C 1473.45 1229.06 t 0 r /Helvetica-Bold findfont 72.4646 sf 0 0 m (VELO tracks) show NC gr 
 gsave  2268 2234 0 0 C 1473.45 1116.81 t 0 r /Helvetica-Bold findfont 72.4646 sf 0 0 m (multiplicity: 2 \255 10) show NC gr 
 gr  gr showpage
end
%%EOF
