%!PS-Adobe-2.0 EPSF-2.0
%%BoundingBox:  0 0 567 386
%%Title: /home/marcin/Unfolding/unfoldedNch.eps: c1
%%Creator: ROOT Version 6.00/02
%%CreationDate: Tue Jan 24 09:41:58 2017
%%EndComments
%%BeginProlog
80 dict begin
/s {stroke} def /l {lineto} def /m {moveto} def /t {translate} def
/r {rotate} def /rl {roll}  def /R {repeat} def
/d {rlineto} def /rm {rmoveto} def /gr {grestore} def /f {eofill} def
/c {setrgbcolor} def /black {0 setgray} def /sd {setdash} def
/cl {closepath} def /sf {scalefont setfont} def /lw {setlinewidth} def
/box {m dup 0 exch d exch 0 d 0 exch neg d cl} def
/NC{systemdict begin initclip end}def/C{NC box clip newpath}def
/bl {box s} def /bf {box f} def /Y { 0 exch d} def /X { 0 d} def 
/K {{pop pop 0 moveto} exch kshow} bind def
/ita {/ang 15 def gsave [1 0 ang dup sin exch cos div 1 0 0] concat} def 
/mp {newpath /y exch def /x exch def} def
/side {[w .77 mul w .23 mul] .385 w mul sd w 0 l currentpoint t -144 r} def
/mr {mp x y w2 0 360 arc} def /m24 {mr s} def /m20 {mr f} def
/mb {mp x y w2 add m w2 neg 0 d 0 w neg d w 0 d 0 w d cl} def
/mt {mp x y w2 add m w2 neg w neg d w 0 d cl} def
/m21 {mb f} def /m25 {mb s} def /m22 {mt f} def /m26{mt s} def
/m23 {mp x y w2 sub m w2 w d w neg 0 d cl f} def
/m27 {mp x y w2 add m w3 neg w2 neg d w3 w2 neg d w3 w2 d cl s} def
/m28 {mp x w2 sub y w2 sub w3 add m w3 0 d  0 w3 neg d w3 0 d 0 w3 d w3 0 d  0 w3 d w3 neg 0 d 0 w3 d w3 neg 0 d 0 w3 neg d w3 neg 0 d cl s } def
/m29 {mp gsave x w2 sub y w2 add w3 sub m currentpoint t 4 {side} repeat cl fill gr} def
/m30 {mp gsave x w2 sub y w2 add w3 sub m currentpoint t 4 {side} repeat cl s gr} def
/m31 {mp x y w2 sub m 0 w d x w2 sub y m w 0 d x w2 sub y w2 add m w w neg d x w2 sub y w2 sub m w w d s} def
/m32 {mp x y w2 sub m w2 w d w neg 0 d cl s} def
/m33 {mp x y w2 add m w3 neg w2 neg d w3 w2 neg d w3 w2 d cl f} def
/m34 {mp x w2 sub y w2 sub w3 add m w3 0 d  0 w3 neg d w3 0 d 0 w3 d w3 0 d  0 w3 d w3 neg 0 d 0 w3 d w3 neg 0 d 0 w3 neg d w3 neg 0 d cl f } def
/m2 {mp x y w2 sub m 0 w d x w2 sub y m w 0 d s} def
/m5 {mp x w2 sub y w2 sub m w w d x w2 sub y w2 add m w w neg d s} def
/reEncode {exch findfont dup length dict begin {1 index /FID eq  {pop pop} {def} ifelse } forall /Encoding exch def currentdict end dup /FontName get exch definefont pop } def [/Times-Bold /Times-Italic /Times-BoldItalic /Helvetica /Helvetica-Oblique
 /Helvetica-Bold /Helvetica-BoldOblique /Courier /Courier-Oblique /Courier-Bold /Courier-BoldOblique /Times-Roman /AvantGarde-Book /AvantGarde-BookOblique /AvantGarde-Demi /AvantGarde-DemiOblique /Bookman-Demi /Bookman-DemiItalic /Bookman-Light
 /Bookman-LightItalic /Helvetica-Narrow /Helvetica-Narrow-Bold /Helvetica-Narrow-BoldOblique /Helvetica-Narrow-Oblique /NewCenturySchlbk-Roman /NewCenturySchlbk-Bold /NewCenturySchlbk-BoldItalic /NewCenturySchlbk-Italic /Palatino-Bold
 /Palatino-BoldItalic /Palatino-Italic /Palatino-Roman ] {ISOLatin1Encoding reEncode } forall
%%EndProlog
%%BeginSetup
%%EndSetup
newpath  gsave  .25 .25 scale  gsave  0 0 t black[  ] 0 sd 3 lw 1 1 1 c 2268 1544 0 0 bf black 1 1 1 c 1814 1236 227 154 bf black 1814 1236 227 154 bl 1 1 1 c 1814 1236 227 154 bf black 1814 1236 227 154 bl 0 0 0.6 c 1 1 1 c 1 0 0 c 0 0 0.6 c 340 196
 m 2 X s 361 196 m 2 X s 1 0 0 c /w 22 def /w2 {w 2 div} def /w3 {w 3 div} def 351 196 m20 0 0 0.6 c 363 366 m 1 X s 384 366 m 2 X s 1 0 0 c 374 366 m20 0 0 0.6 c 386 464 m 1 X s 407 464 m 1 X s 1 0 0 c 397 464 m20 0 0 0.6 c 408 564 m 2 X s 429 564 m
 2 X s 1 0 0 c 420 564 m20 0 0 0.6 c 431 646 m 1 X s 452 646 m 2 X s 1 0 0 c 442 646 m20 0 0 0.6 c 454 700 m 1 X s 475 700 m 1 X s 1 0 0 c 465 700 m20 0 0 0.6 c 476 675 m 2 X s 497 675 m 2 X s 1 0 0 c 488 675 m20 0 0 0.6 c 499 666 m 1 X s 520 666 m 2
 X s 1 0 0 c 510 666 m20 0 0 0.6 c 522 625 m 1 X s 543 625 m 1 X s 1 0 0 c 533 625 m20 0 0 0.6 c 544 612 m 2 X s 565 612 m 2 X s 1 0 0 c 556 612 m20 0 0 0.6 c 567 579 m 1 X s 588 579 m 2 X s 1 0 0 c 578 579 m20 0 0 0.6 c 590 544 m 1 X s 611 544 m 1 X
 s 1 0 0 c 601 544 m20 0 0 0.6 c 612 507 m 2 X s 633 507 m 2 X s 1 0 0 c 624 507 m20 0 0 0.6 c 635 484 m 2 X s 656 484 m 2 X s 1 0 0 c 646 484 m20 0 0 0.6 c 658 461 m 1 X s 679 461 m 1 X s 1 0 0 c 669 461 m20 0 0 0.6 c 680 441 m 2 X s 701 441 m 2 X s
 1 0 0 c 692 441 m20 0 0 0.6 c 703 436 m 2 X s 724 436 m 2 X s 1 0 0 c 714 436 m20 0 0 0.6 c 726 405 m 1 X s 747 405 m 1 X s 1 0 0 c 737 405 m20 0 0 0.6 c 748 394 m 2 X s 769 394 m 2 X s 1 0 0 c 760 394 m20 0 0 0.6 c 771 390 m 2 X s 792 390 m 2 X s 1
 0 0 c 782 390 m20 0 0 0.6 c 794 374 m 1 X s 815 374 m 1 X s 1 0 0 c 805 374 m20 0 0 0.6 c 816 352 m 2 X s 837 352 m 2 X s 1 0 0 c 828 352 m20 0 0 0.6 c 839 328 m 2 X s 860 328 m 2 X s 1 0 0 c 850 328 m20 0 0 0.6 c 862 339 m 1 X s 883 339 m 1 X s 1 0
 0 c 873 339 m20 0 0 0.6 c 884 324 m 2 X s 906 324 m 1 X s 1 0 0 c 896 324 m20 0 0 0.6 c 907 322 m 2 X s 928 322 m 2 X s 1 0 0 c 918 322 m20 0 0 0.6 c 930 277 m 1 X s 951 277 m 1 X s 1 0 0 c 941 277 m20 0 0 0.6 c 952 293 m 2 X s 974 293 m 1 X s 1 0 0
 c 964 293 m20 0 0 0.6 c 975 285 m 2 X s 996 285 m 2 X s 1 0 0 c 986 285 m20 0 0 0.6 c 998 278 m 1 X s 1019 278 m 1 X s 1 0 0 c 1009 278 m20 0 0 0.6 c 1020 269 m 2 X s 1042 269 m 1 X s 1 0 0 c 1032 269 m20 0 0 0.6 c 1043 249 m 2 X s 1064 249 m 2 X s
 1 0 0 c 1054 249 m20 0 0 0.6 c 1066 259 m 1 X s 1087 259 m 2 X s 1 0 0 c 1077 259 m20 0 0 0.6 c 1089 248 m 1 X s 1110 248 m 1 X s 1 0 0 c 1100 248 m20 0 0 0.6 c 1111 238 m 2 X s 1132 238 m 2 X s 1 0 0 c 1123 238 m20 0 0 0.6 c 1134 216 m 1 X s 1155
 216 m 2 X s 1 0 0 c 1145 216 m20 0 0 0.6 c 1157 259 m 1 X s 1178 259 m 1 X s 1 0 0 c 1168 259 m20 0 0 0.6 c 1179 216 m 2 X s 1200 216 m 2 X s 1 0 0 c 1191 216 m20 0 0 0.6 c 1202 218 m 1 X s 1223 218 m 2 X s 1 0 0 c 1213 218 m20 0 0 0.6 c 1225 210 m
 1 X s 1246 210 m 1 X s 1 0 0 c 1236 210 m20 0 0 0.6 c 1247 198 m 2 X s 1268 198 m 2 X s 1 0 0 c 1259 198 m20 0 0 0.6 c 1270 206 m 1 X s 1291 206 m 2 X s 1 0 0 c 1281 206 m20 0 0 0.6 c 1293 203 m 1 X s 1314 203 m 1 X s 1 0 0 c 1304 203 m20 0 0 0.6 c
 1315 193 m 2 X s 1336 193 m 2 X s 1 0 0 c 1327 193 m20 0 0 0.6 c 1338 192 m 2 X s 1359 192 m 2 X s 1 0 0 c 1349 192 m20 0 0 0.6 c 1361 180 m 1 X s 1382 180 m 1 X s 1 0 0 c 1372 180 m20 0 0 0.6 c 1383 217 m 2 X s 1404 217 m 2 X s 1 0 0 c 1395 217 m20
 0 0 0.6 c 1406 168 m 2 X s 1427 168 m 2 X s 1 0 0 c 1417 168 m20 0 0 0.6 c 1429 190 m 1 X s 1450 190 m 1 X s 1 0 0 c 1440 190 m20 0 0 0.6 c 1451 185 m 2 X s 1472 185 m 2 X s 1 0 0 c 1463 185 m20 0 0 0.6 c 1474 162 m 2 X s 1495 162 m 2 X s 1 0 0 c
 1485 162 m20 0 0 0.6 c 1497 191 m 1 X s 1518 191 m 1 X s 1 0 0 c 1508 191 m20 0 0 0.6 c 1519 175 m 2 X s 1540 175 m 2 X s 1 0 0 c 1531 175 m20 0 0 0.6 c 1542 173 m 2 X s 1563 173 m 2 X s 1 0 0 c 1553 173 m20 0 0 0.6 c 1565 173 m 1 X s 1586 173 m 1 X
 s 1 0 0 c 1576 173 m20 0 0 0.6 c 1587 171 m 2 X s 1609 171 m 1 X s 1 0 0 c 1599 171 m20 0 0 0.6 c 1633 167 m 1 X s 1654 167 m 1 X s 1 0 0 c 1644 167 m20 0 0 0.6 c 1655 164 m 2 X s 1677 164 m 1 X s 1 0 0 c 1667 164 m20 0 0 0.6 c 1701 164 m 1 X s 1722
 164 m 1 X s 1 0 0 c 1712 164 m20 0 0 0.6 c 1723 160 m 2 X s 1745 160 m 1 X s 1 0 0 c 1735 160 m20 0 0 0.6 c 1746 160 m 2 X s 1767 160 m 2 X s 1 0 0 c 1757 160 m20 0 0 0.6 c 1769 167 m 1 X s 1790 167 m 1 X s 1 0 0 c 1780 167 m20 0 0 0.6 c 1837 160 m
 1 X s 1858 160 m 2 X s 1 0 0 c 1848 160 m20 black 227 154 m 1814 X s
 gsave  2268 1544 0 0 C 2000.54 35.8403 t 0 r /Helvetica findfont 39.0986 sf 0 0 m (ch) show NC gr 
 gsave  2268 1544 0 0 C 1961.44 55.3896 t 0 r /Helvetica findfont 58.6478 sf 0 0 m (N) show NC gr  227 192 m -38 Y s 272 173 m -19 Y s 317 173 m -19 Y s 363 173 m -19 Y s 408 173 m -19 Y s 454 192 m -38 Y s 499 173 m -19 Y s 544 173 m -19 Y s 590 173
 m -19 Y s 635 173 m -19 Y s 680 192 m -38 Y s 726 173 m -19 Y s 771 173 m -19 Y s 816 173 m -19 Y s 862 173 m -19 Y s 907 192 m -38 Y s 952 173 m -19 Y s 998 173 m -19 Y s 1043 173 m -19 Y s 1089 173 m -19 Y s 1134 192 m -38 Y s 1179 173 m -19 Y s
 1225 173 m -19 Y s 1270 173 m -19 Y s 1315 173 m -19 Y s 1361 192 m -38 Y s 1406 173 m -19 Y s 1451 173 m -19 Y s 1497 173 m -19 Y s 1542 173 m -19 Y s 1587 192 m -38 Y s 1633 173 m -19 Y s 1678 173 m -19 Y s 1723 173 m -19 Y s 1769 173 m -19 Y s
 1814 192 m -38 Y s 1860 173 m -19 Y s 1905 173 m -19 Y s 1950 173 m -19 Y s 1996 173 m -19 Y s 2041 192 m -38 Y s
 gsave  2268 1544 0 0 C 208.526 97.7464 t 0 r /Helvetica findfont 58.6478 sf 0 0 m (0) show NC gr 
 gsave  2268 1544 0 0 C 420.31 97.7464 t 0 r /Helvetica findfont 58.6478 sf 0 0 m (10) show NC gr 
 gsave  2268 1544 0 0 C 645.126 97.7464 t 0 r /Helvetica findfont 58.6478 sf 0 0 m (20) show NC gr 
 gsave  2268 1544 0 0 C 873.201 97.7464 t 0 r /Helvetica findfont 58.6478 sf 0 0 m (30) show NC gr 
 gsave  2268 1544 0 0 C 1101.28 97.7464 t 0 r /Helvetica findfont 58.6478 sf 0 0 m (40) show NC gr 
 gsave  2268 1544 0 0 C 1326.09 97.7464 t 0 r /Helvetica findfont 58.6478 sf 0 0 m (50) show NC gr 
 gsave  2268 1544 0 0 C 1554.17 97.7464 t 0 r /Helvetica findfont 58.6478 sf 0 0 m (60) show NC gr 
 gsave  2268 1544 0 0 C 1778.98 97.7464 t 0 r /Helvetica findfont 58.6478 sf 0 0 m (70) show NC gr 
 gsave  2268 1544 0 0 C 2007.06 97.7464 t 0 r /Helvetica findfont 58.6478 sf 0 0 m (80) show NC gr  227 154 m 1236 Y s
 gsave  2268 1544 0 0 C 58.6478 1355.42 t 90 r /Helvetica findfont 58.6478 sf 0 0 m (\)\)) show NC gr 
 gsave  2268 1544 0 0 C 91.23 1316.32 t 90 r /Helvetica findfont 39.0986 sf 0 0 m (ch) show NC gr 
 gsave  2268 1544 0 0 C 58.6478 1101.28 t 90 r /Helvetica findfont 58.6478 sf 0 0 m (dN / d\(N) show NC gr  281 154 m -54 X s 254 184 m -27 X s 254 214 m -27 X s 254 244 m -27 X s 254 274 m -27 X s 281 303 m -54 X s 254 333 m -27 X s 254 363 m -27 X
 s 254 393 m -27 X s 254 422 m -27 X s 281 452 m -54 X s 254 482 m -27 X s 254 512 m -27 X s 254 541 m -27 X s 254 571 m -27 X s 281 601 m -54 X s 254 631 m -27 X s 254 661 m -27 X s 254 690 m -27 X s 254 720 m -27 X s 281 750 m -54 X s 254 780 m -27
 X s 254 809 m -27 X s 254 839 m -27 X s 254 869 m -27 X s 281 899 m -54 X s 254 928 m -27 X s 254 958 m -27 X s 254 988 m -27 X s 254 1018 m -27 X s 281 1048 m -54 X s 254 1077 m -27 X s 254 1107 m -27 X s 254 1137 m -27 X s 254 1167 m -27 X s 281
 1196 m -54 X s 254 1226 m -27 X s 254 1256 m -27 X s 254 1286 m -27 X s 254 1316 m -27 X s 281 1345 m -54 X s 281 1345 m -54 X s 254 1375 m -27 X s
 gsave  2268 1544 0 0 C 182.46 133.587 t 0 r /Helvetica findfont 58.6478 sf 0 0 m (0) show NC gr 
 gsave  2268 1544 0 0 C 84.7135 283.465 t 0 r /Helvetica findfont 58.6478 sf 0 0 m (1000) show NC gr 
 gsave  2268 1544 0 0 C 84.7135 430.084 t 0 r /Helvetica findfont 58.6478 sf 0 0 m (2000) show NC gr 
 gsave  2268 1544 0 0 C 84.7135 579.962 t 0 r /Helvetica findfont 58.6478 sf 0 0 m (3000) show NC gr 
 gsave  2268 1544 0 0 C 84.7135 729.84 t 0 r /Helvetica findfont 58.6478 sf 0 0 m (4000) show NC gr 
 gsave  2268 1544 0 0 C 84.7135 876.459 t 0 r /Helvetica findfont 58.6478 sf 0 0 m (5000) show NC gr 
 gsave  2268 1544 0 0 C 84.7135 1026.34 t 0 r /Helvetica findfont 58.6478 sf 0 0 m (6000) show NC gr 
 gsave  2268 1544 0 0 C 84.7135 1176.21 t 0 r /Helvetica findfont 58.6478 sf 0 0 m (7000) show NC gr 
 gsave  2268 1544 0 0 C 84.7135 1322.83 t 0 r /Helvetica findfont 58.6478 sf 0 0 m (8000) show NC gr  0 0 0.6 c 6 lw 1 1 1 c black 0 0 0.6 c 227 154 m 90 X 641 Y 23 X 561 Y 23 X -156 Y 23 X -135 Y 22 X -128 Y 23 X -104 Y 23 X -86 Y 22 X -79 Y 23 X
 -54 Y 23 X -64 Y 22 X -32 Y 23 X -45 Y 23 X -28 Y 22 X -32 Y 23 X -27 Y 23 X -23 Y 22 X -35 Y 23 X -13 Y 23 X -21 Y 22 X -22 Y 23 X -12 Y 23 X -7 Y 22 X -19 Y 23 X -4 Y 23 X -7 Y 22 X -17 Y 46 X -14 Y 22 X 1 Y 23 X -10 Y 23 X -3 Y 22 X -3 Y 23 X -1
 Y 23 X -4 Y 23 X -3 Y 22 X -4 Y 23 X -1 Y 45 X -2 Y 23 X -1 Y 23 X -2 Y 22 X -1 Y 68 X -1 Y 23 X -1 Y 45 X -1 Y 250 X -1 Y 22 X 1 Y 136 X -1 Y 23 X 1 Y 23 X -1 Y 204 X s 0 1 0 c 1 1 1 c black 0 1 0 c 227 154 m 113 X 150 Y 23 X 110 Y 23 X 97 Y 22 X
 97 Y 23 X 62 Y 23 X 17 Y 22 X -16 Y 23 X -23 Y 23 X -26 Y 22 X -33 Y 23 X -26 Y 23 X -43 Y 22 X -17 Y 23 X -33 Y 23 X -19 Y 22 X -8 Y 23 X -20 Y 23 X -24 Y 22 X -8 Y 23 X -19 Y 23 X -9 Y 22 X -20 Y 46 X -16 Y 22 X -7 Y 23 X -15 Y 23 X -19 Y 22 X 2 Y
 23 X -12 Y 23 X 3 Y 22 X -22 Y 23 X -3 Y 23 X -5 Y 23 X -7 Y 22 X -7 Y 23 X -6 Y 23 X 2 Y 22 X -9 Y 23 X -9 Y 23 X -3 Y 22 X -10 Y 23 X 1 Y 23 X -1 Y 22 X -6 Y 23 X 1 Y 23 X -6 Y 22 X -3 Y 46 X -3 Y 22 X -1 Y 23 X -4 Y 23 X -3 Y 45 X -4 Y 23 X -1 Y
 22 X -1 Y 23 X -3 Y 23 X 1 Y 22 X -3 Y 46 X -1 Y 45 X -1 Y 45 X -2 Y 23 X -1 Y 23 X 1 Y 23 X -2 Y 45 X 1 Y 23 X -2 Y 22 X 1 Y 23 X -1 Y 45 X -1 Y 23 X s 0 0 0.6 c 3 lw 1 1 1 c 1 0 0 c 0 0 0.6 c 340 196 m 2 X s 361 196 m 2 X s 1 0 0 c 351 196 m20 0 0
 0.6 c 363 366 m 1 X s 384 366 m 2 X s 1 0 0 c 374 366 m20 0 0 0.6 c 386 464 m 1 X s 407 464 m 1 X s 1 0 0 c 397 464 m20 0 0 0.6 c 408 564 m 2 X s 429 564 m 2 X s 1 0 0 c 420 564 m20 0 0 0.6 c 431 646 m 1 X s 452 646 m 2 X s 1 0 0 c 442 646 m20 0 0
 0.6 c 454 700 m 1 X s 475 700 m 1 X s 1 0 0 c 465 700 m20 0 0 0.6 c 476 675 m 2 X s 497 675 m 2 X s 1 0 0 c 488 675 m20 0 0 0.6 c 499 666 m 1 X s 520 666 m 2 X s 1 0 0 c 510 666 m20 0 0 0.6 c 522 625 m 1 X s 543 625 m 1 X s 1 0 0 c 533 625 m20 0 0
 0.6 c 544 612 m 2 X s 565 612 m 2 X s 1 0 0 c 556 612 m20 0 0 0.6 c 567 579 m 1 X s 588 579 m 2 X s 1 0 0 c 578 579 m20 0 0 0.6 c 590 544 m 1 X s 611 544 m 1 X s 1 0 0 c 601 544 m20 0 0 0.6 c 612 507 m 2 X s 633 507 m 2 X s 1 0 0 c 624 507 m20 0 0
 0.6 c 635 484 m 2 X s 656 484 m 2 X s 1 0 0 c 646 484 m20 0 0 0.6 c 658 461 m 1 X s 679 461 m 1 X s 1 0 0 c 669 461 m20 0 0 0.6 c 680 441 m 2 X s 701 441 m 2 X s 1 0 0 c 692 441 m20 0 0 0.6 c 703 436 m 2 X s 724 436 m 2 X s 1 0 0 c 714 436 m20 0 0
 0.6 c 726 405 m 1 X s 747 405 m 1 X s 1 0 0 c 737 405 m20 0 0 0.6 c 748 394 m 2 X s 769 394 m 2 X s 1 0 0 c 760 394 m20 0 0 0.6 c 771 390 m 2 X s 792 390 m 2 X s 1 0 0 c 782 390 m20 0 0 0.6 c 794 374 m 1 X s 815 374 m 1 X s 1 0 0 c 805 374 m20 0 0
 0.6 c 816 352 m 2 X s 837 352 m 2 X s 1 0 0 c 828 352 m20 0 0 0.6 c 839 328 m 2 X s 860 328 m 2 X s 1 0 0 c 850 328 m20 0 0 0.6 c 862 339 m 1 X s 883 339 m 1 X s 1 0 0 c 873 339 m20 0 0 0.6 c 884 324 m 2 X s 906 324 m 1 X s 1 0 0 c 896 324 m20 0 0
 0.6 c 907 322 m 2 X s 928 322 m 2 X s 1 0 0 c 918 322 m20 0 0 0.6 c 930 277 m 1 X s 951 277 m 1 X s 1 0 0 c 941 277 m20 0 0 0.6 c 952 293 m 2 X s 974 293 m 1 X s 1 0 0 c 964 293 m20 0 0 0.6 c 975 285 m 2 X s 996 285 m 2 X s 1 0 0 c 986 285 m20 0 0
 0.6 c 998 278 m 1 X s 1019 278 m 1 X s 1 0 0 c 1009 278 m20 0 0 0.6 c 1020 269 m 2 X s 1042 269 m 1 X s 1 0 0 c 1032 269 m20 0 0 0.6 c 1043 249 m 2 X s 1064 249 m 2 X s 1 0 0 c 1054 249 m20 0 0 0.6 c 1066 259 m 1 X s 1087 259 m 2 X s 1 0 0 c 1077
 259 m20 0 0 0.6 c 1089 248 m 1 X s 1110 248 m 1 X s 1 0 0 c 1100 248 m20 0 0 0.6 c 1111 238 m 2 X s 1132 238 m 2 X s 1 0 0 c 1123 238 m20 0 0 0.6 c 1134 216 m 1 X s 1155 216 m 2 X s 1 0 0 c 1145 216 m20 0 0 0.6 c 1157 259 m 1 X s 1178 259 m 1 X s 1
 0 0 c 1168 259 m20 0 0 0.6 c 1179 216 m 2 X s 1200 216 m 2 X s 1 0 0 c 1191 216 m20 0 0 0.6 c 1202 218 m 1 X s 1223 218 m 2 X s 1 0 0 c 1213 218 m20 0 0 0.6 c 1225 210 m 1 X s 1246 210 m 1 X s 1 0 0 c 1236 210 m20 0 0 0.6 c 1247 198 m 2 X s 1268 198
 m 2 X s 1 0 0 c 1259 198 m20 0 0 0.6 c 1270 206 m 1 X s 1291 206 m 2 X s 1 0 0 c 1281 206 m20 0 0 0.6 c 1293 203 m 1 X s 1314 203 m 1 X s 1 0 0 c 1304 203 m20 0 0 0.6 c 1315 193 m 2 X s 1336 193 m 2 X s 1 0 0 c 1327 193 m20 0 0 0.6 c 1338 192 m 2 X
 s 1359 192 m 2 X s 1 0 0 c 1349 192 m20 0 0 0.6 c 1361 180 m 1 X s 1382 180 m 1 X s 1 0 0 c 1372 180 m20 0 0 0.6 c 1383 217 m 2 X s 1404 217 m 2 X s 1 0 0 c 1395 217 m20 0 0 0.6 c 1406 168 m 2 X s 1427 168 m 2 X s 1 0 0 c 1417 168 m20 0 0 0.6 c 1429
 190 m 1 X s 1450 190 m 1 X s 1 0 0 c 1440 190 m20 0 0 0.6 c 1451 185 m 2 X s 1472 185 m 2 X s 1 0 0 c 1463 185 m20 0 0 0.6 c 1474 162 m 2 X s 1495 162 m 2 X s 1 0 0 c 1485 162 m20 0 0 0.6 c 1497 191 m 1 X s 1518 191 m 1 X s 1 0 0 c 1508 191 m20 0 0
 0.6 c 1519 175 m 2 X s 1540 175 m 2 X s 1 0 0 c 1531 175 m20 0 0 0.6 c 1542 173 m 2 X s 1563 173 m 2 X s 1 0 0 c 1553 173 m20 0 0 0.6 c 1565 173 m 1 X s 1586 173 m 1 X s 1 0 0 c 1576 173 m20 0 0 0.6 c 1587 171 m 2 X s 1609 171 m 1 X s 1 0 0 c 1599
 171 m20 0 0 0.6 c 1633 167 m 1 X s 1654 167 m 1 X s 1 0 0 c 1644 167 m20 0 0 0.6 c 1655 164 m 2 X s 1677 164 m 1 X s 1 0 0 c 1667 164 m20 0 0 0.6 c 1701 164 m 1 X s 1722 164 m 1 X s 1 0 0 c 1712 164 m20 0 0 0.6 c 1723 160 m 2 X s 1745 160 m 1 X s 1
 0 0 c 1735 160 m20 0 0 0.6 c 1746 160 m 2 X s 1767 160 m 2 X s 1 0 0 c 1757 160 m20 0 0 0.6 c 1769 167 m 1 X s 1790 167 m 1 X s 1 0 0 c 1780 167 m20 0 0 0.6 c 1837 160 m 1 X s 1858 160 m 2 X s 1 0 0 c 1848 160 m20 0 0 1 c black 0 0 1 c
 gsave  2268 1544 0 0 C 1687.75 1290.25 t 0 r /Helvetica-Bold findfont 39.0986 sf 0 0 m (ch) show NC gr  black 0 0 1 c
 gsave  2268 1544 0 0 C 1358.68 1313.06 t 0 r /Helvetica-Bold findfont 58.6478 sf 0 0 m (Measured N) show NC gr  0 1 0 c black 0 1 0 c
 gsave  2268 1544 0 0 C 1837.63 1172.96 t 0 r /Helvetica-Bold findfont 39.0986 sf 0 0 m (ch) show NC gr  black 0 1 0 c
 gsave  2268 1544 0 0 C 1358.68 1205.54 t 0 r /Helvetica-Bold findfont 58.6478 sf 0 0 m (True generated N) show NC gr  1 0 0 c black 1 0 0 c
 gsave  2268 1544 0 0 C 1713.82 1098.02 t 0 r /Helvetica-Bold findfont 58.6478 sf 0 0 m ( \(Bayes\)) show NC gr  black 1 0 0 c
 gsave  2268 1544 0 0 C 1668.21 1075.21 t 0 r /Helvetica-Bold findfont 39.0986 sf 0 0 m (ch) show NC gr  black 1 0 0 c
 gsave  2268 1544 0 0 C 1358.68 1098.02 t 0 r /Helvetica-Bold findfont 58.6478 sf 0 0 m (Unfolded N) show NC gr  1 1 1 c black
 gsave  2268 1544 0 0 C 847.135 1472.71 t 0 r /Helvetica findfont 74.9389 sf 0 0 m (Unfold Response) show NC gr 
 gr  gr showpage
end
%%EOF
