%!PS-Adobe-2.0 EPSF-2.0
%%BoundingBox:  0 0 567 386
%%Title: /home/marcin/Unfolding/UnfoldCovMatrix2.eps: c1
%%Creator: ROOT Version 6.00/02
%%CreationDate: Wed Jan 25 12:26:56 2017
%%EndComments
%%BeginProlog
80 dict begin
/s {stroke} def /l {lineto} def /m {moveto} def /t {translate} def
/r {rotate} def /rl {roll}  def /R {repeat} def
/d {rlineto} def /rm {rmoveto} def /gr {grestore} def /f {eofill} def
/c {setrgbcolor} def /black {0 setgray} def /sd {setdash} def
/cl {closepath} def /sf {scalefont setfont} def /lw {setlinewidth} def
/box {m dup 0 exch d exch 0 d 0 exch neg d cl} def
/NC{systemdict begin initclip end}def/C{NC box clip newpath}def
/bl {box s} def /bf {box f} def /Y { 0 exch d} def /X { 0 d} def 
/K {{pop pop 0 moveto} exch kshow} bind def
/ita {/ang 15 def gsave [1 0 ang dup sin exch cos div 1 0 0] concat} def 
/mp {newpath /y exch def /x exch def} def
/side {[w .77 mul w .23 mul] .385 w mul sd w 0 l currentpoint t -144 r} def
/mr {mp x y w2 0 360 arc} def /m24 {mr s} def /m20 {mr f} def
/mb {mp x y w2 add m w2 neg 0 d 0 w neg d w 0 d 0 w d cl} def
/mt {mp x y w2 add m w2 neg w neg d w 0 d cl} def
/m21 {mb f} def /m25 {mb s} def /m22 {mt f} def /m26{mt s} def
/m23 {mp x y w2 sub m w2 w d w neg 0 d cl f} def
/m27 {mp x y w2 add m w3 neg w2 neg d w3 w2 neg d w3 w2 d cl s} def
/m28 {mp x w2 sub y w2 sub w3 add m w3 0 d  0 w3 neg d w3 0 d 0 w3 d w3 0 d  0 w3 d w3 neg 0 d 0 w3 d w3 neg 0 d 0 w3 neg d w3 neg 0 d cl s } def
/m29 {mp gsave x w2 sub y w2 add w3 sub m currentpoint t 4 {side} repeat cl fill gr} def
/m30 {mp gsave x w2 sub y w2 add w3 sub m currentpoint t 4 {side} repeat cl s gr} def
/m31 {mp x y w2 sub m 0 w d x w2 sub y m w 0 d x w2 sub y w2 add m w w neg d x w2 sub y w2 sub m w w d s} def
/m32 {mp x y w2 sub m w2 w d w neg 0 d cl s} def
/m33 {mp x y w2 add m w3 neg w2 neg d w3 w2 neg d w3 w2 d cl f} def
/m34 {mp x w2 sub y w2 sub w3 add m w3 0 d  0 w3 neg d w3 0 d 0 w3 d w3 0 d  0 w3 d w3 neg 0 d 0 w3 d w3 neg 0 d 0 w3 neg d w3 neg 0 d cl f } def
/m2 {mp x y w2 sub m 0 w d x w2 sub y m w 0 d s} def
/m5 {mp x w2 sub y w2 sub m w w d x w2 sub y w2 add m w w neg d s} def
/reEncode {exch findfont dup length dict begin {1 index /FID eq  {pop pop} {def} ifelse } forall /Encoding exch def currentdict end dup /FontName get exch definefont pop } def [/Times-Bold /Times-Italic /Times-BoldItalic /Helvetica /Helvetica-Oblique
 /Helvetica-Bold /Helvetica-BoldOblique /Courier /Courier-Oblique /Courier-Bold /Courier-BoldOblique /Times-Roman /AvantGarde-Book /AvantGarde-BookOblique /AvantGarde-Demi /AvantGarde-DemiOblique /Bookman-Demi /Bookman-DemiItalic /Bookman-Light
 /Bookman-LightItalic /Helvetica-Narrow /Helvetica-Narrow-Bold /Helvetica-Narrow-BoldOblique /Helvetica-Narrow-Oblique /NewCenturySchlbk-Roman /NewCenturySchlbk-Bold /NewCenturySchlbk-BoldItalic /NewCenturySchlbk-Italic /Palatino-Bold
 /Palatino-BoldItalic /Palatino-Italic /Palatino-Roman ] {ISOLatin1Encoding reEncode } forall
%%EndProlog
%%BeginSetup
%%EndSetup
newpath  gsave  .25 .25 scale  gsave  0 0 t black[  ] 0 sd 3 lw 1 1 1 c 2268 1544 0 0 bf black 1 1 1 c 1814 1236 227 154 bf black 1814 1236 227 154 bl 1 1 1 c 1814 1236 227 154 bf black 1814 1236 227 154 bl 1 1 1 c 0.2 0 1 c 23 15 340 232 bf 23 15
 363 232 bf 0.386667 0 1 c 23 15 408 232 bf 0.2 0 1 c 23 16 340 247 bf 0 1 0.8 c 23 16 363 247 bf 0 0.0800001 1 c 22 16 386 247 bf 0.386667 0 1 c 23 16 431 247 bf 0 0.0800001 1 c 23 15 363 263 bf 0.133333 1 0 c 22 15 386 263 bf 0 0.266667 1 c 23 15
 408 263 bf 0.386667 0 1 c 22 15 454 263 bf 23 15 340 278 bf 0 0.266667 1 c 22 15 386 278 bf 0.88 1 0 c 23 15 408 278 bf 0 0.546666 1 c 23 15 431 278 bf 0.386667 0 1 c 23 15 476 278 bf 23 16 363 293 bf 0 0.546666 1 c 23 16 408 293 bf 1 0.466667 0 c
 23 16 431 293 bf 0 0.733333 1 c 22 16 454 293 bf 0.386667 0 1 c 23 16 499 293 bf 22 15 386 309 bf 0 0.733333 1 c 23 15 431 309 bf 1 0 0 c 22 15 454 309 bf 0 0.733333 1 c 23 15 476 309 bf 0.386667 0 1 c 22 15 522 309 bf 23 16 408 324 bf 0 0.733333 1
 c 22 16 454 324 bf 1 0.186667 0 c 23 16 476 324 bf 0 0.733333 1 c 23 16 499 324 bf 0.386667 0 1 c 23 16 544 324 bf 23 15 431 340 bf 0 0.733333 1 c 23 15 476 340 bf 1 0.186667 0 c 23 15 499 340 bf 0 0.733333 1 c 22 15 522 340 bf 0.386667 0 1 c 23 15
 567 340 bf 22 16 454 355 bf 0 0.733333 1 c 23 16 499 355 bf 1 0.653333 0 c 22 16 522 355 bf 0 0.546666 1 c 23 16 544 355 bf 0.386667 0 1 c 22 16 590 355 bf 23 15 476 371 bf 0 0.546666 1 c 22 15 522 371 bf 1 0.653333 0 c 23 15 544 371 bf 0 0.546666 1
 c 23 15 567 371 bf 0.386667 0 1 c 23 15 612 371 bf 23 16 499 386 bf 0 0.546666 1 c 23 16 544 386 bf 1 0.933333 0 c 23 16 567 386 bf 0 0.546666 1 c 22 16 590 386 bf 0.386667 0 1 c 23 16 635 386 bf 22 15 522 402 bf 0 0.546666 1 c 23 15 567 402 bf 0.88
 1 0 c 22 15 590 402 bf 0 0.266667 1 c 23 15 612 402 bf 0.386667 0 1 c 22 15 658 402 bf 23 15 544 417 bf 0 0.266667 1 c 22 15 590 417 bf 0.413333 1 0 c 23 15 612 417 bf 0 0.266667 1 c 23 15 635 417 bf 0.386667 0 1 c 23 15 680 417 bf 23 16 567 432 bf
 0 0.266667 1 c 23 16 612 432 bf 0.133333 1 0 c 23 16 635 432 bf 0 0.266667 1 c 22 16 658 432 bf 0.386667 0 1 c 23 16 703 432 bf 22 15 590 448 bf 0 0.266667 1 c 23 15 635 448 bf 0.133333 1 0 c 22 15 658 448 bf 0 0.266667 1 c 23 15 680 448 bf 0.386667
 0 1 c 22 15 726 448 bf 23 16 612 463 bf 0 0.266667 1 c 22 16 658 463 bf 0 1 0.0533333 c 23 16 680 463 bf 0 0.266667 1 c 23 16 703 463 bf 0.386667 0 1 c 23 16 748 463 bf 23 15 635 479 bf 0 0.266667 1 c 23 15 680 479 bf 0 1 0.0533333 c 23 15 703 479
 bf 0 0.0800001 1 c 22 15 726 479 bf 0.386667 0 1 c 23 15 771 479 bf 22 16 658 494 bf 0 0.0800001 1 c 23 16 703 494 bf 0 1 0.52 c 22 16 726 494 bf 0 0.0800001 1 c 23 16 748 494 bf 0.386667 0 1 c 22 16 794 494 bf 23 15 680 510 bf 0 0.0800001 1 c 22 15
 726 510 bf 0 1 0.52 c 23 15 748 510 bf 0 0.0800001 1 c 23 15 771 510 bf 0.386667 0 1 c 23 15 816 510 bf 23 16 703 525 bf 0 0.0800001 1 c 23 16 748 525 bf 0 1 0.52 c 23 16 771 525 bf 0 0.0800001 1 c 22 16 794 525 bf 0.386667 0 1 c 23 16 839 525 bf 22
 15 726 541 bf 0 0.0800001 1 c 23 15 771 541 bf 0 1 0.52 c 22 15 794 541 bf 0 0.0800001 1 c 23 15 816 541 bf 0.386667 0 1 c 22 15 862 541 bf 23 15 748 556 bf 0 0.0800001 1 c 22 15 794 556 bf 0 1 0.8 c 23 15 816 556 bf 0 0.0800001 1 c 23 15 839 556 bf
 0.386667 0 1 c 23 15 884 556 bf 23 16 771 571 bf 0 0.0800001 1 c 23 16 816 571 bf 0 0.733333 1 c 23 16 839 571 bf 0 0.0800001 1 c 22 16 862 571 bf 0.386667 0 1 c 23 16 907 571 bf 22 15 794 587 bf 0 0.0800001 1 c 23 15 839 587 bf 0 1 0.986667 c 22 15
 862 587 bf 0.2 0 1 c 23 15 884 587 bf 0.386667 0 1 c 22 15 930 587 bf 23 16 816 602 bf 0.2 0 1 c 22 16 862 602 bf 0 1 0.986667 c 23 16 884 602 bf 0.2 0 1 c 23 16 907 602 bf 0.386667 0 1 c 23 16 952 602 bf 23 15 839 618 bf 0.2 0 1 c 23 15 884 618 bf
 0 1 0.986667 c 23 15 907 618 bf 0.2 0 1 c 22 15 930 618 bf 0.386667 0 1 c 23 15 975 618 bf 22 16 862 633 bf 0.2 0 1 c 23 16 907 633 bf 0 0.546666 1 c 22 16 930 633 bf 0.2 0 1 c 23 16 952 633 bf 0.386667 0 1 c 22 16 998 633 bf 23 15 884 649 bf 0.2 0
 1 c 22 15 930 649 bf 0 0.733333 1 c 23 15 952 649 bf 0.2 0 1 c 23 15 975 649 bf 0.386667 0 1 c 23 15 1020 649 bf 23 16 907 664 bf 0.2 0 1 c 23 16 952 664 bf 0 0.546666 1 c 23 16 975 664 bf 0.2 0 1 c 22 16 998 664 bf 0.386667 0 1 c 23 16 1043 664 bf
 22 15 930 680 bf 0.2 0 1 c 23 15 975 680 bf 0 0.546666 1 c 22 15 998 680 bf 0.2 0 1 c 23 15 1020 680 bf 0.386667 0 1 c 23 15 1066 680 bf 23 15 952 695 bf 0.2 0 1 c 22 15 998 695 bf 0 0.546666 1 c 23 15 1020 695 bf 0.2 0 1 c 23 15 1043 695 bf
 0.386667 0 1 c 22 15 1089 695 bf 23 16 975 710 bf 0.2 0 1 c 23 16 1020 710 bf 0 0.266667 1 c 23 16 1043 710 bf 0.386667 0 1 c 23 16 1066 710 bf 23 16 1111 710 bf 22 15 998 726 bf 23 15 1043 726 bf 0 0.546666 1 c 23 15 1066 726 bf 0.386667 0 1 c 22
 15 1089 726 bf 23 15 1134 726 bf 23 16 1020 741 bf 23 16 1066 741 bf 0 0.266667 1 c 22 16 1089 741 bf 0.386667 0 1 c 23 16 1111 741 bf 22 16 1157 741 bf 23 15 1043 757 bf 22 15 1089 757 bf 0 0.0800001 1 c 23 15 1111 757 bf 0.2 0 1 c 23 15 1134 757
 bf 0.386667 0 1 c 23 15 1179 757 bf 23 16 1066 772 bf 0.2 0 1 c 23 16 1111 772 bf 23 16 1134 772 bf 0.386667 0 1 c 22 16 1157 772 bf 23 16 1202 772 bf 22 15 1089 788 bf 23 15 1134 788 bf 0 0.546666 1 c 22 15 1157 788 bf 0.386667 0 1 c 23 15 1179 788
 bf 22 15 1225 788 bf 23 16 1111 803 bf 22 16 1157 803 bf 0 0.0800001 1 c 23 16 1179 803 bf 0.386667 0 1 c 23 16 1202 803 bf 23 16 1247 803 bf 23 15 1134 819 bf 23 15 1179 819 bf 0 0.0800001 1 c 23 15 1202 819 bf 0.386667 0 1 c 22 15 1225 819 bf 23
 15 1270 819 bf 22 15 1157 834 bf 23 15 1202 834 bf 0 0.0800001 1 c 22 15 1225 834 bf 0.386667 0 1 c 23 15 1247 834 bf 22 15 1293 834 bf 23 16 1179 849 bf 22 16 1225 849 bf 0.2 0 1 c 23 16 1247 849 bf 0.386667 0 1 c 23 16 1270 849 bf 23 16 1315 849
 bf 23 15 1202 865 bf 23 15 1247 865 bf 0 0.0800001 1 c 23 15 1270 865 bf 0.386667 0 1 c 22 15 1293 865 bf 23 15 1338 865 bf 22 16 1225 880 bf 23 16 1270 880 bf 0.2 0 1 c 22 16 1293 880 bf 0.386667 0 1 c 23 16 1315 880 bf 22 16 1361 880 bf 23 15 1247
 896 bf 22 15 1293 896 bf 0.2 0 1 c 23 15 1315 896 bf 0.386667 0 1 c 23 15 1338 896 bf 23 15 1383 896 bf 23 16 1270 911 bf 23 16 1315 911 bf 0.2 0 1 c 23 16 1338 911 bf 0.386667 0 1 c 22 16 1361 911 bf 22 15 1293 927 bf 23 15 1338 927 bf 22 15 1361
 927 bf 23 15 1383 927 bf 23 16 1315 942 bf 22 16 1361 942 bf 0 0.0800001 1 c 23 16 1383 942 bf 0.386667 0 1 c 23 15 1406 958 bf 22 15 1429 958 bf 23 15 1474 958 bf 23 15 1406 973 bf 0.2 0 1 c 22 15 1429 973 bf 0.386667 0 1 c 23 15 1451 973 bf 22 16
 1429 988 bf 0.2 0 1 c 23 16 1451 988 bf 0.386667 0 1 c 23 16 1474 988 bf 23 15 1406 1004 bf 23 15 1451 1004 bf 23 15 1474 1004 bf 0.2 0 1 c 22 16 1497 1019 bf 0.386667 0 1 c 23 16 1519 1019 bf 22 16 1565 1019 bf 22 15 1497 1035 bf 23 15 1519 1035 bf
 23 15 1542 1035 bf 23 16 1519 1050 bf 23 16 1542 1050 bf 22 16 1565 1050 bf 22 15 1497 1066 bf 23 15 1542 1066 bf 22 15 1565 1066 bf 23 16 1587 1081 bf 22 15 1633 1112 bf 23 16 1655 1127 bf 22 16 1701 1158 bf 23 15 1723 1174 bf 23 15 1746 1174 bf 23
 16 1723 1189 bf 23 16 1746 1189 bf 22 16 1769 1189 bf 23 15 1746 1205 bf 22 15 1769 1205 bf 23 15 1837 1251 bf 1 1 1 c black 227 154 m 1814 X s 227 192 m -38 Y s 272 173 m -19 Y s 317 173 m -19 Y s 363 173 m -19 Y s 408 173 m -19 Y s 454 192 m -38 Y
 s 499 173 m -19 Y s 544 173 m -19 Y s 590 173 m -19 Y s 635 173 m -19 Y s 680 192 m -38 Y s 726 173 m -19 Y s 771 173 m -19 Y s 816 173 m -19 Y s 862 173 m -19 Y s 907 192 m -38 Y s 952 173 m -19 Y s 998 173 m -19 Y s 1043 173 m -19 Y s 1089 173 m
 -19 Y s 1134 192 m -38 Y s 1179 173 m -19 Y s 1225 173 m -19 Y s 1270 173 m -19 Y s 1315 173 m -19 Y s 1361 192 m -38 Y s 1406 173 m -19 Y s 1451 173 m -19 Y s 1497 173 m -19 Y s 1542 173 m -19 Y s 1587 192 m -38 Y s 1633 173 m -19 Y s 1678 173 m
 -19 Y s 1723 173 m -19 Y s 1769 173 m -19 Y s 1814 192 m -38 Y s 1860 173 m -19 Y s 1905 173 m -19 Y s 1950 173 m -19 Y s 1996 173 m -19 Y s 2041 192 m -38 Y s
 gsave  2268 1544 0 0 C 211.784 104.263 t 0 r /Helvetica findfont 48.8732 sf 0 0 m (0) show NC gr 
 gsave  2268 1544 0 0 C 423.568 104.263 t 0 r /Helvetica findfont 48.8732 sf 0 0 m (10) show NC gr 
 gsave  2268 1544 0 0 C 648.384 104.263 t 0 r /Helvetica findfont 48.8732 sf 0 0 m (20) show NC gr 
 gsave  2268 1544 0 0 C 876.459 104.263 t 0 r /Helvetica findfont 48.8732 sf 0 0 m (30) show NC gr 
 gsave  2268 1544 0 0 C 1104.53 104.263 t 0 r /Helvetica findfont 48.8732 sf 0 0 m (40) show NC gr 
 gsave  2268 1544 0 0 C 1329.35 104.263 t 0 r /Helvetica findfont 48.8732 sf 0 0 m (50) show NC gr 
 gsave  2268 1544 0 0 C 1557.43 104.263 t 0 r /Helvetica findfont 48.8732 sf 0 0 m (60) show NC gr 
 gsave  2268 1544 0 0 C 1782.24 104.263 t 0 r /Helvetica findfont 48.8732 sf 0 0 m (70) show NC gr 
 gsave  2268 1544 0 0 C 2010.32 104.263 t 0 r /Helvetica findfont 48.8732 sf 0 0 m (80) show NC gr  227 154 m 1236 Y s 281 154 m -54 X s 254 185 m -27 X s 254 216 m -27 X s 254 247 m -27 X s 254 278 m -27 X s 281 309 m -54 X s 254 340 m -27 X s 254
 371 m -27 X s 254 402 m -27 X s 254 432 m -27 X s 281 463 m -54 X s 254 494 m -27 X s 254 525 m -27 X s 254 556 m -27 X s 254 587 m -27 X s 281 618 m -54 X s 254 649 m -27 X s 254 680 m -27 X s 254 710 m -27 X s 254 741 m -27 X s 281 772 m -54 X s
 254 803 m -27 X s 254 834 m -27 X s 254 865 m -27 X s 254 896 m -27 X s 281 927 m -54 X s 254 958 m -27 X s 254 988 m -27 X s 254 1019 m -27 X s 254 1050 m -27 X s 281 1081 m -54 X s 254 1112 m -27 X s 254 1143 m -27 X s 254 1174 m -27 X s 254 1205
 m -27 X s 281 1236 m -54 X s 254 1266 m -27 X s 254 1297 m -27 X s 254 1328 m -27 X s 254 1359 m -27 X s 281 1390 m -54 X s
 gsave  2268 1544 0 0 C 188.976 136.845 t 0 r /Helvetica findfont 48.8732 sf 0 0 m (0) show NC gr 
 gsave  2268 1544 0 0 C 159.652 289.981 t 0 r /Helvetica findfont 48.8732 sf 0 0 m (10) show NC gr 
 gsave  2268 1544 0 0 C 159.652 446.375 t 0 r /Helvetica findfont 48.8732 sf 0 0 m (20) show NC gr 
 gsave  2268 1544 0 0 C 159.652 599.511 t 0 r /Helvetica findfont 48.8732 sf 0 0 m (30) show NC gr 
 gsave  2268 1544 0 0 C 159.652 752.647 t 0 r /Helvetica findfont 48.8732 sf 0 0 m (40) show NC gr 
 gsave  2268 1544 0 0 C 159.652 909.042 t 0 r /Helvetica findfont 48.8732 sf 0 0 m (50) show NC gr 
 gsave  2268 1544 0 0 C 159.652 1062.18 t 0 r /Helvetica findfont 48.8732 sf 0 0 m (60) show NC gr 
 gsave  2268 1544 0 0 C 159.652 1218.57 t 0 r /Helvetica findfont 48.8732 sf 0 0 m (70) show NC gr 
 gsave  2268 1544 0 0 C 159.652 1371.71 t 0 r /Helvetica findfont 48.8732 sf 0 0 m (80) show NC gr  0.386667 0 1 c 102 62 2052 154 bf 0.2 0 1 c 102 62 2052 216 bf 0 0.0800001 1 c 102 62 2052 278 bf 0 0.266667 1 c 102 62 2052 340 bf 0 0.546666 1 c 102
 61 2052 402 bf 0 0.733333 1 c 102 62 2052 463 bf 0 1 0.986667 c 102 62 2052 525 bf 0 1 0.8 c 102 62 2052 587 bf 0 1 0.52 c 102 61 2052 649 bf 0 1 0.333333 c 102 62 2052 710 bf 0 1 0.0533333 c 102 62 2052 772 bf 0.133333 1 0 c 102 62 2052 834 bf
 0.413333 1 0 c 102 62 2052 896 bf 0.6 1 0 c 102 61 2052 958 bf 0.88 1 0 c 102 62 2052 1019 bf 1 0.933333 0 c 102 62 2052 1081 bf 1 0.653333 0 c 102 62 2052 1143 bf 1 0.466667 0 c 102 61 2052 1205 bf 1 0.186667 0 c 102 62 2052 1266 bf 1 0 0 c 102 62
 2052 1328 bf black 2154 154 m 1236 Y s 2100 359 m 54 X s 2100 564 m 54 X s 2100 769 m 54 X s 2100 974 m 54 X s 2100 1179 m 54 X s 2100 1384 m 54 X s 2100 359 m 54 X s 2100 1384 m 54 X s
 gsave  2268 1544 0 0 C 2163.45 342.112 t 0 r /Helvetica findfont 48.8732 sf 0 0 m (500) show NC gr 
 gsave  2268 1544 0 0 C 2163.45 547.38 t 0 r /Helvetica findfont 48.8732 sf 0 0 m (1000) show NC gr 
 gsave  2268 1544 0 0 C 2163.45 752.647 t 0 r /Helvetica findfont 48.8732 sf 0 0 m (1500) show NC gr 
 gsave  2268 1544 0 0 C 2163.45 957.915 t 0 r /Helvetica findfont 48.8732 sf 0 0 m (2000) show NC gr 
 gsave  2268 1544 0 0 C 2163.45 1159.92 t 0 r /Helvetica findfont 48.8732 sf 0 0 m (2500) show NC gr 
 gsave  2268 1544 0 0 C 2163.45 1365.19 t 0 r /Helvetica findfont 48.8732 sf 0 0 m (3000) show NC gr  1 0 0 c black 1 0 0 c
 gsave  2268 1544 0 0 C 338.854 1313.06 t 0 r /Helvetica-Bold findfont 58.6478 sf 0 0 m (Unfolded correlation matrix) show NC gr 
 gr  gr showpage
end
%%EOF
