\relax 
\citation{HBT}
\citation{GGLP}
\citation{ALEPH}
\citation{DELPHI}
\citation{L3}
\citation{OPAL}
\citation{ALICEpp}
\citation{CMSpp}
\citation{ATLASpp}
\citation{CMSpA}
\citation{CMSpA}
\citation{ALICEPbPb}
\citation{ALEPH}
\citation{DELPHI}
\citation{L3}
\citation{OPAL}
\citation{ALICEpp}
\citation{CMSpp}
\citation{ATLASpp}
\citation{CMSpA}
\citation{ALICEPbPb}
\citation{Alexander}
\citation{BialasZalewski}
\citation{BialasZalewski}
\citation{ALICEPbPb}
\@writefile{toc}{\contentsline {section}{\numberline {1}Introduction}{1}}
\newlabel{sec:Introduction}{{1}{1}}
\newlabel{eqt:CorrFunctDef}{{1}{1}}
\@writefile{toc}{\contentsline {section}{\numberline {2}Correlation function}{1}}
\newlabel{sec:CorrFunc}{{2}{1}}
\newlabel{cf_2}{{2}{1}}
\citation{Levy}
\citation{GGLP}
\newlabel{eqt:CorrFunctLevy}{{3}{2}}
\newlabel{eqt:CorrFunctExp}{{4}{2}}
\newlabel{eqt:CorrFunctGoldhaber}{{5}{2}}
\newlabel{eqt:Q_pt_y_phi}{{6}{2}}
\citation{Haywood}
\citation{TPC}
\@writefile{toc}{\contentsline {section}{\numberline {3}Construction of the reference samples}{3}}
\newlabel{sec:RefSamples}{{3}{3}}
\@writefile{lof}{\contentsline {figure}{\numberline {1}{\ignorespaces }}{4}}
\newlabel{fig:NchBins}{{1}{4}}
\citation{Pythia}
\citation{Perugia0}
\citation{Herwig}
\@writefile{toc}{\contentsline {section}{\numberline {4}Double ratio}{5}}
\newlabel{sec:DR}{{4}{5}}
\newlabel{eqt:DR}{{7}{5}}
\@writefile{toc}{\contentsline {section}{\numberline {5}Event selection}{5}}
\newlabel{sec:EvtSelection}{{5}{5}}
\@writefile{toc}{\contentsline {subsection}{\numberline {5.1}Data and Monte Carlo samples}{5}}
\newlabel{sec:Samples}{{5.1}{5}}
\@writefile{toc}{\contentsline {subsection}{\numberline {5.2}Preselection}{6}}
\newlabel{sec:Preselection}{{5.2}{6}}
\@writefile{lot}{\contentsline {table}{\numberline {1}{\ignorespaces Requirements on the tracks to form a pair of pions. The particle identification probability {\it  ProbNN} is a MC-trained neural network output that quantifies the probability for the particle to be of a certain kind.}}{6}}
\newlabel{tab:Preselection}{{1}{6}}
\@writefile{lof}{\contentsline {figure}{\numberline {2}{\ignorespaces }}{7}}
\newlabel{fig:TrkChi2IP}{{2}{7}}
\@writefile{lof}{\contentsline {figure}{\numberline {3}{\ignorespaces }}{7}}
\newlabel{fig:TrkPPt}{{3}{7}}
\@writefile{lof}{\contentsline {figure}{\numberline {4}{\ignorespaces }}{8}}
\newlabel{fig:PiNNkNN}{{4}{8}}
\@writefile{lof}{\contentsline {figure}{\numberline {5}{\ignorespaces }}{8}}
\newlabel{fig:PNNghostNN}{{5}{8}}
\citation{PIDCalib}
\@writefile{lof}{\contentsline {figure}{\numberline {6}{\ignorespaces }}{9}}
\newlabel{fig:PhiIPCorr}{{6}{9}}
\@writefile{toc}{\contentsline {section}{\numberline {6}Selection}{9}}
\newlabel{sec:Selection}{{6}{9}}
\@writefile{toc}{\contentsline {subsection}{\numberline {6.1}Resampling of particle identification for simulated sample}{9}}
\newlabel{sec:PIDCalibration}{{6.1}{9}}
\@writefile{toc}{\contentsline {subsubsection}{\numberline {6.1.1}Optimization of pion identification}{10}}
\newlabel{sec:OptimizationProbNNpi}{{6.1.1}{10}}
\@writefile{lot}{\contentsline {table}{\numberline {2}{\ignorespaces Fractions of different particle species in the true pion sample for various cuts on $ProbNNpi$ variable in the bin of VELO track multiplicity per $pp$ collision $N_{ch} < 10$. Statistical uncertainties are not quoted since they are negligible. This study is performed for MC data sample.}}{11}}
\newlabel{tab:Purity1}{{2}{11}}
\@writefile{lot}{\contentsline {table}{\numberline {3}{\ignorespaces Fractions of different particle species in the true pion sample for various cuts on $ProbNNpi$ variable in the bin of VELO track multiplicity per $pp$ collision $N_{ch} \in (11-20)$. Statistical uncertainties are not quoted since they are negligible. This study is performed for MC data sample.}}{11}}
\newlabel{tab:Purity2}{{3}{11}}
\@writefile{lot}{\contentsline {table}{\numberline {4}{\ignorespaces Fractions of different particle species in the true pion sample for various cuts on $ProbNNpi$ variable in the bin of VELO track multiplicity per $pp$ collision $N_{ch} \in (21-60)$. Statistical uncertainties are not quoted since they are negligible. This study is performed for MC data sample.}}{11}}
\newlabel{tab:Purity3}{{4}{11}}
\@writefile{lot}{\contentsline {table}{\numberline {5}{\ignorespaces  The efficiency of the requirement on the $probNNpi$ for a single pion for various cuts on $ProbNNpi$ variable in the bin of VELO track multiplicity per $pp$ collision $N_{ch} < 10$. Statistical uncertainties are not quoted since they are negligible. This study is performed for MC data sample.}}{12}}
\newlabel{tab:EffPi1}{{5}{12}}
\@writefile{lot}{\contentsline {table}{\numberline {6}{\ignorespaces  The efficiency of the requirement on the $probNNpi$ for a single pion for various cuts on $ProbNNpi$ variable in the bin of VELO track multiplicity per $pp$ collision $N_{ch} \in (11-20)$. Statistical uncertainties are not quoted since they are negligible. This study is performed for MC data sample.}}{12}}
\newlabel{tab:EffPi2}{{6}{12}}
\@writefile{lot}{\contentsline {table}{\numberline {7}{\ignorespaces  The efficiency of the requirement on the $probNNpi$ for a single pion for various cuts on $ProbNNpi$ variable in the bin of VELO track multiplicity per $pp$ collision $N_{ch} \in (21-60)$. Statistical uncertainties are not quoted since they are negligible. This study is performed for MC data sample.}}{12}}
\newlabel{tab:EffPi3}{{7}{12}}
\@writefile{lot}{\contentsline {table}{\numberline {8}{\ignorespaces Fractions of pion, kaon and proton like-sign pairs in the true pion sample in the BEC signal region of $Q < 1.0$\nobreakspace  {}GeV, compared with the pairs of different types (e.g. pion-kaon) for various cuts on $ProbNNpi$ variable in the bin of VELO track multiplicity per $pp$ collision $N_{ch} < 10$. Statistical uncertainties are not quoted since they are negligible. This study is performed for MC data sample.}}{13}}
\newlabel{tab:PurityPairs1}{{8}{13}}
\@writefile{lot}{\contentsline {table}{\numberline {9}{\ignorespaces Fractions of pion, kaon and proton like-sign pairs in the true pion sample in the BEC signal region of $Q < 1.0$\nobreakspace  {}GeV, compared with the pairs of different types (e.g. pion-kaon) for various cuts on $ProbNNpi$ variable in the bin of VELO track multiplicity per $pp$ collision $N_{ch} \in (11-20)$. Statistical uncertainties are not quoted since they are negligible. This study is performed for MC data sample.}}{13}}
\newlabel{tab:PurityPairs2}{{9}{13}}
\@writefile{lot}{\contentsline {table}{\numberline {10}{\ignorespaces Fractions of pion, kaon and proton like-sign pairs in the true pion sample in the BEC signal region of $Q < 1.0$\nobreakspace  {}GeV, compared with the pairs of different types (e.g. pion-kaon) for various cuts on $ProbNNpi$ variable in the bin of VELO track multiplicity per $pp$ collision $N_{ch} \in (21-60)$. Statistical uncertainties are not quoted since they are negligible. This study is performed for MC data sample.}}{14}}
\newlabel{tab:PurityPairs3}{{10}{14}}
\@writefile{toc}{\contentsline {subsection}{\numberline {6.2}Optimization of the IP cut}{14}}
\newlabel{sec:PIDCalibration}{{6.2}{14}}
\@writefile{toc}{\contentsline {subsection}{\numberline {6.3}Final selection}{14}}
\newlabel{sec:FinalSelection}{{6.3}{14}}
\@writefile{lot}{\contentsline {table}{\numberline {11}{\ignorespaces Final selection cuts.}}{15}}
\newlabel{tab:FinalSelection}{{11}{15}}
\@writefile{lof}{\contentsline {figure}{\numberline {7}{\ignorespaces }}{16}}
\newlabel{fig:PIDCalib}{{7}{16}}
\@writefile{lof}{\contentsline {figure}{\numberline {8}{\ignorespaces }}{17}}
\newlabel{fig:PurityData}{{8}{17}}
\@writefile{lof}{\contentsline {figure}{\numberline {9}{\ignorespaces }}{18}}
\newlabel{fig:PurityMC}{{9}{18}}
\@writefile{lof}{\contentsline {figure}{\numberline {10}{\ignorespaces }}{19}}
\newlabel{fig:IPOpt}{{10}{19}}
\@writefile{lof}{\contentsline {figure}{\numberline {11}{\ignorespaces }}{20}}
\newlabel{fig:IPMC}{{11}{20}}
\@writefile{lof}{\contentsline {figure}{\numberline {12}{\ignorespaces }}{21}}
\newlabel{fig:IPData}{{12}{21}}
\@writefile{lof}{\contentsline {figure}{\numberline {13}{\ignorespaces }}{22}}
\newlabel{fig:CF_RD_pions}{{13}{22}}
\@writefile{lof}{\contentsline {figure}{\numberline {14}{\ignorespaces }}{23}}
\newlabel{fig:CF_MC_pions}{{14}{23}}
\citation{Needham}
\@writefile{toc}{\contentsline {section}{\numberline {7}Studies of cloned particles}{24}}
\newlabel{sec:Clones}{{7}{24}}
\@writefile{lof}{\contentsline {figure}{\numberline {15}{\ignorespaces }}{25}}
\newlabel{fig:tpx}{{15}{25}}
\@writefile{lof}{\contentsline {figure}{\numberline {16}{\ignorespaces }}{26}}
\newlabel{fig:tpy}{{16}{26}}
\@writefile{lof}{\contentsline {figure}{\numberline {17}{\ignorespaces }}{27}}
\newlabel{fig:tpx51}{{17}{27}}
\@writefile{lof}{\contentsline {figure}{\numberline {18}{\ignorespaces }}{28}}
\newlabel{fig:tpy51}{{18}{28}}
\@writefile{lof}{\contentsline {figure}{\numberline {19}{\ignorespaces Double ratio for like-sign pion pairs with event-mixed reference sample and the Coulomb effect subtracted (see Sect.\nobreakspace  {}8\hbox {}) for IP\nobreakspace  {}$< 0.40$\nobreakspace  {}mm in three different bins of VELO track multiplicity per $pp$ collision: (top left) $<$ 10, (top right) 11-20, (bottom) 21-60. Blue figures indicate the double ratio without any additional assumptions, while the red ones represent the double ratio constructed removing the particle pairs where both particles have $80^{\qopname  \relax o{deg}} < \phi < 100 ^{deg}$ or $260^{\qopname  \relax o{deg}} < \phi < 280^{deg}$.}}{29}}
\newlabel{fig:VELO_overlap}{{19}{29}}
\@writefile{toc}{\contentsline {section}{\numberline {8}Coulomb effect}{29}}
\newlabel{sec:Coulomb}{{8}{29}}
\citation{Coulomb}
\@writefile{toc}{\contentsline {subsection}{\numberline {8.1}Description of the Coulomb correction}{30}}
\newlabel{eqt:RhoEff}{{8}{30}}
\newlabel{eqt:GamovFactor}{{9}{30}}
\@writefile{lof}{\contentsline {figure}{\numberline {20}{\ignorespaces }}{31}}
\newlabel{fig:DR_pions}{{20}{31}}
\@writefile{lof}{\contentsline {figure}{\numberline {21}{\ignorespaces }}{32}}
\newlabel{fig:DR_pions_U}{{21}{32}}
\@writefile{lof}{\contentsline {figure}{\numberline {22}{\ignorespaces }}{33}}
\newlabel{fig:DR_like_pions_noCoulomb}{{22}{33}}
\@writefile{lof}{\contentsline {figure}{\numberline {23}{\ignorespaces }}{34}}
\newlabel{fig:DR_unlike_pions_noCoulomb}{{23}{34}}
\@writefile{toc}{\contentsline {section}{\numberline {9}Determination of the correlation radii}{34}}
\newlabel{sec:CorrelationRarius}{{9}{34}}
\citation{Bayes}
\citation{RooUnfold}
\citation{ChMult}
\@writefile{lot}{\contentsline {table}{\numberline {12}{\ignorespaces Results of fits to the double ratio $DR(Q)$ for like-sign $\pi \pi $ pairs with the event-mixed reference sample in three different bins of VELO track multiplicity per $pp$ collision $N_{ch}$ and corresponding activity classes, using parametrization\nobreakspace  {}(4\hbox {}). Only absolute values of statistical errors are listed.}}{35}}
\newlabel{tab:Fits_DR_pions_abs}{{12}{35}}
\@writefile{lot}{\contentsline {table}{\numberline {13}{\ignorespaces Results of fits to the double ratio $DR(Q)$ for like-sign $\pi \pi $ pairs with the event-mixed reference sample in three different bins of VELO track multiplicity per $pp$ collision $N_{ch}$ and corresponding activity classes, using parametrization\nobreakspace  {}(4\hbox {}). Only fractional statistical errors are listed.}}{35}}
\newlabel{tab:Fits_DR_pions}{{13}{35}}
\@writefile{lot}{\contentsline {table}{\numberline {14}{\ignorespaces The correlation matrix for the fit parameters $N$, $\lambda $, $R$ and $\delta $ in the bin of VELO track multiplicity (11-21).}}{35}}
\newlabel{tab:corrMatrix}{{14}{35}}
\@writefile{toc}{\contentsline {subsection}{\numberline {9.1}Unfolding of $N_{ch}$}{35}}
\newlabel{sec:Unfolding}{{9.1}{35}}
\@writefile{lot}{\contentsline {table}{\numberline {15}{\ignorespaces The relation between folded and unfolded bin ranges.}}{36}}
\newlabel{tab:Unfolding}{{15}{36}}
\@writefile{lof}{\contentsline {figure}{\numberline {24}{\ignorespaces Results of the fit to the double ratio for like-sign pion pairs with event-mixed reference sample and the Coulomb effect subtracted in three different bins of VELO track multiplicity per $pp$ collision: (top left) $<$ 10, (top right) 11-20, (bottom) 21-60. Red solid line denotes the fit result using parametrization described in the text. Corresponding pull distributions are shown on the bottom. R parameter is expressed in GeV$^{-1}$, and it is recalculated to [fm] using factor 0.197 (see Table\nobreakspace  {}13\hbox {}).}}{37}}
\newlabel{fig:Fits_DR_pions}{{24}{37}}
\@writefile{lof}{\contentsline {figure}{\numberline {25}{\ignorespaces (Top) Measured (blue histogram), generated (green histogram) and unfolded (red figures) multiplicity distribution using the unfolding technique described in the text. (Bottom) Unfolded covariance matrix.}}{38}}
\newlabel{fig:Unfold}{{25}{38}}
\citation{Perugia0}
\@writefile{toc}{\contentsline {section}{\numberline {10}Systematic uncertainty}{39}}
\newlabel{sec:Systematics}{{10}{39}}
\@writefile{toc}{\contentsline {subsection}{\numberline {10.1}Strategy of the treatment of systematic effects}{39}}
\citation{PVNote}
\citation{PVNote}
\citation{Needham}
\@writefile{lot}{\contentsline {table}{\numberline {16}{\ignorespaces The fractions of ghosts after the final selection using MC truth information for three different bins of VELO track multiplicity and for different cuts on $ProbNN(ghost)$.}}{43}}
\newlabel{tab:ghostsFinal}{{16}{43}}
\@writefile{lot}{\contentsline {table}{\numberline {17}{\ignorespaces }}{43}}
\newlabel{tab:SystTable1}{{17}{43}}
\@writefile{lot}{\contentsline {table}{\numberline {18}{\ignorespaces }}{44}}
\newlabel{tab:SystTable2}{{18}{44}}
\@writefile{lot}{\contentsline {table}{\numberline {19}{\ignorespaces }}{44}}
\newlabel{tab:SystTable3}{{19}{44}}
\citation{Koppenburg}
\@writefile{toc}{\contentsline {subsection}{\numberline {10.2}Stability cross checks}{45}}
\newlabel{sec:Stability}{{10.2}{45}}
\@writefile{lof}{\contentsline {figure}{\numberline {26}{\ignorespaces }}{47}}
\newlabel{fig:refRatioDataMC}{{26}{47}}
\@writefile{lof}{\contentsline {figure}{\numberline {27}{\ignorespaces }}{48}}
\newlabel{fig:CF_unlike_DATA}{{27}{48}}
\@writefile{lof}{\contentsline {figure}{\numberline {28}{\ignorespaces }}{49}}
\newlabel{fig:CF_unlike_MC}{{28}{49}}
\@writefile{lof}{\contentsline {figure}{\numberline {29}{\ignorespaces Results of the fit to the double ratio for like-sign pion pairs with the Coulomb effect subtracted using Pythia\nobreakspace  {}6.4 MC simulation with Perugia0 tuning in three different bins of VELO track multiplicity per $pp$ collision: (top left) 2-10, (top right) 11-20, (bottom) 21-60. Red solid line denotes the fit result using parametrization described in the text.}}{50}}
\newlabel{fig:Perugia0}{{29}{50}}
\@writefile{lof}{\contentsline {figure}{\numberline {30}{\ignorespaces }}{51}}
\newlabel{fig:MultPV}{{30}{51}}
\@writefile{lof}{\contentsline {figure}{\numberline {31}{\ignorespaces }}{51}}
\newlabel{fig:EffPVs}{{31}{51}}
\@writefile{lof}{\contentsline {figure}{\numberline {32}{\ignorespaces }}{52}}
\newlabel{fig:MultPartsPV}{{32}{52}}
\@writefile{lof}{\contentsline {figure}{\numberline {33}{\ignorespaces }}{52}}
\newlabel{fig:EffPVsMClose}{{33}{52}}
\@writefile{lof}{\contentsline {figure}{\numberline {34}{\ignorespaces }}{53}}
\newlabel{fig:VeloTracksPerPV}{{34}{53}}
\@writefile{lof}{\contentsline {figure}{\numberline {35}{\ignorespaces Results of the fit to the double ratio for like-sign pion pairs with event-mixed reference sample and the Coulomb effect subtracted in three bins of VELO track multiplicity per $pp$ collision: $<$ 10 (top left), 11-20 (top right), 21-60 (bottom) for the events with 1 (blue), 2 (red) and $\geq $3 (green) PVs.}}{54}}
\newlabel{fig:multPVsDRs}{{35}{54}}
\@writefile{lof}{\contentsline {figure}{\numberline {36}{\ignorespaces }}{55}}
\newlabel{fig:KL}{{36}{55}}
\@writefile{lof}{\contentsline {figure}{\numberline {37}{\ignorespaces }}{56}}
\newlabel{fig:resQ}{{37}{56}}
\@writefile{lof}{\contentsline {figure}{\numberline {38}{\ignorespaces }}{56}}
\newlabel{fig:QQ}{{38}{56}}
\@writefile{lof}{\contentsline {figure}{\numberline {39}{\ignorespaces Double ratio for like-sign pion pairs with event-mixed reference sample and the Coulomb effect subtracted in three different bins of VELO track multiplicity per $pp$ collision: (top left) $<$ 10, (top right) 11-20, (bottom) 21-60, for the case without any modification of the track acceptance in $\eta $ (blue) and with artificially introduced inefficiency of the track acceptance in $\eta $, as described in the text (red).}}{57}}
\newlabel{fig:DR_Acc}{{39}{57}}
\@writefile{lof}{\contentsline {figure}{\numberline {40}{\ignorespaces Double ratio for like-sign pion pairs with event-mixed reference sample and the Coulomb effect subtracted in three bins of VELO track multiplicity per $pp$ collision: $<$ 10 (top left), 11-20 (top right), 21-60 (bottom) for sub-samples corresponding to different data taking periods, before (blue) and after (red) technical stop.}}{58}}
\newlabel{fig:TS}{{40}{58}}
\@writefile{lof}{\contentsline {figure}{\numberline {41}{\ignorespaces }}{59}}
\newlabel{fig:graphTS}{{41}{59}}
\@writefile{lof}{\contentsline {figure}{\numberline {42}{\ignorespaces The distributions of $R$ (upper) and $\lambda $ (bottom) parameters obtained for 1000 MC toys, as described in the text.}}{59}}
\newlabel{fig:toyValues}{{42}{59}}
\@writefile{lof}{\contentsline {figure}{\numberline {43}{\ignorespaces The pull distributions of $R$ (upper) and $\lambda $ (bottom) parameters obtained for 1000 MC toys, as described in the text.}}{60}}
\newlabel{fig:toyPulls}{{43}{60}}
\@writefile{lof}{\contentsline {figure}{\numberline {44}{\ignorespaces Double ratio for like-sign pion pairs with event-mixed reference sample and the Coulomb effect subtracted for IP\nobreakspace  {}$< 0.17$\nobreakspace  {}mm (blue) and IP\nobreakspace  {}$< 0.40$\nobreakspace  {}mm (red) in three different bins of VELO track multiplicity per $pp$ collision: (top left) $<$ 10, (top right) 11-20, (bottom) 21-60.}}{61}}
\newlabel{fig:ip04}{{44}{61}}
\citation{CMSpA}
\@writefile{lof}{\contentsline {figure}{\numberline {45}{\ignorespaces Double ratio for like-sign pion pairs with event-mixed reference sample and the Coulomb effect subtracted in three different bins of VELO track multiplicity per $pp$ collision: (top left) $<$ 10, (top right) 11-20, (bottom) 21-60, for the case without any modification of the double ratio (blue) and for double ratio constructed using MC correlation function where the mixed-pairs have been removed (red), as described in the text.}}{62}}
\newlabel{fig:DR_MixedPairs}{{45}{62}}
\@writefile{toc}{\contentsline {section}{\numberline {11}Results and conclusions}{62}}
\newlabel{sec:Conclusions}{{11}{62}}
\@writefile{lot}{\contentsline {table}{\numberline {20}{\ignorespaces Results of fits to the double ratio $DR(Q)$ for like-sign $\pi \pi $ pairs with the event-mixed reference sample in three different bins of unfolded $N_{ch}^{unfolded}$ and corresponding activity classes, using parametrization\nobreakspace  {}(4\hbox {}). Statistical and systematic uncertainties are subsequently listed.}}{63}}
\newlabel{tab:Final_fits_DR_pions}{{20}{63}}
\@writefile{lof}{\contentsline {figure}{\numberline {46}{\ignorespaces }}{63}}
\newlabel{fig:depR}{{46}{63}}
\@writefile{lof}{\contentsline {figure}{\numberline {47}{\ignorespaces }}{64}}
\newlabel{fig:depL}{{47}{64}}
\@writefile{toc}{\contentsline {section}{\numberline {12}Appendix}{65}}
\newlabel{appendix}{{12}{65}}
\@writefile{toc}{\contentsline {subsection}{\numberline {12.1}A}{65}}
\newlabel{A}{{12.1}{65}}
\@writefile{lof}{\contentsline {figure}{\numberline {48}{\ignorespaces }}{65}}
\newlabel{fig:basic_1}{{48}{65}}
\@writefile{lof}{\contentsline {figure}{\numberline {49}{\ignorespaces }}{65}}
\newlabel{fig:basic_2}{{49}{65}}
\@writefile{lof}{\contentsline {figure}{\numberline {50}{\ignorespaces }}{66}}
\newlabel{fig:basic_3}{{50}{66}}
\@writefile{toc}{\contentsline {subsection}{\numberline {12.2}B}{66}}
\newlabel{B}{{12.2}{66}}
\@writefile{toc}{\contentsline {subsection}{\numberline {12.3}C}{67}}
\newlabel{C}{{12.3}{67}}
\@writefile{lot}{\contentsline {table}{\numberline {21}{\ignorespaces Fraction of like-sign pion pairs containing a ghost before and after the requirement on shared VELO hits in three different bins of VELO track multiplicity per $pp$ collision. The study is performed for MC, where the pions were identified using the $ProbNNpi$ variable.}}{67}}
\newlabel{tab:SharedVeloGhosts}{{21}{67}}
\@writefile{lot}{\contentsline {table}{\numberline {22}{\ignorespaces Fraction of like-sign pion pairs containing a clone before and after the requirement on shared VELO hits in three different bins of VELO track multiplicity per $pp$ collision. The study is performed for MC, where the pions were identified using the $ProbNNpi$ variable.}}{67}}
\newlabel{tab:SharedVeloClones}{{22}{67}}
\@writefile{lof}{\contentsline {figure}{\numberline {51}{\ignorespaces }}{68}}
\newlabel{fig:VeloShared}{{51}{68}}
\@writefile{lof}{\contentsline {figure}{\numberline {52}{\ignorespaces }}{69}}
\newlabel{fig:Ghosts}{{52}{69}}
\@writefile{lof}{\contentsline {figure}{\numberline {53}{\ignorespaces }}{70}}
\newlabel{fig:Clones}{{53}{70}}
\@writefile{toc}{\contentsline {subsection}{\numberline {12.4}D}{70}}
\newlabel{D}{{12.4}{70}}
\@writefile{lot}{\contentsline {table}{\numberline {23}{\ignorespaces The difference of central values for fitted parameters using two MC generators, i.e. PYTHIA8 nad HERWIG++.}}{71}}
\newlabel{tab:FitsHERWIG}{{23}{71}}
\@writefile{lof}{\contentsline {figure}{\numberline {54}{\ignorespaces Results of the fit to the double ratio for like-sign pion pairs with the Coulomb effect subtracted using HERWIG++ MC simulation in three different bins of VELO track multiplicity per $pp$ collision: (top left) 2-10, (top right) 11-20, (bottom) 21-60. Red solid line denotes the fit result using parametrization described in the text.}}{72}}
\newlabel{fig:DRHerwig}{{54}{72}}
\citation{ALICEPbPb}
\@writefile{toc}{\contentsline {subsection}{\numberline {12.5}E}{73}}
\newlabel{E}{{12.5}{73}}
\@writefile{lof}{\contentsline {figure}{\numberline {55}{\ignorespaces Double ratio for like-sign pion pairs with event-mixed reference sample and the Coulomb effect subtracted in the bins of vector sum of particles' transverse momenta: $k_{T} < 1$\nobreakspace  {}GeV (blue) and $k_{T} \in (1-3)$\nobreakspace  {}GeV (red) in three different bins of VELO track multiplicity per $pp$ collision: (top left) $<$ 10, (top right) 11-20, (bottom) 21-60.}}{74}}
\newlabel{fig:ktVector}{{55}{74}}
\@writefile{lof}{\contentsline {figure}{\numberline {56}{\ignorespaces Double ratio for like-sign pion pairs with event-mixed reference sample and the Coulomb effect subtracted in the bins of momentum sum of particles in a pair: $(0-25)$\nobreakspace  {}GeV (blue) and $(25-75)$\nobreakspace  {}GeV (red) in the bin of VELO track multiplicity per $pp$ collision (11-20).}}{75}}
\newlabel{fig:pVector}{{56}{75}}
\@writefile{lof}{\contentsline {figure}{\numberline {57}{\ignorespaces Double ratio for like-sign pion pairs with event-mixed reference sample and the Coulomb effect subtracted in the bins of the pseudorapidity of momentum sum of particles in a pair: $(2-4)$ (blue) and $(4-7)$ (red) in the bin of VELO track multiplicity per $pp$ collision (11-20).}}{75}}
\newlabel{fig:etaVector}{{57}{75}}
\bibcite{HBT}{1}
\bibcite{GGLP}{2}
\bibcite{ALEPH}{3}
\bibcite{DELPHI}{4}
\bibcite{L3}{5}
\bibcite{OPAL}{6}
\bibcite{ALICEpp}{7}
\bibcite{CMSpp}{8}
\bibcite{ATLASpp}{9}
\bibcite{CMSpA}{10}
\bibcite{ALICEPbPb}{11}
\bibcite{Alexander}{12}
\bibcite{BialasZalewski}{13}
\bibcite{Levy}{14}
\bibcite{Haywood}{15}
\bibcite{TPC}{16}
\bibcite{Pythia}{17}
\bibcite{Perugia0}{18}
\bibcite{Herwig}{19}
\bibcite{PhiIPCorr}{20}
\bibcite{PIDCalib}{21}
\bibcite{Coulomb}{22}
\bibcite{Bayes}{23}
\bibcite{RooUnfold}{24}
\bibcite{ChMult}{25}
\bibcite{Needham}{26}
\bibcite{PVNote}{27}
\bibcite{Koppenburg}{28}
